[
	{
		"ID": 1451,
		"unitID": 2501711,
		"questionID": 9501701,
		"script": "# script \"lisp\"\n# background %(wayback_background)s\n# bgmfile \"bgm255\" \"BgmSeaDate\" 0\n# body %(unit_a)s\n# pos %(unit_a)s 3\n# mask %(unit_a)s off\n# chara %(unit_a)s\n# fadein \"black\" 0.5\n# textflame 0 0\n@\n帰り道－\n\n# fadein \"white\" 0.5\n# se \"SE_0735\"\n# bgm \"stop\"\n# waitandnext 2\n@\n…………\n\n# fadein \"white\" 0.5\n# se \"SE_0735\"\n# waitandnext 2\n@\n…………\n\n@\nふと、\n傍らを歩く彼女が足を止めた…\n\n# textflame 1 1\n# bgmfile \"bgm255\" \"BgmSeaDate\" 0\n# voice 5017 \"grimoire_0002\"\n@グリモワール\n今日一日デートしてきたわけだけど… \n\n# face %(unit_a)s \"angry\"\n@グリモワール\nキミってさ…\n\n# voice 5017 \"grimoire_0007\"\n# eye %(unit_a)s \"close\"\n@グリモワール\nワタシのこと、\nどれくらい理解してるわけぇ？\n\n# eye %(unit_a)s \"normal\"\n@グリモワール\n今から、試してあげるから…\n\n# voice 5017 \"grimoire_0005\"\n# face %(unit_a)s \"smile\"\n@グリモワール\n覚悟なさい！\n\n@%(unitName:unit_a)s\n私のキラーズ『グリモワール』って\nどんな意味かわかる？\n\n# se \"SE_0734\"\n# select  \"魔術書\" \"select_label_1\" \"大百科\" \"select_label_2\" \"辞書\" \"select_label_3\"\n私のキラーズ『グリモワール』って\nどんな意味かわかる？\n\n\n# label \"select_label_1\"\n# labeljump \"select_label_end\"\n# textwindow \"close\"\n# waitandnext 0.1\n\n# label \"select_label_2\"\n# labeljump \"select_label_end\"\n# textwindow \"close\"\n# waitandnext 0.1\n\n# label \"select_label_3\"\n# labeljump \"select_label_end\"\n# textwindow \"close\"\n# waitandnext 0.1\n\n# label \"select_label_end\"\n# waitandnext 0.1\n\n# sestop \"SE_0734\"\n# fadeout \"black\" 1.2\n# waitandnext 2"
	},
	{
		"ID": 1452,
		"unitID": 2501711,
		"questionID": 9501702,
		"script": "# script \"lisp\"\n# background %(wayback_background)s\n# bgmfile \"bgm255\" \"BgmSeaDate\" 0\n# body %(unit_a)s\n# pos %(unit_a)s 3\n# mask %(unit_a)s off\n# chara %(unit_a)s\n# fadein \"black\" 0.5\n# textflame 0 0\n@\n帰り道－\n\n# fadein \"white\" 0.5\n# se \"SE_0735\"\n# bgm \"stop\"\n# waitandnext 2\n@\n…………\n\n# fadein \"white\" 0.5\n# se \"SE_0735\"\n# waitandnext 2\n@\n…………\n\n@\nふと、\n傍らを歩く彼女が足を止めた…\n\n# textflame 1 1\n# bgmfile \"bgm255\" \"BgmSeaDate\" 0\n# voice 5017 \"grimoire_0002\"\n@グリモワール\n今日一日デートしてきたわけだけど… \n\n# face %(unit_a)s \"angry\"\n@グリモワール\nキミってさ…\n\n# voice 5017 \"grimoire_0007\"\n# eye %(unit_a)s \"close\"\n@グリモワール\nワタシのこと、\nどれくらい理解してるわけぇ？\n\n# eye %(unit_a)s \"normal\"\n@グリモワール\n今から、試してあげるから…\n\n# voice 5017 \"grimoire_0005\"\n# face %(unit_a)s \"smile\"\n@グリモワール\n覚悟なさい！\n\n@%(unitName:unit_a)s\n私のキラーズ『グリモワール』で\n呼び出せるのって？\n\n# se \"SE_0734\"\n# select  \"タクシー\" \"select_label_1\" \"大悪魔\" \"select_label_2\" \"借金取り\" \"select_label_3\"\n私のキラーズ『グリモワール』で\n呼び出せるのって？\n\n# label \"select_label_1\"\n# labeljump \"select_label_end\"\n# textwindow \"close\"\n# waitandnext 0.1\n\n# label \"select_label_2\"\n# labeljump \"select_label_end\"\n# textwindow \"close\"\n# waitandnext 0.1\n\n# label \"select_label_3\"\n# labeljump \"select_label_end\"\n# textwindow \"close\"\n# waitandnext 0.1\n\n# label \"select_label_end\"\n# waitandnext 0.1\n\n# sestop \"SE_0734\"\n# fadeout \"black\" 1.2\n# waitandnext 2"
	},
	{
		"ID": 1453,
		"unitID": 2501711,
		"questionID": 9501703,
		"script": "# script \"lisp\"\n# background %(wayback_background)s\n# bgmfile \"bgm255\" \"BgmSeaDate\" 0\n# body %(unit_a)s\n# pos %(unit_a)s 3\n# mask %(unit_a)s off\n# chara %(unit_a)s\n# fadein \"black\" 0.5\n# textflame 0 0\n@\n帰り道－\n\n# fadein \"white\" 0.5\n# se \"SE_0735\"\n# bgm \"stop\"\n# waitandnext 2\n@\n…………\n\n# fadein \"white\" 0.5\n# se \"SE_0735\"\n# waitandnext 2\n@\n…………\n\n@\nふと、\n傍らを歩く彼女が足を止めた…\n\n# textflame 1 1\n# bgmfile \"bgm255\" \"BgmSeaDate\" 0\n# voice 5017 \"grimoire_0002\"\n@グリモワール\n今日一日デートしてきたわけだけど… \n\n# face %(unit_a)s \"angry\"\n@グリモワール\nキミってさ…\n\n# voice 5017 \"grimoire_0007\"\n# eye %(unit_a)s \"close\"\n@グリモワール\nワタシのこと、\nどれくらい理解してるわけぇ？\n\n# eye %(unit_a)s \"normal\"\n@グリモワール\n今から、試してあげるから…\n\n# voice 5017 \"grimoire_0005\"\n# face %(unit_a)s \"smile\"\n@グリモワール\n覚悟なさい！\n\n@%(unitName:unit_a)s\n私のキラーズ『グリモワール』は\n何語で魔術書という意味を\n示すかわかる？\n\n# se \"SE_0734\"\n# select  \"英語\" \"select_label_1\" \"日本語\" \"select_label_2\" \"フランス語\" \"select_label_3\"\n私のキラーズ『グリモワール』は\n何語で魔術書という意味を\n示すかわかる？\n\n# label \"select_label_1\"\n# labeljump \"select_label_end\"\n# textwindow \"close\"\n# waitandnext 0.1\n\n# label \"select_label_2\"\n# labeljump \"select_label_end\"\n# textwindow \"close\"\n# waitandnext 0.1\n\n# label \"select_label_3\"\n# labeljump \"select_label_end\"\n# textwindow \"close\"\n# waitandnext 0.1\n\n# label \"select_label_end\"\n# waitandnext 0.1\n\n# sestop \"SE_0734\"\n# fadeout \"black\" 1.2\n# waitandnext 2"
	},
	{
		"ID": 1454,
		"unitID": 2501711,
		"questionID": 9501704,
		"script": "# script \"lisp\"\n# background %(wayback_background)s\n# bgmfile \"bgm255\" \"BgmSeaDate\" 0\n# body %(unit_a)s\n# pos %(unit_a)s 3\n# mask %(unit_a)s off\n# chara %(unit_a)s\n# fadein \"black\" 0.5\n# textflame 0 0\n@\n帰り道－\n\n# fadein \"white\" 0.5\n# se \"SE_0735\"\n# bgm \"stop\"\n# waitandnext 2\n@\n…………\n\n# fadein \"white\" 0.5\n# se \"SE_0735\"\n# waitandnext 2\n@\n…………\n\n@\nふと、\n傍らを歩く彼女が足を止めた…\n\n# textflame 1 1\n# bgmfile \"bgm255\" \"BgmSeaDate\" 0\n# voice 5017 \"grimoire_0002\"\n@グリモワール\n今日一日デートしてきたわけだけど… \n\n# face %(unit_a)s \"angry\"\n@グリモワール\nキミってさ…\n\n# voice 5017 \"grimoire_0007\"\n# eye %(unit_a)s \"close\"\n@グリモワール\nワタシのこと、\nどれくらい理解してるわけぇ？\n\n# eye %(unit_a)s \"normal\"\n@グリモワール\n今から、試してあげるから…\n\n# voice 5017 \"grimoire_0005\"\n# face %(unit_a)s \"smile\"\n@グリモワール\n覚悟なさい！\n\n@%(unitName:unit_a)s\n私のキラーズ『グリモワール』は\nどこで流布された魔術書？\n\n# se \"SE_0734\"\n# select  \"ヨーロッパ\" \"select_label_1\" \"アメリカ\" \"select_label_2\" \"東南アジア\" \"select_label_3\"\n私のキラーズ『グリモワール』は\nどこで流布された魔術書？\n\n# label \"select_label_1\"\n# labeljump \"select_label_end\"\n# textwindow \"close\"\n# waitandnext 0.1\n\n# label \"select_label_2\"\n# labeljump \"select_label_end\"\n# textwindow \"close\"\n# waitandnext 0.1\n\n# label \"select_label_3\"\n# labeljump \"select_label_end\"\n# textwindow \"close\"\n# waitandnext 0.1\n\n# label \"select_label_end\"\n# waitandnext 0.1\n\n# sestop \"SE_0734\"\n# fadeout \"black\" 1.2\n# waitandnext 2"
	},
	{
		"ID": 1455,
		"unitID": 2501711,
		"questionID": 9501705,
		"script": "# script \"lisp\"\n# background %(wayback_background)s\n# bgmfile \"bgm255\" \"BgmSeaDate\" 0\n# body %(unit_a)s\n# pos %(unit_a)s 3\n# mask %(unit_a)s off\n# chara %(unit_a)s\n# fadein \"black\" 0.5\n# textflame 0 0\n@\n帰り道－\n\n# fadein \"white\" 0.5\n# se \"SE_0735\"\n# bgm \"stop\"\n# waitandnext 2\n@\n…………\n\n# fadein \"white\" 0.5\n# se \"SE_0735\"\n# waitandnext 2\n@\n…………\n\n@\nふと、\n傍らを歩く彼女が足を止めた…\n\n# textflame 1 1\n# bgmfile \"bgm255\" \"BgmSeaDate\" 0\n# voice 5017 \"grimoire_0002\"\n@グリモワール\n今日一日デートしてきたわけだけど… \n\n# face %(unit_a)s \"angry\"\n@グリモワール\nキミってさ…\n\n# voice 5017 \"grimoire_0007\"\n# eye %(unit_a)s \"close\"\n@グリモワール\nワタシのこと、\nどれくらい理解してるわけぇ？\n\n# eye %(unit_a)s \"normal\"\n@グリモワール\n今から、試してあげるから…\n\n# voice 5017 \"grimoire_0005\"\n# face %(unit_a)s \"smile\"\n@グリモワール\n覚悟なさい！\n\n@%(unitName:unit_a)s\n私のキラーズ『グリモワール』の\n一種のタイトルは次のうちどれ？ \n\n# se \"SE_0734\"\n# select  \"ソロバンの鍵\" \"select_label_1\" \"ソロモンの鍵\" \"select_label_2\" \"セロハンの鍵\" \"select_label_3\"\n私のキラーズ『グリモワール』の\n一種のタイトルは次のうちどれ？ \n\n# label \"select_label_1\"\n# labeljump \"select_label_end\"\n# textwindow \"close\"\n# waitandnext 0.1\n\n# label \"select_label_2\"\n# labeljump \"select_label_end\"\n# textwindow \"close\"\n# waitandnext 0.1\n\n# label \"select_label_3\"\n# labeljump \"select_label_end\"\n# textwindow \"close\"\n# waitandnext 0.1\n\n# label \"select_label_end\"\n# waitandnext 0.1\n\n# sestop \"SE_0734\"\n# fadeout \"black\" 1.2\n# waitandnext 2"
	},
	{
		"ID": 1456,
		"unitID": 2501711,
		"questionID": 9501706,
		"script": "# script \"lisp\"\n# background %(wayback_background)s\n# bgmfile \"bgm255\" \"BgmSeaDate\" 0\n# body %(unit_a)s\n# pos %(unit_a)s 3\n# mask %(unit_a)s off\n# chara %(unit_a)s\n# fadein \"black\" 0.5\n# textflame 0 0\n@\n帰り道－\n\n# fadein \"white\" 0.5\n# se \"SE_0735\"\n# bgm \"stop\"\n# waitandnext 2\n@\n…………\n\n# fadein \"white\" 0.5\n# se \"SE_0735\"\n# waitandnext 2\n@\n…………\n\n@\nふと、\n傍らを歩く彼女が足を止めた…\n\n# textflame 1 1\n# bgmfile \"bgm255\" \"BgmSeaDate\" 0\n# voice 5017 \"grimoire_0002\"\n@グリモワール\n今日一日デートしてきたわけだけど… \n\n# face %(unit_a)s \"angry\"\n@グリモワール\nキミってさ…\n\n# voice 5017 \"grimoire_0007\"\n# eye %(unit_a)s \"close\"\n@グリモワール\nワタシのこと、\nどれくらい理解してるわけぇ？\n\n# eye %(unit_a)s \"normal\"\n@グリモワール\n今から、試してあげるから…\n\n# voice 5017 \"grimoire_0005\"\n# face %(unit_a)s \"smile\"\n@グリモワール\n覚悟なさい！\n\n@%(unitName:unit_a)s\n私のキラーズ『グリモワール』の\n一種のタイトルは次のうちどれ？ \n\n# se \"SE_0734\"\n# select  \"セロハンの小さな鍵\" \"select_label_1\" \"ソロバンの小さな鍵\" \"select_label_2\" \"ソロモンの小さな鍵\" \"select_label_3\"\n私のキラーズ『グリモワール』の\n一種のタイトルは次のうちどれ？ \n\n# label \"select_label_1\"\n# labeljump \"select_label_end\"\n# textwindow \"close\"\n# waitandnext 0.1\n\n# label \"select_label_2\"\n# labeljump \"select_label_end\"\n# textwindow \"close\"\n# waitandnext 0.1\n\n# label \"select_label_3\"\n# labeljump \"select_label_end\"\n# textwindow \"close\"\n# waitandnext 0.1\n\n# label \"select_label_end\"\n# waitandnext 0.1\n\n# sestop \"SE_0734\"\n# fadeout \"black\" 1.2\n# waitandnext 2"
	},
	{
		"ID": 1457,
		"unitID": 2501711,
		"questionID": 9501707,
		"script": "# script \"lisp\"\n# background %(wayback_background)s\n# bgmfile \"bgm255\" \"BgmSeaDate\" 0\n# body %(unit_a)s\n# pos %(unit_a)s 3\n# mask %(unit_a)s off\n# chara %(unit_a)s\n# fadein \"black\" 0.5\n# textflame 0 0\n@\n帰り道－\n\n# fadein \"white\" 0.5\n# se \"SE_0735\"\n# bgm \"stop\"\n# waitandnext 2\n@\n…………\n\n# fadein \"white\" 0.5\n# se \"SE_0735\"\n# waitandnext 2\n@\n…………\n\n@\nふと、\n傍らを歩く彼女が足を止めた…\n\n# textflame 1 1\n# bgmfile \"bgm255\" \"BgmSeaDate\" 0\n# voice 5017 \"grimoire_0002\"\n@グリモワール\n今日一日デートしてきたわけだけど… \n\n# face %(unit_a)s \"angry\"\n@グリモワール\nキミってさ…\n\n# voice 5017 \"grimoire_0007\"\n# eye %(unit_a)s \"close\"\n@グリモワール\nワタシのこと、\nどれくらい理解してるわけぇ？\n\n# eye %(unit_a)s \"normal\"\n@グリモワール\n今から、試してあげるから…\n\n# voice 5017 \"grimoire_0005\"\n# face %(unit_a)s \"smile\"\n@グリモワール\n覚悟なさい！\n\n@%(unitName:unit_a)s\n私のキラーズ『グリモワール』の\n一種のタイトルは次のうちどれ？\n\n# se \"SE_0734\"\n# select  \"黒い雌鳥\" \"select_label_1\" \"白い雌鳥\" \"select_label_2\" \"赤い雌鳥\" \"select_label_3\"\n私のキラーズ『グリモワール』の\n一種のタイトルは次のうちどれ？\n\n# label \"select_label_1\"\n# labeljump \"select_label_end\"\n# textwindow \"close\"\n# waitandnext 0.1\n\n# label \"select_label_2\"\n# labeljump \"select_label_end\"\n# textwindow \"close\"\n# waitandnext 0.1\n\n# label \"select_label_3\"\n# labeljump \"select_label_end\"\n# textwindow \"close\"\n# waitandnext 0.1\n\n# label \"select_label_end\"\n# waitandnext 0.1\n\n# sestop \"SE_0734\"\n# fadeout \"black\" 1.2\n# waitandnext 2"
	},
	{
		"ID": 1458,
		"unitID": 2501711,
		"questionID": 9501708,
		"script": "# script \"lisp\"\n# background %(wayback_background)s\n# bgmfile \"bgm255\" \"BgmSeaDate\" 0\n# body %(unit_a)s\n# pos %(unit_a)s 3\n# mask %(unit_a)s off\n# chara %(unit_a)s\n# fadein \"black\" 0.5\n# textflame 0 0\n@\n帰り道－\n\n# fadein \"white\" 0.5\n# se \"SE_0735\"\n# bgm \"stop\"\n# waitandnext 2\n@\n…………\n\n# fadein \"white\" 0.5\n# se \"SE_0735\"\n# waitandnext 2\n@\n…………\n\n@\nふと、\n傍らを歩く彼女が足を止めた…\n\n# textflame 1 1\n# bgmfile \"bgm255\" \"BgmSeaDate\" 0\n# voice 5017 \"grimoire_0002\"\n@グリモワール\n今日一日デートしてきたわけだけど… \n\n# face %(unit_a)s \"angry\"\n@グリモワール\nキミってさ…\n\n# voice 5017 \"grimoire_0007\"\n# eye %(unit_a)s \"close\"\n@グリモワール\nワタシのこと、\nどれくらい理解してるわけぇ？\n\n# eye %(unit_a)s \"normal\"\n@グリモワール\n今から、試してあげるから…\n\n# voice 5017 \"grimoire_0005\"\n# face %(unit_a)s \"smile\"\n@グリモワール\n覚悟なさい！\n\n@%(unitName:unit_a)s\n私のキラーズ『グリモワール』に\n関する呪文は次のうちどれ？ \n\n# se \"SE_0734\"\n# select  \"アブラカタブラ\" \"select_label_1\" \"エロイムエッサイム\" \"select_label_2\" \"アブラマシマシ\" \"select_label_3\"\n私のキラーズ『グリモワール』に\n関する呪文は次のうちどれ？ \n\n# label \"select_label_1\"\n# labeljump \"select_label_end\"\n# textwindow \"close\"\n# waitandnext 0.1\n\n# label \"select_label_2\"\n# labeljump \"select_label_end\"\n# textwindow \"close\"\n# waitandnext 0.1\n\n# label \"select_label_3\"\n# labeljump \"select_label_end\"\n# textwindow \"close\"\n# waitandnext 0.1\n\n# label \"select_label_end\"\n# waitandnext 0.1\n\n# sestop \"SE_0734\"\n# fadeout \"black\" 1.2\n# waitandnext 2"
	},
	{
		"ID": 1459,
		"unitID": 2501711,
		"questionID": 9501709,
		"script": "# script \"lisp\"\n# background %(wayback_background)s\n# bgmfile \"bgm255\" \"BgmSeaDate\" 0\n# body %(unit_a)s\n# pos %(unit_a)s 3\n# mask %(unit_a)s off\n# chara %(unit_a)s\n# fadein \"black\" 0.5\n# textflame 0 0\n@\n帰り道－\n\n# fadein \"white\" 0.5\n# se \"SE_0735\"\n# bgm \"stop\"\n# waitandnext 2\n@\n…………\n\n# fadein \"white\" 0.5\n# se \"SE_0735\"\n# waitandnext 2\n@\n…………\n\n@\nふと、\n傍らを歩く彼女が足を止めた…\n\n# textflame 1 1\n# bgmfile \"bgm255\" \"BgmSeaDate\" 0\n# voice 5017 \"grimoire_0002\"\n@グリモワール\n今日一日デートしてきたわけだけど… \n\n# face %(unit_a)s \"angry\"\n@グリモワール\nキミってさ…\n\n# voice 5017 \"grimoire_0007\"\n# eye %(unit_a)s \"close\"\n@グリモワール\nワタシのこと、\nどれくらい理解してるわけぇ？\n\n# eye %(unit_a)s \"normal\"\n@グリモワール\n今から、試してあげるから…\n\n# voice 5017 \"grimoire_0005\"\n# face %(unit_a)s \"smile\"\n@グリモワール\n覚悟なさい！\n\n@%(unitName:unit_a)s\n私のキラーズ『グリモワール』に\n関する呪文は次のうちどれ？\n\n# se \"SE_0734\"\n# select  \"南無阿弥陀仏\" \"select_label_1\" \"オンバサラウンケンソワカ\" \"select_label_2\" \"我は求め訴えたり\" \"select_label_3\"\n私のキラーズ『グリモワール』に\n関する呪文は次のうちどれ？\n\n# label \"select_label_1\"\n# labeljump \"select_label_end\"\n# textwindow \"close\"\n# waitandnext 0.1\n\n# label \"select_label_2\"\n# labeljump \"select_label_end\"\n# textwindow \"close\"\n# waitandnext 0.1\n\n# label \"select_label_3\"\n# labeljump \"select_label_end\"\n# textwindow \"close\"\n# waitandnext 0.1\n\n# label \"select_label_end\"\n# waitandnext 0.1\n\n# sestop \"SE_0734\"\n# fadeout \"black\" 1.2\n# waitandnext 2"
	},
	{
		"ID": 1460,
		"unitID": 2501711,
		"questionID": 9501710,
		"script": "# script \"lisp\"\n# background %(wayback_background)s\n# bgmfile \"bgm255\" \"BgmSeaDate\" 0\n# body %(unit_a)s\n# pos %(unit_a)s 3\n# mask %(unit_a)s off\n# chara %(unit_a)s\n# fadein \"black\" 0.5\n# textflame 0 0\n@\n帰り道－\n\n# fadein \"white\" 0.5\n# se \"SE_0735\"\n# bgm \"stop\"\n# waitandnext 2\n@\n…………\n\n# fadein \"white\" 0.5\n# se \"SE_0735\"\n# waitandnext 2\n@\n…………\n\n@\nふと、\n傍らを歩く彼女が足を止めた…\n\n# textflame 1 1\n# bgmfile \"bgm255\" \"BgmSeaDate\" 0\n# voice 5017 \"grimoire_0002\"\n@グリモワール\n今日一日デートしてきたわけだけど… \n\n# face %(unit_a)s \"angry\"\n@グリモワール\nキミってさ…\n\n# voice 5017 \"grimoire_0007\"\n# eye %(unit_a)s \"close\"\n@グリモワール\nワタシのこと、\nどれくらい理解してるわけぇ？\n\n# eye %(unit_a)s \"normal\"\n@グリモワール\n今から、試してあげるから…\n\n# voice 5017 \"grimoire_0005\"\n# face %(unit_a)s \"smile\"\n@グリモワール\n覚悟なさい！\n\n@%(unitName:unit_a)s\n私のキラーズ『グリモワール』の\n一種のタイトルは次のうちどれ？ \n\n# se \"SE_0734\"\n# select  \"大奥義書\" \"select_label_1\" \"孫子の兵法書\" \"select_label_2\" \"春秋左氏伝\" \"select_label_3\"\n私のキラーズ『グリモワール』の\n一種のタイトルは次のうちどれ？ \n\n# label \"select_label_1\"\n# labeljump \"select_label_end\"\n# textwindow \"close\"\n# waitandnext 0.1\n\n# label \"select_label_2\"\n# labeljump \"select_label_end\"\n# textwindow \"close\"\n# waitandnext 0.1\n\n# label \"select_label_3\"\n# labeljump \"select_label_end\"\n# textwindow \"close\"\n# waitandnext 0.1\n\n# label \"select_label_end\"\n# waitandnext 0.1\n\n# sestop \"SE_0734\"\n# fadeout \"black\" 1.2\n# waitandnext 2"
	},
	{
		"ID": 1461,
		"unitID": 2501711,
		"questionID": 9501711,
		"script": "# script \"lisp\"\n# background %(wayback_background)s\n# bgmfile \"bgm255\" \"BgmSeaDate\" 0\n# body %(unit_a)s\n# pos %(unit_a)s 3\n# mask %(unit_a)s off\n# chara %(unit_a)s\n# fadein \"black\" 0.5\n# textflame 0 0\n@\n帰り道－\n\n# fadein \"white\" 0.5\n# se \"SE_0735\"\n# bgm \"stop\"\n# waitandnext 2\n@\n…………\n\n# fadein \"white\" 0.5\n# se \"SE_0735\"\n# waitandnext 2\n@\n…………\n\n@\nふと、\n傍らを歩く彼女が足を止めた…\n\n# textflame 1 1\n# bgmfile \"bgm255\" \"BgmSeaDate\" 0\n# voice 5017 \"grimoire_0002\"\n@グリモワール\n…あのさ \n\n# face %(unit_a)s \"angry\"\n@グリモワール\n凡人のキミが\n高貴なワタシとデートできるなんて\n幸せなことなのよ？\n\n# voice 5017 \"grimoire_0007\"\n# eye %(unit_a)s \"close\"\n@グリモワール\nその辺、ちゃんと分かってる？\n\n# eye %(unit_a)s \"normal\"\n@グリモワール\nまったく…。じゃあ、今から\n私に見合うかどうか、\nクイズにして出してあげるから…\n\n# voice 5017 \"grimoire_0005\"\n# face %(unit_a)s \"smile\"\n@グリモワール\n感謝なさい！\n\n@%(unitName:unit_a)s\n私の属性は知ってるでしょ！？\n\n# se \"SE_0734\"\n# select  \"闇\" \"select_label_1\" \"炎\" \"select_label_2\" \"氷\" \"select_label_3\"\n私の属性は知ってるでしょ！？\n\n# label \"select_label_1\"\n# labeljump \"select_label_end\"\n# textwindow \"close\"\n# waitandnext 0.1\n\n# label \"select_label_2\"\n# labeljump \"select_label_end\"\n# textwindow \"close\"\n# waitandnext 0.1\n\n# label \"select_label_3\"\n# labeljump \"select_label_end\"\n# textwindow \"close\"\n# waitandnext 0.1\n\n# label \"select_label_end\"\n# waitandnext 0.1\n\n# sestop \"SE_0734\"\n# fadeout \"black\" 1.2\n# waitandnext 2"
	},
	{
		"ID": 1462,
		"unitID": 2501711,
		"questionID": 9501712,
		"script": "# script \"lisp\"\n# background %(wayback_background)s\n# bgmfile \"bgm255\" \"BgmSeaDate\" 0\n# body %(unit_a)s\n# pos %(unit_a)s 3\n# mask %(unit_a)s off\n# chara %(unit_a)s\n# fadein \"black\" 0.5\n# textflame 0 0\n@\n帰り道－\n\n# fadein \"white\" 0.5\n# se \"SE_0735\"\n# bgm \"stop\"\n# waitandnext 2\n@\n…………\n\n# fadein \"white\" 0.5\n# se \"SE_0735\"\n# waitandnext 2\n@\n…………\n\n@\nふと、\n傍らを歩く彼女が足を止めた…\n\n# textflame 1 1\n# bgmfile \"bgm255\" \"BgmSeaDate\" 0\n# voice 5017 \"grimoire_0002\"\n@グリモワール\n…あのさ \n\n# face %(unit_a)s \"angry\"\n@グリモワール\n凡人のキミが\n高貴なワタシとデートできるなんて\n幸せなことなのよ？\n\n# voice 5017 \"grimoire_0007\"\n# eye %(unit_a)s \"close\"\n@グリモワール\nその辺、ちゃんと分かってる？\n\n# eye %(unit_a)s \"normal\"\n@グリモワール\nまったく…。じゃあ、今から\n私に見合うかどうか、\nクイズにして出してあげるから…\n\n# voice 5017 \"grimoire_0005\"\n# face %(unit_a)s \"smile\"\n@グリモワール\n感謝なさい！\n\n@%(unitName:unit_a)s\n私の身長を言いなさい！\n\n# se \"SE_0734\"\n# select  \"154cm\" \"select_label_1\" \"145cm\" \"select_label_2\" \"160cm\" \"select_label_3\"\n私の身長を言いなさい！\n\n# label \"select_label_1\"\n# labeljump \"select_label_end\"\n# textwindow \"close\"\n# waitandnext 0.1\n\n# label \"select_label_2\"\n# labeljump \"select_label_end\"\n# textwindow \"close\"\n# waitandnext 0.1\n\n# label \"select_label_3\"\n# labeljump \"select_label_end\"\n# textwindow \"close\"\n# waitandnext 0.1\n\n# label \"select_label_end\"\n# waitandnext 0.1\n\n# sestop \"SE_0734\"\n# fadeout \"black\" 1.2\n# waitandnext 2"
	},
	{
		"ID": 1463,
		"unitID": 2501711,
		"questionID": 9501713,
		"script": "# script \"lisp\"\n# background %(wayback_background)s\n# bgmfile \"bgm255\" \"BgmSeaDate\" 0\n# body %(unit_a)s\n# pos %(unit_a)s 3\n# mask %(unit_a)s off\n# chara %(unit_a)s\n# fadein \"black\" 0.5\n# textflame 0 0\n@\n帰り道－\n\n# fadein \"white\" 0.5\n# se \"SE_0735\"\n# bgm \"stop\"\n# waitandnext 2\n@\n…………\n\n# fadein \"white\" 0.5\n# se \"SE_0735\"\n# waitandnext 2\n@\n…………\n\n@\nふと、\n傍らを歩く彼女が足を止めた…\n\n# textflame 1 1\n# bgmfile \"bgm255\" \"BgmSeaDate\" 0\n# voice 5017 \"grimoire_0002\"\n@グリモワール\n…あのさ \n\n# face %(unit_a)s \"angry\"\n@グリモワール\n凡人のキミが\n高貴なワタシとデートできるなんて\n幸せなことなのよ？\n\n# voice 5017 \"grimoire_0007\"\n# eye %(unit_a)s \"close\"\n@グリモワール\nその辺、ちゃんと分かってる？\n\n# eye %(unit_a)s \"normal\"\n@グリモワール\nまったく…。じゃあ、今から\n私に見合うかどうか、\nクイズにして出してあげるから…\n\n# voice 5017 \"grimoire_0005\"\n# face %(unit_a)s \"smile\"\n@グリモワール\n感謝なさい！\n\n@%(unitName:unit_a)s\n私の誕生日をこたえなさい！\n\n# se \"SE_0734\"\n# select  \"8月8日\" \"select_label_1\" \"7月7日\" \"select_label_2\" \"6月6日\" \"select_label_3\"\n私の誕生日をこたえなさい！\n\n# label \"select_label_1\"\n# labeljump \"select_label_end\"\n# textwindow \"close\"\n# waitandnext 0.1\n\n# label \"select_label_2\"\n# labeljump \"select_label_end\"\n# textwindow \"close\"\n# waitandnext 0.1\n\n# label \"select_label_3\"\n# labeljump \"select_label_end\"\n# textwindow \"close\"\n# waitandnext 0.1\n\n# label \"select_label_end\"\n# waitandnext 0.1\n\n# sestop \"SE_0734\"\n# fadeout \"black\" 1.2\n# waitandnext 2"
	},
	{
		"ID": 1464,
		"unitID": 2501711,
		"questionID": 9501714,
		"script": "# script \"lisp\"\n# background %(wayback_background)s\n# bgmfile \"bgm255\" \"BgmSeaDate\" 0\n# body %(unit_a)s\n# pos %(unit_a)s 3\n# mask %(unit_a)s off\n# chara %(unit_a)s\n# fadein \"black\" 0.5\n# textflame 0 0\n@\n帰り道－\n\n# fadein \"white\" 0.5\n# se \"SE_0735\"\n# bgm \"stop\"\n# waitandnext 2\n@\n…………\n\n# fadein \"white\" 0.5\n# se \"SE_0735\"\n# waitandnext 2\n@\n…………\n\n@\nふと、\n傍らを歩く彼女が足を止めた…\n\n# textflame 1 1\n# bgmfile \"bgm255\" \"BgmSeaDate\" 0\n# voice 5017 \"grimoire_0002\"\n@グリモワール\n…あのさ \n\n# face %(unit_a)s \"angry\"\n@グリモワール\n凡人のキミが\n高貴なワタシとデートできるなんて\n幸せなことなのよ？\n\n# voice 5017 \"grimoire_0007\"\n# eye %(unit_a)s \"close\"\n@グリモワール\nその辺、ちゃんと分かってる？\n\n# eye %(unit_a)s \"normal\"\n@グリモワール\nまったく…。じゃあ、今から\n私に見合うかどうか、\nクイズにして出してあげるから…\n\n# voice 5017 \"grimoire_0005\"\n# face %(unit_a)s \"smile\"\n@グリモワール\n感謝なさい！\n\n@%(unitName:unit_a)s\n 私の星座、わかるでしょ！\n\n# se \"SE_0734\"\n# select  \"ふたご座\" \"select_label_1\" \"おとめ座\" \"select_label_2\" \"やぎ座\" \"select_label_3\"\n 私の星座、わかるでしょ！\n\n# label \"select_label_1\"\n# labeljump \"select_label_end\"\n# textwindow \"close\"\n# waitandnext 0.1\n\n# label \"select_label_2\"\n# labeljump \"select_label_end\"\n# textwindow \"close\"\n# waitandnext 0.1\n\n# label \"select_label_3\"\n# labeljump \"select_label_end\"\n# textwindow \"close\"\n# waitandnext 0.1\n\n# label \"select_label_end\"\n# waitandnext 0.1\n\n# sestop \"SE_0734\"\n# fadeout \"black\" 1.2\n# waitandnext 2"
	},
	{
		"ID": 1465,
		"unitID": 2501711,
		"questionID": 9501715,
		"script": "# script \"lisp\"\n# background %(wayback_background)s\n# bgmfile \"bgm255\" \"BgmSeaDate\" 0\n# body %(unit_a)s\n# pos %(unit_a)s 3\n# mask %(unit_a)s off\n# chara %(unit_a)s\n# fadein \"black\" 0.5\n# textflame 0 0\n@\n帰り道－\n\n# fadein \"white\" 0.5\n# se \"SE_0735\"\n# bgm \"stop\"\n# waitandnext 2\n@\n…………\n\n# fadein \"white\" 0.5\n# se \"SE_0735\"\n# waitandnext 2\n@\n…………\n\n@\nふと、\n傍らを歩く彼女が足を止めた…\n\n# textflame 1 1\n# bgmfile \"bgm255\" \"BgmSeaDate\" 0\n# voice 5017 \"grimoire_0002\"\n@グリモワール\n…あのさ \n\n# face %(unit_a)s \"angry\"\n@グリモワール\n凡人のキミが\n高貴なワタシとデートできるなんて\n幸せなことなのよ？\n\n# voice 5017 \"grimoire_0007\"\n# eye %(unit_a)s \"close\"\n@グリモワール\nその辺、ちゃんと分かってる？\n\n# eye %(unit_a)s \"normal\"\n@グリモワール\nまったく…。じゃあ、今から\n私に見合うかどうか、\nクイズにして出してあげるから…\n\n# voice 5017 \"grimoire_0005\"\n# face %(unit_a)s \"smile\"\n@グリモワール\n感謝なさい！\n\n@%(unitName:unit_a)s\n私の誕生日6月6日といえば\nなんの日かわかる…？\n\n# se \"SE_0734\"\n# select  \"お茶の日\" \"select_label_1\" \"楽器の日\" \"select_label_2\" \"黒魔術の日\" \"select_label_3\"\n私の誕生日6月6日といえば\nなんの日かわかる…？\n\n# label \"select_label_1\"\n# labeljump \"select_label_end\"\n# textwindow \"close\"\n# waitandnext 0.1\n\n# label \"select_label_2\"\n# labeljump \"select_label_end\"\n# textwindow \"close\"\n# waitandnext 0.1\n\n# label \"select_label_3\"\n# labeljump \"select_label_end\"\n# textwindow \"close\"\n# waitandnext 0.1\n\n# label \"select_label_end\"\n# waitandnext 0.1\n\n# sestop \"SE_0734\"\n# fadeout \"black\" 1.2\n# waitandnext 2"
	},
	{
		"ID": 1466,
		"unitID": 2501711,
		"questionID": 9501716,
		"script": "# script \"lisp\"\n# background %(wayback_background)s\n# bgmfile \"bgm255\" \"BgmSeaDate\" 0\n# body %(unit_a)s\n# pos %(unit_a)s 3\n# mask %(unit_a)s off\n# chara %(unit_a)s\n# fadein \"black\" 0.5\n# textflame 0 0\n@\n帰り道－\n\n# fadein \"white\" 0.5\n# se \"SE_0735\"\n# bgm \"stop\"\n# waitandnext 2\n@\n…………\n\n# fadein \"white\" 0.5\n# se \"SE_0735\"\n# waitandnext 2\n@\n…………\n\n@\nふと、\n傍らを歩く彼女が足を止めた…\n\n# textflame 1 1\n# bgmfile \"bgm255\" \"BgmSeaDate\" 0\n# voice 5017 \"grimoire_0002\"\n@グリモワール\n…あのさ \n\n# face %(unit_a)s \"angry\"\n@グリモワール\n凡人のキミが\n高貴なワタシとデートできるなんて\n幸せなことなのよ？\n\n# voice 5017 \"grimoire_0007\"\n# eye %(unit_a)s \"close\"\n@グリモワール\nその辺、ちゃんと分かってる？\n\n# eye %(unit_a)s \"normal\"\n@グリモワール\nまったく…。じゃあ、今から\n私に見合うかどうか、\nクイズにして出してあげるから…\n\n# voice 5017 \"grimoire_0005\"\n# face %(unit_a)s \"smile\"\n@グリモワール\n感謝なさい！\n\n@%(unitName:unit_a)s\nこれは私の趣味って\n言ってもいいわね！\nこたえて！\n\n# se \"SE_0734\"\n# select  \"写経\" \"select_label_1\" \"毛抜き\" \"select_label_2\" \"読書\" \"select_label_3\"\nこれは私の趣味って\n言ってもいいわね！\nこたえて！\n\n# label \"select_label_1\"\n# labeljump \"select_label_end\"\n# textwindow \"close\"\n# waitandnext 0.1\n\n# label \"select_label_2\"\n# labeljump \"select_label_end\"\n# textwindow \"close\"\n# waitandnext 0.1\n\n# label \"select_label_3\"\n# labeljump \"select_label_end\"\n# textwindow \"close\"\n# waitandnext 0.1\n\n# label \"select_label_end\"\n# waitandnext 0.1\n\n# sestop \"SE_0734\"\n# fadeout \"black\" 1.2\n# waitandnext 2"
	},
	{
		"ID": 1467,
		"unitID": 2501711,
		"questionID": 9501717,
		"script": "# script \"lisp\"\n# background %(wayback_background)s\n# bgmfile \"bgm255\" \"BgmSeaDate\" 0\n# body %(unit_a)s\n# pos %(unit_a)s 3\n# mask %(unit_a)s off\n# chara %(unit_a)s\n# fadein \"black\" 0.5\n# textflame 0 0\n@\n帰り道－\n\n# fadein \"white\" 0.5\n# se \"SE_0735\"\n# bgm \"stop\"\n# waitandnext 2\n@\n…………\n\n# fadein \"white\" 0.5\n# se \"SE_0735\"\n# waitandnext 2\n@\n…………\n\n@\nふと、\n傍らを歩く彼女が足を止めた…\n\n# textflame 1 1\n# bgmfile \"bgm255\" \"BgmSeaDate\" 0\n# voice 5017 \"grimoire_0002\"\n@グリモワール\n…あのさ \n\n# face %(unit_a)s \"angry\"\n@グリモワール\n凡人のキミが\n高貴なワタシとデートできるなんて\n幸せなことなのよ？\n\n# voice 5017 \"grimoire_0007\"\n# eye %(unit_a)s \"close\"\n@グリモワール\nその辺、ちゃんと分かってる？\n\n# eye %(unit_a)s \"normal\"\n@グリモワール\nまったく…。じゃあ、今から\n私に見合うかどうか、\nクイズにして出してあげるから…\n\n# voice 5017 \"grimoire_0005\"\n# face %(unit_a)s \"smile\"\n@グリモワール\n感謝なさい！\n\n@%(unitName:unit_a)s\n私の血液型！\nほら！ほら！\n\n# se \"SE_0734\"\n# select  \"B型\" \"select_label_1\" \"O型\" \"select_label_2\" \"AB型\" \"select_label_3\"\n私の血液型！\nほら！ほら！\n\n# label \"select_label_1\"\n# labeljump \"select_label_end\"\n# textwindow \"close\"\n# waitandnext 0.1\n\n# label \"select_label_2\"\n# labeljump \"select_label_end\"\n# textwindow \"close\"\n# waitandnext 0.1\n\n# label \"select_label_3\"\n# labeljump \"select_label_end\"\n# textwindow \"close\"\n# waitandnext 0.1\n\n# label \"select_label_end\"\n# waitandnext 0.1\n\n# sestop \"SE_0734\"\n# fadeout \"black\" 1.2\n# waitandnext 2"
	},
	{
		"ID": 1468,
		"unitID": 2501711,
		"questionID": 9501718,
		"script": "# script \"lisp\"\n# background %(wayback_background)s\n# bgmfile \"bgm255\" \"BgmSeaDate\" 0\n# body %(unit_a)s\n# pos %(unit_a)s 3\n# mask %(unit_a)s off\n# chara %(unit_a)s\n# fadein \"black\" 0.5\n# textflame 0 0\n@\n帰り道－\n\n# fadein \"white\" 0.5\n# se \"SE_0735\"\n# bgm \"stop\"\n# waitandnext 2\n@\n…………\n\n# fadein \"white\" 0.5\n# se \"SE_0735\"\n# waitandnext 2\n@\n…………\n\n@\nふと、\n傍らを歩く彼女が足を止めた…\n\n# textflame 1 1\n# bgmfile \"bgm255\" \"BgmSeaDate\" 0\n# voice 5017 \"grimoire_0002\"\n@グリモワール\n…あのさ \n\n# face %(unit_a)s \"angry\"\n@グリモワール\n凡人のキミが\n高貴なワタシとデートできるなんて\n幸せなことなのよ？\n\n# voice 5017 \"grimoire_0007\"\n# eye %(unit_a)s \"close\"\n@グリモワール\nその辺、ちゃんと分かってる？\n\n# eye %(unit_a)s \"normal\"\n@グリモワール\nまったく…。じゃあ、今から\n私に見合うかどうか、\nクイズにして出してあげるから…\n\n# voice 5017 \"grimoire_0005\"\n# face %(unit_a)s \"smile\"\n@グリモワール\n感謝なさい！\n\n@%(unitName:unit_a)s\n私の出身地は知ってるでしょ？\n\n# se \"SE_0734\"\n# select  \"スペイン\" \"select_label_1\" \"ギリシャ\" \"select_label_2\" \"フランス\" \"select_label_3\"\n私の出身地は知ってるでしょ？\n\n# label \"select_label_1\"\n# labeljump \"select_label_end\"\n# textwindow \"close\"\n# waitandnext 0.1\n\n# label \"select_label_2\"\n# labeljump \"select_label_end\"\n# textwindow \"close\"\n# waitandnext 0.1\n\n# label \"select_label_3\"\n# labeljump \"select_label_end\"\n# textwindow \"close\"\n# waitandnext 0.1\n\n# label \"select_label_end\"\n# waitandnext 0.1\n\n# sestop \"SE_0734\"\n# fadeout \"black\" 1.2\n# waitandnext 2"
	},
	{
		"ID": 1469,
		"unitID": 2501711,
		"questionID": 9501719,
		"script": "# script \"lisp\"\n# background %(wayback_background)s\n# bgmfile \"bgm255\" \"BgmSeaDate\" 0\n# body %(unit_a)s\n# pos %(unit_a)s 3\n# mask %(unit_a)s off\n# chara %(unit_a)s\n# fadein \"black\" 0.5\n# textflame 0 0\n@\n帰り道－\n\n# fadein \"white\" 0.5\n# se \"SE_0735\"\n# bgm \"stop\"\n# waitandnext 2\n@\n…………\n\n# fadein \"white\" 0.5\n# se \"SE_0735\"\n# waitandnext 2\n@\n…………\n\n@\nふと、\n傍らを歩く彼女が足を止めた…\n\n# textflame 1 1\n# bgmfile \"bgm255\" \"BgmSeaDate\" 0\n# voice 5017 \"grimoire_0002\"\n@グリモワール\n…あのさ \n\n# face %(unit_a)s \"angry\"\n@グリモワール\n凡人のキミが\n高貴なワタシとデートできるなんて\n幸せなことなのよ？\n\n# voice 5017 \"grimoire_0007\"\n# eye %(unit_a)s \"close\"\n@グリモワール\nその辺、ちゃんと分かってる？\n\n# eye %(unit_a)s \"normal\"\n@グリモワール\nまったく…。じゃあ、今から\n私に見合うかどうか、\nクイズにして出してあげるから…\n\n# voice 5017 \"grimoire_0005\"\n# face %(unit_a)s \"smile\"\n@グリモワール\n感謝なさい！\n\n@%(unitName:unit_a)s\n私の好きな物くらいわかるでしょ！\n\n# se \"SE_0734\"\n# select  \"新潟の干物\" \"select_label_1\" \"緒方の小枝\" \"select_label_2\" \"星型の小物\" \"select_label_3\"\n私の好きな物くらいわかるでしょ！\n\n# label \"select_label_1\"\n# labeljump \"select_label_end\"\n# textwindow \"close\"\n# waitandnext 0.1\n\n# label \"select_label_2\"\n# labeljump \"select_label_end\"\n# textwindow \"close\"\n# waitandnext 0.1\n\n# label \"select_label_3\"\n# labeljump \"select_label_end\"\n# textwindow \"close\"\n# waitandnext 0.1\n\n# label \"select_label_end\"\n# waitandnext 0.1\n\n# sestop \"SE_0734\"\n# fadeout \"black\" 1.2\n# waitandnext 2"
	},
	{
		"ID": 1470,
		"unitID": 2501711,
		"questionID": 9501720,
		"script": "# script \"lisp\"\n# background %(wayback_background)s\n# bgmfile \"bgm255\" \"BgmSeaDate\" 0\n# body %(unit_a)s\n# pos %(unit_a)s 3\n# mask %(unit_a)s off\n# chara %(unit_a)s\n# fadein \"black\" 0.5\n# textflame 0 0\n@\n帰り道－\n\n# fadein \"white\" 0.5\n# se \"SE_0735\"\n# bgm \"stop\"\n# waitandnext 2\n@\n…………\n\n# fadein \"white\" 0.5\n# se \"SE_0735\"\n# waitandnext 2\n@\n…………\n\n@\nふと、\n傍らを歩く彼女が足を止めた…\n\n# textflame 1 1\n# bgmfile \"bgm255\" \"BgmSeaDate\" 0\n# voice 5017 \"grimoire_0002\"\n@グリモワール\n…あのさ \n\n# face %(unit_a)s \"angry\"\n@グリモワール\n凡人のキミが\n高貴なワタシとデートできるなんて\n幸せなことなのよ？\n\n# voice 5017 \"grimoire_0007\"\n# eye %(unit_a)s \"close\"\n@グリモワール\nその辺、ちゃんと分かってる？\n\n# eye %(unit_a)s \"normal\"\n@グリモワール\nまったく…。じゃあ、今から\n私に見合うかどうか、\nクイズにして出してあげるから…\n\n# voice 5017 \"grimoire_0005\"\n# face %(unit_a)s \"smile\"\n@グリモワール\n感謝なさい！\n\n@%(unitName:unit_a)s\n私って恋愛のことになると…\n\n# se \"SE_0734\"\n# select  \"テンパる\" \"select_label_1\" \"テンションが上がる\" \"select_label_2\" \"メモしまくる\" \"select_label_3\"\n私って恋愛のことになると…\n\n# label \"select_label_1\"\n# labeljump \"select_label_end\"\n# textwindow \"close\"\n# waitandnext 0.1\n\n# label \"select_label_2\"\n# labeljump \"select_label_end\"\n# textwindow \"close\"\n# waitandnext 0.1\n\n# label \"select_label_3\"\n# labeljump \"select_label_end\"\n# textwindow \"close\"\n# waitandnext 0.1\n\n# label \"select_label_end\"\n# waitandnext 0.1\n\n# sestop \"SE_0734\"\n# fadeout \"black\" 1.2\n# waitandnext 2"
	},
	{
		"ID": 1471,
		"unitID": 2501711,
		"questionID": 9501721,
		"script": "# script \"lisp\"\n# background %(wayback_background)s\n# bgmfile \"bgm255\" \"BgmSeaDate\" 0\n# body %(unit_a)s\n# pos %(unit_a)s 3\n# mask %(unit_a)s off\n# chara %(unit_a)s\n# fadein \"black\" 0.5\n# textflame 0 0\n@\n帰り道－\n\n# fadein \"white\" 0.5\n# se \"SE_0735\"\n# bgm \"stop\"\n# waitandnext 2\n@\n…………\n\n# fadein \"white\" 0.5\n# se \"SE_0735\"\n# waitandnext 2\n@\n…………\n\n@\nふと、\n傍らを歩く彼女が足を止めた…\n\n# textflame 1 1\n# bgmfile \"bgm255\" \"BgmSeaDate\" 0\n# voice 5017 \"grimoire_0002\"\n@グリモワール\nねぇ、あのさ…\n\n@グリモワール\nキミも”魔法”を\n使ってみせてよ\n\n# voice 5017 \"grimoire_0007\"\n# eye %(unit_a)s \"close\"\n@グリモワール\nなに変な顔してるの\n魔法っていうのはヒントなしで\nワタシのクイズに答えるってこと！\n\n# eye %(unit_a)s \"normal\"\n@グリモワール\nキミの奇跡の魔法に期待してるよ？\n…なんてね\n\n# voice 5017 \"grimoire_0004\"\n# face %(unit_a)s \"smile\"\n@グリモワール\nでは、問題！\n\n@%(unitName:unit_a)s\n私の持ってる鶏のぬいぐるみ…\nオス？メス？それとも？\n\n# se \"SE_0734\"\n# select  \"不明\" \"select_label_1\" \"雄\" \"select_label_2\" \"雌\" \"select_label_3\"\n私の持ってる鶏のぬいぐるみ…\nオス？メス？それとも？\n\n# label \"select_label_1\"\n# labeljump \"select_label_end\"\n# textwindow \"close\"\n# waitandnext 0.1\n\n# label \"select_label_2\"\n# labeljump \"select_label_end\"\n# textwindow \"close\"\n# waitandnext 0.1\n\n# label \"select_label_3\"\n# labeljump \"select_label_end\"\n# textwindow \"close\"\n# waitandnext 0.1\n\n# label \"select_label_end\"\n# waitandnext 0.1\n\n# sestop \"SE_0734\"\n# fadeout \"black\" 1.2\n# waitandnext 2"
	},
	{
		"ID": 1472,
		"unitID": 2501711,
		"questionID": 9501722,
		"script": "# script \"lisp\"\n# background %(wayback_background)s\n# bgmfile \"bgm255\" \"BgmSeaDate\" 0\n# body %(unit_a)s\n# pos %(unit_a)s 3\n# mask %(unit_a)s off\n# chara %(unit_a)s\n# fadein \"black\" 0.5\n# textflame 0 0\n@\n帰り道－\n\n# fadein \"white\" 0.5\n# se \"SE_0735\"\n# bgm \"stop\"\n# waitandnext 2\n@\n…………\n\n# fadein \"white\" 0.5\n# se \"SE_0735\"\n# waitandnext 2\n@\n…………\n\n@\nふと、\n傍らを歩く彼女が足を止めた…\n\n# textflame 1 1\n# bgmfile \"bgm255\" \"BgmSeaDate\" 0\n# voice 5017 \"grimoire_0002\"\n@グリモワール\nねぇ、あのさ…\n\n@グリモワール\nキミも”魔法”を\n使ってみせてよ\n\n# voice 5017 \"grimoire_0007\"\n# eye %(unit_a)s \"close\"\n@グリモワール\nなに変な顔してるの\n魔法っていうのはヒントなしで\nワタシのクイズに答えるってこと！\n\n# eye %(unit_a)s \"normal\"\n@グリモワール\nキミの奇跡の魔法に期待してるよ？\n…なんてね\n\n# voice 5017 \"grimoire_0004\"\n# face %(unit_a)s \"smile\"\n@グリモワール\nでは、問題！\n\n@%(unitName:unit_a)s\n私の☆６のジョブ名なんて\n覚えてないよねぇ～？\n\n# se \"SE_0734\"\n# select  \"銃嬢\" \"select_label_1\" \"銃神\" \"select_label_2\" \"銃っ子\" \"select_label_3\"\n私の☆６のジョブ名なんて\n覚えてないよねぇ～？\n\n# label \"select_label_1\"\n# labeljump \"select_label_end\"\n# textwindow \"close\"\n# waitandnext 0.1\n\n# label \"select_label_2\"\n# labeljump \"select_label_end\"\n# textwindow \"close\"\n# waitandnext 0.1\n\n# label \"select_label_3\"\n# labeljump \"select_label_end\"\n# textwindow \"close\"\n# waitandnext 0.1\n\n# label \"select_label_end\"\n# waitandnext 0.1\n\n# sestop \"SE_0734\"\n# fadeout \"black\" 1.2\n# waitandnext 2"
	},
	{
		"ID": 1473,
		"unitID": 2501711,
		"questionID": 9501723,
		"script": "# script \"lisp\"\n# background %(wayback_background)s\n# bgmfile \"bgm255\" \"BgmSeaDate\" 0\n# body %(unit_a)s\n# pos %(unit_a)s 3\n# mask %(unit_a)s off\n# chara %(unit_a)s\n# fadein \"black\" 0.5\n# textflame 0 0\n@\n帰り道－\n\n# fadein \"white\" 0.5\n# se \"SE_0735\"\n# bgm \"stop\"\n# waitandnext 2\n@\n…………\n\n# fadein \"white\" 0.5\n# se \"SE_0735\"\n# waitandnext 2\n@\n…………\n\n@\nふと、\n傍らを歩く彼女が足を止めた…\n\n# textflame 1 1\n# bgmfile \"bgm255\" \"BgmSeaDate\" 0\n# voice 5017 \"grimoire_0002\"\n@グリモワール\nねぇ、あのさ…\n\n@グリモワール\nキミも”魔法”を\n使ってみせてよ\n\n# voice 5017 \"grimoire_0007\"\n# eye %(unit_a)s \"close\"\n@グリモワール\nなに変な顔してるの\n魔法っていうのはヒントなしで\nワタシのクイズに答えるってこと！\n\n# eye %(unit_a)s \"normal\"\n@グリモワール\nキミの奇跡の魔法に期待してるよ？\n…なんてね\n\n# voice 5017 \"grimoire_0004\"\n# face %(unit_a)s \"smile\"\n@グリモワール\nでは、問題！\n\n@%(unitName:unit_a)s\n私の嫌いなもの…わかる？\n\n# se \"SE_0734\"\n# select  \"お風呂\" \"select_label_1\" \"動物\" \"select_label_2\" \"鍛錬\" \"select_label_3\"\n私の嫌いなもの…わかる？\n\n# label \"select_label_1\"\n# labeljump \"select_label_end\"\n# textwindow \"close\"\n# waitandnext 0.1\n\n# label \"select_label_2\"\n# labeljump \"select_label_end\"\n# textwindow \"close\"\n# waitandnext 0.1\n\n# label \"select_label_3\"\n# labeljump \"select_label_end\"\n# textwindow \"close\"\n# waitandnext 0.1\n\n# label \"select_label_end\"\n# waitandnext 0.1\n\n# sestop \"SE_0734\"\n# fadeout \"black\" 1.2\n# waitandnext 2"
	},
	{
		"ID": 1474,
		"unitID": 2501711,
		"questionID": 9501724,
		"script": "# script \"lisp\"\n# background %(wayback_background)s\n# bgmfile \"bgm255\" \"BgmSeaDate\" 0\n# body %(unit_a)s\n# pos %(unit_a)s 3\n# mask %(unit_a)s off\n# chara %(unit_a)s\n# fadein \"black\" 0.5\n# textflame 0 0\n@\n帰り道－\n\n# fadein \"white\" 0.5\n# se \"SE_0735\"\n# bgm \"stop\"\n# waitandnext 2\n@\n…………\n\n# fadein \"white\" 0.5\n# se \"SE_0735\"\n# waitandnext 2\n@\n…………\n\n@\nふと、\n傍らを歩く彼女が足を止めた…\n\n# textflame 1 1\n# bgmfile \"bgm255\" \"BgmSeaDate\" 0\n# voice 5017 \"grimoire_0002\"\n@グリモワール\nねぇ、あのさ…\n\n@グリモワール\nキミも”魔法”を\n使ってみせてよ\n\n# voice 5017 \"grimoire_0007\"\n# eye %(unit_a)s \"close\"\n@グリモワール\nなに変な顔してるの\n魔法っていうのはヒントなしで\nワタシのクイズに答えるってこと！\n\n# eye %(unit_a)s \"normal\"\n@グリモワール\nキミの奇跡の魔法に期待してるよ？\n…なんてね\n\n# voice 5017 \"grimoire_0004\"\n# face %(unit_a)s \"smile\"\n@グリモワール\nでは、問題！\n\n@%(unitName:unit_a)s\n私の☆６のリーダースキル名が\nわかったらスゴイ！\n\n# se \"SE_0734\"\n# select  \"大賢神の威厳\" \"select_label_1\" \"大賢神の戯れ\" \"select_label_2\" \"大賢神の覇気\" \"select_label_3\"\n私の☆６のリーダースキル名が\nわかったらスゴイ！\n\n# label \"select_label_1\"\n# labeljump \"select_label_end\"\n# textwindow \"close\"\n# waitandnext 0.1\n\n# label \"select_label_2\"\n# labeljump \"select_label_end\"\n# textwindow \"close\"\n# waitandnext 0.1\n\n# label \"select_label_3\"\n# labeljump \"select_label_end\"\n# textwindow \"close\"\n# waitandnext 0.1\n\n# label \"select_label_end\"\n# waitandnext 0.1\n\n# sestop \"SE_0734\"\n# fadeout \"black\" 1.2\n# waitandnext 2"
	},
	{
		"ID": 1475,
		"unitID": 2501711,
		"questionID": 9501725,
		"script": "# script \"lisp\"\n# background %(wayback_background)s\n# bgmfile \"bgm255\" \"BgmSeaDate\" 0\n# body %(unit_a)s\n# pos %(unit_a)s 3\n# mask %(unit_a)s off\n# chara %(unit_a)s\n# fadein \"black\" 0.5\n# textflame 0 0\n@\n帰り道－\n\n# fadein \"white\" 0.5\n# se \"SE_0735\"\n# bgm \"stop\"\n# waitandnext 2\n@\n…………\n\n# fadein \"white\" 0.5\n# se \"SE_0735\"\n# waitandnext 2\n@\n…………\n\n@\nふと、\n傍らを歩く彼女が足を止めた…\n\n# textflame 1 1\n# bgmfile \"bgm255\" \"BgmSeaDate\" 0\n# voice 5017 \"grimoire_0002\"\n@グリモワール\nねぇ、あのさ…\n\n@グリモワール\nキミも”魔法”を\n使ってみせてよ\n\n# voice 5017 \"grimoire_0007\"\n# eye %(unit_a)s \"close\"\n@グリモワール\nなに変な顔してるの\n魔法っていうのはヒントなしで\nワタシのクイズに答えるってこと！\n\n# eye %(unit_a)s \"normal\"\n@グリモワール\nキミの奇跡の魔法に期待してるよ？\n…なんてね\n\n# voice 5017 \"grimoire_0004\"\n# face %(unit_a)s \"smile\"\n@グリモワール\nでは、問題！\n\n@%(unitName:unit_a)s\n私の持ってるぬいぐるみの\n名前なんて、常識よね？\n\n# se \"SE_0734\"\n# select  \"クロさん\" \"select_label_1\" \"クロピヨ\" \"select_label_2\" \"クロまろ\" \"select_label_3\"\n私の持ってるぬいぐるみの\n名前なんて、常識よね？\n\n# label \"select_label_1\"\n# labeljump \"select_label_end\"\n# textwindow \"close\"\n# waitandnext 0.1\n\n# label \"select_label_2\"\n# labeljump \"select_label_end\"\n# textwindow \"close\"\n# waitandnext 0.1\n\n# label \"select_label_3\"\n# labeljump \"select_label_end\"\n# textwindow \"close\"\n# waitandnext 0.1\n\n# label \"select_label_end\"\n# waitandnext 0.1\n\n# sestop \"SE_0734\"\n# fadeout \"black\" 1.2\n# waitandnext 2"
	},
	{
		"ID": 1476,
		"unitID": 2501711,
		"questionID": 9501726,
		"script": "# script \"lisp\"\n# background %(wayback_background)s\n# bgmfile \"bgm255\" \"BgmSeaDate\" 0\n# body %(unit_a)s\n# pos %(unit_a)s 3\n# mask %(unit_a)s off\n# chara %(unit_a)s\n# fadein \"black\" 0.5\n# textflame 0 0\n@\n帰り道－\n\n# fadein \"white\" 0.5\n# se \"SE_0735\"\n# bgm \"stop\"\n# waitandnext 2\n@\n…………\n\n# fadein \"white\" 0.5\n# se \"SE_0735\"\n# waitandnext 2\n@\n…………\n\n@\nふと、\n傍らを歩く彼女が足を止めた…\n\n# textflame 1 1\n# bgmfile \"bgm255\" \"BgmSeaDate\" 0\n# voice 5017 \"grimoire_0002\"\n@グリモワール\nねぇ、あのさ…\n\n@グリモワール\nキミも”魔法”を\n使ってみせてよ\n\n# voice 5017 \"grimoire_0007\"\n# eye %(unit_a)s \"close\"\n@グリモワール\nなに変な顔してるの\n魔法っていうのはヒントなしで\nワタシのクイズに答えるってこと！\n\n# eye %(unit_a)s \"normal\"\n@グリモワール\nキミの奇跡の魔法に期待してるよ？\n…なんてね\n\n# voice 5017 \"grimoire_0004\"\n# face %(unit_a)s \"smile\"\n@グリモワール\nでは、問題！\n\n@%(unitName:unit_a)s\n私がハッピーバカだと\n思ってるヤツは誰かしら？\n\n# se \"SE_0734\"\n# select  \"トリシューラ\" \"select_label_1\" \"トライデント\" \"select_label_2\" \"フライクーゲル\" \"select_label_3\"\n私がハッピーバカだと\n思ってるヤツは誰かしら？\n\n# label \"select_label_1\"\n# labeljump \"select_label_end\"\n# textwindow \"close\"\n# waitandnext 0.1\n\n# label \"select_label_2\"\n# labeljump \"select_label_end\"\n# textwindow \"close\"\n# waitandnext 0.1\n\n# label \"select_label_3\"\n# labeljump \"select_label_end\"\n# textwindow \"close\"\n# waitandnext 0.1\n\n# label \"select_label_end\"\n# waitandnext 0.1\n\n# sestop \"SE_0734\"\n# fadeout \"black\" 1.2\n# waitandnext 2"
	},
	{
		"ID": 1477,
		"unitID": 2501711,
		"questionID": 9501727,
		"script": "# script \"lisp\"\n# background %(wayback_background)s\n# bgmfile \"bgm255\" \"BgmSeaDate\" 0\n# body %(unit_a)s\n# pos %(unit_a)s 3\n# mask %(unit_a)s off\n# chara %(unit_a)s\n# fadein \"black\" 0.5\n# textflame 0 0\n@\n帰り道－\n\n# fadein \"white\" 0.5\n# se \"SE_0735\"\n# bgm \"stop\"\n# waitandnext 2\n@\n…………\n\n# fadein \"white\" 0.5\n# se \"SE_0735\"\n# waitandnext 2\n@\n…………\n\n@\nふと、\n傍らを歩く彼女が足を止めた…\n\n# textflame 1 1\n# bgmfile \"bgm255\" \"BgmSeaDate\" 0\n# voice 5017 \"grimoire_0002\"\n@グリモワール\nねぇ、あのさ…\n\n@グリモワール\nキミも”魔法”を\n使ってみせてよ\n\n# voice 5017 \"grimoire_0007\"\n# eye %(unit_a)s \"close\"\n@グリモワール\nなに変な顔してるの\n魔法っていうのはヒントなしで\nワタシのクイズに答えるってこと！\n\n# eye %(unit_a)s \"normal\"\n@グリモワール\nキミの奇跡の魔法に期待してるよ？\n…なんてね\n\n# voice 5017 \"grimoire_0004\"\n# face %(unit_a)s \"smile\"\n@グリモワール\nでは、問題！\n\n@%(unitName:unit_a)s\n私は、これが大嫌いなの！\nわかるでしょ！？\n\n# se \"SE_0734\"\n# select  \"上から指示されること\" \"select_label_1\" \"下手に出られること\" \"select_label_2\" \"土下座されること\" \"select_label_3\"\n私は、これが大嫌いなの！\nわかるでしょ！？\n\n# label \"select_label_1\"\n# labeljump \"select_label_end\"\n# textwindow \"close\"\n# waitandnext 0.1\n\n# label \"select_label_2\"\n# labeljump \"select_label_end\"\n# textwindow \"close\"\n# waitandnext 0.1\n\n# label \"select_label_3\"\n# labeljump \"select_label_end\"\n# textwindow \"close\"\n# waitandnext 0.1\n\n# label \"select_label_end\"\n# waitandnext 0.1\n\n# sestop \"SE_0734\"\n# fadeout \"black\" 1.2\n# waitandnext 2"
	},
	{
		"ID": 1478,
		"unitID": 2501711,
		"questionID": 9501728,
		"script": "# script \"lisp\"\n# background %(wayback_background)s\n# bgmfile \"bgm255\" \"BgmSeaDate\" 0\n# body %(unit_a)s\n# pos %(unit_a)s 3\n# mask %(unit_a)s off\n# chara %(unit_a)s\n# fadein \"black\" 0.5\n# textflame 0 0\n@\n帰り道－\n\n# fadein \"white\" 0.5\n# se \"SE_0735\"\n# bgm \"stop\"\n# waitandnext 2\n@\n…………\n\n# fadein \"white\" 0.5\n# se \"SE_0735\"\n# waitandnext 2\n@\n…………\n\n@\nふと、\n傍らを歩く彼女が足を止めた…\n\n# textflame 1 1\n# bgmfile \"bgm255\" \"BgmSeaDate\" 0\n# voice 5017 \"grimoire_0002\"\n@グリモワール\nねぇ、あのさ…\n\n@グリモワール\nキミも”魔法”を\n使ってみせてよ\n\n# voice 5017 \"grimoire_0007\"\n# eye %(unit_a)s \"close\"\n@グリモワール\nなに変な顔してるの\n魔法っていうのはヒントなしで\nワタシのクイズに答えるってこと！\n\n# eye %(unit_a)s \"normal\"\n@グリモワール\nキミの奇跡の魔法に期待してるよ？\n…なんてね\n\n# voice 5017 \"grimoire_0004\"\n# face %(unit_a)s \"smile\"\n@グリモワール\nでは、問題！\n\n@%(unitName:unit_a)s\n私が習得したスキルって\n覚えてる？\n\n# se \"SE_0734\"\n# select  \"壊滅魔オッサイム\" \"select_label_1\" \"壊滅魔エッサイム\" \"select_label_2\" \" 壊滅魔ウッサイム\" \"select_label_3\"\n私が習得したスキルって\n覚えてる？\n\n# label \"select_label_1\"\n# labeljump \"select_label_end\"\n# textwindow \"close\"\n# waitandnext 0.1\n\n# label \"select_label_2\"\n# labeljump \"select_label_end\"\n# textwindow \"close\"\n# waitandnext 0.1\n\n# label \"select_label_3\"\n# labeljump \"select_label_end\"\n# textwindow \"close\"\n# waitandnext 0.1\n\n# label \"select_label_end\"\n# waitandnext 0.1\n\n# sestop \"SE_0734\"\n# fadeout \"black\" 1.2\n# waitandnext 2"
	},
	{
		"ID": 1479,
		"unitID": 2501711,
		"questionID": 9501729,
		"script": "# script \"lisp\"\n# background %(wayback_background)s\n# bgmfile \"bgm255\" \"BgmSeaDate\" 0\n# body %(unit_a)s\n# pos %(unit_a)s 3\n# mask %(unit_a)s off\n# chara %(unit_a)s\n# fadein \"black\" 0.5\n# textflame 0 0\n@\n帰り道－\n\n# fadein \"white\" 0.5\n# se \"SE_0735\"\n# bgm \"stop\"\n# waitandnext 2\n@\n…………\n\n# fadein \"white\" 0.5\n# se \"SE_0735\"\n# waitandnext 2\n@\n…………\n\n@\nふと、\n傍らを歩く彼女が足を止めた…\n\n# textflame 1 1\n# bgmfile \"bgm255\" \"BgmSeaDate\" 0\n# voice 5017 \"grimoire_0002\"\n@グリモワール\nねぇ、あのさ…\n\n@グリモワール\nキミも”魔法”を\n使ってみせてよ\n\n# voice 5017 \"grimoire_0007\"\n# eye %(unit_a)s \"close\"\n@グリモワール\nなに変な顔してるの\n魔法っていうのはヒントなしで\nワタシのクイズに答えるってこと！\n\n# eye %(unit_a)s \"normal\"\n@グリモワール\nキミの奇跡の魔法に期待してるよ？\n…なんてね\n\n# voice 5017 \"grimoire_0004\"\n# face %(unit_a)s \"smile\"\n@グリモワール\nでは、問題！\n\n@%(unitName:unit_a)s\n私が習得したスキルって\n覚えてる？\n\n# se \"SE_0734\"\n# select  \"破壊神ハシモト\" \"select_label_1\" \"破獄神アルカトラズ\" \"select_label_2\" \"破滅神エロイム\" \"select_label_3\"\n私が習得したスキルって\n覚えてる？\n\n# label \"select_label_1\"\n# labeljump \"select_label_end\"\n# textwindow \"close\"\n# waitandnext 0.1\n\n# label \"select_label_2\"\n# labeljump \"select_label_end\"\n# textwindow \"close\"\n# waitandnext 0.1\n\n# label \"select_label_3\"\n# labeljump \"select_label_end\"\n# textwindow \"close\"\n# waitandnext 0.1\n\n# label \"select_label_end\"\n# waitandnext 0.1\n\n# sestop \"SE_0734\"\n# fadeout \"black\" 1.2\n# waitandnext 2"
	},
	{
		"ID": 1480,
		"unitID": 2501711,
		"questionID": 9501730,
		"script": "# script \"lisp\"\n# background %(wayback_background)s\n# bgmfile \"bgm255\" \"BgmSeaDate\" 0\n# body %(unit_a)s\n# pos %(unit_a)s 3\n# mask %(unit_a)s off\n# chara %(unit_a)s\n# fadein \"black\" 0.5\n# textflame 0 0\n@\n帰り道－\n\n# fadein \"white\" 0.5\n# se \"SE_0735\"\n# bgm \"stop\"\n# waitandnext 2\n@\n…………\n\n# fadein \"white\" 0.5\n# se \"SE_0735\"\n# waitandnext 2\n@\n…………\n\n@\nふと、\n傍らを歩く彼女が足を止めた…\n\n# textflame 1 1\n# bgmfile \"bgm255\" \"BgmSeaDate\" 0\n# voice 5017 \"grimoire_0002\"\n@グリモワール\nねぇ、あのさ…\n\n@グリモワール\nキミも”魔法”を\n使ってみせてよ\n\n# voice 5017 \"grimoire_0007\"\n# eye %(unit_a)s \"close\"\n@グリモワール\nなに変な顔してるの\n魔法っていうのはヒントなしで\nワタシのクイズに答えるってこと！\n\n# eye %(unit_a)s \"normal\"\n@グリモワール\nキミの奇跡の魔法に期待してるよ？\n…なんてね\n\n# voice 5017 \"grimoire_0004\"\n# face %(unit_a)s \"smile\"\n@グリモワール\nでは、問題！\n\n@%(unitName:unit_a)s\n私がなにかを召喚する時は、\nここからなの！見ないでよ！？\n\n# se \"SE_0734\"\n# select  \"スカートの中\" \"select_label_1\" \"口の中\" \"select_label_2\" \"おへそ\" \"select_label_3\"\n私がなにかを召喚する時は、\nここからなの！見ないでよ！？\n\n# label \"select_label_1\"\n# labeljump \"select_label_end\"\n# textwindow \"close\"\n# waitandnext 0.1\n\n# label \"select_label_2\"\n# labeljump \"select_label_end\"\n# textwindow \"close\"\n# waitandnext 0.1\n\n# label \"select_label_3\"\n# labeljump \"select_label_end\"\n# textwindow \"close\"\n# waitandnext 0.1\n\n# label \"select_label_end\"\n# waitandnext 0.1\n\n# sestop \"SE_0734\"\n# fadeout \"black\" 1.2\n# waitandnext 2"
	},
	{
		"ID": 1481,
		"unitID": 2501711,
		"questionID": 9501731,
		"script": "# script \"lisp\"\n# background %(wayback_background)s\n# bgmfile \"bgm255\" \"BgmSeaDate\" 0\n# body %(unit_a)s\n# pos %(unit_a)s 3\n# mask %(unit_a)s off\n# chara %(unit_a)s\n# fadein \"black\" 0.5\n# textflame 0 0\n@\n帰り道－\n\n# fadein \"white\" 0.5\n# se \"SE_0735\"\n# bgm \"stop\"\n# waitandnext 2\n@\n…………\n\n# fadein \"white\" 0.5\n# se \"SE_0735\"\n# waitandnext 2\n@\n…………\n\n@\nふと、\n傍らを歩く彼女が足を止めた…\n\n# textflame 1 1\n# bgmfile \"bgm255\" \"BgmSeaDate\" 0\n# voice 5017 \"grimoire_0002\"\n@グリモワール\nねぇ、マスター\n\n# eye %(unit_a)s \"close\"\n@グリモワール\nワタシってさ、\n今までなら水着なんて\n絶対着なかったんだけど…\n\n# voice 5017 \"grimoire_0007\"\n# eye %(unit_a)s \"normal\"\n@グリモワール\n着ても、クロピヨ以外には\n絶対に見せないんだけど…！\n\n@グリモワール\nどうしてキミには\n見せられるか分かる…？\n\n@グリモワール\nじゃあ、今から出す\n質問に答えられたら…\n\n# voice 5017 \"grimoire_0005\"\n# face %(unit_a)s \"smile\"\n@グリモワール\n答えたげる♪\n\n@グリモワール\nいい？いくよ？\n\n@%(unitName:unit_a)s\nクロピヨは私にとって大事な…\n\n# se \"SE_0734\"\n# select  \"友だち\" \"select_label_1\" \"こいびと\" \"select_label_2\" \"親せき\" \"select_label_3\"\nクロピヨは私にとって大事な…\n\n# label \"select_label_1\"\n# labeljump \"select_label_end\"\n# textwindow \"close\"\n# waitandnext 0.1\n\n# label \"select_label_2\"\n# labeljump \"select_label_end\"\n# textwindow \"close\"\n# waitandnext 0.1\n\n# label \"select_label_3\"\n# labeljump \"select_label_end\"\n# textwindow \"close\"\n# waitandnext 0.1\n\n# label \"select_label_end\"\n# waitandnext 0.1\n\n# sestop \"SE_0734\"\n# fadeout \"black\" 1.2\n# waitandnext 2"
	},
	{
		"ID": 1482,
		"unitID": 2501711,
		"questionID": 9501732,
		"script": "# script \"lisp\"\n# background %(wayback_background)s\n# bgmfile \"bgm255\" \"BgmSeaDate\" 0\n# body %(unit_a)s\n# pos %(unit_a)s 3\n# mask %(unit_a)s off\n# chara %(unit_a)s\n# fadein \"black\" 0.5\n# textflame 0 0\n@\n帰り道－\n\n# fadein \"white\" 0.5\n# se \"SE_0735\"\n# bgm \"stop\"\n# waitandnext 2\n@\n…………\n\n# fadein \"white\" 0.5\n# se \"SE_0735\"\n# waitandnext 2\n@\n…………\n\n@\nふと、\n傍らを歩く彼女が足を止めた…\n\n# textflame 1 1\n# bgmfile \"bgm255\" \"BgmSeaDate\" 0\n# voice 5017 \"grimoire_0002\"\n@グリモワール\nねぇ、マスター\n\n# eye %(unit_a)s \"close\"\n@グリモワール\nワタシってさ、\n今までなら水着なんて\n絶対着なかったんだけど…\n\n# voice 5017 \"grimoire_0007\"\n# eye %(unit_a)s \"normal\"\n@グリモワール\n着ても、クロピヨ以外には\n絶対に見せないんだけど…！\n\n@グリモワール\nどうしてキミには\n見せられるか分かる…？\n\n@グリモワール\nじゃあ、今から出す\n質問に答えられたら…\n\n# voice 5017 \"grimoire_0005\"\n# face %(unit_a)s \"smile\"\n@グリモワール\n答えたげる♪\n\n@グリモワール\nいい？いくよ？\n\n@%(unitName:unit_a)s\n私、ふたご座なんだけど、\nふたご座は英語で何！\n\n# se \"SE_0734\"\n# select  \"Capricorn\" \"select_label_1\" \"Gemini\" \"select_label_2\" \"Sagittarius\" \"select_label_3\"\n私、ふたご座なんだけど、\nふたご座は英語で何！\n\n# label \"select_label_1\"\n# labeljump \"select_label_end\"\n# textwindow \"close\"\n# waitandnext 0.1\n\n# label \"select_label_2\"\n# labeljump \"select_label_end\"\n# textwindow \"close\"\n# waitandnext 0.1\n\n# label \"select_label_3\"\n# labeljump \"select_label_end\"\n# textwindow \"close\"\n# waitandnext 0.1\n\n# label \"select_label_end\"\n# waitandnext 0.1\n\n# sestop \"SE_0734\"\n# fadeout \"black\" 1.2\n# waitandnext 2"
	},
	{
		"ID": 1483,
		"unitID": 2501711,
		"questionID": 9501733,
		"script": "# script \"lisp\"\n# background %(wayback_background)s\n# bgmfile \"bgm255\" \"BgmSeaDate\" 0\n# body %(unit_a)s\n# pos %(unit_a)s 3\n# mask %(unit_a)s off\n# chara %(unit_a)s\n# fadein \"black\" 0.5\n# textflame 0 0\n@\n帰り道－\n\n# fadein \"white\" 0.5\n# se \"SE_0735\"\n# bgm \"stop\"\n# waitandnext 2\n@\n…………\n\n# fadein \"white\" 0.5\n# se \"SE_0735\"\n# waitandnext 2\n@\n…………\n\n@\nふと、\n傍らを歩く彼女が足を止めた…\n\n# textflame 1 1\n# bgmfile \"bgm255\" \"BgmSeaDate\" 0\n# voice 5017 \"grimoire_0002\"\n@グリモワール\nねぇ、マスター\n\n# eye %(unit_a)s \"close\"\n@グリモワール\nワタシってさ、\n今までなら水着なんて\n絶対着なかったんだけど…\n\n# voice 5017 \"grimoire_0007\"\n# eye %(unit_a)s \"normal\"\n@グリモワール\n着ても、クロピヨ以外には\n絶対に見せないんだけど…！\n\n@グリモワール\nどうしてキミには\n見せられるか分かる…？\n\n@グリモワール\nじゃあ、今から出す\n質問に答えられたら…\n\n# voice 5017 \"grimoire_0005\"\n# face %(unit_a)s \"smile\"\n@グリモワール\n答えたげる♪\n\n@グリモワール\nいい？いくよ？\n\n@%(unitName:unit_a)s\n私の誕生月は６月よ！\n６月を英語で答えて！\n\n# se \"SE_0734\"\n# select  \"February\" \"select_label_1\" \"September\" \"select_label_2\" \"June\" \"select_label_3\"\n私の誕生月は６月よ！\n６月を英語で答えて！\n\n# label \"select_label_1\"\n# labeljump \"select_label_end\"\n# textwindow \"close\"\n# waitandnext 0.1\n\n# label \"select_label_2\"\n# labeljump \"select_label_end\"\n# textwindow \"close\"\n# waitandnext 0.1\n\n# label \"select_label_3\"\n# labeljump \"select_label_end\"\n# textwindow \"close\"\n# waitandnext 0.1\n\n# label \"select_label_end\"\n# waitandnext 0.1\n\n# sestop \"SE_0734\"\n# fadeout \"black\" 1.2\n# waitandnext 2"
	},
	{
		"ID": 1484,
		"unitID": 2501711,
		"questionID": 9501734,
		"script": "# script \"lisp\"\n# background %(wayback_background)s\n# bgmfile \"bgm255\" \"BgmSeaDate\" 0\n# body %(unit_a)s\n# pos %(unit_a)s 3\n# mask %(unit_a)s off\n# chara %(unit_a)s\n# fadein \"black\" 0.5\n# textflame 0 0\n@\n帰り道－\n\n# fadein \"white\" 0.5\n# se \"SE_0735\"\n# bgm \"stop\"\n# waitandnext 2\n@\n…………\n\n# fadein \"white\" 0.5\n# se \"SE_0735\"\n# waitandnext 2\n@\n…………\n\n@\nふと、\n傍らを歩く彼女が足を止めた…\n\n# textflame 1 1\n# bgmfile \"bgm255\" \"BgmSeaDate\" 0\n# voice 5017 \"grimoire_0002\"\n@グリモワール\nねぇ、マスター\n\n# eye %(unit_a)s \"close\"\n@グリモワール\nワタシってさ、\n今までなら水着なんて\n絶対着なかったんだけど…\n\n# voice 5017 \"grimoire_0007\"\n# eye %(unit_a)s \"normal\"\n@グリモワール\n着ても、クロピヨ以外には\n絶対に見せないんだけど…！\n\n@グリモワール\nどうしてキミには\n見せられるか分かる…？\n\n@グリモワール\nじゃあ、今から出す\n質問に答えられたら…\n\n# voice 5017 \"grimoire_0005\"\n# face %(unit_a)s \"smile\"\n@グリモワール\n答えたげる♪\n\n@グリモワール\nいい？いくよ？\n\n@%(unitName:unit_a)s\n私の血液型と\n同じなのはこの子ね！\n\n# se \"SE_0734\"\n# select  \"シタ\" \"select_label_1\" \"スラーンド\" \"select_label_2\" \"フランキスカ\" \"select_label_3\"\n私の血液型と\n同じなのはこの子ね！\n\n# label \"select_label_1\"\n# labeljump \"select_label_end\"\n# textwindow \"close\"\n# waitandnext 0.1\n\n# label \"select_label_2\"\n# labeljump \"select_label_end\"\n# textwindow \"close\"\n# waitandnext 0.1\n\n# label \"select_label_3\"\n# labeljump \"select_label_end\"\n# textwindow \"close\"\n# waitandnext 0.1\n\n# label \"select_label_end\"\n# waitandnext 0.1\n\n# sestop \"SE_0734\"\n# fadeout \"black\" 1.2\n# waitandnext 2"
	},
	{
		"ID": 1485,
		"unitID": 2501711,
		"questionID": 9501735,
		"script": "# script \"lisp\"\n# background %(wayback_background)s\n# bgmfile \"bgm255\" \"BgmSeaDate\" 0\n# body %(unit_a)s\n# pos %(unit_a)s 3\n# mask %(unit_a)s off\n# chara %(unit_a)s\n# fadein \"black\" 0.5\n# textflame 0 0\n@\n帰り道－\n\n# fadein \"white\" 0.5\n# se \"SE_0735\"\n# bgm \"stop\"\n# waitandnext 2\n@\n…………\n\n# fadein \"white\" 0.5\n# se \"SE_0735\"\n# waitandnext 2\n@\n…………\n\n@\nふと、\n傍らを歩く彼女が足を止めた…\n\n# textflame 1 1\n# bgmfile \"bgm255\" \"BgmSeaDate\" 0\n# voice 5017 \"grimoire_0002\"\n@グリモワール\nねぇ、マスター\n\n# eye %(unit_a)s \"close\"\n@グリモワール\nワタシってさ、\n今までなら水着なんて\n絶対着なかったんだけど…\n\n# voice 5017 \"grimoire_0007\"\n# eye %(unit_a)s \"normal\"\n@グリモワール\n着ても、クロピヨ以外には\n絶対に見せないんだけど…！\n\n@グリモワール\nどうしてキミには\n見せられるか分かる…？\n\n@グリモワール\nじゃあ、今から出す\n質問に答えられたら…\n\n# voice 5017 \"grimoire_0005\"\n# face %(unit_a)s \"smile\"\n@グリモワール\n答えたげる♪\n\n@グリモワール\nいい？いくよ？\n\n@%(unitName:unit_a)s\n私のファッションスタイル\n「ゴスロリ」って何の略なの？\n\n# se \"SE_0734\"\n# select  \"ゴス子とロリ子\" \"select_label_1\" \"ゴシック・アンド・ロリータ\" \"select_label_2\" \"ゴイスーなロリータ\" \"select_label_3\"\n私のファッションスタイル\n「ゴスロリ」って何の略なの？\n\n# label \"select_label_1\"\n# labeljump \"select_label_end\"\n# textwindow \"close\"\n# waitandnext 0.1\n\n# label \"select_label_2\"\n# labeljump \"select_label_end\"\n# textwindow \"close\"\n# waitandnext 0.1\n\n# label \"select_label_3\"\n# labeljump \"select_label_end\"\n# textwindow \"close\"\n# waitandnext 0.1\n\n# label \"select_label_end\"\n# waitandnext 0.1\n\n# sestop \"SE_0734\"\n# fadeout \"black\" 1.2\n# waitandnext 2"
	},
	{
		"ID": 1486,
		"unitID": 2501711,
		"questionID": 9501736,
		"script": "# script \"lisp\"\n# background %(wayback_background)s\n# bgmfile \"bgm255\" \"BgmSeaDate\" 0\n# body %(unit_a)s\n# pos %(unit_a)s 3\n# mask %(unit_a)s off\n# chara %(unit_a)s\n# fadein \"black\" 0.5\n# textflame 0 0\n@\n帰り道－\n\n# fadein \"white\" 0.5\n# se \"SE_0735\"\n# bgm \"stop\"\n# waitandnext 2\n@\n…………\n\n# fadein \"white\" 0.5\n# se \"SE_0735\"\n# waitandnext 2\n@\n…………\n\n@\nふと、\n傍らを歩く彼女が足を止めた…\n\n# textflame 1 1\n# bgmfile \"bgm255\" \"BgmSeaDate\" 0\n# voice 5017 \"grimoire_0002\"\n@グリモワール\nねぇ、マスター\n\n# eye %(unit_a)s \"close\"\n@グリモワール\nワタシってさ、\n今までなら水着なんて\n絶対着なかったんだけど…\n\n# voice 5017 \"grimoire_0007\"\n# eye %(unit_a)s \"normal\"\n@グリモワール\n着ても、クロピヨ以外には\n絶対に見せないんだけど…！\n\n@グリモワール\nどうしてキミには\n見せられるか分かる…？\n\n@グリモワール\nじゃあ、今から出す\n質問に答えられたら…\n\n# voice 5017 \"grimoire_0005\"\n# face %(unit_a)s \"smile\"\n@グリモワール\n答えたげる♪\n\n@グリモワール\nいい？いくよ？\n\n@%(unitName:unit_a)s\n私の瞳の色、なにっぽい？\n\n# se \"SE_0734\"\n# select  \"黒っぽい\" \"select_label_1\" \"色っぽい\" \"select_label_2\" \"赤っぽい\" \"select_label_3\"\n私の瞳の色、なにっぽい？\n\n# label \"select_label_1\"\n# labeljump \"select_label_end\"\n# textwindow \"close\"\n# waitandnext 0.1\n\n# label \"select_label_2\"\n# labeljump \"select_label_end\"\n# textwindow \"close\"\n# waitandnext 0.1\n\n# label \"select_label_3\"\n# labeljump \"select_label_end\"\n# textwindow \"close\"\n# waitandnext 0.1\n\n# label \"select_label_end\"\n# waitandnext 0.1\n\n# sestop \"SE_0734\"\n# fadeout \"black\" 1.2\n# waitandnext 2"
	},
	{
		"ID": 1487,
		"unitID": 2501711,
		"questionID": 9501737,
		"script": "# script \"lisp\"\n# background %(wayback_background)s\n# bgmfile \"bgm255\" \"BgmSeaDate\" 0\n# body %(unit_a)s\n# pos %(unit_a)s 3\n# mask %(unit_a)s off\n# chara %(unit_a)s\n# fadein \"black\" 0.5\n# textflame 0 0\n@\n帰り道－\n\n# fadein \"white\" 0.5\n# se \"SE_0735\"\n# bgm \"stop\"\n# waitandnext 2\n@\n…………\n\n# fadein \"white\" 0.5\n# se \"SE_0735\"\n# waitandnext 2\n@\n…………\n\n@\nふと、\n傍らを歩く彼女が足を止めた…\n\n# textflame 1 1\n# bgmfile \"bgm255\" \"BgmSeaDate\" 0\n# voice 5017 \"grimoire_0002\"\n@グリモワール\nねぇ、マスター\n\n# eye %(unit_a)s \"close\"\n@グリモワール\nワタシってさ、\n今までなら水着なんて\n絶対着なかったんだけど…\n\n# voice 5017 \"grimoire_0007\"\n# eye %(unit_a)s \"normal\"\n@グリモワール\n着ても、クロピヨ以外には\n絶対に見せないんだけど…！\n\n@グリモワール\nどうしてキミには\n見せられるか分かる…？\n\n@グリモワール\nじゃあ、今から出す\n質問に答えられたら…\n\n# voice 5017 \"grimoire_0005\"\n# face %(unit_a)s \"smile\"\n@グリモワール\n答えたげる♪\n\n@グリモワール\nいい？いくよ？\n\n@%(unitName:unit_a)s\n私と血液型が違うのは…？\n\n# se \"SE_0734\"\n# select  \"グングニル\" \"select_label_1\" \"ピナーカ\" \"select_label_2\" \"レーヴァテイン\" \"select_label_3\"\n私と血液型が違うのは…？\n\n# label \"select_label_1\"\n# labeljump \"select_label_end\"\n# textwindow \"close\"\n# waitandnext 0.1\n\n# label \"select_label_2\"\n# labeljump \"select_label_end\"\n# textwindow \"close\"\n# waitandnext 0.1\n\n# label \"select_label_3\"\n# labeljump \"select_label_end\"\n# textwindow \"close\"\n# waitandnext 0.1\n\n# label \"select_label_end\"\n# waitandnext 0.1\n\n# sestop \"SE_0734\"\n# fadeout \"black\" 1.2\n# waitandnext 2"
	},
	{
		"ID": 1488,
		"unitID": 2501711,
		"questionID": 9501738,
		"script": "# script \"lisp\"\n# background %(wayback_background)s\n# bgmfile \"bgm255\" \"BgmSeaDate\" 0\n# body %(unit_a)s\n# pos %(unit_a)s 3\n# mask %(unit_a)s off\n# chara %(unit_a)s\n# fadein \"black\" 0.5\n# textflame 0 0\n@\n帰り道－\n\n# fadein \"white\" 0.5\n# se \"SE_0735\"\n# bgm \"stop\"\n# waitandnext 2\n@\n…………\n\n# fadein \"white\" 0.5\n# se \"SE_0735\"\n# waitandnext 2\n@\n…………\n\n@\nふと、\n傍らを歩く彼女が足を止めた…\n\n# textflame 1 1\n# bgmfile \"bgm255\" \"BgmSeaDate\" 0\n# voice 5017 \"grimoire_0002\"\n@グリモワール\nねぇ、マスター\n\n# eye %(unit_a)s \"close\"\n@グリモワール\nワタシってさ、\n今までなら水着なんて\n絶対着なかったんだけど…\n\n# voice 5017 \"grimoire_0007\"\n# eye %(unit_a)s \"normal\"\n@グリモワール\n着ても、クロピヨ以外には\n絶対に見せないんだけど…！\n\n@グリモワール\nどうしてキミには\n見せられるか分かる…？\n\n@グリモワール\nじゃあ、今から出す\n質問に答えられたら…\n\n# voice 5017 \"grimoire_0005\"\n# face %(unit_a)s \"smile\"\n@グリモワール\n答えたげる♪\n\n@グリモワール\nいい？いくよ？\n\n@%(unitName:unit_a)s\nうーん、私、意外と…\n\n# se \"SE_0734\"\n# select  \"怒りっぽいの\" \"select_label_1\" \"落ち込みやすいの\" \"select_label_2\" \"飽きっぽいの\" \"select_label_3\"\nうーん、私、意外と…\n\n# label \"select_label_1\"\n# labeljump \"select_label_end\"\n# textwindow \"close\"\n# waitandnext 0.1\n\n# label \"select_label_2\"\n# labeljump \"select_label_end\"\n# textwindow \"close\"\n# waitandnext 0.1\n\n# label \"select_label_3\"\n# labeljump \"select_label_end\"\n# textwindow \"close\"\n# waitandnext 0.1\n\n# label \"select_label_end\"\n# waitandnext 0.1\n\n# sestop \"SE_0734\"\n# fadeout \"black\" 1.2\n# waitandnext 2"
	},
	{
		"ID": 1489,
		"unitID": 2501711,
		"questionID": 9501739,
		"script": "# script \"lisp\"\n# background %(wayback_background)s\n# bgmfile \"bgm255\" \"BgmSeaDate\" 0\n# body %(unit_a)s\n# pos %(unit_a)s 3\n# mask %(unit_a)s off\n# chara %(unit_a)s\n# fadein \"black\" 0.5\n# textflame 0 0\n@\n帰り道－\n\n# fadein \"white\" 0.5\n# se \"SE_0735\"\n# bgm \"stop\"\n# waitandnext 2\n@\n…………\n\n# fadein \"white\" 0.5\n# se \"SE_0735\"\n# waitandnext 2\n@\n…………\n\n@\nふと、\n傍らを歩く彼女が足を止めた…\n\n# textflame 1 1\n# bgmfile \"bgm255\" \"BgmSeaDate\" 0\n# voice 5017 \"grimoire_0002\"\n@グリモワール\nねぇ、マスター\n\n# eye %(unit_a)s \"close\"\n@グリモワール\nワタシってさ、\n今までなら水着なんて\n絶対着なかったんだけど…\n\n# voice 5017 \"grimoire_0007\"\n# eye %(unit_a)s \"normal\"\n@グリモワール\n着ても、クロピヨ以外には\n絶対に見せないんだけど…！\n\n@グリモワール\nどうしてキミには\n見せられるか分かる…？\n\n@グリモワール\nじゃあ、今から出す\n質問に答えられたら…\n\n# voice 5017 \"grimoire_0005\"\n# face %(unit_a)s \"smile\"\n@グリモワール\n答えたげる♪\n\n@グリモワール\nいい？いくよ？\n\n@%(unitName:unit_a)s\n私と同じ誕生月の子はだれ？\n\n# se \"SE_0734\"\n# select  \"アポロン\" \"select_label_1\" \"エロース\" \"select_label_2\" \"アダマス\" \"select_label_3\"\n私と同じ誕生月の子はだれ？\n\n# label \"select_label_1\"\n# labeljump \"select_label_end\"\n# textwindow \"close\"\n# waitandnext 0.1\n\n# label \"select_label_2\"\n# labeljump \"select_label_end\"\n# textwindow \"close\"\n# waitandnext 0.1\n\n# label \"select_label_3\"\n# labeljump \"select_label_end\"\n# textwindow \"close\"\n# waitandnext 0.1\n\n# label \"select_label_end\"\n# waitandnext 0.1\n\n# sestop \"SE_0734\"\n# fadeout \"black\" 1.2\n# waitandnext 2"
	},
	{
		"ID": 1490,
		"unitID": 2501711,
		"questionID": 9501740,
		"script": "# script \"lisp\"\n# background %(wayback_background)s\n# bgmfile \"bgm255\" \"BgmSeaDate\" 0\n# body %(unit_a)s\n# pos %(unit_a)s 3\n# mask %(unit_a)s off\n# chara %(unit_a)s\n# fadein \"black\" 0.5\n# textflame 0 0\n@\n帰り道－\n\n# fadein \"white\" 0.5\n# se \"SE_0735\"\n# bgm \"stop\"\n# waitandnext 2\n@\n…………\n\n# fadein \"white\" 0.5\n# se \"SE_0735\"\n# waitandnext 2\n@\n…………\n\n@\nふと、\n傍らを歩く彼女が足を止めた…\n\n# textflame 1 1\n# bgmfile \"bgm255\" \"BgmSeaDate\" 0\n# voice 5017 \"grimoire_0002\"\n@グリモワール\nねぇ、マスター\n\n# eye %(unit_a)s \"close\"\n@グリモワール\nワタシってさ、\n今までなら水着なんて\n絶対着なかったんだけど…\n\n# voice 5017 \"grimoire_0007\"\n# eye %(unit_a)s \"normal\"\n@グリモワール\n着ても、クロピヨ以外には\n絶対に見せないんだけど…！\n\n@グリモワール\nどうしてキミには\n見せられるか分かる…？\n\n@グリモワール\nじゃあ、今から出す\n質問に答えられたら…\n\n# voice 5017 \"grimoire_0005\"\n# face %(unit_a)s \"smile\"\n@グリモワール\n答えたげる♪\n\n@グリモワール\nいい？いくよ？\n\n@%(unitName:unit_a)s\n私の趣味をいいなさい！\n\n# se \"SE_0734\"\n# select  \"魔術の研究\" \"select_label_1\" \"奇術の研究\" \"select_label_2\" \"忍術の研究\" \"select_label_3\"\n私の趣味をいいなさい！\n\n# label \"select_label_1\"\n# labeljump \"select_label_end\"\n# textwindow \"close\"\n# waitandnext 0.1\n\n# label \"select_label_2\"\n# labeljump \"select_label_end\"\n# textwindow \"close\"\n# waitandnext 0.1\n\n# label \"select_label_3\"\n# labeljump \"select_label_end\"\n# textwindow \"close\"\n# waitandnext 0.1\n\n# label \"select_label_end\"\n# waitandnext 0.1\n\n# sestop \"SE_0734\"\n# fadeout \"black\" 1.2\n# waitandnext 2"
	},
	{
		"ID": 1491,
		"unitID": 2501711,
		"questionID": 9501741,
		"script": "# script \"lisp\"\n# background %(wayback_background)s\n# bgmfile \"bgm255\" \"BgmSeaDate\" 0\n# body %(unit_a)s\n# pos %(unit_a)s 3\n# mask %(unit_a)s off\n# chara %(unit_a)s\n# fadein \"black\" 0.5\n# textflame 0 0\n@\n帰り道－\n\n# fadein \"white\" 0.5\n# se \"SE_0735\"\n# bgm \"stop\"\n# waitandnext 2\n@\n…………\n\n# fadein \"white\" 0.5\n# se \"SE_0735\"\n# waitandnext 2\n@\n…………\n\n# serif 1\n# voice 9999 \"durin_0044\"\n@？？？？\n…あれ？\nアンタ達、なにしてんの？\n\n# voice 9999 \"durin_0040\"\n# serif 1\n@デュリン\n…はっはーん、わかった！\nデート中ね？\n別に隠さなくていいわよ\n\n# serif 1\n# voice 9999 \"durin_0043\"\n@デュリン\n…そうだ！\nちょっとアンタ、こっち来て…\n\n;;//デート相手立ち絵消去\n# body 0\n# pos 0 3\n# scale 0 0.8 0\n# alpha 0 0 0\n# mask 0 off\n# fadeout \"black\" 1\n# waitandnext 2\n\n# fadein \"black\" 0.5\n# serif 1\n# textwindow \"close\"\n# serif 0\n# textwindow \"normal\"\n# bgmfile \"bgm255\" \"BgmSeaDate\" 0\n# alpha %(unit_a)s 0 0\n# alpha 0 1 0\n# textflame 1 1\n# voice 9999 \"durin_0046\"\n@デュリン\n…せっかくだから\nアンタがその子のこと\nどのぐらい知ってるか試してあげる\n\n# textflame 1 1\n@デュリン\nデートするぐらいなんだもの\n%(unitName:unit_a)sのこと\nよく知ってるんでしょ？\n\n# textflame 1 1\n# voice 9999 \"durin_0033\"\n@デュリン\n見事正解できたらあの子に\nアンタのこと良く言っといてあげる\n…それじゃ、行くわよ！\n\n# se \"SE_0734\"\n# select  \"ワタシ\" \"select_label_1\" \"あちき\" \"select_label_2\" \"オレ\" \"select_label_3\"\nグリモワールの一人称は\n次のうちどれ？\n\n# label \"select_label_1\"\n# labeljump \"select_label_end\"\n# textwindow \"close\"\n# waitandnext 0.1\n\n# label \"select_label_2\"\n# labeljump \"select_label_end\"\n# textwindow \"close\"\n# waitandnext 0.1\n\n# label \"select_label_3\"\n# labeljump \"select_label_end\"\n# textwindow \"close\"\n# waitandnext 0.1\n\n# label \"select_label_end\"\n# waitandnext 0.1\n\n# sestop \"SE_0734\"\n# fadeout \"black\" 1.2\n# waitandnext 2"
	},
	{
		"ID": 1492,
		"unitID": 2501711,
		"questionID": 9501742,
		"script": "# script \"lisp\"\n# background %(wayback_background)s\n# bgmfile \"bgm255\" \"BgmSeaDate\" 0\n# body %(unit_a)s\n# pos %(unit_a)s 3\n# mask %(unit_a)s off\n# chara %(unit_a)s\n# fadein \"black\" 0.5\n# textflame 0 0\n@\n帰り道－\n\n# fadein \"white\" 0.5\n# se \"SE_0735\"\n# bgm \"stop\"\n# waitandnext 2\n@\n…………\n\n# fadein \"white\" 0.5\n# se \"SE_0735\"\n# waitandnext 2\n@\n…………\n\n# serif 1\n# voice 9999 \"durin_0044\"\n@？？？？\n…あれ？\nアンタ達、なにしてんの？\n\n# voice 9999 \"durin_0040\"\n# serif 1\n@デュリン\n…はっはーん、わかった！\nデート中ね？\n別に隠さなくていいわよ\n\n# serif 1\n# voice 9999 \"durin_0043\"\n@デュリン\n…そうだ！\nちょっとアンタ、こっち来て…\n\n;;//デート相手立ち絵消去\n# body 0\n# pos 0 3\n# scale 0 0.8 0\n# alpha 0 0 0\n# mask 0 off\n# fadeout \"black\" 1\n# waitandnext 2\n\n# fadein \"black\" 0.5\n# serif 1\n# textwindow \"close\"\n# serif 0\n# textwindow \"normal\"\n# bgmfile \"bgm255\" \"BgmSeaDate\" 0\n# alpha %(unit_a)s 0 0\n# alpha 0 1 0\n# textflame 1 1\n# voice 9999 \"durin_0046\"\n@デュリン\n…せっかくだから\nアンタがその子のこと\nどのぐらい知ってるか試してあげる\n\n# textflame 1 1\n@デュリン\nデートするぐらいなんだもの\n%(unitName:unit_a)sのこと\nよく知ってるんでしょ？\n\n# textflame 1 1\n# voice 9999 \"durin_0033\"\n@デュリン\n見事正解できたらあの子に\nアンタのこと良く言っといてあげる\n…それじゃ、行くわよ！\n\n# se \"SE_0734\"\n# select  \"主\" \"select_label_1\" \"マスター\" \"select_label_2\" \"ご主人様\" \"select_label_3\"\nグリモワールはアンタのこと、\nなんて呼んでる？\n\n# label \"select_label_1\"\n# labeljump \"select_label_end\"\n# textwindow \"close\"\n# waitandnext 0.1\n\n# label \"select_label_2\"\n# labeljump \"select_label_end\"\n# textwindow \"close\"\n# waitandnext 0.1\n\n# label \"select_label_3\"\n# labeljump \"select_label_end\"\n# textwindow \"close\"\n# waitandnext 0.1\n\n# label \"select_label_end\"\n# waitandnext 0.1\n\n# sestop \"SE_0734\"\n# fadeout \"black\" 1.2\n# waitandnext 2"
	},
	{
		"ID": 1493,
		"unitID": 2501711,
		"questionID": 9501743,
		"script": "# script \"lisp\"\n# background %(wayback_background)s\n# bgmfile \"bgm255\" \"BgmSeaDate\" 0\n# body %(unit_a)s\n# pos %(unit_a)s 3\n# mask %(unit_a)s off\n# chara %(unit_a)s\n# fadein \"black\" 0.5\n# textflame 0 0\n@\n帰り道－\n\n# fadein \"white\" 0.5\n# se \"SE_0735\"\n# bgm \"stop\"\n# waitandnext 2\n@\n…………\n\n# fadein \"white\" 0.5\n# se \"SE_0735\"\n# waitandnext 2\n@\n…………\n\n# serif 1\n# voice 9999 \"durin_0044\"\n@？？？？\n…あれ？\nアンタ達、なにしてんの？\n\n# voice 9999 \"durin_0040\"\n# serif 1\n@デュリン\n…はっはーん、わかった！\nデート中ね？\n別に隠さなくていいわよ\n\n# serif 1\n# voice 9999 \"durin_0043\"\n@デュリン\n…そうだ！\nちょっとアンタ、こっち来て…\n\n;;//デート相手立ち絵消去\n# body 0\n# pos 0 3\n# scale 0 0.8 0\n# alpha 0 0 0\n# mask 0 off\n# fadeout \"black\" 1\n# waitandnext 2\n\n# fadein \"black\" 0.5\n# serif 1\n# textwindow \"close\"\n# serif 0\n# textwindow \"normal\"\n# bgmfile \"bgm255\" \"BgmSeaDate\" 0\n# alpha %(unit_a)s 0 0\n# alpha 0 1 0\n# textflame 1 1\n# voice 9999 \"durin_0046\"\n@デュリン\n…せっかくだから\nアンタがその子のこと\nどのぐらい知ってるか試してあげる\n\n# textflame 1 1\n@デュリン\nデートするぐらいなんだもの\n%(unitName:unit_a)sのこと\nよく知ってるんでしょ？\n\n# textflame 1 1\n# voice 9999 \"durin_0033\"\n@デュリン\n見事正解できたらあの子に\nアンタのこと良く言っといてあげる\n…それじゃ、行くわよ！\n\n# se \"SE_0734\"\n# select  \"確か82\" \"select_label_1\" \"確か78\" \"select_label_2\" \"確かヒミツ\" \"select_label_3\"\nグリモワールの\nバストサイズがどのくらいか\nアンタ…知ってるの？\n\n# label \"select_label_1\"\n# labeljump \"select_label_end\"\n# textwindow \"close\"\n# waitandnext 0.1\n\n# label \"select_label_2\"\n# labeljump \"select_label_end\"\n# textwindow \"close\"\n# waitandnext 0.1\n\n# label \"select_label_3\"\n# labeljump \"select_label_end\"\n# textwindow \"close\"\n# waitandnext 0.1\n\n# label \"select_label_end\"\n# waitandnext 0.1\n\n# sestop \"SE_0734\"\n# fadeout \"black\" 1.2\n# waitandnext 2"
	},
	{
		"ID": 1494,
		"unitID": 2501711,
		"questionID": 9501744,
		"script": "# script \"lisp\"\n# background %(wayback_background)s\n# bgmfile \"bgm255\" \"BgmSeaDate\" 0\n# body %(unit_a)s\n# pos %(unit_a)s 3\n# mask %(unit_a)s off\n# chara %(unit_a)s\n# fadein \"black\" 0.5\n# textflame 0 0\n@\n帰り道－\n\n# fadein \"white\" 0.5\n# se \"SE_0735\"\n# bgm \"stop\"\n# waitandnext 2\n@\n…………\n\n# fadein \"white\" 0.5\n# se \"SE_0735\"\n# waitandnext 2\n@\n…………\n\n# serif 1\n# voice 9999 \"durin_0044\"\n@？？？？\n…あれ？\nアンタ達、なにしてんの？\n\n# voice 9999 \"durin_0040\"\n# serif 1\n@デュリン\n…はっはーん、わかった！\nデート中ね？\n別に隠さなくていいわよ\n\n# serif 1\n# voice 9999 \"durin_0043\"\n@デュリン\n…そうだ！\nちょっとアンタ、こっち来て…\n\n;;//デート相手立ち絵消去\n# body 0\n# pos 0 3\n# scale 0 0.8 0\n# alpha 0 0 0\n# mask 0 off\n# fadeout \"black\" 1\n# waitandnext 2\n\n# fadein \"black\" 0.5\n# serif 1\n# textwindow \"close\"\n# serif 0\n# textwindow \"normal\"\n# bgmfile \"bgm255\" \"BgmSeaDate\" 0\n# alpha %(unit_a)s 0 0\n# alpha 0 1 0\n# textflame 1 1\n# voice 9999 \"durin_0046\"\n@デュリン\n…せっかくだから\nアンタがその子のこと\nどのぐらい知ってるか試してあげる\n\n# textflame 1 1\n@デュリン\nデートするぐらいなんだもの\n%(unitName:unit_a)sのこと\nよく知ってるんでしょ？\n\n# textflame 1 1\n# voice 9999 \"durin_0033\"\n@デュリン\n見事正解できたらあの子に\nアンタのこと良く言っといてあげる\n…それじゃ、行くわよ！\n\n# se \"SE_0734\"\n# select  \"55\" \"select_label_1\" \"52\" \"select_label_2\" \"58\" \"select_label_3\"\nグリモワールの\nウエストサイズがどのくらいか\nアンタ…知ってるの？\n\n# label \"select_label_1\"\n# labeljump \"select_label_end\"\n# textwindow \"close\"\n# waitandnext 0.1\n\n# label \"select_label_2\"\n# labeljump \"select_label_end\"\n# textwindow \"close\"\n# waitandnext 0.1\n\n# label \"select_label_3\"\n# labeljump \"select_label_end\"\n# textwindow \"close\"\n# waitandnext 0.1\n\n# label \"select_label_end\"\n# waitandnext 0.1\n\n# sestop \"SE_0734\"\n# fadeout \"black\" 1.2\n# waitandnext 2"
	},
	{
		"ID": 1495,
		"unitID": 2501711,
		"questionID": 9501745,
		"script": "# script \"lisp\"\n# background %(wayback_background)s\n# bgmfile \"bgm255\" \"BgmSeaDate\" 0\n# body %(unit_a)s\n# pos %(unit_a)s 3\n# mask %(unit_a)s off\n# chara %(unit_a)s\n# fadein \"black\" 0.5\n# textflame 0 0\n@\n帰り道－\n\n# fadein \"white\" 0.5\n# se \"SE_0735\"\n# bgm \"stop\"\n# waitandnext 2\n@\n…………\n\n# fadein \"white\" 0.5\n# se \"SE_0735\"\n# waitandnext 2\n@\n…………\n\n# serif 1\n# voice 9999 \"durin_0044\"\n@？？？？\n…あれ？\nアンタ達、なにしてんの？\n\n# voice 9999 \"durin_0040\"\n# serif 1\n@デュリン\n…はっはーん、わかった！\nデート中ね？\n別に隠さなくていいわよ\n\n# serif 1\n# voice 9999 \"durin_0043\"\n@デュリン\n…そうだ！\nちょっとアンタ、こっち来て…\n\n;;//デート相手立ち絵消去\n# body 0\n# pos 0 3\n# scale 0 0.8 0\n# alpha 0 0 0\n# mask 0 off\n# fadeout \"black\" 1\n# waitandnext 2\n\n# fadein \"black\" 0.5\n# serif 1\n# textwindow \"close\"\n# serif 0\n# textwindow \"normal\"\n# bgmfile \"bgm255\" \"BgmSeaDate\" 0\n# alpha %(unit_a)s 0 0\n# alpha 0 1 0\n# textflame 1 1\n# voice 9999 \"durin_0046\"\n@デュリン\n…せっかくだから\nアンタがその子のこと\nどのぐらい知ってるか試してあげる\n\n# textflame 1 1\n@デュリン\nデートするぐらいなんだもの\n%(unitName:unit_a)sのこと\nよく知ってるんでしょ？\n\n# textflame 1 1\n# voice 9999 \"durin_0033\"\n@デュリン\n見事正解できたらあの子に\nアンタのこと良く言っといてあげる\n…それじゃ、行くわよ！\n\n# se \"SE_0734\"\n# select  \"74\" \"select_label_1\" \"76\" \"select_label_2\" \"80\" \"select_label_3\"\nグリモワールの\nヒップサイズがどのくらいか\nアンタ…知ってるの？\n\n# label \"select_label_1\"\n# labeljump \"select_label_end\"\n# textwindow \"close\"\n# waitandnext 0.1\n\n# label \"select_label_2\"\n# labeljump \"select_label_end\"\n# textwindow \"close\"\n# waitandnext 0.1\n\n# label \"select_label_3\"\n# labeljump \"select_label_end\"\n# textwindow \"close\"\n# waitandnext 0.1\n\n# label \"select_label_end\"\n# waitandnext 0.1\n\n# sestop \"SE_0734\"\n# fadeout \"black\" 1.2\n# waitandnext 2"
	},
	{
		"ID": 1496,
		"unitID": 2501711,
		"questionID": 9501746,
		"script": "# script \"lisp\"\n# background %(wayback_background)s\n# bgmfile \"bgm255\" \"BgmSeaDate\" 0\n# body %(unit_a)s\n# pos %(unit_a)s 3\n# mask %(unit_a)s off\n# chara %(unit_a)s\n# fadein \"black\" 0.5\n# textflame 0 0\n@\n帰り道－\n\n# fadein \"white\" 0.5\n# se \"SE_0735\"\n# bgm \"stop\"\n# waitandnext 2\n@\n…………\n\n# fadein \"white\" 0.5\n# se \"SE_0735\"\n# waitandnext 2\n@\n…………\n\n# serif 1\n# voice 9999 \"durin_0044\"\n@？？？？\n…あれ？\nアンタ達、なにしてんの？\n\n# voice 9999 \"durin_0040\"\n# serif 1\n@デュリン\n…はっはーん、わかった！\nデート中ね？\n別に隠さなくていいわよ\n\n# serif 1\n# voice 9999 \"durin_0043\"\n@デュリン\n…そうだ！\nちょっとアンタ、こっち来て…\n\n;;//デート相手立ち絵消去\n# body 0\n# pos 0 3\n# scale 0 0.8 0\n# alpha 0 0 0\n# mask 0 off\n# fadeout \"black\" 1\n# waitandnext 2\n\n# fadein \"black\" 0.5\n# serif 1\n# textwindow \"close\"\n# serif 0\n# textwindow \"normal\"\n# bgmfile \"bgm255\" \"BgmSeaDate\" 0\n# alpha %(unit_a)s 0 0\n# alpha 0 1 0\n# textflame 1 1\n# voice 9999 \"durin_0046\"\n@デュリン\n…せっかくだから\nアンタがその子のこと\nどのぐらい知ってるか試してあげる\n\n# textflame 1 1\n@デュリン\nデートするぐらいなんだもの\n%(unitName:unit_a)sのこと\nよく知ってるんでしょ？\n\n# textflame 1 1\n# voice 9999 \"durin_0033\"\n@デュリン\n見事正解できたらあの子に\nアンタのこと良く言っといてあげる\n…それじゃ、行くわよ！\n\n# se \"SE_0734\"\n# select  \"37\" \"select_label_1\" \"43\" \"select_label_2\" \"36\" \"select_label_3\"\nグリモワールの体重は\n次のうちどれ？\n\n# label \"select_label_1\"\n# labeljump \"select_label_end\"\n# textwindow \"close\"\n# waitandnext 0.1\n\n# label \"select_label_2\"\n# labeljump \"select_label_end\"\n# textwindow \"close\"\n# waitandnext 0.1\n\n# label \"select_label_3\"\n# labeljump \"select_label_end\"\n# textwindow \"close\"\n# waitandnext 0.1\n\n# label \"select_label_end\"\n# waitandnext 0.1\n\n# sestop \"SE_0734\"\n# fadeout \"black\" 1.2\n# waitandnext 2"
	},
	{
		"ID": 1497,
		"unitID": 2501711,
		"questionID": 9501747,
		"script": "# script \"lisp\"\n# background %(wayback_background)s\n# bgmfile \"bgm255\" \"BgmSeaDate\" 0\n# body %(unit_a)s\n# pos %(unit_a)s 3\n# mask %(unit_a)s off\n# chara %(unit_a)s\n# fadein \"black\" 0.5\n# textflame 0 0\n@\n帰り道－\n\n# fadein \"white\" 0.5\n# se \"SE_0735\"\n# bgm \"stop\"\n# waitandnext 2\n@\n…………\n\n# fadein \"white\" 0.5\n# se \"SE_0735\"\n# waitandnext 2\n@\n…………\n\n# serif 1\n# voice 9999 \"durin_0044\"\n@？？？？\n…あれ？\nアンタ達、なにしてんの？\n\n# voice 9999 \"durin_0040\"\n# serif 1\n@デュリン\n…はっはーん、わかった！\nデート中ね？\n別に隠さなくていいわよ\n\n# serif 1\n# voice 9999 \"durin_0043\"\n@デュリン\n…そうだ！\nちょっとアンタ、こっち来て…\n\n;;//デート相手立ち絵消去\n# body 0\n# pos 0 3\n# scale 0 0.8 0\n# alpha 0 0 0\n# mask 0 off\n# fadeout \"black\" 1\n# waitandnext 2\n\n# fadein \"black\" 0.5\n# serif 1\n# textwindow \"close\"\n# serif 0\n# textwindow \"normal\"\n# bgmfile \"bgm255\" \"BgmSeaDate\" 0\n# alpha %(unit_a)s 0 0\n# alpha 0 1 0\n# textflame 1 1\n# voice 9999 \"durin_0046\"\n@デュリン\n…せっかくだから\nアンタがその子のこと\nどのぐらい知ってるか試してあげる\n\n# textflame 1 1\n@デュリン\nデートするぐらいなんだもの\n%(unitName:unit_a)sのこと\nよく知ってるんでしょ？\n\n# textflame 1 1\n# voice 9999 \"durin_0033\"\n@デュリン\n見事正解できたらあの子に\nアンタのこと良く言っといてあげる\n…それじゃ、行くわよ！\n\n# se \"SE_0734\"\n# select  \"不明\" \"select_label_1\" \"126\" \"select_label_2\" \"138\" \"select_label_3\"\nグリモワールの\nバスト＋ウエスト＋ヒップは\nいくつかわかる？\n\n# label \"select_label_1\"\n# labeljump \"select_label_end\"\n# textwindow \"close\"\n# waitandnext 0.1\n\n# label \"select_label_2\"\n# labeljump \"select_label_end\"\n# textwindow \"close\"\n# waitandnext 0.1\n\n# label \"select_label_3\"\n# labeljump \"select_label_end\"\n# textwindow \"close\"\n# waitandnext 0.1\n\n# label \"select_label_end\"\n# waitandnext 0.1\n\n# sestop \"SE_0734\"\n# fadeout \"black\" 1.2\n# waitandnext 2"
	},
	{
		"ID": 1498,
		"unitID": 2501711,
		"questionID": 9501748,
		"script": "# script \"lisp\"\n# background %(wayback_background)s\n# bgmfile \"bgm255\" \"BgmSeaDate\" 0\n# body %(unit_a)s\n# pos %(unit_a)s 3\n# mask %(unit_a)s off\n# chara %(unit_a)s\n# fadein \"black\" 0.5\n# textflame 0 0\n@\n帰り道－\n\n# fadein \"white\" 0.5\n# se \"SE_0735\"\n# bgm \"stop\"\n# waitandnext 2\n@\n…………\n\n# fadein \"white\" 0.5\n# se \"SE_0735\"\n# waitandnext 2\n@\n…………\n\n# serif 1\n# voice 9999 \"durin_0044\"\n@？？？？\n…あれ？\nアンタ達、なにしてんの？\n\n# voice 9999 \"durin_0040\"\n# serif 1\n@デュリン\n…はっはーん、わかった！\nデート中ね？\n別に隠さなくていいわよ\n\n# serif 1\n# voice 9999 \"durin_0043\"\n@デュリン\n…そうだ！\nちょっとアンタ、こっち来て…\n\n;;//デート相手立ち絵消去\n# body 0\n# pos 0 3\n# scale 0 0.8 0\n# alpha 0 0 0\n# mask 0 off\n# fadeout \"black\" 1\n# waitandnext 2\n\n# fadein \"black\" 0.5\n# serif 1\n# textwindow \"close\"\n# serif 0\n# textwindow \"normal\"\n# bgmfile \"bgm255\" \"BgmSeaDate\" 0\n# alpha %(unit_a)s 0 0\n# alpha 0 1 0\n# textflame 1 1\n# voice 9999 \"durin_0046\"\n@デュリン\n…せっかくだから\nアンタがその子のこと\nどのぐらい知ってるか試してあげる\n\n# textflame 1 1\n@デュリン\nデートするぐらいなんだもの\n%(unitName:unit_a)sのこと\nよく知ってるんでしょ？\n\n# textflame 1 1\n# voice 9999 \"durin_0033\"\n@デュリン\n見事正解できたらあの子に\nアンタのこと良く言っといてあげる\n…それじゃ、行くわよ！\n\n# se \"SE_0734\"\n# select  \"白\" \"select_label_1\" \"黒\" \"select_label_2\" \"青\" \"select_label_3\"\nグリモワールの水着の色は\n次のうちどれ？\n\n# label \"select_label_1\"\n# labeljump \"select_label_end\"\n# textwindow \"close\"\n# waitandnext 0.1\n\n# label \"select_label_2\"\n# labeljump \"select_label_end\"\n# textwindow \"close\"\n# waitandnext 0.1\n\n# label \"select_label_3\"\n# labeljump \"select_label_end\"\n# textwindow \"close\"\n# waitandnext 0.1\n\n# label \"select_label_end\"\n# waitandnext 0.1\n\n# sestop \"SE_0734\"\n# fadeout \"black\" 1.2\n# waitandnext 2"
	},
	{
		"ID": 1499,
		"unitID": 2501711,
		"questionID": 9501749,
		"script": "# script \"lisp\"\n# background %(wayback_background)s\n# bgmfile \"bgm255\" \"BgmSeaDate\" 0\n# body %(unit_a)s\n# pos %(unit_a)s 3\n# mask %(unit_a)s off\n# chara %(unit_a)s\n# fadein \"black\" 0.5\n# textflame 0 0\n@\n帰り道－\n\n# fadein \"white\" 0.5\n# se \"SE_0735\"\n# bgm \"stop\"\n# waitandnext 2\n@\n…………\n\n# fadein \"white\" 0.5\n# se \"SE_0735\"\n# waitandnext 2\n@\n…………\n\n# serif 1\n# voice 9999 \"durin_0044\"\n@？？？？\n…あれ？\nアンタ達、なにしてんの？\n\n# voice 9999 \"durin_0040\"\n# serif 1\n@デュリン\n…はっはーん、わかった！\nデート中ね？\n別に隠さなくていいわよ\n\n# serif 1\n# voice 9999 \"durin_0043\"\n@デュリン\n…そうだ！\nちょっとアンタ、こっち来て…\n\n;;//デート相手立ち絵消去\n# body 0\n# pos 0 3\n# scale 0 0.8 0\n# alpha 0 0 0\n# mask 0 off\n# fadeout \"black\" 1\n# waitandnext 2\n\n# fadein \"black\" 0.5\n# serif 1\n# textwindow \"close\"\n# serif 0\n# textwindow \"normal\"\n# bgmfile \"bgm255\" \"BgmSeaDate\" 0\n# alpha %(unit_a)s 0 0\n# alpha 0 1 0\n# textflame 1 1\n# voice 9999 \"durin_0046\"\n@デュリン\n…せっかくだから\nアンタがその子のこと\nどのぐらい知ってるか試してあげる\n\n# textflame 1 1\n@デュリン\nデートするぐらいなんだもの\n%(unitName:unit_a)sのこと\nよく知ってるんでしょ？\n\n# textflame 1 1\n# voice 9999 \"durin_0033\"\n@デュリン\n見事正解できたらあの子に\nアンタのこと良く言っといてあげる\n…それじゃ、行くわよ！\n\n# se \"SE_0734\"\n# select  \"6位\" \"select_label_1\" \"25位\" \"select_label_2\" \"18位\" \"select_label_3\"\nグリモワールは\n第２回人気投票で\n何位だったでしょう？ \n\n# label \"select_label_1\"\n# labeljump \"select_label_end\"\n# textwindow \"close\"\n# waitandnext 0.1\n\n# label \"select_label_2\"\n# labeljump \"select_label_end\"\n# textwindow \"close\"\n# waitandnext 0.1\n\n# label \"select_label_3\"\n# labeljump \"select_label_end\"\n# textwindow \"close\"\n# waitandnext 0.1\n\n# label \"select_label_end\"\n# waitandnext 0.1\n\n# sestop \"SE_0734\"\n# fadeout \"black\" 1.2\n# waitandnext 2"
	},
	{
		"ID": 1500,
		"unitID": 2501711,
		"questionID": 9501750,
		"script": "# script \"lisp\"\n# background %(wayback_background)s\n# bgmfile \"bgm255\" \"BgmSeaDate\" 0\n# body %(unit_a)s\n# pos %(unit_a)s 3\n# mask %(unit_a)s off\n# chara %(unit_a)s\n# fadein \"black\" 0.5\n# textflame 0 0\n@\n帰り道－\n\n# fadein \"white\" 0.5\n# se \"SE_0735\"\n# bgm \"stop\"\n# waitandnext 2\n@\n…………\n\n# fadein \"white\" 0.5\n# se \"SE_0735\"\n# waitandnext 2\n@\n…………\n\n# serif 1\n# voice 9999 \"durin_0044\"\n@？？？？\n…あれ？\nアンタ達、なにしてんの？\n\n# voice 9999 \"durin_0040\"\n# serif 1\n@デュリン\n…はっはーん、わかった！\nデート中ね？\n別に隠さなくていいわよ\n\n# serif 1\n# voice 9999 \"durin_0043\"\n@デュリン\n…そうだ！\nちょっとアンタ、こっち来て…\n\n;;//デート相手立ち絵消去\n# body 0\n# pos 0 3\n# scale 0 0.8 0\n# alpha 0 0 0\n# mask 0 off\n# fadeout \"black\" 1\n# waitandnext 2\n\n# fadein \"black\" 0.5\n# serif 1\n# textwindow \"close\"\n# serif 0\n# textwindow \"normal\"\n# bgmfile \"bgm255\" \"BgmSeaDate\" 0\n# alpha %(unit_a)s 0 0\n# alpha 0 1 0\n# textflame 1 1\n# voice 9999 \"durin_0046\"\n@デュリン\n…せっかくだから\nアンタがその子のこと\nどのぐらい知ってるか試してあげる\n\n# textflame 1 1\n@デュリン\nデートするぐらいなんだもの\n%(unitName:unit_a)sのこと\nよく知ってるんでしょ？\n\n# textflame 1 1\n# voice 9999 \"durin_0033\"\n@デュリン\n見事正解できたらあの子に\nアンタのこと良く言っといてあげる\n…それじゃ、行くわよ！\n\n# se \"SE_0734\"\n# select  \"吉岡麻耶\" \"select_label_1\" \"植田佳奈\" \"select_label_2\" \"川澄綾子\" \"select_label_3\"\n グリモワールの声優は誰？\n\n# label \"select_label_1\"\n# labeljump \"select_label_end\"\n# textwindow \"close\"\n# waitandnext 0.1\n\n# label \"select_label_2\"\n# labeljump \"select_label_end\"\n# textwindow \"close\"\n# waitandnext 0.1\n\n# label \"select_label_3\"\n# labeljump \"select_label_end\"\n# textwindow \"close\"\n# waitandnext 0.1\n\n# label \"select_label_end\"\n# waitandnext 0.1\n\n# sestop \"SE_0734\"\n# fadeout \"black\" 1.2\n# waitandnext 2"
	}
]