[
	{
		"ID": 83432,
		"stage_BattleStage": 110150504,
		"unit_UnitUnit": 3302013,
		"money": 450,
		"initial_coordinate_x": 6,
		"initial_coordinate_y": 4,
		"reinforcement_BattleReinforcement": 0,
		"initial_direction": 270.0,
		"ai_move_group": 0,
		"ai_target_move_x": -1,
		"ai_target_move_y": -1,
		"ai_skill_function": "",
		"ai_attack": "",
		"ai_move": "",
		"ai_heal": "",
		"ai_skill": "",
		"ai_use": "",
		"skill_group_id": 17654,
		"gear_GearGear": 36016,
		"gear_rank": 10,
		"proficiency_UnitProficiency": 6,
		"level": 90,
		"hp": 130,
		"strength": 78,
		"vitality": 83,
		"intelligence": 13,
		"mind": 32,
		"agility": 99,
		"dexterity": 100,
		"lucky": 46,
		"parameter_table_BattleEnemyParameterTable": 0,
		"parameter_deviation_table_BattleEnemyParameterDeviationTable": 0,
		"acquire_skill_group_id": 0,
		"level_correction": 0,
		"group_id": 0,
		"ai_script_id_BattleAIScript": 0
	}
]