[
	{
		"ID": 83365,
		"stage_BattleStage": 110150202,
		"unit_UnitUnit": 3850002,
		"money": 425,
		"initial_coordinate_x": 3,
		"initial_coordinate_y": 16,
		"reinforcement_BattleReinforcement": 0,
		"initial_direction": 0.0,
		"ai_move_group": 0,
		"ai_target_move_x": -1,
		"ai_target_move_y": -1,
		"ai_skill_function": "",
		"ai_attack": "1.0",
		"ai_move": "1.0",
		"ai_heal": "",
		"ai_skill": "",
		"ai_use": "",
		"skill_group_id": 19332,
		"gear_GearGear": 24002,
		"gear_rank": 10,
		"proficiency_UnitProficiency": 4,
		"level": 85,
		"hp": 335,
		"strength": 106,
		"vitality": 91,
		"intelligence": 5,
		"mind": 54,
		"agility": 81,
		"dexterity": 91,
		"lucky": 44,
		"parameter_table_BattleEnemyParameterTable": 0,
		"parameter_deviation_table_BattleEnemyParameterDeviationTable": 0,
		"acquire_skill_group_id": 0,
		"level_correction": 0,
		"group_id": 0,
		"ai_script_id_BattleAIScript": 0
	},
	{
		"ID": 83366,
		"stage_BattleStage": 110150202,
		"unit_UnitUnit": 3850002,
		"money": 425,
		"initial_coordinate_x": 2,
		"initial_coordinate_y": 12,
		"reinforcement_BattleReinforcement": 0,
		"initial_direction": 0.0,
		"ai_move_group": 0,
		"ai_target_move_x": -1,
		"ai_target_move_y": -1,
		"ai_skill_function": "",
		"ai_attack": "1.0",
		"ai_move": "1.0",
		"ai_heal": "",
		"ai_skill": "",
		"ai_use": "",
		"skill_group_id": 19332,
		"gear_GearGear": 24006,
		"gear_rank": 10,
		"proficiency_UnitProficiency": 4,
		"level": 85,
		"hp": 334,
		"strength": 105,
		"vitality": 90,
		"intelligence": 6,
		"mind": 54,
		"agility": 81,
		"dexterity": 90,
		"lucky": 46,
		"parameter_table_BattleEnemyParameterTable": 0,
		"parameter_deviation_table_BattleEnemyParameterDeviationTable": 0,
		"acquire_skill_group_id": 0,
		"level_correction": 0,
		"group_id": 0,
		"ai_script_id_BattleAIScript": 0
	},
	{
		"ID": 83367,
		"stage_BattleStage": 110150202,
		"unit_UnitUnit": 3850002,
		"money": 425,
		"initial_coordinate_x": 4,
		"initial_coordinate_y": 11,
		"reinforcement_BattleReinforcement": 0,
		"initial_direction": 0.0,
		"ai_move_group": 0,
		"ai_target_move_x": -1,
		"ai_target_move_y": -1,
		"ai_skill_function": "",
		"ai_attack": "1.0",
		"ai_move": "IF(turn <=1,0,1)",
		"ai_heal": "",
		"ai_skill": "",
		"ai_use": "",
		"skill_group_id": 19332,
		"gear_GearGear": 24006,
		"gear_rank": 10,
		"proficiency_UnitProficiency": 4,
		"level": 85,
		"hp": 334,
		"strength": 101,
		"vitality": 92,
		"intelligence": 7,
		"mind": 52,
		"agility": 78,
		"dexterity": 88,
		"lucky": 45,
		"parameter_table_BattleEnemyParameterTable": 0,
		"parameter_deviation_table_BattleEnemyParameterDeviationTable": 0,
		"acquire_skill_group_id": 0,
		"level_correction": 0,
		"group_id": 0,
		"ai_script_id_BattleAIScript": 0
	},
	{
		"ID": 83368,
		"stage_BattleStage": 110150202,
		"unit_UnitUnit": 3850002,
		"money": 425,
		"initial_coordinate_x": 3,
		"initial_coordinate_y": 7,
		"reinforcement_BattleReinforcement": 0,
		"initial_direction": 0.0,
		"ai_move_group": 0,
		"ai_target_move_x": -1,
		"ai_target_move_y": -1,
		"ai_skill_function": "",
		"ai_attack": "1.0",
		"ai_move": "1.0",
		"ai_heal": "",
		"ai_skill": "",
		"ai_use": "",
		"skill_group_id": 19332,
		"gear_GearGear": 24002,
		"gear_rank": 10,
		"proficiency_UnitProficiency": 4,
		"level": 85,
		"hp": 336,
		"strength": 105,
		"vitality": 94,
		"intelligence": 7,
		"mind": 56,
		"agility": 82,
		"dexterity": 91,
		"lucky": 44,
		"parameter_table_BattleEnemyParameterTable": 0,
		"parameter_deviation_table_BattleEnemyParameterDeviationTable": 0,
		"acquire_skill_group_id": 0,
		"level_correction": 0,
		"group_id": 0,
		"ai_script_id_BattleAIScript": 0
	},
	{
		"ID": 83369,
		"stage_BattleStage": 110150202,
		"unit_UnitUnit": 3850002,
		"money": 425,
		"initial_coordinate_x": 4,
		"initial_coordinate_y": 7,
		"reinforcement_BattleReinforcement": 0,
		"initial_direction": 0.0,
		"ai_move_group": 0,
		"ai_target_move_x": -1,
		"ai_target_move_y": -1,
		"ai_skill_function": "",
		"ai_attack": "1.0",
		"ai_move": "1.0",
		"ai_heal": "",
		"ai_skill": "",
		"ai_use": "",
		"skill_group_id": 19332,
		"gear_GearGear": 24002,
		"gear_rank": 10,
		"proficiency_UnitProficiency": 4,
		"level": 85,
		"hp": 334,
		"strength": 102,
		"vitality": 89,
		"intelligence": 6,
		"mind": 55,
		"agility": 78,
		"dexterity": 91,
		"lucky": 46,
		"parameter_table_BattleEnemyParameterTable": 0,
		"parameter_deviation_table_BattleEnemyParameterDeviationTable": 0,
		"acquire_skill_group_id": 0,
		"level_correction": 0,
		"group_id": 0,
		"ai_script_id_BattleAIScript": 0
	},
	{
		"ID": 83370,
		"stage_BattleStage": 110150202,
		"unit_UnitUnit": 3850003,
		"money": 425,
		"initial_coordinate_x": 4,
		"initial_coordinate_y": 13,
		"reinforcement_BattleReinforcement": 0,
		"initial_direction": 0.0,
		"ai_move_group": 0,
		"ai_target_move_x": -1,
		"ai_target_move_y": -1,
		"ai_skill_function": "",
		"ai_attack": "1.0",
		"ai_move": "IF(turn <=1,0,1)",
		"ai_heal": "",
		"ai_skill": "",
		"ai_use": "",
		"skill_group_id": 19333,
		"gear_GearGear": 34001,
		"gear_rank": 10,
		"proficiency_UnitProficiency": 4,
		"level": 85,
		"hp": 314,
		"strength": 96,
		"vitality": 90,
		"intelligence": 5,
		"mind": 74,
		"agility": 87,
		"dexterity": 94,
		"lucky": 48,
		"parameter_table_BattleEnemyParameterTable": 0,
		"parameter_deviation_table_BattleEnemyParameterDeviationTable": 0,
		"acquire_skill_group_id": 0,
		"level_correction": 0,
		"group_id": 0,
		"ai_script_id_BattleAIScript": 0
	},
	{
		"ID": 83371,
		"stage_BattleStage": 110150202,
		"unit_UnitUnit": 3850003,
		"money": 425,
		"initial_coordinate_x": 3,
		"initial_coordinate_y": 11,
		"reinforcement_BattleReinforcement": 0,
		"initial_direction": 0.0,
		"ai_move_group": 0,
		"ai_target_move_x": -1,
		"ai_target_move_y": -1,
		"ai_skill_function": "",
		"ai_attack": "1.0",
		"ai_move": "IF(turn <=1,0,1)",
		"ai_heal": "",
		"ai_skill": "",
		"ai_use": "",
		"skill_group_id": 19333,
		"gear_GearGear": 34006,
		"gear_rank": 10,
		"proficiency_UnitProficiency": 4,
		"level": 85,
		"hp": 313,
		"strength": 96,
		"vitality": 93,
		"intelligence": 6,
		"mind": 70,
		"agility": 89,
		"dexterity": 98,
		"lucky": 48,
		"parameter_table_BattleEnemyParameterTable": 0,
		"parameter_deviation_table_BattleEnemyParameterDeviationTable": 0,
		"acquire_skill_group_id": 0,
		"level_correction": 0,
		"group_id": 0,
		"ai_script_id_BattleAIScript": 0
	},
	{
		"ID": 83372,
		"stage_BattleStage": 110150202,
		"unit_UnitUnit": 3850003,
		"money": 425,
		"initial_coordinate_x": 5,
		"initial_coordinate_y": 12,
		"reinforcement_BattleReinforcement": 0,
		"initial_direction": 0.0,
		"ai_move_group": 0,
		"ai_target_move_x": -1,
		"ai_target_move_y": -1,
		"ai_skill_function": "",
		"ai_attack": "1.0",
		"ai_move": "IF(turn <=1,0,1)",
		"ai_heal": "",
		"ai_skill": "",
		"ai_use": "",
		"skill_group_id": 19333,
		"gear_GearGear": 34006,
		"gear_rank": 10,
		"proficiency_UnitProficiency": 4,
		"level": 85,
		"hp": 313,
		"strength": 92,
		"vitality": 92,
		"intelligence": 7,
		"mind": 71,
		"agility": 89,
		"dexterity": 97,
		"lucky": 50,
		"parameter_table_BattleEnemyParameterTable": 0,
		"parameter_deviation_table_BattleEnemyParameterDeviationTable": 0,
		"acquire_skill_group_id": 0,
		"level_correction": 0,
		"group_id": 0,
		"ai_script_id_BattleAIScript": 0
	},
	{
		"ID": 83373,
		"stage_BattleStage": 110150202,
		"unit_UnitUnit": 3850003,
		"money": 425,
		"initial_coordinate_x": 3,
		"initial_coordinate_y": 6,
		"reinforcement_BattleReinforcement": 0,
		"initial_direction": 0.0,
		"ai_move_group": 0,
		"ai_target_move_x": -1,
		"ai_target_move_y": -1,
		"ai_skill_function": "",
		"ai_attack": "1.0",
		"ai_move": "IF(turn <=1,0,1)",
		"ai_heal": "",
		"ai_skill": "",
		"ai_use": "",
		"skill_group_id": 19333,
		"gear_GearGear": 34001,
		"gear_rank": 10,
		"proficiency_UnitProficiency": 4,
		"level": 85,
		"hp": 314,
		"strength": 96,
		"vitality": 94,
		"intelligence": 5,
		"mind": 72,
		"agility": 89,
		"dexterity": 96,
		"lucky": 45,
		"parameter_table_BattleEnemyParameterTable": 0,
		"parameter_deviation_table_BattleEnemyParameterDeviationTable": 0,
		"acquire_skill_group_id": 0,
		"level_correction": 0,
		"group_id": 0,
		"ai_script_id_BattleAIScript": 0
	},
	{
		"ID": 83374,
		"stage_BattleStage": 110150202,
		"unit_UnitUnit": 3850003,
		"money": 425,
		"initial_coordinate_x": 4,
		"initial_coordinate_y": 6,
		"reinforcement_BattleReinforcement": 0,
		"initial_direction": 0.0,
		"ai_move_group": 0,
		"ai_target_move_x": -1,
		"ai_target_move_y": -1,
		"ai_skill_function": "",
		"ai_attack": "1.0",
		"ai_move": "IF(turn <=1,0,1)",
		"ai_heal": "",
		"ai_skill": "",
		"ai_use": "",
		"skill_group_id": 19333,
		"gear_GearGear": 34001,
		"gear_rank": 10,
		"proficiency_UnitProficiency": 4,
		"level": 85,
		"hp": 314,
		"strength": 94,
		"vitality": 92,
		"intelligence": 7,
		"mind": 69,
		"agility": 86,
		"dexterity": 94,
		"lucky": 48,
		"parameter_table_BattleEnemyParameterTable": 0,
		"parameter_deviation_table_BattleEnemyParameterDeviationTable": 0,
		"acquire_skill_group_id": 0,
		"level_correction": 0,
		"group_id": 0,
		"ai_script_id_BattleAIScript": 0
	},
	{
		"ID": 83375,
		"stage_BattleStage": 110150202,
		"unit_UnitUnit": 3202519,
		"money": 450,
		"initial_coordinate_x": 3,
		"initial_coordinate_y": 3,
		"reinforcement_BattleReinforcement": 0,
		"initial_direction": 0.0,
		"ai_move_group": 0,
		"ai_target_move_x": -1,
		"ai_target_move_y": -1,
		"ai_skill_function": "",
		"ai_attack": "1.0",
		"ai_move": "IF(turn <=2,0,1)",
		"ai_heal": "",
		"ai_skill": "",
		"ai_use": "",
		"skill_group_id": 19318,
		"gear_GearGear": 26025,
		"gear_rank": 10,
		"proficiency_UnitProficiency": 6,
		"level": 90,
		"hp": 159,
		"strength": 116,
		"vitality": 76,
		"intelligence": 19,
		"mind": 48,
		"agility": 119,
		"dexterity": 119,
		"lucky": 51,
		"parameter_table_BattleEnemyParameterTable": 0,
		"parameter_deviation_table_BattleEnemyParameterDeviationTable": 0,
		"acquire_skill_group_id": 0,
		"level_correction": 0,
		"group_id": 0,
		"ai_script_id_BattleAIScript": 0
	},
	{
		"ID": 83376,
		"stage_BattleStage": 110150202,
		"unit_UnitUnit": 3302619,
		"money": 450,
		"initial_coordinate_x": 4,
		"initial_coordinate_y": 3,
		"reinforcement_BattleReinforcement": 0,
		"initial_direction": 0.0,
		"ai_move_group": 0,
		"ai_target_move_x": -1,
		"ai_target_move_y": -1,
		"ai_skill_function": "",
		"ai_attack": "1.0",
		"ai_move": "IF(turn <=2,0,1)",
		"ai_heal": "",
		"ai_skill": "",
		"ai_use": "",
		"skill_group_id": 19317,
		"gear_GearGear": 36030,
		"gear_rank": 10,
		"proficiency_UnitProficiency": 6,
		"level": 90,
		"hp": 149,
		"strength": 106,
		"vitality": 83,
		"intelligence": 20,
		"mind": 56,
		"agility": 121,
		"dexterity": 119,
		"lucky": 53,
		"parameter_table_BattleEnemyParameterTable": 0,
		"parameter_deviation_table_BattleEnemyParameterDeviationTable": 0,
		"acquire_skill_group_id": 0,
		"level_correction": 0,
		"group_id": 0,
		"ai_script_id_BattleAIScript": 0
	}
]