[
	{
		"ID": 12223,
		"stage_BattleStage": 141020010,
		"unit_UnitUnit": 860006,
		"money": 215,
		"initial_coordinate_x": 7,
		"initial_coordinate_y": 2,
		"reinforcement_BattleReinforcement": 0,
		"initial_direction": 0.0,
		"ai_move_group": 0,
		"ai_target_move_x": -1,
		"ai_target_move_y": -1,
		"ai_skill_function": "",
		"ai_attack": "",
		"ai_move": "",
		"ai_heal": "",
		"ai_skill": "",
		"ai_use": "",
		"skill_group_id": 1350,
		"gear_GearGear": 80010,
		"gear_rank": 1,
		"proficiency_UnitProficiency": 3,
		"level": 43,
		"hp": 55,
		"strength": 5,
		"vitality": 26,
		"intelligence": 32,
		"mind": 25,
		"agility": 33,
		"dexterity": 39,
		"lucky": 9,
		"parameter_table_BattleEnemyParameterTable": 0,
		"parameter_deviation_table_BattleEnemyParameterDeviationTable": 0,
		"acquire_skill_group_id": 0,
		"level_correction": 0,
		"group_id": 0,
		"ai_script_id_BattleAIScript": 0
	},
	{
		"ID": 12224,
		"stage_BattleStage": 141020010,
		"unit_UnitUnit": 860006,
		"money": 220,
		"initial_coordinate_x": 6,
		"initial_coordinate_y": 1,
		"reinforcement_BattleReinforcement": 0,
		"initial_direction": 0.0,
		"ai_move_group": 0,
		"ai_target_move_x": -1,
		"ai_target_move_y": -1,
		"ai_skill_function": "",
		"ai_attack": "",
		"ai_move": "",
		"ai_heal": "",
		"ai_skill": "",
		"ai_use": "",
		"skill_group_id": 1350,
		"gear_GearGear": 80010,
		"gear_rank": 1,
		"proficiency_UnitProficiency": 3,
		"level": 44,
		"hp": 56,
		"strength": 5,
		"vitality": 27,
		"intelligence": 33,
		"mind": 26,
		"agility": 34,
		"dexterity": 40,
		"lucky": 9,
		"parameter_table_BattleEnemyParameterTable": 0,
		"parameter_deviation_table_BattleEnemyParameterDeviationTable": 0,
		"acquire_skill_group_id": 0,
		"level_correction": 0,
		"group_id": 0,
		"ai_script_id_BattleAIScript": 0
	},
	{
		"ID": 12225,
		"stage_BattleStage": 141020010,
		"unit_UnitUnit": 860006,
		"money": 225,
		"initial_coordinate_x": 5,
		"initial_coordinate_y": 1,
		"reinforcement_BattleReinforcement": 0,
		"initial_direction": 0.0,
		"ai_move_group": 0,
		"ai_target_move_x": -1,
		"ai_target_move_y": -1,
		"ai_skill_function": "",
		"ai_attack": "",
		"ai_move": "",
		"ai_heal": "",
		"ai_skill": "",
		"ai_use": "",
		"skill_group_id": 1350,
		"gear_GearGear": 80010,
		"gear_rank": 1,
		"proficiency_UnitProficiency": 3,
		"level": 45,
		"hp": 57,
		"strength": 5,
		"vitality": 27,
		"intelligence": 33,
		"mind": 26,
		"agility": 35,
		"dexterity": 41,
		"lucky": 9,
		"parameter_table_BattleEnemyParameterTable": 0,
		"parameter_deviation_table_BattleEnemyParameterDeviationTable": 0,
		"acquire_skill_group_id": 0,
		"level_correction": 0,
		"group_id": 0,
		"ai_script_id_BattleAIScript": 0
	},
	{
		"ID": 12226,
		"stage_BattleStage": 141020010,
		"unit_UnitUnit": 860006,
		"money": 230,
		"initial_coordinate_x": 4,
		"initial_coordinate_y": 2,
		"reinforcement_BattleReinforcement": 0,
		"initial_direction": 0.0,
		"ai_move_group": 0,
		"ai_target_move_x": -1,
		"ai_target_move_y": -1,
		"ai_skill_function": "",
		"ai_attack": "",
		"ai_move": "",
		"ai_heal": "",
		"ai_skill": "",
		"ai_use": "",
		"skill_group_id": 1350,
		"gear_GearGear": 80010,
		"gear_rank": 1,
		"proficiency_UnitProficiency": 3,
		"level": 46,
		"hp": 58,
		"strength": 5,
		"vitality": 28,
		"intelligence": 34,
		"mind": 27,
		"agility": 35,
		"dexterity": 42,
		"lucky": 9,
		"parameter_table_BattleEnemyParameterTable": 0,
		"parameter_deviation_table_BattleEnemyParameterDeviationTable": 0,
		"acquire_skill_group_id": 0,
		"level_correction": 0,
		"group_id": 0,
		"ai_script_id_BattleAIScript": 0
	},
	{
		"ID": 12227,
		"stage_BattleStage": 141020010,
		"unit_UnitUnit": 860006,
		"money": 235,
		"initial_coordinate_x": 3,
		"initial_coordinate_y": 3,
		"reinforcement_BattleReinforcement": 0,
		"initial_direction": 0.0,
		"ai_move_group": 0,
		"ai_target_move_x": -1,
		"ai_target_move_y": -1,
		"ai_skill_function": "",
		"ai_attack": "",
		"ai_move": "",
		"ai_heal": "",
		"ai_skill": "",
		"ai_use": "",
		"skill_group_id": 1350,
		"gear_GearGear": 80010,
		"gear_rank": 1,
		"proficiency_UnitProficiency": 3,
		"level": 47,
		"hp": 58,
		"strength": 5,
		"vitality": 28,
		"intelligence": 35,
		"mind": 27,
		"agility": 36,
		"dexterity": 42,
		"lucky": 9,
		"parameter_table_BattleEnemyParameterTable": 0,
		"parameter_deviation_table_BattleEnemyParameterDeviationTable": 0,
		"acquire_skill_group_id": 0,
		"level_correction": 0,
		"group_id": 0,
		"ai_script_id_BattleAIScript": 0
	},
	{
		"ID": 12228,
		"stage_BattleStage": 141020010,
		"unit_UnitUnit": 860006,
		"money": 240,
		"initial_coordinate_x": 2,
		"initial_coordinate_y": 4,
		"reinforcement_BattleReinforcement": 0,
		"initial_direction": 0.0,
		"ai_move_group": 0,
		"ai_target_move_x": -1,
		"ai_target_move_y": -1,
		"ai_skill_function": "",
		"ai_attack": "",
		"ai_move": "",
		"ai_heal": "",
		"ai_skill": "",
		"ai_use": "",
		"skill_group_id": 1350,
		"gear_GearGear": 80010,
		"gear_rank": 1,
		"proficiency_UnitProficiency": 3,
		"level": 48,
		"hp": 59,
		"strength": 6,
		"vitality": 29,
		"intelligence": 35,
		"mind": 28,
		"agility": 36,
		"dexterity": 43,
		"lucky": 9,
		"parameter_table_BattleEnemyParameterTable": 0,
		"parameter_deviation_table_BattleEnemyParameterDeviationTable": 0,
		"acquire_skill_group_id": 0,
		"level_correction": 0,
		"group_id": 0,
		"ai_script_id_BattleAIScript": 0
	},
	{
		"ID": 12229,
		"stage_BattleStage": 141020010,
		"unit_UnitUnit": 860006,
		"money": 400,
		"initial_coordinate_x": 9,
		"initial_coordinate_y": 11,
		"reinforcement_BattleReinforcement": 0,
		"initial_direction": 270.0,
		"ai_move_group": 0,
		"ai_target_move_x": -1,
		"ai_target_move_y": -1,
		"ai_skill_function": "",
		"ai_attack": "IF( turn <=4 ,IF(panel_move_distance <= 1, 1, 0),1)",
		"ai_move": "IF(turn <=4,0,1)",
		"ai_heal": "",
		"ai_skill": "",
		"ai_use": "",
		"skill_group_id": 1400,
		"gear_GearGear": 80010,
		"gear_rank": 1,
		"proficiency_UnitProficiency": 3,
		"level": 80,
		"hp": 85,
		"strength": 10,
		"vitality": 44,
		"intelligence": 54,
		"mind": 43,
		"agility": 55,
		"dexterity": 68,
		"lucky": 10,
		"parameter_table_BattleEnemyParameterTable": 0,
		"parameter_deviation_table_BattleEnemyParameterDeviationTable": 0,
		"acquire_skill_group_id": 0,
		"level_correction": 0,
		"group_id": 0,
		"ai_script_id_BattleAIScript": 0
	},
	{
		"ID": 12230,
		"stage_BattleStage": 141020010,
		"unit_UnitUnit": 860006,
		"money": 250,
		"initial_coordinate_x": 3,
		"initial_coordinate_y": 9,
		"reinforcement_BattleReinforcement": 0,
		"initial_direction": 90.0,
		"ai_move_group": 0,
		"ai_target_move_x": -1,
		"ai_target_move_y": -1,
		"ai_skill_function": "",
		"ai_attack": "IF( turn <=4 ,IF(panel_move_distance <= 1, 1, 0),1)",
		"ai_move": "IF(turn <=4,0,1)",
		"ai_heal": "",
		"ai_skill": "",
		"ai_use": "",
		"skill_group_id": 1350,
		"gear_GearGear": 80010,
		"gear_rank": 1,
		"proficiency_UnitProficiency": 3,
		"level": 50,
		"hp": 61,
		"strength": 6,
		"vitality": 30,
		"intelligence": 36,
		"mind": 29,
		"agility": 37,
		"dexterity": 45,
		"lucky": 9,
		"parameter_table_BattleEnemyParameterTable": 0,
		"parameter_deviation_table_BattleEnemyParameterDeviationTable": 0,
		"acquire_skill_group_id": 0,
		"level_correction": 0,
		"group_id": 0,
		"ai_script_id_BattleAIScript": 0
	},
	{
		"ID": 12231,
		"stage_BattleStage": 141020010,
		"unit_UnitUnit": 860006,
		"money": 255,
		"initial_coordinate_x": 3,
		"initial_coordinate_y": 10,
		"reinforcement_BattleReinforcement": 0,
		"initial_direction": 90.0,
		"ai_move_group": 0,
		"ai_target_move_x": -1,
		"ai_target_move_y": -1,
		"ai_skill_function": "",
		"ai_attack": "IF( turn <=4 ,IF(panel_move_distance <= 1, 1, 0),1)",
		"ai_move": "IF(turn <=4,0,1)",
		"ai_heal": "",
		"ai_skill": "",
		"ai_use": "",
		"skill_group_id": 1350,
		"gear_GearGear": 80010,
		"gear_rank": 1,
		"proficiency_UnitProficiency": 3,
		"level": 51,
		"hp": 62,
		"strength": 6,
		"vitality": 30,
		"intelligence": 37,
		"mind": 29,
		"agility": 38,
		"dexterity": 46,
		"lucky": 9,
		"parameter_table_BattleEnemyParameterTable": 0,
		"parameter_deviation_table_BattleEnemyParameterDeviationTable": 0,
		"acquire_skill_group_id": 0,
		"level_correction": 0,
		"group_id": 0,
		"ai_script_id_BattleAIScript": 0
	},
	{
		"ID": 12232,
		"stage_BattleStage": 141020010,
		"unit_UnitUnit": 860006,
		"money": 260,
		"initial_coordinate_x": 3,
		"initial_coordinate_y": 11,
		"reinforcement_BattleReinforcement": 0,
		"initial_direction": 90.0,
		"ai_move_group": 0,
		"ai_target_move_x": -1,
		"ai_target_move_y": -1,
		"ai_skill_function": "",
		"ai_attack": "IF( turn <=4 ,IF(panel_move_distance <= 1, 1, 0),1)",
		"ai_move": "IF(turn <=4,0,1)",
		"ai_heal": "",
		"ai_skill": "",
		"ai_use": "",
		"skill_group_id": 1350,
		"gear_GearGear": 80010,
		"gear_rank": 1,
		"proficiency_UnitProficiency": 3,
		"level": 52,
		"hp": 62,
		"strength": 6,
		"vitality": 30,
		"intelligence": 38,
		"mind": 29,
		"agility": 39,
		"dexterity": 46,
		"lucky": 9,
		"parameter_table_BattleEnemyParameterTable": 0,
		"parameter_deviation_table_BattleEnemyParameterDeviationTable": 0,
		"acquire_skill_group_id": 0,
		"level_correction": 0,
		"group_id": 0,
		"ai_script_id_BattleAIScript": 0
	},
	{
		"ID": 12233,
		"stage_BattleStage": 141020010,
		"unit_UnitUnit": 860006,
		"money": 255,
		"initial_coordinate_x": 3,
		"initial_coordinate_y": 12,
		"reinforcement_BattleReinforcement": 0,
		"initial_direction": 90.0,
		"ai_move_group": 0,
		"ai_target_move_x": -1,
		"ai_target_move_y": -1,
		"ai_skill_function": "",
		"ai_attack": "IF( turn <=4 ,IF(panel_move_distance <= 1, 1, 0),1)",
		"ai_move": "IF(turn <=4,0,1)",
		"ai_heal": "",
		"ai_skill": "",
		"ai_use": "",
		"skill_group_id": 1350,
		"gear_GearGear": 80010,
		"gear_rank": 1,
		"proficiency_UnitProficiency": 3,
		"level": 51,
		"hp": 62,
		"strength": 6,
		"vitality": 30,
		"intelligence": 37,
		"mind": 29,
		"agility": 38,
		"dexterity": 46,
		"lucky": 9,
		"parameter_table_BattleEnemyParameterTable": 0,
		"parameter_deviation_table_BattleEnemyParameterDeviationTable": 0,
		"acquire_skill_group_id": 0,
		"level_correction": 0,
		"group_id": 0,
		"ai_script_id_BattleAIScript": 0
	},
	{
		"ID": 12234,
		"stage_BattleStage": 141020010,
		"unit_UnitUnit": 860006,
		"money": 250,
		"initial_coordinate_x": 3,
		"initial_coordinate_y": 13,
		"reinforcement_BattleReinforcement": 0,
		"initial_direction": 90.0,
		"ai_move_group": 0,
		"ai_target_move_x": -1,
		"ai_target_move_y": -1,
		"ai_skill_function": "",
		"ai_attack": "IF( turn <=4 ,IF(panel_move_distance <= 1, 1, 0),1)",
		"ai_move": "IF(turn <=4,0,1)",
		"ai_heal": "",
		"ai_skill": "",
		"ai_use": "",
		"skill_group_id": 1350,
		"gear_GearGear": 80010,
		"gear_rank": 1,
		"proficiency_UnitProficiency": 3,
		"level": 50,
		"hp": 61,
		"strength": 6,
		"vitality": 30,
		"intelligence": 36,
		"mind": 29,
		"agility": 37,
		"dexterity": 45,
		"lucky": 9,
		"parameter_table_BattleEnemyParameterTable": 0,
		"parameter_deviation_table_BattleEnemyParameterDeviationTable": 0,
		"acquire_skill_group_id": 0,
		"level_correction": 0,
		"group_id": 0,
		"ai_script_id_BattleAIScript": 0
	},
	{
		"ID": 12235,
		"stage_BattleStage": 141020010,
		"unit_UnitUnit": 860006,
		"money": 245,
		"initial_coordinate_x": 1,
		"initial_coordinate_y": 20,
		"reinforcement_BattleReinforcement": 4,
		"initial_direction": 90.0,
		"ai_move_group": 0,
		"ai_target_move_x": -1,
		"ai_target_move_y": -1,
		"ai_skill_function": "",
		"ai_attack": "",
		"ai_move": "",
		"ai_heal": "",
		"ai_skill": "",
		"ai_use": "",
		"skill_group_id": 1350,
		"gear_GearGear": 80010,
		"gear_rank": 1,
		"proficiency_UnitProficiency": 3,
		"level": 49,
		"hp": 60,
		"strength": 6,
		"vitality": 29,
		"intelligence": 36,
		"mind": 28,
		"agility": 37,
		"dexterity": 44,
		"lucky": 9,
		"parameter_table_BattleEnemyParameterTable": 0,
		"parameter_deviation_table_BattleEnemyParameterDeviationTable": 0,
		"acquire_skill_group_id": 0,
		"level_correction": 0,
		"group_id": 0,
		"ai_script_id_BattleAIScript": 0
	},
	{
		"ID": 12236,
		"stage_BattleStage": 141020010,
		"unit_UnitUnit": 860006,
		"money": 240,
		"initial_coordinate_x": 1,
		"initial_coordinate_y": 19,
		"reinforcement_BattleReinforcement": 4,
		"initial_direction": 90.0,
		"ai_move_group": 0,
		"ai_target_move_x": -1,
		"ai_target_move_y": -1,
		"ai_skill_function": "",
		"ai_attack": "",
		"ai_move": "",
		"ai_heal": "",
		"ai_skill": "",
		"ai_use": "",
		"skill_group_id": 1350,
		"gear_GearGear": 80010,
		"gear_rank": 1,
		"proficiency_UnitProficiency": 3,
		"level": 48,
		"hp": 59,
		"strength": 6,
		"vitality": 29,
		"intelligence": 35,
		"mind": 28,
		"agility": 36,
		"dexterity": 43,
		"lucky": 9,
		"parameter_table_BattleEnemyParameterTable": 0,
		"parameter_deviation_table_BattleEnemyParameterDeviationTable": 0,
		"acquire_skill_group_id": 0,
		"level_correction": 0,
		"group_id": 0,
		"ai_script_id_BattleAIScript": 0
	},
	{
		"ID": 12237,
		"stage_BattleStage": 141020010,
		"unit_UnitUnit": 860006,
		"money": 235,
		"initial_coordinate_x": 1,
		"initial_coordinate_y": 18,
		"reinforcement_BattleReinforcement": 4,
		"initial_direction": 90.0,
		"ai_move_group": 0,
		"ai_target_move_x": -1,
		"ai_target_move_y": -1,
		"ai_skill_function": "",
		"ai_attack": "",
		"ai_move": "",
		"ai_heal": "",
		"ai_skill": "",
		"ai_use": "",
		"skill_group_id": 1350,
		"gear_GearGear": 80010,
		"gear_rank": 1,
		"proficiency_UnitProficiency": 3,
		"level": 47,
		"hp": 58,
		"strength": 5,
		"vitality": 28,
		"intelligence": 35,
		"mind": 27,
		"agility": 36,
		"dexterity": 42,
		"lucky": 9,
		"parameter_table_BattleEnemyParameterTable": 0,
		"parameter_deviation_table_BattleEnemyParameterDeviationTable": 0,
		"acquire_skill_group_id": 0,
		"level_correction": 0,
		"group_id": 0,
		"ai_script_id_BattleAIScript": 0
	},
	{
		"ID": 12238,
		"stage_BattleStage": 141020010,
		"unit_UnitUnit": 860006,
		"money": 230,
		"initial_coordinate_x": 1,
		"initial_coordinate_y": 17,
		"reinforcement_BattleReinforcement": 4,
		"initial_direction": 90.0,
		"ai_move_group": 0,
		"ai_target_move_x": -1,
		"ai_target_move_y": -1,
		"ai_skill_function": "",
		"ai_attack": "",
		"ai_move": "",
		"ai_heal": "",
		"ai_skill": "",
		"ai_use": "",
		"skill_group_id": 1350,
		"gear_GearGear": 80010,
		"gear_rank": 1,
		"proficiency_UnitProficiency": 3,
		"level": 46,
		"hp": 58,
		"strength": 5,
		"vitality": 28,
		"intelligence": 34,
		"mind": 27,
		"agility": 35,
		"dexterity": 42,
		"lucky": 9,
		"parameter_table_BattleEnemyParameterTable": 0,
		"parameter_deviation_table_BattleEnemyParameterDeviationTable": 0,
		"acquire_skill_group_id": 0,
		"level_correction": 0,
		"group_id": 0,
		"ai_script_id_BattleAIScript": 0
	},
	{
		"ID": 12239,
		"stage_BattleStage": 141020010,
		"unit_UnitUnit": 820008,
		"money": 225,
		"initial_coordinate_x": 1,
		"initial_coordinate_y": 16,
		"reinforcement_BattleReinforcement": 4,
		"initial_direction": 90.0,
		"ai_move_group": 0,
		"ai_target_move_x": -1,
		"ai_target_move_y": -1,
		"ai_skill_function": "",
		"ai_attack": "",
		"ai_move": "",
		"ai_heal": "",
		"ai_skill": "",
		"ai_use": "",
		"skill_group_id": 1050,
		"gear_GearGear": 23001,
		"gear_rank": 1,
		"proficiency_UnitProficiency": 3,
		"level": 45,
		"hp": 82,
		"strength": 57,
		"vitality": 44,
		"intelligence": 0,
		"mind": 15,
		"agility": 25,
		"dexterity": 49,
		"lucky": 7,
		"parameter_table_BattleEnemyParameterTable": 0,
		"parameter_deviation_table_BattleEnemyParameterDeviationTable": 0,
		"acquire_skill_group_id": 0,
		"level_correction": 0,
		"group_id": 0,
		"ai_script_id_BattleAIScript": 0
	},
	{
		"ID": 12240,
		"stage_BattleStage": 141020010,
		"unit_UnitUnit": 820008,
		"money": 220,
		"initial_coordinate_x": 1,
		"initial_coordinate_y": 20,
		"reinforcement_BattleReinforcement": 5,
		"initial_direction": 90.0,
		"ai_move_group": 0,
		"ai_target_move_x": -1,
		"ai_target_move_y": -1,
		"ai_skill_function": "",
		"ai_attack": "",
		"ai_move": "",
		"ai_heal": "",
		"ai_skill": "",
		"ai_use": "",
		"skill_group_id": 1050,
		"gear_GearGear": 23001,
		"gear_rank": 1,
		"proficiency_UnitProficiency": 3,
		"level": 44,
		"hp": 81,
		"strength": 56,
		"vitality": 43,
		"intelligence": 0,
		"mind": 14,
		"agility": 24,
		"dexterity": 48,
		"lucky": 7,
		"parameter_table_BattleEnemyParameterTable": 0,
		"parameter_deviation_table_BattleEnemyParameterDeviationTable": 0,
		"acquire_skill_group_id": 0,
		"level_correction": 0,
		"group_id": 0,
		"ai_script_id_BattleAIScript": 0
	},
	{
		"ID": 12241,
		"stage_BattleStage": 141020010,
		"unit_UnitUnit": 820008,
		"money": 215,
		"initial_coordinate_x": 1,
		"initial_coordinate_y": 19,
		"reinforcement_BattleReinforcement": 5,
		"initial_direction": 90.0,
		"ai_move_group": 0,
		"ai_target_move_x": -1,
		"ai_target_move_y": -1,
		"ai_skill_function": "",
		"ai_attack": "",
		"ai_move": "",
		"ai_heal": "",
		"ai_skill": "",
		"ai_use": "",
		"skill_group_id": 1050,
		"gear_GearGear": 23001,
		"gear_rank": 1,
		"proficiency_UnitProficiency": 3,
		"level": 43,
		"hp": 80,
		"strength": 55,
		"vitality": 42,
		"intelligence": 0,
		"mind": 14,
		"agility": 24,
		"dexterity": 47,
		"lucky": 7,
		"parameter_table_BattleEnemyParameterTable": 0,
		"parameter_deviation_table_BattleEnemyParameterDeviationTable": 0,
		"acquire_skill_group_id": 0,
		"level_correction": 0,
		"group_id": 0,
		"ai_script_id_BattleAIScript": 0
	},
	{
		"ID": 12242,
		"stage_BattleStage": 141020010,
		"unit_UnitUnit": 820008,
		"money": 210,
		"initial_coordinate_x": 1,
		"initial_coordinate_y": 18,
		"reinforcement_BattleReinforcement": 5,
		"initial_direction": 90.0,
		"ai_move_group": 0,
		"ai_target_move_x": -1,
		"ai_target_move_y": -1,
		"ai_skill_function": "",
		"ai_attack": "",
		"ai_move": "",
		"ai_heal": "",
		"ai_skill": "",
		"ai_use": "",
		"skill_group_id": 1050,
		"gear_GearGear": 23001,
		"gear_rank": 1,
		"proficiency_UnitProficiency": 3,
		"level": 42,
		"hp": 79,
		"strength": 54,
		"vitality": 42,
		"intelligence": 0,
		"mind": 14,
		"agility": 23,
		"dexterity": 46,
		"lucky": 7,
		"parameter_table_BattleEnemyParameterTable": 0,
		"parameter_deviation_table_BattleEnemyParameterDeviationTable": 0,
		"acquire_skill_group_id": 0,
		"level_correction": 0,
		"group_id": 0,
		"ai_script_id_BattleAIScript": 0
	},
	{
		"ID": 12243,
		"stage_BattleStage": 141020010,
		"unit_UnitUnit": 820008,
		"money": 205,
		"initial_coordinate_x": 1,
		"initial_coordinate_y": 17,
		"reinforcement_BattleReinforcement": 5,
		"initial_direction": 90.0,
		"ai_move_group": 0,
		"ai_target_move_x": -1,
		"ai_target_move_y": -1,
		"ai_skill_function": "",
		"ai_attack": "",
		"ai_move": "",
		"ai_heal": "",
		"ai_skill": "",
		"ai_use": "",
		"skill_group_id": 1050,
		"gear_GearGear": 23001,
		"gear_rank": 1,
		"proficiency_UnitProficiency": 3,
		"level": 41,
		"hp": 78,
		"strength": 53,
		"vitality": 41,
		"intelligence": 0,
		"mind": 14,
		"agility": 23,
		"dexterity": 46,
		"lucky": 7,
		"parameter_table_BattleEnemyParameterTable": 0,
		"parameter_deviation_table_BattleEnemyParameterDeviationTable": 0,
		"acquire_skill_group_id": 0,
		"level_correction": 0,
		"group_id": 0,
		"ai_script_id_BattleAIScript": 0
	},
	{
		"ID": 12244,
		"stage_BattleStage": 141020010,
		"unit_UnitUnit": 820008,
		"money": 210,
		"initial_coordinate_x": 3,
		"initial_coordinate_y": 21,
		"reinforcement_BattleReinforcement": 6,
		"initial_direction": 180.0,
		"ai_move_group": 0,
		"ai_target_move_x": -1,
		"ai_target_move_y": -1,
		"ai_skill_function": "",
		"ai_attack": "",
		"ai_move": "",
		"ai_heal": "",
		"ai_skill": "",
		"ai_use": "",
		"skill_group_id": 1050,
		"gear_GearGear": 23001,
		"gear_rank": 1,
		"proficiency_UnitProficiency": 3,
		"level": 42,
		"hp": 79,
		"strength": 54,
		"vitality": 42,
		"intelligence": 0,
		"mind": 14,
		"agility": 23,
		"dexterity": 46,
		"lucky": 7,
		"parameter_table_BattleEnemyParameterTable": 0,
		"parameter_deviation_table_BattleEnemyParameterDeviationTable": 0,
		"acquire_skill_group_id": 0,
		"level_correction": 0,
		"group_id": 0,
		"ai_script_id_BattleAIScript": 0
	},
	{
		"ID": 12245,
		"stage_BattleStage": 141020010,
		"unit_UnitUnit": 820008,
		"money": 215,
		"initial_coordinate_x": 4,
		"initial_coordinate_y": 21,
		"reinforcement_BattleReinforcement": 6,
		"initial_direction": 180.0,
		"ai_move_group": 0,
		"ai_target_move_x": -1,
		"ai_target_move_y": -1,
		"ai_skill_function": "",
		"ai_attack": "",
		"ai_move": "",
		"ai_heal": "",
		"ai_skill": "",
		"ai_use": "",
		"skill_group_id": 1050,
		"gear_GearGear": 23001,
		"gear_rank": 1,
		"proficiency_UnitProficiency": 3,
		"level": 43,
		"hp": 80,
		"strength": 55,
		"vitality": 42,
		"intelligence": 0,
		"mind": 14,
		"agility": 24,
		"dexterity": 47,
		"lucky": 7,
		"parameter_table_BattleEnemyParameterTable": 0,
		"parameter_deviation_table_BattleEnemyParameterDeviationTable": 0,
		"acquire_skill_group_id": 0,
		"level_correction": 0,
		"group_id": 0,
		"ai_script_id_BattleAIScript": 0
	},
	{
		"ID": 12246,
		"stage_BattleStage": 141020010,
		"unit_UnitUnit": 820008,
		"money": 220,
		"initial_coordinate_x": 5,
		"initial_coordinate_y": 21,
		"reinforcement_BattleReinforcement": 6,
		"initial_direction": 180.0,
		"ai_move_group": 0,
		"ai_target_move_x": -1,
		"ai_target_move_y": -1,
		"ai_skill_function": "",
		"ai_attack": "",
		"ai_move": "",
		"ai_heal": "",
		"ai_skill": "",
		"ai_use": "",
		"skill_group_id": 1050,
		"gear_GearGear": 23001,
		"gear_rank": 1,
		"proficiency_UnitProficiency": 3,
		"level": 44,
		"hp": 81,
		"strength": 56,
		"vitality": 43,
		"intelligence": 0,
		"mind": 14,
		"agility": 24,
		"dexterity": 48,
		"lucky": 7,
		"parameter_table_BattleEnemyParameterTable": 0,
		"parameter_deviation_table_BattleEnemyParameterDeviationTable": 0,
		"acquire_skill_group_id": 0,
		"level_correction": 0,
		"group_id": 0,
		"ai_script_id_BattleAIScript": 0
	},
	{
		"ID": 12247,
		"stage_BattleStage": 141020010,
		"unit_UnitUnit": 820008,
		"money": 225,
		"initial_coordinate_x": 6,
		"initial_coordinate_y": 21,
		"reinforcement_BattleReinforcement": 6,
		"initial_direction": 180.0,
		"ai_move_group": 0,
		"ai_target_move_x": -1,
		"ai_target_move_y": -1,
		"ai_skill_function": "",
		"ai_attack": "",
		"ai_move": "",
		"ai_heal": "",
		"ai_skill": "",
		"ai_use": "",
		"skill_group_id": 1050,
		"gear_GearGear": 23001,
		"gear_rank": 1,
		"proficiency_UnitProficiency": 3,
		"level": 45,
		"hp": 82,
		"strength": 57,
		"vitality": 44,
		"intelligence": 0,
		"mind": 15,
		"agility": 25,
		"dexterity": 49,
		"lucky": 7,
		"parameter_table_BattleEnemyParameterTable": 0,
		"parameter_deviation_table_BattleEnemyParameterDeviationTable": 0,
		"acquire_skill_group_id": 0,
		"level_correction": 0,
		"group_id": 0,
		"ai_script_id_BattleAIScript": 0
	},
	{
		"ID": 12248,
		"stage_BattleStage": 141020010,
		"unit_UnitUnit": 820008,
		"money": 230,
		"initial_coordinate_x": 1,
		"initial_coordinate_y": 20,
		"reinforcement_BattleReinforcement": 7,
		"initial_direction": 90.0,
		"ai_move_group": 0,
		"ai_target_move_x": -1,
		"ai_target_move_y": -1,
		"ai_skill_function": "",
		"ai_attack": "",
		"ai_move": "",
		"ai_heal": "",
		"ai_skill": "",
		"ai_use": "",
		"skill_group_id": 1050,
		"gear_GearGear": 23001,
		"gear_rank": 1,
		"proficiency_UnitProficiency": 3,
		"level": 46,
		"hp": 83,
		"strength": 58,
		"vitality": 45,
		"intelligence": 0,
		"mind": 15,
		"agility": 25,
		"dexterity": 50,
		"lucky": 7,
		"parameter_table_BattleEnemyParameterTable": 0,
		"parameter_deviation_table_BattleEnemyParameterDeviationTable": 0,
		"acquire_skill_group_id": 0,
		"level_correction": 0,
		"group_id": 0,
		"ai_script_id_BattleAIScript": 0
	},
	{
		"ID": 12249,
		"stage_BattleStage": 141020010,
		"unit_UnitUnit": 820008,
		"money": 235,
		"initial_coordinate_x": 1,
		"initial_coordinate_y": 19,
		"reinforcement_BattleReinforcement": 7,
		"initial_direction": 90.0,
		"ai_move_group": 0,
		"ai_target_move_x": -1,
		"ai_target_move_y": -1,
		"ai_skill_function": "",
		"ai_attack": "",
		"ai_move": "",
		"ai_heal": "",
		"ai_skill": "",
		"ai_use": "",
		"skill_group_id": 1050,
		"gear_GearGear": 23001,
		"gear_rank": 1,
		"proficiency_UnitProficiency": 3,
		"level": 47,
		"hp": 84,
		"strength": 59,
		"vitality": 45,
		"intelligence": 0,
		"mind": 15,
		"agility": 26,
		"dexterity": 51,
		"lucky": 7,
		"parameter_table_BattleEnemyParameterTable": 0,
		"parameter_deviation_table_BattleEnemyParameterDeviationTable": 0,
		"acquire_skill_group_id": 0,
		"level_correction": 0,
		"group_id": 0,
		"ai_script_id_BattleAIScript": 0
	},
	{
		"ID": 12250,
		"stage_BattleStage": 141020010,
		"unit_UnitUnit": 820008,
		"money": 240,
		"initial_coordinate_x": 1,
		"initial_coordinate_y": 18,
		"reinforcement_BattleReinforcement": 7,
		"initial_direction": 90.0,
		"ai_move_group": 0,
		"ai_target_move_x": -1,
		"ai_target_move_y": -1,
		"ai_skill_function": "",
		"ai_attack": "",
		"ai_move": "",
		"ai_heal": "",
		"ai_skill": "",
		"ai_use": "",
		"skill_group_id": 1050,
		"gear_GearGear": 23001,
		"gear_rank": 1,
		"proficiency_UnitProficiency": 3,
		"level": 48,
		"hp": 85,
		"strength": 60,
		"vitality": 46,
		"intelligence": 0,
		"mind": 15,
		"agility": 26,
		"dexterity": 52,
		"lucky": 7,
		"parameter_table_BattleEnemyParameterTable": 0,
		"parameter_deviation_table_BattleEnemyParameterDeviationTable": 0,
		"acquire_skill_group_id": 0,
		"level_correction": 0,
		"group_id": 0,
		"ai_script_id_BattleAIScript": 0
	},
	{
		"ID": 12251,
		"stage_BattleStage": 141020010,
		"unit_UnitUnit": 820008,
		"money": 245,
		"initial_coordinate_x": 1,
		"initial_coordinate_y": 17,
		"reinforcement_BattleReinforcement": 7,
		"initial_direction": 90.0,
		"ai_move_group": 0,
		"ai_target_move_x": -1,
		"ai_target_move_y": -1,
		"ai_skill_function": "",
		"ai_attack": "",
		"ai_move": "",
		"ai_heal": "",
		"ai_skill": "",
		"ai_use": "",
		"skill_group_id": 1050,
		"gear_GearGear": 23001,
		"gear_rank": 1,
		"proficiency_UnitProficiency": 3,
		"level": 49,
		"hp": 86,
		"strength": 61,
		"vitality": 47,
		"intelligence": 0,
		"mind": 16,
		"agility": 27,
		"dexterity": 53,
		"lucky": 7,
		"parameter_table_BattleEnemyParameterTable": 0,
		"parameter_deviation_table_BattleEnemyParameterDeviationTable": 0,
		"acquire_skill_group_id": 0,
		"level_correction": 0,
		"group_id": 0,
		"ai_script_id_BattleAIScript": 0
	},
	{
		"ID": 12252,
		"stage_BattleStage": 141020010,
		"unit_UnitUnit": 820008,
		"money": 250,
		"initial_coordinate_x": 1,
		"initial_coordinate_y": 16,
		"reinforcement_BattleReinforcement": 7,
		"initial_direction": 90.0,
		"ai_move_group": 0,
		"ai_target_move_x": -1,
		"ai_target_move_y": -1,
		"ai_skill_function": "",
		"ai_attack": "",
		"ai_move": "",
		"ai_heal": "",
		"ai_skill": "",
		"ai_use": "",
		"skill_group_id": 1050,
		"gear_GearGear": 23001,
		"gear_rank": 1,
		"proficiency_UnitProficiency": 3,
		"level": 50,
		"hp": 87,
		"strength": 62,
		"vitality": 47,
		"intelligence": 0,
		"mind": 16,
		"agility": 27,
		"dexterity": 54,
		"lucky": 7,
		"parameter_table_BattleEnemyParameterTable": 0,
		"parameter_deviation_table_BattleEnemyParameterDeviationTable": 0,
		"acquire_skill_group_id": 0,
		"level_correction": 0,
		"group_id": 0,
		"ai_script_id_BattleAIScript": 0
	},
	{
		"ID": 12253,
		"stage_BattleStage": 141020010,
		"unit_UnitUnit": 820008,
		"money": 255,
		"initial_coordinate_x": 3,
		"initial_coordinate_y": 21,
		"reinforcement_BattleReinforcement": 8,
		"initial_direction": 180.0,
		"ai_move_group": 0,
		"ai_target_move_x": -1,
		"ai_target_move_y": -1,
		"ai_skill_function": "",
		"ai_attack": "",
		"ai_move": "",
		"ai_heal": "",
		"ai_skill": "",
		"ai_use": "",
		"skill_group_id": 1050,
		"gear_GearGear": 23001,
		"gear_rank": 1,
		"proficiency_UnitProficiency": 3,
		"level": 51,
		"hp": 88,
		"strength": 63,
		"vitality": 48,
		"intelligence": 0,
		"mind": 16,
		"agility": 28,
		"dexterity": 55,
		"lucky": 7,
		"parameter_table_BattleEnemyParameterTable": 0,
		"parameter_deviation_table_BattleEnemyParameterDeviationTable": 0,
		"acquire_skill_group_id": 0,
		"level_correction": 0,
		"group_id": 0,
		"ai_script_id_BattleAIScript": 0
	},
	{
		"ID": 12254,
		"stage_BattleStage": 141020010,
		"unit_UnitUnit": 820008,
		"money": 260,
		"initial_coordinate_x": 4,
		"initial_coordinate_y": 21,
		"reinforcement_BattleReinforcement": 8,
		"initial_direction": 180.0,
		"ai_move_group": 0,
		"ai_target_move_x": -1,
		"ai_target_move_y": -1,
		"ai_skill_function": "",
		"ai_attack": "",
		"ai_move": "",
		"ai_heal": "",
		"ai_skill": "",
		"ai_use": "",
		"skill_group_id": 1050,
		"gear_GearGear": 23001,
		"gear_rank": 1,
		"proficiency_UnitProficiency": 3,
		"level": 52,
		"hp": 89,
		"strength": 64,
		"vitality": 49,
		"intelligence": 0,
		"mind": 16,
		"agility": 28,
		"dexterity": 55,
		"lucky": 7,
		"parameter_table_BattleEnemyParameterTable": 0,
		"parameter_deviation_table_BattleEnemyParameterDeviationTable": 0,
		"acquire_skill_group_id": 0,
		"level_correction": 0,
		"group_id": 0,
		"ai_script_id_BattleAIScript": 0
	},
	{
		"ID": 12255,
		"stage_BattleStage": 141020010,
		"unit_UnitUnit": 830008,
		"money": 265,
		"initial_coordinate_x": 5,
		"initial_coordinate_y": 13,
		"reinforcement_BattleReinforcement": 0,
		"initial_direction": 180.0,
		"ai_move_group": 0,
		"ai_target_move_x": -1,
		"ai_target_move_y": -1,
		"ai_skill_function": "",
		"ai_attack": "IF( turn <=4 ,IF(panel_move_distance <= 1, 1, 0),1)",
		"ai_move": "IF(turn <=4,0,1)",
		"ai_heal": "",
		"ai_skill": "",
		"ai_use": "",
		"skill_group_id": 1030,
		"gear_GearGear": 33001,
		"gear_rank": 1,
		"proficiency_UnitProficiency": 3,
		"level": 53,
		"hp": 89,
		"strength": 62,
		"vitality": 50,
		"intelligence": 0,
		"mind": 17,
		"agility": 33,
		"dexterity": 57,
		"lucky": 7,
		"parameter_table_BattleEnemyParameterTable": 0,
		"parameter_deviation_table_BattleEnemyParameterDeviationTable": 0,
		"acquire_skill_group_id": 0,
		"level_correction": 0,
		"group_id": 0,
		"ai_script_id_BattleAIScript": 0
	},
	{
		"ID": 12256,
		"stage_BattleStage": 141020010,
		"unit_UnitUnit": 830008,
		"money": 270,
		"initial_coordinate_x": 5,
		"initial_coordinate_y": 14,
		"reinforcement_BattleReinforcement": 0,
		"initial_direction": 180.0,
		"ai_move_group": 0,
		"ai_target_move_x": -1,
		"ai_target_move_y": -1,
		"ai_skill_function": "",
		"ai_attack": "IF( turn <=4 ,IF(panel_move_distance <= 1, 1, 0),1)",
		"ai_move": "IF(turn <=4,0,1)",
		"ai_heal": "",
		"ai_skill": "",
		"ai_use": "",
		"skill_group_id": 1030,
		"gear_GearGear": 33001,
		"gear_rank": 1,
		"proficiency_UnitProficiency": 3,
		"level": 54,
		"hp": 90,
		"strength": 63,
		"vitality": 51,
		"intelligence": 0,
		"mind": 17,
		"agility": 33,
		"dexterity": 58,
		"lucky": 7,
		"parameter_table_BattleEnemyParameterTable": 0,
		"parameter_deviation_table_BattleEnemyParameterDeviationTable": 0,
		"acquire_skill_group_id": 0,
		"level_correction": 0,
		"group_id": 0,
		"ai_script_id_BattleAIScript": 0
	},
	{
		"ID": 12257,
		"stage_BattleStage": 141020010,
		"unit_UnitUnit": 830008,
		"money": 275,
		"initial_coordinate_x": 5,
		"initial_coordinate_y": 15,
		"reinforcement_BattleReinforcement": 0,
		"initial_direction": 180.0,
		"ai_move_group": 0,
		"ai_target_move_x": -1,
		"ai_target_move_y": -1,
		"ai_skill_function": "",
		"ai_attack": "IF( turn <=4 ,IF(panel_move_distance <= 1, 1, 0),1)",
		"ai_move": "IF(turn <=4,0,1)",
		"ai_heal": "",
		"ai_skill": "",
		"ai_use": "",
		"skill_group_id": 1030,
		"gear_GearGear": 33001,
		"gear_rank": 1,
		"proficiency_UnitProficiency": 3,
		"level": 55,
		"hp": 91,
		"strength": 64,
		"vitality": 51,
		"intelligence": 0,
		"mind": 17,
		"agility": 34,
		"dexterity": 59,
		"lucky": 7,
		"parameter_table_BattleEnemyParameterTable": 0,
		"parameter_deviation_table_BattleEnemyParameterDeviationTable": 0,
		"acquire_skill_group_id": 0,
		"level_correction": 0,
		"group_id": 0,
		"ai_script_id_BattleAIScript": 0
	},
	{
		"ID": 12258,
		"stage_BattleStage": 141020010,
		"unit_UnitUnit": 830008,
		"money": 280,
		"initial_coordinate_x": 5,
		"initial_coordinate_y": 16,
		"reinforcement_BattleReinforcement": 0,
		"initial_direction": 180.0,
		"ai_move_group": 0,
		"ai_target_move_x": -1,
		"ai_target_move_y": -1,
		"ai_skill_function": "",
		"ai_attack": "IF( turn <=4 ,IF(panel_move_distance <= 1, 1, 0),1)",
		"ai_move": "IF(turn <=4,0,1)",
		"ai_heal": "",
		"ai_skill": "",
		"ai_use": "",
		"skill_group_id": 1030,
		"gear_GearGear": 33001,
		"gear_rank": 1,
		"proficiency_UnitProficiency": 3,
		"level": 56,
		"hp": 92,
		"strength": 65,
		"vitality": 52,
		"intelligence": 0,
		"mind": 17,
		"agility": 34,
		"dexterity": 60,
		"lucky": 7,
		"parameter_table_BattleEnemyParameterTable": 0,
		"parameter_deviation_table_BattleEnemyParameterDeviationTable": 0,
		"acquire_skill_group_id": 0,
		"level_correction": 0,
		"group_id": 0,
		"ai_script_id_BattleAIScript": 0
	},
	{
		"ID": 12259,
		"stage_BattleStage": 141020010,
		"unit_UnitUnit": 830008,
		"money": 285,
		"initial_coordinate_x": 3,
		"initial_coordinate_y": 21,
		"reinforcement_BattleReinforcement": 7,
		"initial_direction": 180.0,
		"ai_move_group": 0,
		"ai_target_move_x": -1,
		"ai_target_move_y": -1,
		"ai_skill_function": "",
		"ai_attack": "",
		"ai_move": "",
		"ai_heal": "",
		"ai_skill": "",
		"ai_use": "",
		"skill_group_id": 1030,
		"gear_GearGear": 33001,
		"gear_rank": 1,
		"proficiency_UnitProficiency": 3,
		"level": 57,
		"hp": 93,
		"strength": 66,
		"vitality": 53,
		"intelligence": 0,
		"mind": 18,
		"agility": 35,
		"dexterity": 61,
		"lucky": 7,
		"parameter_table_BattleEnemyParameterTable": 0,
		"parameter_deviation_table_BattleEnemyParameterDeviationTable": 0,
		"acquire_skill_group_id": 0,
		"level_correction": 0,
		"group_id": 0,
		"ai_script_id_BattleAIScript": 0
	},
	{
		"ID": 12260,
		"stage_BattleStage": 141020010,
		"unit_UnitUnit": 830008,
		"money": 290,
		"initial_coordinate_x": 4,
		"initial_coordinate_y": 21,
		"reinforcement_BattleReinforcement": 7,
		"initial_direction": 180.0,
		"ai_move_group": 0,
		"ai_target_move_x": -1,
		"ai_target_move_y": -1,
		"ai_skill_function": "",
		"ai_attack": "",
		"ai_move": "",
		"ai_heal": "",
		"ai_skill": "",
		"ai_use": "",
		"skill_group_id": 1030,
		"gear_GearGear": 33001,
		"gear_rank": 1,
		"proficiency_UnitProficiency": 3,
		"level": 58,
		"hp": 94,
		"strength": 67,
		"vitality": 53,
		"intelligence": 0,
		"mind": 18,
		"agility": 35,
		"dexterity": 62,
		"lucky": 7,
		"parameter_table_BattleEnemyParameterTable": 0,
		"parameter_deviation_table_BattleEnemyParameterDeviationTable": 0,
		"acquire_skill_group_id": 0,
		"level_correction": 0,
		"group_id": 0,
		"ai_script_id_BattleAIScript": 0
	},
	{
		"ID": 12261,
		"stage_BattleStage": 141020010,
		"unit_UnitUnit": 830008,
		"money": 295,
		"initial_coordinate_x": 5,
		"initial_coordinate_y": 21,
		"reinforcement_BattleReinforcement": 7,
		"initial_direction": 180.0,
		"ai_move_group": 0,
		"ai_target_move_x": -1,
		"ai_target_move_y": -1,
		"ai_skill_function": "",
		"ai_attack": "",
		"ai_move": "",
		"ai_heal": "",
		"ai_skill": "",
		"ai_use": "",
		"skill_group_id": 1030,
		"gear_GearGear": 33001,
		"gear_rank": 1,
		"proficiency_UnitProficiency": 3,
		"level": 59,
		"hp": 95,
		"strength": 68,
		"vitality": 54,
		"intelligence": 0,
		"mind": 18,
		"agility": 36,
		"dexterity": 63,
		"lucky": 7,
		"parameter_table_BattleEnemyParameterTable": 0,
		"parameter_deviation_table_BattleEnemyParameterDeviationTable": 0,
		"acquire_skill_group_id": 0,
		"level_correction": 0,
		"group_id": 0,
		"ai_script_id_BattleAIScript": 0
	},
	{
		"ID": 12262,
		"stage_BattleStage": 141020010,
		"unit_UnitUnit": 830008,
		"money": 300,
		"initial_coordinate_x": 6,
		"initial_coordinate_y": 21,
		"reinforcement_BattleReinforcement": 7,
		"initial_direction": 180.0,
		"ai_move_group": 0,
		"ai_target_move_x": -1,
		"ai_target_move_y": -1,
		"ai_skill_function": "",
		"ai_attack": "",
		"ai_move": "",
		"ai_heal": "",
		"ai_skill": "",
		"ai_use": "",
		"skill_group_id": 1030,
		"gear_GearGear": 33001,
		"gear_rank": 1,
		"proficiency_UnitProficiency": 3,
		"level": 60,
		"hp": 96,
		"strength": 69,
		"vitality": 55,
		"intelligence": 0,
		"mind": 18,
		"agility": 37,
		"dexterity": 64,
		"lucky": 7,
		"parameter_table_BattleEnemyParameterTable": 0,
		"parameter_deviation_table_BattleEnemyParameterDeviationTable": 0,
		"acquire_skill_group_id": 0,
		"level_correction": 0,
		"group_id": 0,
		"ai_script_id_BattleAIScript": 0
	},
	{
		"ID": 12263,
		"stage_BattleStage": 141020010,
		"unit_UnitUnit": 830008,
		"money": 305,
		"initial_coordinate_x": 3,
		"initial_coordinate_y": 21,
		"reinforcement_BattleReinforcement": 9,
		"initial_direction": 180.0,
		"ai_move_group": 0,
		"ai_target_move_x": -1,
		"ai_target_move_y": -1,
		"ai_skill_function": "",
		"ai_attack": "",
		"ai_move": "",
		"ai_heal": "",
		"ai_skill": "",
		"ai_use": "",
		"skill_group_id": 1030,
		"gear_GearGear": 33001,
		"gear_rank": 1,
		"proficiency_UnitProficiency": 3,
		"level": 61,
		"hp": 97,
		"strength": 70,
		"vitality": 56,
		"intelligence": 0,
		"mind": 19,
		"agility": 37,
		"dexterity": 65,
		"lucky": 7,
		"parameter_table_BattleEnemyParameterTable": 0,
		"parameter_deviation_table_BattleEnemyParameterDeviationTable": 0,
		"acquire_skill_group_id": 0,
		"level_correction": 0,
		"group_id": 0,
		"ai_script_id_BattleAIScript": 0
	},
	{
		"ID": 12264,
		"stage_BattleStage": 141020010,
		"unit_UnitUnit": 830008,
		"money": 310,
		"initial_coordinate_x": 4,
		"initial_coordinate_y": 21,
		"reinforcement_BattleReinforcement": 9,
		"initial_direction": 180.0,
		"ai_move_group": 0,
		"ai_target_move_x": -1,
		"ai_target_move_y": -1,
		"ai_skill_function": "",
		"ai_attack": "",
		"ai_move": "",
		"ai_heal": "",
		"ai_skill": "",
		"ai_use": "",
		"skill_group_id": 1030,
		"gear_GearGear": 33001,
		"gear_rank": 1,
		"proficiency_UnitProficiency": 3,
		"level": 62,
		"hp": 98,
		"strength": 71,
		"vitality": 56,
		"intelligence": 0,
		"mind": 19,
		"agility": 38,
		"dexterity": 66,
		"lucky": 7,
		"parameter_table_BattleEnemyParameterTable": 0,
		"parameter_deviation_table_BattleEnemyParameterDeviationTable": 0,
		"acquire_skill_group_id": 0,
		"level_correction": 0,
		"group_id": 0,
		"ai_script_id_BattleAIScript": 0
	},
	{
		"ID": 12265,
		"stage_BattleStage": 141020010,
		"unit_UnitUnit": 830008,
		"money": 315,
		"initial_coordinate_x": 5,
		"initial_coordinate_y": 21,
		"reinforcement_BattleReinforcement": 9,
		"initial_direction": 180.0,
		"ai_move_group": 0,
		"ai_target_move_x": -1,
		"ai_target_move_y": -1,
		"ai_skill_function": "",
		"ai_attack": "",
		"ai_move": "",
		"ai_heal": "",
		"ai_skill": "",
		"ai_use": "",
		"skill_group_id": 1030,
		"gear_GearGear": 33001,
		"gear_rank": 1,
		"proficiency_UnitProficiency": 3,
		"level": 63,
		"hp": 99,
		"strength": 72,
		"vitality": 57,
		"intelligence": 0,
		"mind": 19,
		"agility": 38,
		"dexterity": 67,
		"lucky": 7,
		"parameter_table_BattleEnemyParameterTable": 0,
		"parameter_deviation_table_BattleEnemyParameterDeviationTable": 0,
		"acquire_skill_group_id": 0,
		"level_correction": 0,
		"group_id": 0,
		"ai_script_id_BattleAIScript": 0
	},
	{
		"ID": 12266,
		"stage_BattleStage": 141020010,
		"unit_UnitUnit": 860010,
		"money": 235,
		"initial_coordinate_x": 1,
		"initial_coordinate_y": 20,
		"reinforcement_BattleReinforcement": 6,
		"initial_direction": 90.0,
		"ai_move_group": 0,
		"ai_target_move_x": -1,
		"ai_target_move_y": -1,
		"ai_skill_function": "",
		"ai_attack": "",
		"ai_move": "",
		"ai_heal": "",
		"ai_skill": "",
		"ai_use": "",
		"skill_group_id": 1370,
		"gear_GearGear": 80010,
		"gear_rank": 1,
		"proficiency_UnitProficiency": 3,
		"level": 47,
		"hp": 61,
		"strength": 1,
		"vitality": 30,
		"intelligence": 39,
		"mind": 30,
		"agility": 34,
		"dexterity": 46,
		"lucky": 9,
		"parameter_table_BattleEnemyParameterTable": 0,
		"parameter_deviation_table_BattleEnemyParameterDeviationTable": 0,
		"acquire_skill_group_id": 0,
		"level_correction": 0,
		"group_id": 0,
		"ai_script_id_BattleAIScript": 0
	},
	{
		"ID": 12267,
		"stage_BattleStage": 141020010,
		"unit_UnitUnit": 860010,
		"money": 240,
		"initial_coordinate_x": 1,
		"initial_coordinate_y": 19,
		"reinforcement_BattleReinforcement": 6,
		"initial_direction": 90.0,
		"ai_move_group": 0,
		"ai_target_move_x": -1,
		"ai_target_move_y": -1,
		"ai_skill_function": "",
		"ai_attack": "",
		"ai_move": "",
		"ai_heal": "",
		"ai_skill": "",
		"ai_use": "",
		"skill_group_id": 1370,
		"gear_GearGear": 80010,
		"gear_rank": 1,
		"proficiency_UnitProficiency": 3,
		"level": 48,
		"hp": 62,
		"strength": 1,
		"vitality": 31,
		"intelligence": 40,
		"mind": 31,
		"agility": 34,
		"dexterity": 46,
		"lucky": 9,
		"parameter_table_BattleEnemyParameterTable": 0,
		"parameter_deviation_table_BattleEnemyParameterDeviationTable": 0,
		"acquire_skill_group_id": 0,
		"level_correction": 0,
		"group_id": 0,
		"ai_script_id_BattleAIScript": 0
	},
	{
		"ID": 12268,
		"stage_BattleStage": 141020010,
		"unit_UnitUnit": 860010,
		"money": 245,
		"initial_coordinate_x": 1,
		"initial_coordinate_y": 18,
		"reinforcement_BattleReinforcement": 6,
		"initial_direction": 90.0,
		"ai_move_group": 0,
		"ai_target_move_x": -1,
		"ai_target_move_y": -1,
		"ai_skill_function": "",
		"ai_attack": "",
		"ai_move": "",
		"ai_heal": "",
		"ai_skill": "",
		"ai_use": "",
		"skill_group_id": 1370,
		"gear_GearGear": 80010,
		"gear_rank": 1,
		"proficiency_UnitProficiency": 3,
		"level": 49,
		"hp": 63,
		"strength": 1,
		"vitality": 31,
		"intelligence": 41,
		"mind": 31,
		"agility": 35,
		"dexterity": 47,
		"lucky": 9,
		"parameter_table_BattleEnemyParameterTable": 0,
		"parameter_deviation_table_BattleEnemyParameterDeviationTable": 0,
		"acquire_skill_group_id": 0,
		"level_correction": 0,
		"group_id": 0,
		"ai_script_id_BattleAIScript": 0
	},
	{
		"ID": 12269,
		"stage_BattleStage": 141020010,
		"unit_UnitUnit": 860010,
		"money": 250,
		"initial_coordinate_x": 1,
		"initial_coordinate_y": 17,
		"reinforcement_BattleReinforcement": 6,
		"initial_direction": 90.0,
		"ai_move_group": 0,
		"ai_target_move_x": -1,
		"ai_target_move_y": -1,
		"ai_skill_function": "",
		"ai_attack": "",
		"ai_move": "",
		"ai_heal": "",
		"ai_skill": "",
		"ai_use": "",
		"skill_group_id": 1370,
		"gear_GearGear": 80010,
		"gear_rank": 1,
		"proficiency_UnitProficiency": 3,
		"level": 50,
		"hp": 64,
		"strength": 1,
		"vitality": 32,
		"intelligence": 41,
		"mind": 32,
		"agility": 35,
		"dexterity": 48,
		"lucky": 9,
		"parameter_table_BattleEnemyParameterTable": 0,
		"parameter_deviation_table_BattleEnemyParameterDeviationTable": 0,
		"acquire_skill_group_id": 0,
		"level_correction": 0,
		"group_id": 0,
		"ai_script_id_BattleAIScript": 0
	},
	{
		"ID": 12270,
		"stage_BattleStage": 141020010,
		"unit_UnitUnit": 860010,
		"money": 255,
		"initial_coordinate_x": 1,
		"initial_coordinate_y": 16,
		"reinforcement_BattleReinforcement": 6,
		"initial_direction": 90.0,
		"ai_move_group": 0,
		"ai_target_move_x": -1,
		"ai_target_move_y": -1,
		"ai_skill_function": "",
		"ai_attack": "",
		"ai_move": "",
		"ai_heal": "",
		"ai_skill": "",
		"ai_use": "",
		"skill_group_id": 1370,
		"gear_GearGear": 80010,
		"gear_rank": 1,
		"proficiency_UnitProficiency": 3,
		"level": 51,
		"hp": 65,
		"strength": 2,
		"vitality": 33,
		"intelligence": 42,
		"mind": 32,
		"agility": 36,
		"dexterity": 49,
		"lucky": 9,
		"parameter_table_BattleEnemyParameterTable": 0,
		"parameter_deviation_table_BattleEnemyParameterDeviationTable": 0,
		"acquire_skill_group_id": 0,
		"level_correction": 0,
		"group_id": 0,
		"ai_script_id_BattleAIScript": 0
	},
	{
		"ID": 12271,
		"stage_BattleStage": 141020010,
		"unit_UnitUnit": 860010,
		"money": 260,
		"initial_coordinate_x": 3,
		"initial_coordinate_y": 21,
		"reinforcement_BattleReinforcement": 4,
		"initial_direction": 180.0,
		"ai_move_group": 0,
		"ai_target_move_x": -1,
		"ai_target_move_y": -1,
		"ai_skill_function": "",
		"ai_attack": "",
		"ai_move": "",
		"ai_heal": "",
		"ai_skill": "",
		"ai_use": "",
		"skill_group_id": 1370,
		"gear_GearGear": 80010,
		"gear_rank": 1,
		"proficiency_UnitProficiency": 3,
		"level": 52,
		"hp": 65,
		"strength": 2,
		"vitality": 33,
		"intelligence": 43,
		"mind": 32,
		"agility": 37,
		"dexterity": 49,
		"lucky": 9,
		"parameter_table_BattleEnemyParameterTable": 0,
		"parameter_deviation_table_BattleEnemyParameterDeviationTable": 0,
		"acquire_skill_group_id": 0,
		"level_correction": 0,
		"group_id": 0,
		"ai_script_id_BattleAIScript": 0
	},
	{
		"ID": 12272,
		"stage_BattleStage": 141020010,
		"unit_UnitUnit": 860010,
		"money": 265,
		"initial_coordinate_x": 4,
		"initial_coordinate_y": 21,
		"reinforcement_BattleReinforcement": 4,
		"initial_direction": 180.0,
		"ai_move_group": 0,
		"ai_target_move_x": -1,
		"ai_target_move_y": -1,
		"ai_skill_function": "",
		"ai_attack": "",
		"ai_move": "",
		"ai_heal": "",
		"ai_skill": "",
		"ai_use": "",
		"skill_group_id": 1370,
		"gear_GearGear": 80010,
		"gear_rank": 1,
		"proficiency_UnitProficiency": 3,
		"level": 53,
		"hp": 66,
		"strength": 2,
		"vitality": 34,
		"intelligence": 43,
		"mind": 33,
		"agility": 37,
		"dexterity": 50,
		"lucky": 9,
		"parameter_table_BattleEnemyParameterTable": 0,
		"parameter_deviation_table_BattleEnemyParameterDeviationTable": 0,
		"acquire_skill_group_id": 0,
		"level_correction": 0,
		"group_id": 0,
		"ai_script_id_BattleAIScript": 0
	}
]