[
	{
		"ID": 99892,
		"stage_BattleStage": 210030212,
		"unit_UnitUnit": 5810301,
		"money": 375,
		"initial_coordinate_x": 4,
		"initial_coordinate_y": 3,
		"reinforcement_BattleReinforcement": 0,
		"initial_direction": 0.0,
		"ai_move_group": 0,
		"ai_target_move_x": -1,
		"ai_target_move_y": -1,
		"ai_skill_function": "",
		"ai_attack": "",
		"ai_move": "IF(turn <=3,0,1)",
		"ai_heal": "",
		"ai_skill": "",
		"ai_use": "",
		"skill_group_id": 22380,
		"gear_GearGear": 80039,
		"gear_rank": 1,
		"proficiency_UnitProficiency": 1,
		"level": 75,
		"hp": 115,
		"strength": 75,
		"vitality": 45,
		"intelligence": 75,
		"mind": 40,
		"agility": 70,
		"dexterity": 60,
		"lucky": 30,
		"parameter_table_BattleEnemyParameterTable": 0,
		"parameter_deviation_table_BattleEnemyParameterDeviationTable": 0,
		"acquire_skill_group_id": 0,
		"level_correction": 0,
		"group_id": 0,
		"ai_script_id_BattleAIScript": 0
	},
	{
		"ID": 99893,
		"stage_BattleStage": 210030212,
		"unit_UnitUnit": 910013,
		"money": 200,
		"initial_coordinate_x": 3,
		"initial_coordinate_y": 5,
		"reinforcement_BattleReinforcement": 0,
		"initial_direction": 0.0,
		"ai_move_group": 0,
		"ai_target_move_x": -1,
		"ai_target_move_y": -1,
		"ai_skill_function": "",
		"ai_attack": "",
		"ai_move": "",
		"ai_heal": "",
		"ai_skill": "",
		"ai_use": "",
		"skill_group_id": 22373,
		"gear_GearGear": 11002,
		"gear_rank": 1,
		"proficiency_UnitProficiency": 1,
		"level": 40,
		"hp": 35,
		"strength": 34,
		"vitality": 18,
		"intelligence": 2,
		"mind": 18,
		"agility": 55,
		"dexterity": 45,
		"lucky": 25,
		"parameter_table_BattleEnemyParameterTable": 0,
		"parameter_deviation_table_BattleEnemyParameterDeviationTable": 0,
		"acquire_skill_group_id": 0,
		"level_correction": 0,
		"group_id": 0,
		"ai_script_id_BattleAIScript": 0
	},
	{
		"ID": 99894,
		"stage_BattleStage": 210030212,
		"unit_UnitUnit": 920013,
		"money": 200,
		"initial_coordinate_x": 4,
		"initial_coordinate_y": 5,
		"reinforcement_BattleReinforcement": 0,
		"initial_direction": 0.0,
		"ai_move_group": 0,
		"ai_target_move_x": -1,
		"ai_target_move_y": -1,
		"ai_skill_function": "",
		"ai_attack": "",
		"ai_move": "",
		"ai_heal": "",
		"ai_skill": "",
		"ai_use": "",
		"skill_group_id": 22373,
		"gear_GearGear": 21002,
		"gear_rank": 1,
		"proficiency_UnitProficiency": 1,
		"level": 40,
		"hp": 35,
		"strength": 35,
		"vitality": 19,
		"intelligence": 3,
		"mind": 18,
		"agility": 55,
		"dexterity": 44,
		"lucky": 25,
		"parameter_table_BattleEnemyParameterTable": 0,
		"parameter_deviation_table_BattleEnemyParameterDeviationTable": 0,
		"acquire_skill_group_id": 0,
		"level_correction": 0,
		"group_id": 0,
		"ai_script_id_BattleAIScript": 0
	},
	{
		"ID": 99895,
		"stage_BattleStage": 210030212,
		"unit_UnitUnit": 930013,
		"money": 200,
		"initial_coordinate_x": 5,
		"initial_coordinate_y": 5,
		"reinforcement_BattleReinforcement": 0,
		"initial_direction": 270.0,
		"ai_move_group": 0,
		"ai_target_move_x": -1,
		"ai_target_move_y": -1,
		"ai_skill_function": "",
		"ai_attack": "",
		"ai_move": "",
		"ai_heal": "",
		"ai_skill": "",
		"ai_use": "",
		"skill_group_id": 22373,
		"gear_GearGear": 31002,
		"gear_rank": 1,
		"proficiency_UnitProficiency": 1,
		"level": 40,
		"hp": 34,
		"strength": 34,
		"vitality": 32,
		"intelligence": 3,
		"mind": 21,
		"agility": 55,
		"dexterity": 45,
		"lucky": 25,
		"parameter_table_BattleEnemyParameterTable": 0,
		"parameter_deviation_table_BattleEnemyParameterDeviationTable": 0,
		"acquire_skill_group_id": 0,
		"level_correction": 0,
		"group_id": 0,
		"ai_script_id_BattleAIScript": 0
	},
	{
		"ID": 99896,
		"stage_BattleStage": 210030212,
		"unit_UnitUnit": 940013,
		"money": 200,
		"initial_coordinate_x": 2,
		"initial_coordinate_y": 4,
		"reinforcement_BattleReinforcement": 0,
		"initial_direction": 270.0,
		"ai_move_group": 0,
		"ai_target_move_x": -1,
		"ai_target_move_y": -1,
		"ai_skill_function": "",
		"ai_attack": "",
		"ai_move": "",
		"ai_heal": "",
		"ai_skill": "",
		"ai_use": "",
		"skill_group_id": 22373,
		"gear_GearGear": 41002,
		"gear_rank": 1,
		"proficiency_UnitProficiency": 1,
		"level": 40,
		"hp": 37,
		"strength": 33,
		"vitality": 28,
		"intelligence": 2,
		"mind": 18,
		"agility": 55,
		"dexterity": 43,
		"lucky": 25,
		"parameter_table_BattleEnemyParameterTable": 0,
		"parameter_deviation_table_BattleEnemyParameterDeviationTable": 0,
		"acquire_skill_group_id": 0,
		"level_correction": 0,
		"group_id": 0,
		"ai_script_id_BattleAIScript": 0
	},
	{
		"ID": 99897,
		"stage_BattleStage": 210030212,
		"unit_UnitUnit": 940013,
		"money": 200,
		"initial_coordinate_x": 6,
		"initial_coordinate_y": 4,
		"reinforcement_BattleReinforcement": 0,
		"initial_direction": 0.0,
		"ai_move_group": 0,
		"ai_target_move_x": -1,
		"ai_target_move_y": -1,
		"ai_skill_function": "",
		"ai_attack": "",
		"ai_move": "",
		"ai_heal": "",
		"ai_skill": "",
		"ai_use": "",
		"skill_group_id": 22373,
		"gear_GearGear": 41002,
		"gear_rank": 1,
		"proficiency_UnitProficiency": 1,
		"level": 40,
		"hp": 36,
		"strength": 35,
		"vitality": 31,
		"intelligence": 9,
		"mind": 20,
		"agility": 55,
		"dexterity": 45,
		"lucky": 25,
		"parameter_table_BattleEnemyParameterTable": 0,
		"parameter_deviation_table_BattleEnemyParameterDeviationTable": 0,
		"acquire_skill_group_id": 0,
		"level_correction": 0,
		"group_id": 0,
		"ai_script_id_BattleAIScript": 0
	}
]