[
	{
		"ID": 81090,
		"stage_BattleStage": 210013002,
		"unit_UnitUnit": 900011,
		"money": 400,
		"initial_coordinate_x": 3,
		"initial_coordinate_y": 2,
		"reinforcement_BattleReinforcement": 0,
		"initial_direction": 0.0,
		"ai_move_group": 0,
		"ai_target_move_x": -1,
		"ai_target_move_y": -1,
		"ai_skill_function": "",
		"ai_attack": "1.0",
		"ai_move": "1.0",
		"ai_heal": "",
		"ai_skill": "",
		"ai_use": "",
		"skill_group_id": 18418,
		"gear_GearGear": 80003,
		"gear_rank": 1,
		"proficiency_UnitProficiency": 1,
		"level": 80,
		"hp": 90,
		"strength": 90,
		"vitality": 63,
		"intelligence": 10,
		"mind": 54,
		"agility": 72,
		"dexterity": 75,
		"lucky": 43,
		"parameter_table_BattleEnemyParameterTable": 0,
		"parameter_deviation_table_BattleEnemyParameterDeviationTable": 0,
		"acquire_skill_group_id": 0,
		"level_correction": 0,
		"group_id": 0,
		"ai_script_id_BattleAIScript": 0
	},
	{
		"ID": 81091,
		"stage_BattleStage": 210013002,
		"unit_UnitUnit": 900011,
		"money": 400,
		"initial_coordinate_x": 4,
		"initial_coordinate_y": 2,
		"reinforcement_BattleReinforcement": 0,
		"initial_direction": 0.0,
		"ai_move_group": 0,
		"ai_target_move_x": -1,
		"ai_target_move_y": -1,
		"ai_skill_function": "",
		"ai_attack": "1.0",
		"ai_move": "1.0",
		"ai_heal": "",
		"ai_skill": "",
		"ai_use": "",
		"skill_group_id": 18683,
		"gear_GearGear": 80003,
		"gear_rank": 1,
		"proficiency_UnitProficiency": 1,
		"level": 80,
		"hp": 94,
		"strength": 88,
		"vitality": 63,
		"intelligence": 11,
		"mind": 53,
		"agility": 74,
		"dexterity": 76,
		"lucky": 43,
		"parameter_table_BattleEnemyParameterTable": 0,
		"parameter_deviation_table_BattleEnemyParameterDeviationTable": 0,
		"acquire_skill_group_id": 0,
		"level_correction": 0,
		"group_id": 0,
		"ai_script_id_BattleAIScript": 0
	},
	{
		"ID": 81092,
		"stage_BattleStage": 210013002,
		"unit_UnitUnit": 900011,
		"money": 400,
		"initial_coordinate_x": 5,
		"initial_coordinate_y": 2,
		"reinforcement_BattleReinforcement": 0,
		"initial_direction": 0.0,
		"ai_move_group": 0,
		"ai_target_move_x": -1,
		"ai_target_move_y": -1,
		"ai_skill_function": "",
		"ai_attack": "1.0",
		"ai_move": "1.0",
		"ai_heal": "",
		"ai_skill": "",
		"ai_use": "",
		"skill_group_id": 18418,
		"gear_GearGear": 80003,
		"gear_rank": 1,
		"proficiency_UnitProficiency": 1,
		"level": 80,
		"hp": 89,
		"strength": 88,
		"vitality": 64,
		"intelligence": 11,
		"mind": 53,
		"agility": 77,
		"dexterity": 75,
		"lucky": 39,
		"parameter_table_BattleEnemyParameterTable": 0,
		"parameter_deviation_table_BattleEnemyParameterDeviationTable": 0,
		"acquire_skill_group_id": 0,
		"level_correction": 0,
		"group_id": 0,
		"ai_script_id_BattleAIScript": 0
	},
	{
		"ID": 81093,
		"stage_BattleStage": 210013002,
		"unit_UnitUnit": 900011,
		"money": 400,
		"initial_coordinate_x": 6,
		"initial_coordinate_y": 2,
		"reinforcement_BattleReinforcement": 0,
		"initial_direction": 0.0,
		"ai_move_group": 0,
		"ai_target_move_x": -1,
		"ai_target_move_y": -1,
		"ai_skill_function": "",
		"ai_attack": "1.0",
		"ai_move": "1.0",
		"ai_heal": "",
		"ai_skill": "",
		"ai_use": "",
		"skill_group_id": 18679,
		"gear_GearGear": 80003,
		"gear_rank": 1,
		"proficiency_UnitProficiency": 1,
		"level": 80,
		"hp": 93,
		"strength": 91,
		"vitality": 63,
		"intelligence": 9,
		"mind": 54,
		"agility": 72,
		"dexterity": 74,
		"lucky": 38,
		"parameter_table_BattleEnemyParameterTable": 0,
		"parameter_deviation_table_BattleEnemyParameterDeviationTable": 0,
		"acquire_skill_group_id": 0,
		"level_correction": 0,
		"group_id": 0,
		"ai_script_id_BattleAIScript": 0
	},
	{
		"ID": 81094,
		"stage_BattleStage": 210013002,
		"unit_UnitUnit": 900011,
		"money": 400,
		"initial_coordinate_x": 2,
		"initial_coordinate_y": 4,
		"reinforcement_BattleReinforcement": 0,
		"initial_direction": 90.0,
		"ai_move_group": 0,
		"ai_target_move_x": -1,
		"ai_target_move_y": -1,
		"ai_skill_function": "",
		"ai_attack": "1.0",
		"ai_move": "1.0",
		"ai_heal": "",
		"ai_skill": "",
		"ai_use": "",
		"skill_group_id": 18434,
		"gear_GearGear": 80003,
		"gear_rank": 1,
		"proficiency_UnitProficiency": 1,
		"level": 80,
		"hp": 92,
		"strength": 91,
		"vitality": 62,
		"intelligence": 9,
		"mind": 53,
		"agility": 73,
		"dexterity": 72,
		"lucky": 41,
		"parameter_table_BattleEnemyParameterTable": 0,
		"parameter_deviation_table_BattleEnemyParameterDeviationTable": 0,
		"acquire_skill_group_id": 0,
		"level_correction": 0,
		"group_id": 0,
		"ai_script_id_BattleAIScript": 0
	},
	{
		"ID": 81095,
		"stage_BattleStage": 210013002,
		"unit_UnitUnit": 900011,
		"money": 400,
		"initial_coordinate_x": 3,
		"initial_coordinate_y": 4,
		"reinforcement_BattleReinforcement": 0,
		"initial_direction": 90.0,
		"ai_move_group": 0,
		"ai_target_move_x": -1,
		"ai_target_move_y": -1,
		"ai_skill_function": "",
		"ai_attack": "1.0",
		"ai_move": "1.0",
		"ai_heal": "",
		"ai_skill": "",
		"ai_use": "",
		"skill_group_id": 18683,
		"gear_GearGear": 80003,
		"gear_rank": 1,
		"proficiency_UnitProficiency": 1,
		"level": 80,
		"hp": 95,
		"strength": 88,
		"vitality": 71,
		"intelligence": 7,
		"mind": 43,
		"agility": 76,
		"dexterity": 72,
		"lucky": 38,
		"parameter_table_BattleEnemyParameterTable": 0,
		"parameter_deviation_table_BattleEnemyParameterDeviationTable": 0,
		"acquire_skill_group_id": 0,
		"level_correction": 0,
		"group_id": 0,
		"ai_script_id_BattleAIScript": 0
	},
	{
		"ID": 81096,
		"stage_BattleStage": 210013002,
		"unit_UnitUnit": 900011,
		"money": 400,
		"initial_coordinate_x": 4,
		"initial_coordinate_y": 4,
		"reinforcement_BattleReinforcement": 0,
		"initial_direction": 90.0,
		"ai_move_group": 0,
		"ai_target_move_x": -1,
		"ai_target_move_y": -1,
		"ai_skill_function": "",
		"ai_attack": "1.0",
		"ai_move": "1.0",
		"ai_heal": "",
		"ai_skill": "",
		"ai_use": "",
		"skill_group_id": 18868,
		"gear_GearGear": 80003,
		"gear_rank": 1,
		"proficiency_UnitProficiency": 1,
		"level": 80,
		"hp": 91,
		"strength": 92,
		"vitality": 63,
		"intelligence": 11,
		"mind": 52,
		"agility": 74,
		"dexterity": 72,
		"lucky": 41,
		"parameter_table_BattleEnemyParameterTable": 0,
		"parameter_deviation_table_BattleEnemyParameterDeviationTable": 0,
		"acquire_skill_group_id": 0,
		"level_correction": 0,
		"group_id": 0,
		"ai_script_id_BattleAIScript": 0
	},
	{
		"ID": 81097,
		"stage_BattleStage": 210013002,
		"unit_UnitUnit": 900011,
		"money": 400,
		"initial_coordinate_x": 5,
		"initial_coordinate_y": 4,
		"reinforcement_BattleReinforcement": 0,
		"initial_direction": 90.0,
		"ai_move_group": 0,
		"ai_target_move_x": -1,
		"ai_target_move_y": -1,
		"ai_skill_function": "",
		"ai_attack": "1.0",
		"ai_move": "1.0",
		"ai_heal": "",
		"ai_skill": "",
		"ai_use": "",
		"skill_group_id": 18492,
		"gear_GearGear": 80003,
		"gear_rank": 1,
		"proficiency_UnitProficiency": 1,
		"level": 80,
		"hp": 94,
		"strength": 86,
		"vitality": 71,
		"intelligence": 8,
		"mind": 42,
		"agility": 74,
		"dexterity": 72,
		"lucky": 41,
		"parameter_table_BattleEnemyParameterTable": 0,
		"parameter_deviation_table_BattleEnemyParameterDeviationTable": 0,
		"acquire_skill_group_id": 0,
		"level_correction": 0,
		"group_id": 0,
		"ai_script_id_BattleAIScript": 0
	}
]