[
	{
		"ID": 96763,
		"stage_BattleStage": 220010007,
		"unit_UnitUnit": 3820002,
		"money": 90,
		"initial_coordinate_x": 4,
		"initial_coordinate_y": 5,
		"reinforcement_BattleReinforcement": 0,
		"initial_direction": 180.0,
		"ai_move_group": 0,
		"ai_target_move_x": -1,
		"ai_target_move_y": -1,
		"ai_skill_function": "",
		"ai_attack": "",
		"ai_move": "",
		"ai_heal": "",
		"ai_skill": "",
		"ai_use": "",
		"skill_group_id": 21758,
		"gear_GearGear": 21002,
		"gear_rank": 1,
		"proficiency_UnitProficiency": 1,
		"level": 18,
		"hp": 65,
		"strength": 25,
		"vitality": 24,
		"intelligence": 8,
		"mind": 16,
		"agility": 24,
		"dexterity": 21,
		"lucky": 15,
		"parameter_table_BattleEnemyParameterTable": 0,
		"parameter_deviation_table_BattleEnemyParameterDeviationTable": 0,
		"acquire_skill_group_id": 0,
		"level_correction": 0,
		"group_id": 0,
		"ai_script_id_BattleAIScript": 0
	},
	{
		"ID": 96764,
		"stage_BattleStage": 220010007,
		"unit_UnitUnit": 3810001,
		"money": 90,
		"initial_coordinate_x": 3,
		"initial_coordinate_y": 5,
		"reinforcement_BattleReinforcement": 0,
		"initial_direction": 180.0,
		"ai_move_group": 0,
		"ai_target_move_x": -1,
		"ai_target_move_y": -1,
		"ai_skill_function": "",
		"ai_attack": "",
		"ai_move": "",
		"ai_heal": "",
		"ai_skill": "",
		"ai_use": "",
		"skill_group_id": 21760,
		"gear_GearGear": 11002,
		"gear_rank": 1,
		"proficiency_UnitProficiency": 1,
		"level": 18,
		"hp": 61,
		"strength": 27,
		"vitality": 20,
		"intelligence": 8,
		"mind": 19,
		"agility": 22,
		"dexterity": 20,
		"lucky": 12,
		"parameter_table_BattleEnemyParameterTable": 0,
		"parameter_deviation_table_BattleEnemyParameterDeviationTable": 0,
		"acquire_skill_group_id": 0,
		"level_correction": 0,
		"group_id": 0,
		"ai_script_id_BattleAIScript": 0
	},
	{
		"ID": 96765,
		"stage_BattleStage": 220010007,
		"unit_UnitUnit": 3830003,
		"money": 90,
		"initial_coordinate_x": 2,
		"initial_coordinate_y": 5,
		"reinforcement_BattleReinforcement": 0,
		"initial_direction": 180.0,
		"ai_move_group": 0,
		"ai_target_move_x": -1,
		"ai_target_move_y": -1,
		"ai_skill_function": "",
		"ai_attack": "",
		"ai_move": "",
		"ai_heal": "",
		"ai_skill": "",
		"ai_use": "",
		"skill_group_id": 21759,
		"gear_GearGear": 31002,
		"gear_rank": 1,
		"proficiency_UnitProficiency": 1,
		"level": 18,
		"hp": 63,
		"strength": 30,
		"vitality": 20,
		"intelligence": 6,
		"mind": 17,
		"agility": 24,
		"dexterity": 22,
		"lucky": 13,
		"parameter_table_BattleEnemyParameterTable": 0,
		"parameter_deviation_table_BattleEnemyParameterDeviationTable": 0,
		"acquire_skill_group_id": 0,
		"level_correction": 0,
		"group_id": 0,
		"ai_script_id_BattleAIScript": 0
	},
	{
		"ID": 96766,
		"stage_BattleStage": 220010007,
		"unit_UnitUnit": 3820002,
		"money": 100,
		"initial_coordinate_x": 1,
		"initial_coordinate_y": 6,
		"reinforcement_BattleReinforcement": 0,
		"initial_direction": 180.0,
		"ai_move_group": 0,
		"ai_target_move_x": -1,
		"ai_target_move_y": -1,
		"ai_skill_function": "",
		"ai_attack": "",
		"ai_move": "",
		"ai_heal": "",
		"ai_skill": "",
		"ai_use": "",
		"skill_group_id": 21758,
		"gear_GearGear": 21002,
		"gear_rank": 1,
		"proficiency_UnitProficiency": 1,
		"level": 20,
		"hp": 61,
		"strength": 32,
		"vitality": 21,
		"intelligence": 11,
		"mind": 19,
		"agility": 20,
		"dexterity": 20,
		"lucky": 11,
		"parameter_table_BattleEnemyParameterTable": 0,
		"parameter_deviation_table_BattleEnemyParameterDeviationTable": 0,
		"acquire_skill_group_id": 0,
		"level_correction": 0,
		"group_id": 0,
		"ai_script_id_BattleAIScript": 0
	},
	{
		"ID": 96767,
		"stage_BattleStage": 220010007,
		"unit_UnitUnit": 3810001,
		"money": 90,
		"initial_coordinate_x": 1,
		"initial_coordinate_y": 7,
		"reinforcement_BattleReinforcement": 0,
		"initial_direction": 180.0,
		"ai_move_group": 0,
		"ai_target_move_x": -1,
		"ai_target_move_y": -1,
		"ai_skill_function": "",
		"ai_attack": "",
		"ai_move": "",
		"ai_heal": "",
		"ai_skill": "",
		"ai_use": "",
		"skill_group_id": 21760,
		"gear_GearGear": 11002,
		"gear_rank": 1,
		"proficiency_UnitProficiency": 1,
		"level": 18,
		"hp": 61,
		"strength": 25,
		"vitality": 21,
		"intelligence": 10,
		"mind": 16,
		"agility": 24,
		"dexterity": 24,
		"lucky": 10,
		"parameter_table_BattleEnemyParameterTable": 0,
		"parameter_deviation_table_BattleEnemyParameterDeviationTable": 0,
		"acquire_skill_group_id": 0,
		"level_correction": 0,
		"group_id": 0,
		"ai_script_id_BattleAIScript": 0
	},
	{
		"ID": 96768,
		"stage_BattleStage": 220010007,
		"unit_UnitUnit": 3830003,
		"money": 90,
		"initial_coordinate_x": 7,
		"initial_coordinate_y": 6,
		"reinforcement_BattleReinforcement": 0,
		"initial_direction": 180.0,
		"ai_move_group": 0,
		"ai_target_move_x": -1,
		"ai_target_move_y": -1,
		"ai_skill_function": "",
		"ai_attack": "",
		"ai_move": "",
		"ai_heal": "",
		"ai_skill": "",
		"ai_use": "",
		"skill_group_id": 21759,
		"gear_GearGear": 31002,
		"gear_rank": 1,
		"proficiency_UnitProficiency": 1,
		"level": 18,
		"hp": 65,
		"strength": 29,
		"vitality": 24,
		"intelligence": 14,
		"mind": 15,
		"agility": 21,
		"dexterity": 24,
		"lucky": 15,
		"parameter_table_BattleEnemyParameterTable": 0,
		"parameter_deviation_table_BattleEnemyParameterDeviationTable": 0,
		"acquire_skill_group_id": 0,
		"level_correction": 0,
		"group_id": 0,
		"ai_script_id_BattleAIScript": 0
	},
	{
		"ID": 96769,
		"stage_BattleStage": 220010007,
		"unit_UnitUnit": 809711,
		"money": 90,
		"initial_coordinate_x": 8,
		"initial_coordinate_y": 6,
		"reinforcement_BattleReinforcement": 0,
		"initial_direction": 180.0,
		"ai_move_group": 0,
		"ai_target_move_x": -1,
		"ai_target_move_y": -1,
		"ai_skill_function": "",
		"ai_attack": "",
		"ai_move": "",
		"ai_heal": "",
		"ai_skill": "",
		"ai_use": "",
		"skill_group_id": 21870,
		"gear_GearGear": 51002,
		"gear_rank": 1,
		"proficiency_UnitProficiency": 1,
		"level": 18,
		"hp": 65,
		"strength": 14,
		"vitality": 20,
		"intelligence": 31,
		"mind": 11,
		"agility": 25,
		"dexterity": 25,
		"lucky": 12,
		"parameter_table_BattleEnemyParameterTable": 0,
		"parameter_deviation_table_BattleEnemyParameterDeviationTable": 0,
		"acquire_skill_group_id": 0,
		"level_correction": 0,
		"group_id": 0,
		"ai_script_id_BattleAIScript": 0
	},
	{
		"ID": 96770,
		"stage_BattleStage": 220010007,
		"unit_UnitUnit": 809711,
		"money": 85,
		"initial_coordinate_x": 9,
		"initial_coordinate_y": 6,
		"reinforcement_BattleReinforcement": 0,
		"initial_direction": 180.0,
		"ai_move_group": 0,
		"ai_target_move_x": -1,
		"ai_target_move_y": -1,
		"ai_skill_function": "",
		"ai_attack": "",
		"ai_move": "",
		"ai_heal": "",
		"ai_skill": "",
		"ai_use": "",
		"skill_group_id": 21870,
		"gear_GearGear": 51002,
		"gear_rank": 1,
		"proficiency_UnitProficiency": 1,
		"level": 17,
		"hp": 61,
		"strength": 17,
		"vitality": 17,
		"intelligence": 26,
		"mind": 10,
		"agility": 20,
		"dexterity": 23,
		"lucky": 14,
		"parameter_table_BattleEnemyParameterTable": 0,
		"parameter_deviation_table_BattleEnemyParameterDeviationTable": 0,
		"acquire_skill_group_id": 0,
		"level_correction": 0,
		"group_id": 0,
		"ai_script_id_BattleAIScript": 0
	},
	{
		"ID": 96771,
		"stage_BattleStage": 220010007,
		"unit_UnitUnit": 809711,
		"money": 90,
		"initial_coordinate_x": 3,
		"initial_coordinate_y": 7,
		"reinforcement_BattleReinforcement": 0,
		"initial_direction": 180.0,
		"ai_move_group": 0,
		"ai_target_move_x": -1,
		"ai_target_move_y": -1,
		"ai_skill_function": "",
		"ai_attack": "",
		"ai_move": "",
		"ai_heal": "",
		"ai_skill": "",
		"ai_use": "",
		"skill_group_id": 21870,
		"gear_GearGear": 51002,
		"gear_rank": 1,
		"proficiency_UnitProficiency": 1,
		"level": 18,
		"hp": 62,
		"strength": 13,
		"vitality": 16,
		"intelligence": 31,
		"mind": 15,
		"agility": 25,
		"dexterity": 22,
		"lucky": 10,
		"parameter_table_BattleEnemyParameterTable": 0,
		"parameter_deviation_table_BattleEnemyParameterDeviationTable": 0,
		"acquire_skill_group_id": 0,
		"level_correction": 0,
		"group_id": 0,
		"ai_script_id_BattleAIScript": 0
	},
	{
		"ID": 96772,
		"stage_BattleStage": 220010007,
		"unit_UnitUnit": 809711,
		"money": 90,
		"initial_coordinate_x": 4,
		"initial_coordinate_y": 7,
		"reinforcement_BattleReinforcement": 0,
		"initial_direction": 180.0,
		"ai_move_group": 0,
		"ai_target_move_x": -1,
		"ai_target_move_y": -1,
		"ai_skill_function": "",
		"ai_attack": "",
		"ai_move": "",
		"ai_heal": "",
		"ai_skill": "",
		"ai_use": "",
		"skill_group_id": 21870,
		"gear_GearGear": 51002,
		"gear_rank": 1,
		"proficiency_UnitProficiency": 1,
		"level": 18,
		"hp": 63,
		"strength": 14,
		"vitality": 15,
		"intelligence": 29,
		"mind": 10,
		"agility": 23,
		"dexterity": 25,
		"lucky": 15,
		"parameter_table_BattleEnemyParameterTable": 0,
		"parameter_deviation_table_BattleEnemyParameterDeviationTable": 0,
		"acquire_skill_group_id": 0,
		"level_correction": 0,
		"group_id": 0,
		"ai_script_id_BattleAIScript": 0
	},
	{
		"ID": 96773,
		"stage_BattleStage": 220010007,
		"unit_UnitUnit": 809711,
		"money": 100,
		"initial_coordinate_x": 8,
		"initial_coordinate_y": 9,
		"reinforcement_BattleReinforcement": 0,
		"initial_direction": 180.0,
		"ai_move_group": 0,
		"ai_target_move_x": -1,
		"ai_target_move_y": -1,
		"ai_skill_function": "",
		"ai_attack": "",
		"ai_move": "",
		"ai_heal": "",
		"ai_skill": "",
		"ai_use": "",
		"skill_group_id": 21870,
		"gear_GearGear": 51002,
		"gear_rank": 1,
		"proficiency_UnitProficiency": 1,
		"level": 20,
		"hp": 64,
		"strength": 15,
		"vitality": 19,
		"intelligence": 26,
		"mind": 10,
		"agility": 23,
		"dexterity": 25,
		"lucky": 10,
		"parameter_table_BattleEnemyParameterTable": 0,
		"parameter_deviation_table_BattleEnemyParameterDeviationTable": 0,
		"acquire_skill_group_id": 0,
		"level_correction": 0,
		"group_id": 0,
		"ai_script_id_BattleAIScript": 0
	},
	{
		"ID": 96774,
		"stage_BattleStage": 220010007,
		"unit_UnitUnit": 809711,
		"money": 90,
		"initial_coordinate_x": 9,
		"initial_coordinate_y": 9,
		"reinforcement_BattleReinforcement": 0,
		"initial_direction": 180.0,
		"ai_move_group": 0,
		"ai_target_move_x": -1,
		"ai_target_move_y": -1,
		"ai_skill_function": "",
		"ai_attack": "",
		"ai_move": "",
		"ai_heal": "",
		"ai_skill": "",
		"ai_use": "",
		"skill_group_id": 21870,
		"gear_GearGear": 51002,
		"gear_rank": 1,
		"proficiency_UnitProficiency": 1,
		"level": 18,
		"hp": 65,
		"strength": 18,
		"vitality": 19,
		"intelligence": 28,
		"mind": 13,
		"agility": 23,
		"dexterity": 22,
		"lucky": 12,
		"parameter_table_BattleEnemyParameterTable": 0,
		"parameter_deviation_table_BattleEnemyParameterDeviationTable": 0,
		"acquire_skill_group_id": 0,
		"level_correction": 0,
		"group_id": 0,
		"ai_script_id_BattleAIScript": 0
	},
	{
		"ID": 96775,
		"stage_BattleStage": 220010007,
		"unit_UnitUnit": 809711,
		"money": 90,
		"initial_coordinate_x": 1,
		"initial_coordinate_y": 9,
		"reinforcement_BattleReinforcement": 0,
		"initial_direction": 180.0,
		"ai_move_group": 0,
		"ai_target_move_x": -1,
		"ai_target_move_y": -1,
		"ai_skill_function": "",
		"ai_attack": "",
		"ai_move": "",
		"ai_heal": "",
		"ai_skill": "",
		"ai_use": "",
		"skill_group_id": 21870,
		"gear_GearGear": 51002,
		"gear_rank": 1,
		"proficiency_UnitProficiency": 1,
		"level": 18,
		"hp": 64,
		"strength": 10,
		"vitality": 19,
		"intelligence": 29,
		"mind": 14,
		"agility": 24,
		"dexterity": 20,
		"lucky": 15,
		"parameter_table_BattleEnemyParameterTable": 0,
		"parameter_deviation_table_BattleEnemyParameterDeviationTable": 0,
		"acquire_skill_group_id": 0,
		"level_correction": 0,
		"group_id": 0,
		"ai_script_id_BattleAIScript": 0
	},
	{
		"ID": 96776,
		"stage_BattleStage": 220010007,
		"unit_UnitUnit": 809711,
		"money": 90,
		"initial_coordinate_x": 2,
		"initial_coordinate_y": 9,
		"reinforcement_BattleReinforcement": 0,
		"initial_direction": 180.0,
		"ai_move_group": 0,
		"ai_target_move_x": -1,
		"ai_target_move_y": -1,
		"ai_skill_function": "",
		"ai_attack": "",
		"ai_move": "",
		"ai_heal": "",
		"ai_skill": "",
		"ai_use": "",
		"skill_group_id": 21870,
		"gear_GearGear": 51002,
		"gear_rank": 1,
		"proficiency_UnitProficiency": 1,
		"level": 18,
		"hp": 61,
		"strength": 19,
		"vitality": 15,
		"intelligence": 34,
		"mind": 12,
		"agility": 20,
		"dexterity": 23,
		"lucky": 15,
		"parameter_table_BattleEnemyParameterTable": 0,
		"parameter_deviation_table_BattleEnemyParameterDeviationTable": 0,
		"acquire_skill_group_id": 0,
		"level_correction": 0,
		"group_id": 0,
		"ai_script_id_BattleAIScript": 0
	},
	{
		"ID": 96777,
		"stage_BattleStage": 220010007,
		"unit_UnitUnit": 809711,
		"money": 95,
		"initial_coordinate_x": 5,
		"initial_coordinate_y": 10,
		"reinforcement_BattleReinforcement": 0,
		"initial_direction": 180.0,
		"ai_move_group": 0,
		"ai_target_move_x": -1,
		"ai_target_move_y": -1,
		"ai_skill_function": "",
		"ai_attack": "",
		"ai_move": "",
		"ai_heal": "",
		"ai_skill": "",
		"ai_use": "",
		"skill_group_id": 21870,
		"gear_GearGear": 51002,
		"gear_rank": 1,
		"proficiency_UnitProficiency": 1,
		"level": 19,
		"hp": 63,
		"strength": 15,
		"vitality": 16,
		"intelligence": 25,
		"mind": 10,
		"agility": 23,
		"dexterity": 21,
		"lucky": 10,
		"parameter_table_BattleEnemyParameterTable": 0,
		"parameter_deviation_table_BattleEnemyParameterDeviationTable": 0,
		"acquire_skill_group_id": 0,
		"level_correction": 0,
		"group_id": 0,
		"ai_script_id_BattleAIScript": 0
	},
	{
		"ID": 96778,
		"stage_BattleStage": 220010007,
		"unit_UnitUnit": 809711,
		"money": 90,
		"initial_coordinate_x": 3,
		"initial_coordinate_y": 10,
		"reinforcement_BattleReinforcement": 0,
		"initial_direction": 180.0,
		"ai_move_group": 0,
		"ai_target_move_x": -1,
		"ai_target_move_y": -1,
		"ai_skill_function": "",
		"ai_attack": "",
		"ai_move": "",
		"ai_heal": "",
		"ai_skill": "",
		"ai_use": "",
		"skill_group_id": 21870,
		"gear_GearGear": 51002,
		"gear_rank": 1,
		"proficiency_UnitProficiency": 1,
		"level": 18,
		"hp": 61,
		"strength": 11,
		"vitality": 18,
		"intelligence": 32,
		"mind": 12,
		"agility": 23,
		"dexterity": 21,
		"lucky": 11,
		"parameter_table_BattleEnemyParameterTable": 0,
		"parameter_deviation_table_BattleEnemyParameterDeviationTable": 0,
		"acquire_skill_group_id": 0,
		"level_correction": 0,
		"group_id": 0,
		"ai_script_id_BattleAIScript": 0
	},
	{
		"ID": 96779,
		"stage_BattleStage": 220010007,
		"unit_UnitUnit": 809711,
		"money": 90,
		"initial_coordinate_x": 2,
		"initial_coordinate_y": 11,
		"reinforcement_BattleReinforcement": 0,
		"initial_direction": 180.0,
		"ai_move_group": 0,
		"ai_target_move_x": -1,
		"ai_target_move_y": -1,
		"ai_skill_function": "",
		"ai_attack": "",
		"ai_move": "",
		"ai_heal": "",
		"ai_skill": "",
		"ai_use": "",
		"skill_group_id": 21870,
		"gear_GearGear": 51002,
		"gear_rank": 1,
		"proficiency_UnitProficiency": 1,
		"level": 18,
		"hp": 65,
		"strength": 20,
		"vitality": 16,
		"intelligence": 25,
		"mind": 13,
		"agility": 23,
		"dexterity": 21,
		"lucky": 10,
		"parameter_table_BattleEnemyParameterTable": 0,
		"parameter_deviation_table_BattleEnemyParameterDeviationTable": 0,
		"acquire_skill_group_id": 0,
		"level_correction": 0,
		"group_id": 0,
		"ai_script_id_BattleAIScript": 0
	},
	{
		"ID": 96780,
		"stage_BattleStage": 220010007,
		"unit_UnitUnit": 809711,
		"money": 90,
		"initial_coordinate_x": 7,
		"initial_coordinate_y": 10,
		"reinforcement_BattleReinforcement": 0,
		"initial_direction": 180.0,
		"ai_move_group": 0,
		"ai_target_move_x": -1,
		"ai_target_move_y": -1,
		"ai_skill_function": "",
		"ai_attack": "IF(panel_move_distance <= 4, 1, 0)",
		"ai_move": "IF(turn <=2,0,1)",
		"ai_heal": "",
		"ai_skill": "",
		"ai_use": "",
		"skill_group_id": 21870,
		"gear_GearGear": 51002,
		"gear_rank": 1,
		"proficiency_UnitProficiency": 1,
		"level": 18,
		"hp": 62,
		"strength": 11,
		"vitality": 17,
		"intelligence": 30,
		"mind": 14,
		"agility": 25,
		"dexterity": 22,
		"lucky": 13,
		"parameter_table_BattleEnemyParameterTable": 0,
		"parameter_deviation_table_BattleEnemyParameterDeviationTable": 0,
		"acquire_skill_group_id": 0,
		"level_correction": 0,
		"group_id": 0,
		"ai_script_id_BattleAIScript": 0
	},
	{
		"ID": 96781,
		"stage_BattleStage": 220010007,
		"unit_UnitUnit": 809711,
		"money": 85,
		"initial_coordinate_x": 7,
		"initial_coordinate_y": 11,
		"reinforcement_BattleReinforcement": 0,
		"initial_direction": 180.0,
		"ai_move_group": 0,
		"ai_target_move_x": -1,
		"ai_target_move_y": -1,
		"ai_skill_function": "",
		"ai_attack": "IF(panel_move_distance <= 4, 1, 0)",
		"ai_move": "IF(turn <=2,0,1)",
		"ai_heal": "",
		"ai_skill": "",
		"ai_use": "",
		"skill_group_id": 21870,
		"gear_GearGear": 51002,
		"gear_rank": 1,
		"proficiency_UnitProficiency": 1,
		"level": 17,
		"hp": 64,
		"strength": 16,
		"vitality": 20,
		"intelligence": 33,
		"mind": 14,
		"agility": 23,
		"dexterity": 23,
		"lucky": 13,
		"parameter_table_BattleEnemyParameterTable": 0,
		"parameter_deviation_table_BattleEnemyParameterDeviationTable": 0,
		"acquire_skill_group_id": 0,
		"level_correction": 0,
		"group_id": 0,
		"ai_script_id_BattleAIScript": 0
	},
	{
		"ID": 96782,
		"stage_BattleStage": 220010007,
		"unit_UnitUnit": 809611,
		"money": 90,
		"initial_coordinate_x": 5,
		"initial_coordinate_y": 12,
		"reinforcement_BattleReinforcement": 0,
		"initial_direction": 180.0,
		"ai_move_group": 0,
		"ai_target_move_x": -1,
		"ai_target_move_y": -1,
		"ai_skill_function": "",
		"ai_attack": "IF(panel_move_distance <= 4, 1, 0)",
		"ai_move": "IF(turn <=2,0,1)",
		"ai_heal": "",
		"ai_skill": "",
		"ai_use": "",
		"skill_group_id": 21871,
		"gear_GearGear": 51002,
		"gear_rank": 1,
		"proficiency_UnitProficiency": 1,
		"level": 18,
		"hp": 74,
		"strength": 16,
		"vitality": 18,
		"intelligence": 37,
		"mind": 16,
		"agility": 29,
		"dexterity": 26,
		"lucky": 20,
		"parameter_table_BattleEnemyParameterTable": 0,
		"parameter_deviation_table_BattleEnemyParameterDeviationTable": 0,
		"acquire_skill_group_id": 0,
		"level_correction": 0,
		"group_id": 0,
		"ai_script_id_BattleAIScript": 0
	}
]