[
	{
		"ID": 25748,
		"stage_BattleStage": 231005030,
		"unit_UnitUnit": 810008,
		"money": 280,
		"initial_coordinate_x": 1,
		"initial_coordinate_y": 8,
		"reinforcement_BattleReinforcement": 0,
		"initial_direction": 180.0,
		"ai_move_group": 0,
		"ai_target_move_x": -1,
		"ai_target_move_y": -1,
		"ai_skill_function": "",
		"ai_attack": "IF( turn <=3 ,IF(panel_move_distance <= 2, 1, 0),1)",
		"ai_move": "IF(turn <=3,0,1)",
		"ai_heal": "",
		"ai_skill": "",
		"ai_use": "",
		"skill_group_id": 831,
		"gear_GearGear": 15007,
		"gear_rank": 1,
		"proficiency_UnitProficiency": 5,
		"level": 57,
		"hp": 85,
		"strength": 56,
		"vitality": 52,
		"intelligence": 6,
		"mind": 25,
		"agility": 62,
		"dexterity": 67,
		"lucky": 3,
		"parameter_table_BattleEnemyParameterTable": 0,
		"parameter_deviation_table_BattleEnemyParameterDeviationTable": 0,
		"acquire_skill_group_id": 0,
		"level_correction": 0,
		"group_id": 0,
		"ai_script_id_BattleAIScript": 0
	},
	{
		"ID": 25749,
		"stage_BattleStage": 231005030,
		"unit_UnitUnit": 810008,
		"money": 285,
		"initial_coordinate_x": 2,
		"initial_coordinate_y": 8,
		"reinforcement_BattleReinforcement": 0,
		"initial_direction": 180.0,
		"ai_move_group": 0,
		"ai_target_move_x": -1,
		"ai_target_move_y": -1,
		"ai_skill_function": "",
		"ai_attack": "IF( turn <=3 ,IF(panel_move_distance <= 2, 1, 0),1)",
		"ai_move": "IF(turn <=3,0,1)",
		"ai_heal": "",
		"ai_skill": "",
		"ai_use": "",
		"skill_group_id": 832,
		"gear_GearGear": 15007,
		"gear_rank": 1,
		"proficiency_UnitProficiency": 5,
		"level": 57,
		"hp": 76,
		"strength": 55,
		"vitality": 50,
		"intelligence": 6,
		"mind": 23,
		"agility": 60,
		"dexterity": 69,
		"lucky": 3,
		"parameter_table_BattleEnemyParameterTable": 0,
		"parameter_deviation_table_BattleEnemyParameterDeviationTable": 0,
		"acquire_skill_group_id": 0,
		"level_correction": 0,
		"group_id": 0,
		"ai_script_id_BattleAIScript": 0
	},
	{
		"ID": 25750,
		"stage_BattleStage": 231005030,
		"unit_UnitUnit": 810008,
		"money": 290,
		"initial_coordinate_x": 3,
		"initial_coordinate_y": 8,
		"reinforcement_BattleReinforcement": 0,
		"initial_direction": 180.0,
		"ai_move_group": 0,
		"ai_target_move_x": -1,
		"ai_target_move_y": -1,
		"ai_skill_function": "",
		"ai_attack": "IF( turn <=3 ,IF(panel_move_distance <= 2, 1, 0),1)",
		"ai_move": "IF(turn <=3,0,1)",
		"ai_heal": "",
		"ai_skill": "",
		"ai_use": "",
		"skill_group_id": 833,
		"gear_GearGear": 15007,
		"gear_rank": 1,
		"proficiency_UnitProficiency": 5,
		"level": 55,
		"hp": 78,
		"strength": 55,
		"vitality": 47,
		"intelligence": 5,
		"mind": 24,
		"agility": 56,
		"dexterity": 62,
		"lucky": 3,
		"parameter_table_BattleEnemyParameterTable": 0,
		"parameter_deviation_table_BattleEnemyParameterDeviationTable": 0,
		"acquire_skill_group_id": 0,
		"level_correction": 0,
		"group_id": 0,
		"ai_script_id_BattleAIScript": 0
	},
	{
		"ID": 25751,
		"stage_BattleStage": 231005030,
		"unit_UnitUnit": 810008,
		"money": 295,
		"initial_coordinate_x": 10,
		"initial_coordinate_y": 8,
		"reinforcement_BattleReinforcement": 0,
		"initial_direction": 180.0,
		"ai_move_group": 0,
		"ai_target_move_x": -1,
		"ai_target_move_y": -1,
		"ai_skill_function": "",
		"ai_attack": "IF( turn <=3 ,IF(panel_move_distance <= 2, 1, 0),1)",
		"ai_move": "IF(turn <=3,0,1)",
		"ai_heal": "",
		"ai_skill": "",
		"ai_use": "",
		"skill_group_id": 834,
		"gear_GearGear": 15007,
		"gear_rank": 1,
		"proficiency_UnitProficiency": 5,
		"level": 57,
		"hp": 78,
		"strength": 59,
		"vitality": 48,
		"intelligence": 6,
		"mind": 23,
		"agility": 65,
		"dexterity": 61,
		"lucky": 3,
		"parameter_table_BattleEnemyParameterTable": 0,
		"parameter_deviation_table_BattleEnemyParameterDeviationTable": 0,
		"acquire_skill_group_id": 0,
		"level_correction": 0,
		"group_id": 0,
		"ai_script_id_BattleAIScript": 0
	},
	{
		"ID": 25752,
		"stage_BattleStage": 231005030,
		"unit_UnitUnit": 810008,
		"money": 300,
		"initial_coordinate_x": 14,
		"initial_coordinate_y": 13,
		"reinforcement_BattleReinforcement": 3,
		"initial_direction": 180.0,
		"ai_move_group": 0,
		"ai_target_move_x": -1,
		"ai_target_move_y": -1,
		"ai_skill_function": "",
		"ai_attack": "",
		"ai_move": "",
		"ai_heal": "",
		"ai_skill": "",
		"ai_use": "",
		"skill_group_id": 835,
		"gear_GearGear": 15007,
		"gear_rank": 1,
		"proficiency_UnitProficiency": 5,
		"level": 57,
		"hp": 82,
		"strength": 58,
		"vitality": 53,
		"intelligence": 6,
		"mind": 24,
		"agility": 61,
		"dexterity": 63,
		"lucky": 3,
		"parameter_table_BattleEnemyParameterTable": 0,
		"parameter_deviation_table_BattleEnemyParameterDeviationTable": 0,
		"acquire_skill_group_id": 0,
		"level_correction": 0,
		"group_id": 0,
		"ai_script_id_BattleAIScript": 0
	},
	{
		"ID": 25753,
		"stage_BattleStage": 231005030,
		"unit_UnitUnit": 810008,
		"money": 305,
		"initial_coordinate_x": 14,
		"initial_coordinate_y": 12,
		"reinforcement_BattleReinforcement": 3,
		"initial_direction": 180.0,
		"ai_move_group": 0,
		"ai_target_move_x": -1,
		"ai_target_move_y": -1,
		"ai_skill_function": "",
		"ai_attack": "",
		"ai_move": "",
		"ai_heal": "",
		"ai_skill": "",
		"ai_use": "",
		"skill_group_id": 836,
		"gear_GearGear": 15007,
		"gear_rank": 1,
		"proficiency_UnitProficiency": 5,
		"level": 56,
		"hp": 76,
		"strength": 56,
		"vitality": 51,
		"intelligence": 6,
		"mind": 24,
		"agility": 57,
		"dexterity": 59,
		"lucky": 3,
		"parameter_table_BattleEnemyParameterTable": 0,
		"parameter_deviation_table_BattleEnemyParameterDeviationTable": 0,
		"acquire_skill_group_id": 0,
		"level_correction": 0,
		"group_id": 0,
		"ai_script_id_BattleAIScript": 0
	},
	{
		"ID": 25754,
		"stage_BattleStage": 231005030,
		"unit_UnitUnit": 820008,
		"money": 310,
		"initial_coordinate_x": 2,
		"initial_coordinate_y": 7,
		"reinforcement_BattleReinforcement": 0,
		"initial_direction": 180.0,
		"ai_move_group": 0,
		"ai_target_move_x": -1,
		"ai_target_move_y": -1,
		"ai_skill_function": "",
		"ai_attack": "IF( turn <=3 ,IF(panel_move_distance <= 2, 1, 0),1)",
		"ai_move": "IF(turn <=3,0,1)",
		"ai_heal": "",
		"ai_skill": "",
		"ai_use": "",
		"skill_group_id": 841,
		"gear_GearGear": 25002,
		"gear_rank": 1,
		"proficiency_UnitProficiency": 5,
		"level": 57,
		"hp": 91,
		"strength": 64,
		"vitality": 50,
		"intelligence": 6,
		"mind": 25,
		"agility": 54,
		"dexterity": 68,
		"lucky": 3,
		"parameter_table_BattleEnemyParameterTable": 0,
		"parameter_deviation_table_BattleEnemyParameterDeviationTable": 0,
		"acquire_skill_group_id": 0,
		"level_correction": 0,
		"group_id": 0,
		"ai_script_id_BattleAIScript": 0
	},
	{
		"ID": 25755,
		"stage_BattleStage": 231005030,
		"unit_UnitUnit": 820008,
		"money": 315,
		"initial_coordinate_x": 9,
		"initial_coordinate_y": 9,
		"reinforcement_BattleReinforcement": 0,
		"initial_direction": 180.0,
		"ai_move_group": 0,
		"ai_target_move_x": -1,
		"ai_target_move_y": -1,
		"ai_skill_function": "",
		"ai_attack": "IF( turn <=3 ,IF(panel_move_distance <= 2, 1, 0),1)",
		"ai_move": "IF(turn <=3,0,1)",
		"ai_heal": "",
		"ai_skill": "",
		"ai_use": "",
		"skill_group_id": 842,
		"gear_GearGear": 25002,
		"gear_rank": 1,
		"proficiency_UnitProficiency": 5,
		"level": 57,
		"hp": 90,
		"strength": 56,
		"vitality": 52,
		"intelligence": 6,
		"mind": 22,
		"agility": 64,
		"dexterity": 66,
		"lucky": 3,
		"parameter_table_BattleEnemyParameterTable": 0,
		"parameter_deviation_table_BattleEnemyParameterDeviationTable": 0,
		"acquire_skill_group_id": 0,
		"level_correction": 0,
		"group_id": 0,
		"ai_script_id_BattleAIScript": 0
	},
	{
		"ID": 25756,
		"stage_BattleStage": 231005030,
		"unit_UnitUnit": 820008,
		"money": 310,
		"initial_coordinate_x": 10,
		"initial_coordinate_y": 9,
		"reinforcement_BattleReinforcement": 0,
		"initial_direction": 180.0,
		"ai_move_group": 0,
		"ai_target_move_x": -1,
		"ai_target_move_y": -1,
		"ai_skill_function": "",
		"ai_attack": "IF( turn <=3 ,IF(panel_move_distance <= 2, 1, 0),1)",
		"ai_move": "IF(turn <=3,0,1)",
		"ai_heal": "",
		"ai_skill": "",
		"ai_use": "",
		"skill_group_id": 843,
		"gear_GearGear": 25002,
		"gear_rank": 1,
		"proficiency_UnitProficiency": 5,
		"level": 57,
		"hp": 84,
		"strength": 63,
		"vitality": 52,
		"intelligence": 6,
		"mind": 25,
		"agility": 63,
		"dexterity": 59,
		"lucky": 3,
		"parameter_table_BattleEnemyParameterTable": 0,
		"parameter_deviation_table_BattleEnemyParameterDeviationTable": 0,
		"acquire_skill_group_id": 0,
		"level_correction": 0,
		"group_id": 0,
		"ai_script_id_BattleAIScript": 0
	},
	{
		"ID": 25757,
		"stage_BattleStage": 231005030,
		"unit_UnitUnit": 820008,
		"money": 305,
		"initial_coordinate_x": 11,
		"initial_coordinate_y": 9,
		"reinforcement_BattleReinforcement": 0,
		"initial_direction": 180.0,
		"ai_move_group": 0,
		"ai_target_move_x": -1,
		"ai_target_move_y": -1,
		"ai_skill_function": "",
		"ai_attack": "IF( turn <=3 ,IF(panel_move_distance <= 2, 1, 0),1)",
		"ai_move": "IF(turn <=3,0,1)",
		"ai_heal": "",
		"ai_skill": "",
		"ai_use": "",
		"skill_group_id": 844,
		"gear_GearGear": 25002,
		"gear_rank": 1,
		"proficiency_UnitProficiency": 5,
		"level": 57,
		"hp": 80,
		"strength": 61,
		"vitality": 50,
		"intelligence": 6,
		"mind": 21,
		"agility": 56,
		"dexterity": 69,
		"lucky": 3,
		"parameter_table_BattleEnemyParameterTable": 0,
		"parameter_deviation_table_BattleEnemyParameterDeviationTable": 0,
		"acquire_skill_group_id": 0,
		"level_correction": 0,
		"group_id": 0,
		"ai_script_id_BattleAIScript": 0
	},
	{
		"ID": 25758,
		"stage_BattleStage": 231005030,
		"unit_UnitUnit": 820008,
		"money": 300,
		"initial_coordinate_x": 1,
		"initial_coordinate_y": 13,
		"reinforcement_BattleReinforcement": 3,
		"initial_direction": 90.0,
		"ai_move_group": 0,
		"ai_target_move_x": -1,
		"ai_target_move_y": -1,
		"ai_skill_function": "",
		"ai_attack": "",
		"ai_move": "",
		"ai_heal": "",
		"ai_skill": "",
		"ai_use": "",
		"skill_group_id": 845,
		"gear_GearGear": 25002,
		"gear_rank": 1,
		"proficiency_UnitProficiency": 5,
		"level": 57,
		"hp": 85,
		"strength": 56,
		"vitality": 52,
		"intelligence": 6,
		"mind": 25,
		"agility": 61,
		"dexterity": 64,
		"lucky": 3,
		"parameter_table_BattleEnemyParameterTable": 0,
		"parameter_deviation_table_BattleEnemyParameterDeviationTable": 0,
		"acquire_skill_group_id": 0,
		"level_correction": 0,
		"group_id": 0,
		"ai_script_id_BattleAIScript": 0
	},
	{
		"ID": 25759,
		"stage_BattleStage": 231005030,
		"unit_UnitUnit": 820008,
		"money": 295,
		"initial_coordinate_x": 1,
		"initial_coordinate_y": 12,
		"reinforcement_BattleReinforcement": 3,
		"initial_direction": 90.0,
		"ai_move_group": 0,
		"ai_target_move_x": -1,
		"ai_target_move_y": -1,
		"ai_skill_function": "",
		"ai_attack": "",
		"ai_move": "",
		"ai_heal": "",
		"ai_skill": "",
		"ai_use": "",
		"skill_group_id": 846,
		"gear_GearGear": 25002,
		"gear_rank": 1,
		"proficiency_UnitProficiency": 5,
		"level": 56,
		"hp": 85,
		"strength": 59,
		"vitality": 53,
		"intelligence": 6,
		"mind": 23,
		"agility": 58,
		"dexterity": 59,
		"lucky": 3,
		"parameter_table_BattleEnemyParameterTable": 0,
		"parameter_deviation_table_BattleEnemyParameterDeviationTable": 0,
		"acquire_skill_group_id": 0,
		"level_correction": 0,
		"group_id": 0,
		"ai_script_id_BattleAIScript": 0
	},
	{
		"ID": 25760,
		"stage_BattleStage": 231005030,
		"unit_UnitUnit": 830008,
		"money": 290,
		"initial_coordinate_x": 1,
		"initial_coordinate_y": 13,
		"reinforcement_BattleReinforcement": 4,
		"initial_direction": 90.0,
		"ai_move_group": 0,
		"ai_target_move_x": -1,
		"ai_target_move_y": -1,
		"ai_skill_function": "",
		"ai_attack": "",
		"ai_move": "",
		"ai_heal": "",
		"ai_skill": "",
		"ai_use": "",
		"skill_group_id": 821,
		"gear_GearGear": 35001,
		"gear_rank": 1,
		"proficiency_UnitProficiency": 5,
		"level": 55,
		"hp": 85,
		"strength": 56,
		"vitality": 47,
		"intelligence": 5,
		"mind": 22,
		"agility": 56,
		"dexterity": 59,
		"lucky": 3,
		"parameter_table_BattleEnemyParameterTable": 0,
		"parameter_deviation_table_BattleEnemyParameterDeviationTable": 0,
		"acquire_skill_group_id": 0,
		"level_correction": 0,
		"group_id": 0,
		"ai_script_id_BattleAIScript": 0
	},
	{
		"ID": 25761,
		"stage_BattleStage": 231005030,
		"unit_UnitUnit": 830008,
		"money": 285,
		"initial_coordinate_x": 1,
		"initial_coordinate_y": 12,
		"reinforcement_BattleReinforcement": 4,
		"initial_direction": 90.0,
		"ai_move_group": 0,
		"ai_target_move_x": -1,
		"ai_target_move_y": -1,
		"ai_skill_function": "",
		"ai_attack": "",
		"ai_move": "",
		"ai_heal": "",
		"ai_skill": "",
		"ai_use": "",
		"skill_group_id": 822,
		"gear_GearGear": 35001,
		"gear_rank": 1,
		"proficiency_UnitProficiency": 5,
		"level": 57,
		"hp": 76,
		"strength": 60,
		"vitality": 51,
		"intelligence": 6,
		"mind": 23,
		"agility": 65,
		"dexterity": 58,
		"lucky": 3,
		"parameter_table_BattleEnemyParameterTable": 0,
		"parameter_deviation_table_BattleEnemyParameterDeviationTable": 0,
		"acquire_skill_group_id": 0,
		"level_correction": 0,
		"group_id": 0,
		"ai_script_id_BattleAIScript": 0
	},
	{
		"ID": 25762,
		"stage_BattleStage": 231005030,
		"unit_UnitUnit": 830008,
		"money": 280,
		"initial_coordinate_x": 1,
		"initial_coordinate_y": 11,
		"reinforcement_BattleReinforcement": 4,
		"initial_direction": 90.0,
		"ai_move_group": 0,
		"ai_target_move_x": -1,
		"ai_target_move_y": -1,
		"ai_skill_function": "",
		"ai_attack": "",
		"ai_move": "",
		"ai_heal": "",
		"ai_skill": "",
		"ai_use": "",
		"skill_group_id": 823,
		"gear_GearGear": 35001,
		"gear_rank": 1,
		"proficiency_UnitProficiency": 5,
		"level": 57,
		"hp": 83,
		"strength": 64,
		"vitality": 49,
		"intelligence": 6,
		"mind": 22,
		"agility": 60,
		"dexterity": 62,
		"lucky": 3,
		"parameter_table_BattleEnemyParameterTable": 0,
		"parameter_deviation_table_BattleEnemyParameterDeviationTable": 0,
		"acquire_skill_group_id": 0,
		"level_correction": 0,
		"group_id": 0,
		"ai_script_id_BattleAIScript": 0
	},
	{
		"ID": 25763,
		"stage_BattleStage": 231005030,
		"unit_UnitUnit": 830008,
		"money": 275,
		"initial_coordinate_x": 14,
		"initial_coordinate_y": 13,
		"reinforcement_BattleReinforcement": 4,
		"initial_direction": 270.0,
		"ai_move_group": 0,
		"ai_target_move_x": -1,
		"ai_target_move_y": -1,
		"ai_skill_function": "",
		"ai_attack": "",
		"ai_move": "",
		"ai_heal": "",
		"ai_skill": "",
		"ai_use": "",
		"skill_group_id": 824,
		"gear_GearGear": 35001,
		"gear_rank": 1,
		"proficiency_UnitProficiency": 5,
		"level": 56,
		"hp": 89,
		"strength": 56,
		"vitality": 50,
		"intelligence": 6,
		"mind": 24,
		"agility": 65,
		"dexterity": 60,
		"lucky": 3,
		"parameter_table_BattleEnemyParameterTable": 0,
		"parameter_deviation_table_BattleEnemyParameterDeviationTable": 0,
		"acquire_skill_group_id": 0,
		"level_correction": 0,
		"group_id": 0,
		"ai_script_id_BattleAIScript": 0
	},
	{
		"ID": 25764,
		"stage_BattleStage": 231005030,
		"unit_UnitUnit": 830008,
		"money": 280,
		"initial_coordinate_x": 14,
		"initial_coordinate_y": 12,
		"reinforcement_BattleReinforcement": 4,
		"initial_direction": 270.0,
		"ai_move_group": 0,
		"ai_target_move_x": -1,
		"ai_target_move_y": -1,
		"ai_skill_function": "",
		"ai_attack": "",
		"ai_move": "",
		"ai_heal": "",
		"ai_skill": "",
		"ai_use": "",
		"skill_group_id": 825,
		"gear_GearGear": 35001,
		"gear_rank": 1,
		"proficiency_UnitProficiency": 5,
		"level": 56,
		"hp": 80,
		"strength": 57,
		"vitality": 47,
		"intelligence": 6,
		"mind": 21,
		"agility": 63,
		"dexterity": 67,
		"lucky": 3,
		"parameter_table_BattleEnemyParameterTable": 0,
		"parameter_deviation_table_BattleEnemyParameterDeviationTable": 0,
		"acquire_skill_group_id": 0,
		"level_correction": 0,
		"group_id": 0,
		"ai_script_id_BattleAIScript": 0
	},
	{
		"ID": 25765,
		"stage_BattleStage": 231005030,
		"unit_UnitUnit": 830008,
		"money": 285,
		"initial_coordinate_x": 14,
		"initial_coordinate_y": 11,
		"reinforcement_BattleReinforcement": 4,
		"initial_direction": 270.0,
		"ai_move_group": 0,
		"ai_target_move_x": -1,
		"ai_target_move_y": -1,
		"ai_skill_function": "",
		"ai_attack": "",
		"ai_move": "",
		"ai_heal": "",
		"ai_skill": "",
		"ai_use": "",
		"skill_group_id": 826,
		"gear_GearGear": 35001,
		"gear_rank": 1,
		"proficiency_UnitProficiency": 5,
		"level": 57,
		"hp": 89,
		"strength": 59,
		"vitality": 53,
		"intelligence": 7,
		"mind": 23,
		"agility": 59,
		"dexterity": 64,
		"lucky": 3,
		"parameter_table_BattleEnemyParameterTable": 0,
		"parameter_deviation_table_BattleEnemyParameterDeviationTable": 0,
		"acquire_skill_group_id": 0,
		"level_correction": 0,
		"group_id": 0,
		"ai_script_id_BattleAIScript": 0
	},
	{
		"ID": 25766,
		"stage_BattleStage": 231005030,
		"unit_UnitUnit": 860010,
		"money": 290,
		"initial_coordinate_x": 9,
		"initial_coordinate_y": 12,
		"reinforcement_BattleReinforcement": 0,
		"initial_direction": 180.0,
		"ai_move_group": 0,
		"ai_target_move_x": -1,
		"ai_target_move_y": -1,
		"ai_skill_function": "",
		"ai_attack": "IF( turn <=7 ,IF(panel_move_distance <= 1, 1, 0),1)",
		"ai_move": "IF(turn <=7,0,1)",
		"ai_heal": "",
		"ai_skill": "",
		"ai_use": "",
		"skill_group_id": 671,
		"gear_GearGear": 80010,
		"gear_rank": 1,
		"proficiency_UnitProficiency": 3,
		"level": 57,
		"hp": 102,
		"strength": 2,
		"vitality": 43,
		"intelligence": 44,
		"mind": 55,
		"agility": 57,
		"dexterity": 61,
		"lucky": 5,
		"parameter_table_BattleEnemyParameterTable": 0,
		"parameter_deviation_table_BattleEnemyParameterDeviationTable": 0,
		"acquire_skill_group_id": 0,
		"level_correction": 0,
		"group_id": 0,
		"ai_script_id_BattleAIScript": 0
	},
	{
		"ID": 25767,
		"stage_BattleStage": 231005030,
		"unit_UnitUnit": 860010,
		"money": 295,
		"initial_coordinate_x": 10,
		"initial_coordinate_y": 12,
		"reinforcement_BattleReinforcement": 0,
		"initial_direction": 180.0,
		"ai_move_group": 0,
		"ai_target_move_x": -1,
		"ai_target_move_y": -1,
		"ai_skill_function": "",
		"ai_attack": "IF( turn <=7 ,IF(panel_move_distance <= 1, 1, 0),1)",
		"ai_move": "IF(turn <=7,0,1)",
		"ai_heal": "",
		"ai_skill": "",
		"ai_use": "",
		"skill_group_id": 672,
		"gear_GearGear": 80010,
		"gear_rank": 1,
		"proficiency_UnitProficiency": 3,
		"level": 58,
		"hp": 92,
		"strength": 2,
		"vitality": 45,
		"intelligence": 50,
		"mind": 56,
		"agility": 60,
		"dexterity": 60,
		"lucky": 5,
		"parameter_table_BattleEnemyParameterTable": 0,
		"parameter_deviation_table_BattleEnemyParameterDeviationTable": 0,
		"acquire_skill_group_id": 0,
		"level_correction": 0,
		"group_id": 0,
		"ai_script_id_BattleAIScript": 0
	},
	{
		"ID": 25768,
		"stage_BattleStage": 231005030,
		"unit_UnitUnit": 860010,
		"money": 300,
		"initial_coordinate_x": 11,
		"initial_coordinate_y": 12,
		"reinforcement_BattleReinforcement": 0,
		"initial_direction": 180.0,
		"ai_move_group": 0,
		"ai_target_move_x": -1,
		"ai_target_move_y": -1,
		"ai_skill_function": "",
		"ai_attack": "IF( turn <=7 ,IF(panel_move_distance <= 1, 1, 0),1)",
		"ai_move": "IF(turn <=7,0,1)",
		"ai_heal": "",
		"ai_skill": "",
		"ai_use": "",
		"skill_group_id": 673,
		"gear_GearGear": 80010,
		"gear_rank": 1,
		"proficiency_UnitProficiency": 3,
		"level": 59,
		"hp": 90,
		"strength": 2,
		"vitality": 41,
		"intelligence": 51,
		"mind": 58,
		"agility": 65,
		"dexterity": 64,
		"lucky": 5,
		"parameter_table_BattleEnemyParameterTable": 0,
		"parameter_deviation_table_BattleEnemyParameterDeviationTable": 0,
		"acquire_skill_group_id": 0,
		"level_correction": 0,
		"group_id": 0,
		"ai_script_id_BattleAIScript": 0
	},
	{
		"ID": 25769,
		"stage_BattleStage": 231005030,
		"unit_UnitUnit": 860010,
		"money": 305,
		"initial_coordinate_x": 1,
		"initial_coordinate_y": 4,
		"reinforcement_BattleReinforcement": 4,
		"initial_direction": 90.0,
		"ai_move_group": 0,
		"ai_target_move_x": -1,
		"ai_target_move_y": -1,
		"ai_skill_function": "",
		"ai_attack": "",
		"ai_move": "",
		"ai_heal": "",
		"ai_skill": "",
		"ai_use": "",
		"skill_group_id": 674,
		"gear_GearGear": 80010,
		"gear_rank": 1,
		"proficiency_UnitProficiency": 3,
		"level": 57,
		"hp": 103,
		"strength": 2,
		"vitality": 42,
		"intelligence": 47,
		"mind": 59,
		"agility": 56,
		"dexterity": 61,
		"lucky": 5,
		"parameter_table_BattleEnemyParameterTable": 0,
		"parameter_deviation_table_BattleEnemyParameterDeviationTable": 0,
		"acquire_skill_group_id": 0,
		"level_correction": 0,
		"group_id": 0,
		"ai_script_id_BattleAIScript": 0
	},
	{
		"ID": 25770,
		"stage_BattleStage": 231005030,
		"unit_UnitUnit": 860010,
		"money": 300,
		"initial_coordinate_x": 12,
		"initial_coordinate_y": 1,
		"reinforcement_BattleReinforcement": 4,
		"initial_direction": 0.0,
		"ai_move_group": 0,
		"ai_target_move_x": -1,
		"ai_target_move_y": -1,
		"ai_skill_function": "",
		"ai_attack": "",
		"ai_move": "",
		"ai_heal": "",
		"ai_skill": "",
		"ai_use": "",
		"skill_group_id": 675,
		"gear_GearGear": 80010,
		"gear_rank": 1,
		"proficiency_UnitProficiency": 3,
		"level": 58,
		"hp": 88,
		"strength": 2,
		"vitality": 42,
		"intelligence": 47,
		"mind": 59,
		"agility": 57,
		"dexterity": 68,
		"lucky": 5,
		"parameter_table_BattleEnemyParameterTable": 0,
		"parameter_deviation_table_BattleEnemyParameterDeviationTable": 0,
		"acquire_skill_group_id": 0,
		"level_correction": 0,
		"group_id": 0,
		"ai_script_id_BattleAIScript": 0
	},
	{
		"ID": 25771,
		"stage_BattleStage": 231005030,
		"unit_UnitUnit": 860010,
		"money": 295,
		"initial_coordinate_x": 1,
		"initial_coordinate_y": 4,
		"reinforcement_BattleReinforcement": 5,
		"initial_direction": 90.0,
		"ai_move_group": 0,
		"ai_target_move_x": -1,
		"ai_target_move_y": -1,
		"ai_skill_function": "",
		"ai_attack": "",
		"ai_move": "",
		"ai_heal": "",
		"ai_skill": "",
		"ai_use": "",
		"skill_group_id": 676,
		"gear_GearGear": 80010,
		"gear_rank": 1,
		"proficiency_UnitProficiency": 3,
		"level": 57,
		"hp": 89,
		"strength": 2,
		"vitality": 39,
		"intelligence": 49,
		"mind": 54,
		"agility": 60,
		"dexterity": 62,
		"lucky": 5,
		"parameter_table_BattleEnemyParameterTable": 0,
		"parameter_deviation_table_BattleEnemyParameterDeviationTable": 0,
		"acquire_skill_group_id": 0,
		"level_correction": 0,
		"group_id": 0,
		"ai_script_id_BattleAIScript": 0
	},
	{
		"ID": 25772,
		"stage_BattleStage": 231005030,
		"unit_UnitUnit": 860010,
		"money": 290,
		"initial_coordinate_x": 12,
		"initial_coordinate_y": 1,
		"reinforcement_BattleReinforcement": 5,
		"initial_direction": 0.0,
		"ai_move_group": 0,
		"ai_target_move_x": -1,
		"ai_target_move_y": -1,
		"ai_skill_function": "",
		"ai_attack": "",
		"ai_move": "",
		"ai_heal": "",
		"ai_skill": "",
		"ai_use": "",
		"skill_group_id": 670,
		"gear_GearGear": 80010,
		"gear_rank": 1,
		"proficiency_UnitProficiency": 3,
		"level": 56,
		"hp": 89,
		"strength": 2,
		"vitality": 42,
		"intelligence": 43,
		"mind": 51,
		"agility": 64,
		"dexterity": 56,
		"lucky": 5,
		"parameter_table_BattleEnemyParameterTable": 0,
		"parameter_deviation_table_BattleEnemyParameterDeviationTable": 0,
		"acquire_skill_group_id": 0,
		"level_correction": 0,
		"group_id": 0,
		"ai_script_id_BattleAIScript": 0
	},
	{
		"ID": 25773,
		"stage_BattleStage": 231005030,
		"unit_UnitUnit": 500332,
		"money": 400,
		"initial_coordinate_x": 10,
		"initial_coordinate_y": 11,
		"reinforcement_BattleReinforcement": 0,
		"initial_direction": 180.0,
		"ai_move_group": 0,
		"ai_target_move_x": -1,
		"ai_target_move_y": -1,
		"ai_skill_function": "",
		"ai_attack": "IF( turn <=7 ,IF(panel_move_distance <= 1, 1, 0),1)",
		"ai_move": "IF(turn <=7,0,1)",
		"ai_heal": "",
		"ai_skill": "",
		"ai_use": "",
		"skill_group_id": 1750,
		"gear_GearGear": 55002,
		"gear_rank": 1,
		"proficiency_UnitProficiency": 5,
		"level": 63,
		"hp": 200,
		"strength": 1,
		"vitality": 65,
		"intelligence": 65,
		"mind": 70,
		"agility": 57,
		"dexterity": 60,
		"lucky": 15,
		"parameter_table_BattleEnemyParameterTable": 0,
		"parameter_deviation_table_BattleEnemyParameterDeviationTable": 0,
		"acquire_skill_group_id": 0,
		"level_correction": 0,
		"group_id": 0,
		"ai_script_id_BattleAIScript": 0
	}
]