[
	{
		"ID": 22018,
		"stage_BattleStage": 241006001,
		"unit_UnitUnit": 810004,
		"money": 275,
		"initial_coordinate_x": 10,
		"initial_coordinate_y": 2,
		"reinforcement_BattleReinforcement": 4,
		"initial_direction": 270.0,
		"ai_move_group": 0,
		"ai_target_move_x": -1,
		"ai_target_move_y": -1,
		"ai_skill_function": "",
		"ai_attack": "",
		"ai_move": "",
		"ai_heal": "",
		"ai_skill": "",
		"ai_use": "",
		"skill_group_id": 830,
		"gear_GearGear": 15002,
		"gear_rank": 1,
		"proficiency_UnitProficiency": 5,
		"level": 55,
		"hp": 57,
		"strength": 49,
		"vitality": 31,
		"intelligence": 1,
		"mind": 22,
		"agility": 33,
		"dexterity": 41,
		"lucky": 5,
		"parameter_table_BattleEnemyParameterTable": 0,
		"parameter_deviation_table_BattleEnemyParameterDeviationTable": 0,
		"acquire_skill_group_id": 0,
		"level_correction": 0,
		"group_id": 0,
		"ai_script_id_BattleAIScript": 0
	},
	{
		"ID": 22019,
		"stage_BattleStage": 241006001,
		"unit_UnitUnit": 810004,
		"money": 280,
		"initial_coordinate_x": 11,
		"initial_coordinate_y": 2,
		"reinforcement_BattleReinforcement": 4,
		"initial_direction": 270.0,
		"ai_move_group": 0,
		"ai_target_move_x": -1,
		"ai_target_move_y": -1,
		"ai_skill_function": "",
		"ai_attack": "",
		"ai_move": "",
		"ai_heal": "",
		"ai_skill": "",
		"ai_use": "",
		"skill_group_id": 830,
		"gear_GearGear": 15002,
		"gear_rank": 1,
		"proficiency_UnitProficiency": 5,
		"level": 56,
		"hp": 58,
		"strength": 50,
		"vitality": 31,
		"intelligence": 1,
		"mind": 22,
		"agility": 33,
		"dexterity": 42,
		"lucky": 5,
		"parameter_table_BattleEnemyParameterTable": 0,
		"parameter_deviation_table_BattleEnemyParameterDeviationTable": 0,
		"acquire_skill_group_id": 0,
		"level_correction": 0,
		"group_id": 0,
		"ai_script_id_BattleAIScript": 0
	},
	{
		"ID": 22020,
		"stage_BattleStage": 241006001,
		"unit_UnitUnit": 810004,
		"money": 285,
		"initial_coordinate_x": 9,
		"initial_coordinate_y": 9,
		"reinforcement_BattleReinforcement": 0,
		"initial_direction": 180.0,
		"ai_move_group": 0,
		"ai_target_move_x": -1,
		"ai_target_move_y": -1,
		"ai_skill_function": "",
		"ai_attack": "",
		"ai_move": "",
		"ai_heal": "",
		"ai_skill": "",
		"ai_use": "",
		"skill_group_id": 830,
		"gear_GearGear": 15002,
		"gear_rank": 1,
		"proficiency_UnitProficiency": 5,
		"level": 57,
		"hp": 58,
		"strength": 51,
		"vitality": 32,
		"intelligence": 1,
		"mind": 23,
		"agility": 34,
		"dexterity": 42,
		"lucky": 5,
		"parameter_table_BattleEnemyParameterTable": 0,
		"parameter_deviation_table_BattleEnemyParameterDeviationTable": 0,
		"acquire_skill_group_id": 0,
		"level_correction": 0,
		"group_id": 0,
		"ai_script_id_BattleAIScript": 0
	},
	{
		"ID": 22021,
		"stage_BattleStage": 241006001,
		"unit_UnitUnit": 810004,
		"money": 290,
		"initial_coordinate_x": 10,
		"initial_coordinate_y": 9,
		"reinforcement_BattleReinforcement": 0,
		"initial_direction": 180.0,
		"ai_move_group": 0,
		"ai_target_move_x": -1,
		"ai_target_move_y": -1,
		"ai_skill_function": "",
		"ai_attack": "",
		"ai_move": "",
		"ai_heal": "",
		"ai_skill": "",
		"ai_use": "",
		"skill_group_id": 830,
		"gear_GearGear": 15002,
		"gear_rank": 1,
		"proficiency_UnitProficiency": 5,
		"level": 58,
		"hp": 59,
		"strength": 52,
		"vitality": 32,
		"intelligence": 1,
		"mind": 23,
		"agility": 34,
		"dexterity": 43,
		"lucky": 5,
		"parameter_table_BattleEnemyParameterTable": 0,
		"parameter_deviation_table_BattleEnemyParameterDeviationTable": 0,
		"acquire_skill_group_id": 0,
		"level_correction": 0,
		"group_id": 0,
		"ai_script_id_BattleAIScript": 0
	},
	{
		"ID": 22022,
		"stage_BattleStage": 241006001,
		"unit_UnitUnit": 810004,
		"money": 295,
		"initial_coordinate_x": 6,
		"initial_coordinate_y": 12,
		"reinforcement_BattleReinforcement": 0,
		"initial_direction": 180.0,
		"ai_move_group": 0,
		"ai_target_move_x": -1,
		"ai_target_move_y": -1,
		"ai_skill_function": "",
		"ai_attack": "",
		"ai_move": "IF(turn <=2,0,1)",
		"ai_heal": "",
		"ai_skill": "",
		"ai_use": "",
		"skill_group_id": 830,
		"gear_GearGear": 15002,
		"gear_rank": 1,
		"proficiency_UnitProficiency": 5,
		"level": 59,
		"hp": 60,
		"strength": 53,
		"vitality": 33,
		"intelligence": 1,
		"mind": 24,
		"agility": 35,
		"dexterity": 44,
		"lucky": 5,
		"parameter_table_BattleEnemyParameterTable": 0,
		"parameter_deviation_table_BattleEnemyParameterDeviationTable": 0,
		"acquire_skill_group_id": 0,
		"level_correction": 0,
		"group_id": 0,
		"ai_script_id_BattleAIScript": 0
	},
	{
		"ID": 22023,
		"stage_BattleStage": 241006001,
		"unit_UnitUnit": 810004,
		"money": 300,
		"initial_coordinate_x": 7,
		"initial_coordinate_y": 12,
		"reinforcement_BattleReinforcement": 0,
		"initial_direction": 180.0,
		"ai_move_group": 0,
		"ai_target_move_x": -1,
		"ai_target_move_y": -1,
		"ai_skill_function": "",
		"ai_attack": "",
		"ai_move": "IF(turn <=2,0,1)",
		"ai_heal": "",
		"ai_skill": "",
		"ai_use": "",
		"skill_group_id": 830,
		"gear_GearGear": 15002,
		"gear_rank": 1,
		"proficiency_UnitProficiency": 5,
		"level": 60,
		"hp": 60,
		"strength": 53,
		"vitality": 33,
		"intelligence": 1,
		"mind": 24,
		"agility": 35,
		"dexterity": 44,
		"lucky": 5,
		"parameter_table_BattleEnemyParameterTable": 0,
		"parameter_deviation_table_BattleEnemyParameterDeviationTable": 0,
		"acquire_skill_group_id": 0,
		"level_correction": 0,
		"group_id": 0,
		"ai_script_id_BattleAIScript": 0
	},
	{
		"ID": 22024,
		"stage_BattleStage": 241006001,
		"unit_UnitUnit": 820004,
		"money": 305,
		"initial_coordinate_x": 6,
		"initial_coordinate_y": 11,
		"reinforcement_BattleReinforcement": 0,
		"initial_direction": 180.0,
		"ai_move_group": 0,
		"ai_target_move_x": -1,
		"ai_target_move_y": -1,
		"ai_skill_function": "",
		"ai_attack": "",
		"ai_move": "IF(turn <=2,0,1)",
		"ai_heal": "",
		"ai_skill": "",
		"ai_use": "",
		"skill_group_id": 840,
		"gear_GearGear": 24002,
		"gear_rank": 1,
		"proficiency_UnitProficiency": 4,
		"level": 61,
		"hp": 61,
		"strength": 57,
		"vitality": 34,
		"intelligence": 1,
		"mind": 27,
		"agility": 30,
		"dexterity": 42,
		"lucky": 6,
		"parameter_table_BattleEnemyParameterTable": 0,
		"parameter_deviation_table_BattleEnemyParameterDeviationTable": 0,
		"acquire_skill_group_id": 0,
		"level_correction": 0,
		"group_id": 0,
		"ai_script_id_BattleAIScript": 0
	},
	{
		"ID": 22025,
		"stage_BattleStage": 241006001,
		"unit_UnitUnit": 820004,
		"money": 310,
		"initial_coordinate_x": 7,
		"initial_coordinate_y": 11,
		"reinforcement_BattleReinforcement": 0,
		"initial_direction": 180.0,
		"ai_move_group": 0,
		"ai_target_move_x": -1,
		"ai_target_move_y": -1,
		"ai_skill_function": "",
		"ai_attack": "",
		"ai_move": "IF(turn <=2,0,1)",
		"ai_heal": "",
		"ai_skill": "",
		"ai_use": "",
		"skill_group_id": 840,
		"gear_GearGear": 24002,
		"gear_rank": 1,
		"proficiency_UnitProficiency": 4,
		"level": 62,
		"hp": 62,
		"strength": 58,
		"vitality": 34,
		"intelligence": 1,
		"mind": 27,
		"agility": 30,
		"dexterity": 43,
		"lucky": 6,
		"parameter_table_BattleEnemyParameterTable": 0,
		"parameter_deviation_table_BattleEnemyParameterDeviationTable": 0,
		"acquire_skill_group_id": 0,
		"level_correction": 0,
		"group_id": 0,
		"ai_script_id_BattleAIScript": 0
	},
	{
		"ID": 22026,
		"stage_BattleStage": 241006001,
		"unit_UnitUnit": 820004,
		"money": 295,
		"initial_coordinate_x": 9,
		"initial_coordinate_y": 8,
		"reinforcement_BattleReinforcement": 0,
		"initial_direction": 180.0,
		"ai_move_group": 0,
		"ai_target_move_x": -1,
		"ai_target_move_y": -1,
		"ai_skill_function": "",
		"ai_attack": "",
		"ai_move": "",
		"ai_heal": "",
		"ai_skill": "",
		"ai_use": "",
		"skill_group_id": 840,
		"gear_GearGear": 24002,
		"gear_rank": 1,
		"proficiency_UnitProficiency": 4,
		"level": 59,
		"hp": 60,
		"strength": 56,
		"vitality": 33,
		"intelligence": 1,
		"mind": 26,
		"agility": 29,
		"dexterity": 41,
		"lucky": 5,
		"parameter_table_BattleEnemyParameterTable": 0,
		"parameter_deviation_table_BattleEnemyParameterDeviationTable": 0,
		"acquire_skill_group_id": 0,
		"level_correction": 0,
		"group_id": 0,
		"ai_script_id_BattleAIScript": 0
	},
	{
		"ID": 22027,
		"stage_BattleStage": 241006001,
		"unit_UnitUnit": 820004,
		"money": 290,
		"initial_coordinate_x": 10,
		"initial_coordinate_y": 8,
		"reinforcement_BattleReinforcement": 0,
		"initial_direction": 180.0,
		"ai_move_group": 0,
		"ai_target_move_x": -1,
		"ai_target_move_y": -1,
		"ai_skill_function": "",
		"ai_attack": "",
		"ai_move": "",
		"ai_heal": "",
		"ai_skill": "",
		"ai_use": "",
		"skill_group_id": 840,
		"gear_GearGear": 24002,
		"gear_rank": 1,
		"proficiency_UnitProficiency": 4,
		"level": 58,
		"hp": 59,
		"strength": 55,
		"vitality": 32,
		"intelligence": 1,
		"mind": 25,
		"agility": 28,
		"dexterity": 40,
		"lucky": 5,
		"parameter_table_BattleEnemyParameterTable": 0,
		"parameter_deviation_table_BattleEnemyParameterDeviationTable": 0,
		"acquire_skill_group_id": 0,
		"level_correction": 0,
		"group_id": 0,
		"ai_script_id_BattleAIScript": 0
	},
	{
		"ID": 22028,
		"stage_BattleStage": 241006001,
		"unit_UnitUnit": 820008,
		"money": 275,
		"initial_coordinate_x": 10,
		"initial_coordinate_y": 14,
		"reinforcement_BattleReinforcement": 0,
		"initial_direction": 180.0,
		"ai_move_group": 0,
		"ai_target_move_x": -1,
		"ai_target_move_y": -1,
		"ai_skill_function": "",
		"ai_attack": "",
		"ai_move": "IF(turn <=4,0,1)",
		"ai_heal": "",
		"ai_skill": "",
		"ai_use": "",
		"skill_group_id": 840,
		"gear_GearGear": 24001,
		"gear_rank": 1,
		"proficiency_UnitProficiency": 4,
		"level": 55,
		"hp": 71,
		"strength": 57,
		"vitality": 40,
		"intelligence": 0,
		"mind": 25,
		"agility": 19,
		"dexterity": 43,
		"lucky": 3,
		"parameter_table_BattleEnemyParameterTable": 0,
		"parameter_deviation_table_BattleEnemyParameterDeviationTable": 0,
		"acquire_skill_group_id": 0,
		"level_correction": 0,
		"group_id": 0,
		"ai_script_id_BattleAIScript": 0
	},
	{
		"ID": 22029,
		"stage_BattleStage": 241006001,
		"unit_UnitUnit": 820008,
		"money": 270,
		"initial_coordinate_x": 11,
		"initial_coordinate_y": 14,
		"reinforcement_BattleReinforcement": 0,
		"initial_direction": 180.0,
		"ai_move_group": 0,
		"ai_target_move_x": -1,
		"ai_target_move_y": -1,
		"ai_skill_function": "",
		"ai_attack": "",
		"ai_move": "IF(turn <=4,0,1)",
		"ai_heal": "",
		"ai_skill": "",
		"ai_use": "",
		"skill_group_id": 840,
		"gear_GearGear": 24001,
		"gear_rank": 1,
		"proficiency_UnitProficiency": 4,
		"level": 54,
		"hp": 70,
		"strength": 56,
		"vitality": 40,
		"intelligence": 0,
		"mind": 25,
		"agility": 19,
		"dexterity": 43,
		"lucky": 3,
		"parameter_table_BattleEnemyParameterTable": 0,
		"parameter_deviation_table_BattleEnemyParameterDeviationTable": 0,
		"acquire_skill_group_id": 0,
		"level_correction": 0,
		"group_id": 0,
		"ai_script_id_BattleAIScript": 0
	},
	{
		"ID": 22030,
		"stage_BattleStage": 241006001,
		"unit_UnitUnit": 801009,
		"money": 50,
		"initial_coordinate_x": 10,
		"initial_coordinate_y": 16,
		"reinforcement_BattleReinforcement": 0,
		"initial_direction": 180.0,
		"ai_move_group": 0,
		"ai_target_move_x": -1,
		"ai_target_move_y": -1,
		"ai_skill_function": "",
		"ai_attack": "IF( turn <=6 ,IF(panel_move_distance <= 0, 1, 0),1)",
		"ai_move": "IF(turn <=6,0,1)",
		"ai_heal": "",
		"ai_skill": "",
		"ai_use": "",
		"skill_group_id": 2970,
		"gear_GearGear": 80001,
		"gear_rank": 1,
		"proficiency_UnitProficiency": 1,
		"level": 10,
		"hp": 6,
		"strength": 3,
		"vitality": 300,
		"intelligence": 8,
		"mind": 300,
		"agility": 16,
		"dexterity": 24,
		"lucky": 3,
		"parameter_table_BattleEnemyParameterTable": 0,
		"parameter_deviation_table_BattleEnemyParameterDeviationTable": 0,
		"acquire_skill_group_id": 0,
		"level_correction": 0,
		"group_id": 0,
		"ai_script_id_BattleAIScript": 0
	},
	{
		"ID": 22031,
		"stage_BattleStage": 241006001,
		"unit_UnitUnit": 801009,
		"money": 50,
		"initial_coordinate_x": 4,
		"initial_coordinate_y": 27,
		"reinforcement_BattleReinforcement": 0,
		"initial_direction": 180.0,
		"ai_move_group": 0,
		"ai_target_move_x": -1,
		"ai_target_move_y": -1,
		"ai_skill_function": "",
		"ai_attack": "IF( turn <=20 ,IF(panel_move_distance <= 0, 1, 0),1)",
		"ai_move": "IF(turn <=20,0,1)",
		"ai_heal": "",
		"ai_skill": "",
		"ai_use": "",
		"skill_group_id": 3900,
		"gear_GearGear": 80001,
		"gear_rank": 1,
		"proficiency_UnitProficiency": 1,
		"level": 10,
		"hp": 6,
		"strength": 3,
		"vitality": 300,
		"intelligence": 8,
		"mind": 300,
		"agility": 16,
		"dexterity": 24,
		"lucky": 3,
		"parameter_table_BattleEnemyParameterTable": 0,
		"parameter_deviation_table_BattleEnemyParameterDeviationTable": 0,
		"acquire_skill_group_id": 0,
		"level_correction": 0,
		"group_id": 0,
		"ai_script_id_BattleAIScript": 0
	},
	{
		"ID": 22032,
		"stage_BattleStage": 241006001,
		"unit_UnitUnit": 820008,
		"money": 285,
		"initial_coordinate_x": 1,
		"initial_coordinate_y": 16,
		"reinforcement_BattleReinforcement": 0,
		"initial_direction": 180.0,
		"ai_move_group": 0,
		"ai_target_move_x": -1,
		"ai_target_move_y": -1,
		"ai_skill_function": "",
		"ai_attack": "",
		"ai_move": "IF(turn <=5,0,1)",
		"ai_heal": "",
		"ai_skill": "",
		"ai_use": "",
		"skill_group_id": 840,
		"gear_GearGear": 22005,
		"gear_rank": 1,
		"proficiency_UnitProficiency": 2,
		"level": 57,
		"hp": 73,
		"strength": 59,
		"vitality": 42,
		"intelligence": 0,
		"mind": 26,
		"agility": 20,
		"dexterity": 45,
		"lucky": 3,
		"parameter_table_BattleEnemyParameterTable": 0,
		"parameter_deviation_table_BattleEnemyParameterDeviationTable": 0,
		"acquire_skill_group_id": 0,
		"level_correction": 0,
		"group_id": 0,
		"ai_script_id_BattleAIScript": 0
	},
	{
		"ID": 22033,
		"stage_BattleStage": 241006001,
		"unit_UnitUnit": 820008,
		"money": 290,
		"initial_coordinate_x": 2,
		"initial_coordinate_y": 16,
		"reinforcement_BattleReinforcement": 0,
		"initial_direction": 180.0,
		"ai_move_group": 0,
		"ai_target_move_x": -1,
		"ai_target_move_y": -1,
		"ai_skill_function": "",
		"ai_attack": "",
		"ai_move": "IF(turn <=5,0,1)",
		"ai_heal": "",
		"ai_skill": "",
		"ai_use": "",
		"skill_group_id": 840,
		"gear_GearGear": 22005,
		"gear_rank": 1,
		"proficiency_UnitProficiency": 2,
		"level": 58,
		"hp": 74,
		"strength": 60,
		"vitality": 42,
		"intelligence": 0,
		"mind": 26,
		"agility": 20,
		"dexterity": 45,
		"lucky": 3,
		"parameter_table_BattleEnemyParameterTable": 0,
		"parameter_deviation_table_BattleEnemyParameterDeviationTable": 0,
		"acquire_skill_group_id": 0,
		"level_correction": 0,
		"group_id": 0,
		"ai_script_id_BattleAIScript": 0
	},
	{
		"ID": 22034,
		"stage_BattleStage": 241006001,
		"unit_UnitUnit": 810008,
		"money": 295,
		"initial_coordinate_x": 1,
		"initial_coordinate_y": 15,
		"reinforcement_BattleReinforcement": 0,
		"initial_direction": 180.0,
		"ai_move_group": 0,
		"ai_target_move_x": -1,
		"ai_target_move_y": -1,
		"ai_skill_function": "",
		"ai_attack": "",
		"ai_move": "IF(turn <=5,0,1)",
		"ai_heal": "",
		"ai_skill": "",
		"ai_use": "",
		"skill_group_id": 830,
		"gear_GearGear": 13003,
		"gear_rank": 1,
		"proficiency_UnitProficiency": 3,
		"level": 59,
		"hp": 74,
		"strength": 58,
		"vitality": 43,
		"intelligence": 0,
		"mind": 24,
		"agility": 26,
		"dexterity": 49,
		"lucky": 3,
		"parameter_table_BattleEnemyParameterTable": 0,
		"parameter_deviation_table_BattleEnemyParameterDeviationTable": 0,
		"acquire_skill_group_id": 0,
		"level_correction": 0,
		"group_id": 0,
		"ai_script_id_BattleAIScript": 0
	},
	{
		"ID": 22035,
		"stage_BattleStage": 241006001,
		"unit_UnitUnit": 810008,
		"money": 300,
		"initial_coordinate_x": 2,
		"initial_coordinate_y": 15,
		"reinforcement_BattleReinforcement": 0,
		"initial_direction": 180.0,
		"ai_move_group": 0,
		"ai_target_move_x": -1,
		"ai_target_move_y": -1,
		"ai_skill_function": "",
		"ai_attack": "",
		"ai_move": "IF(turn <=5,0,1)",
		"ai_heal": "",
		"ai_skill": "",
		"ai_use": "",
		"skill_group_id": 830,
		"gear_GearGear": 13003,
		"gear_rank": 1,
		"proficiency_UnitProficiency": 3,
		"level": 60,
		"hp": 75,
		"strength": 58,
		"vitality": 43,
		"intelligence": 0,
		"mind": 25,
		"agility": 27,
		"dexterity": 50,
		"lucky": 3,
		"parameter_table_BattleEnemyParameterTable": 0,
		"parameter_deviation_table_BattleEnemyParameterDeviationTable": 0,
		"acquire_skill_group_id": 0,
		"level_correction": 0,
		"group_id": 0,
		"ai_script_id_BattleAIScript": 0
	},
	{
		"ID": 22036,
		"stage_BattleStage": 241006001,
		"unit_UnitUnit": 820008,
		"money": 305,
		"initial_coordinate_x": 2,
		"initial_coordinate_y": 22,
		"reinforcement_BattleReinforcement": 5,
		"initial_direction": 180.0,
		"ai_move_group": 0,
		"ai_target_move_x": -1,
		"ai_target_move_y": -1,
		"ai_skill_function": "",
		"ai_attack": "",
		"ai_move": "IF(turn <=15,0,1)",
		"ai_heal": "",
		"ai_skill": "",
		"ai_use": "",
		"skill_group_id": 840,
		"gear_GearGear": 22005,
		"gear_rank": 1,
		"proficiency_UnitProficiency": 2,
		"level": 61,
		"hp": 76,
		"strength": 62,
		"vitality": 44,
		"intelligence": 0,
		"mind": 28,
		"agility": 21,
		"dexterity": 48,
		"lucky": 3,
		"parameter_table_BattleEnemyParameterTable": 0,
		"parameter_deviation_table_BattleEnemyParameterDeviationTable": 0,
		"acquire_skill_group_id": 0,
		"level_correction": 0,
		"group_id": 0,
		"ai_script_id_BattleAIScript": 0
	},
	{
		"ID": 22037,
		"stage_BattleStage": 241006001,
		"unit_UnitUnit": 820008,
		"money": 260,
		"initial_coordinate_x": 3,
		"initial_coordinate_y": 22,
		"reinforcement_BattleReinforcement": 5,
		"initial_direction": 180.0,
		"ai_move_group": 0,
		"ai_target_move_x": -1,
		"ai_target_move_y": -1,
		"ai_skill_function": "",
		"ai_attack": "",
		"ai_move": "IF(turn <=15,0,1)",
		"ai_heal": "",
		"ai_skill": "",
		"ai_use": "",
		"skill_group_id": 840,
		"gear_GearGear": 22005,
		"gear_rank": 1,
		"proficiency_UnitProficiency": 2,
		"level": 52,
		"hp": 69,
		"strength": 54,
		"vitality": 39,
		"intelligence": 0,
		"mind": 24,
		"agility": 18,
		"dexterity": 41,
		"lucky": 3,
		"parameter_table_BattleEnemyParameterTable": 0,
		"parameter_deviation_table_BattleEnemyParameterDeviationTable": 0,
		"acquire_skill_group_id": 0,
		"level_correction": 0,
		"group_id": 0,
		"ai_script_id_BattleAIScript": 0
	},
	{
		"ID": 22038,
		"stage_BattleStage": 241006001,
		"unit_UnitUnit": 810008,
		"money": 305,
		"initial_coordinate_x": 2,
		"initial_coordinate_y": 21,
		"reinforcement_BattleReinforcement": 5,
		"initial_direction": 180.0,
		"ai_move_group": 0,
		"ai_target_move_x": -1,
		"ai_target_move_y": -1,
		"ai_skill_function": "",
		"ai_attack": "",
		"ai_move": "IF(turn <=15,0,1)",
		"ai_heal": "",
		"ai_skill": "",
		"ai_use": "",
		"skill_group_id": 830,
		"gear_GearGear": 13003,
		"gear_rank": 1,
		"proficiency_UnitProficiency": 3,
		"level": 61,
		"hp": 76,
		"strength": 59,
		"vitality": 44,
		"intelligence": 0,
		"mind": 25,
		"agility": 27,
		"dexterity": 51,
		"lucky": 3,
		"parameter_table_BattleEnemyParameterTable": 0,
		"parameter_deviation_table_BattleEnemyParameterDeviationTable": 0,
		"acquire_skill_group_id": 0,
		"level_correction": 0,
		"group_id": 0,
		"ai_script_id_BattleAIScript": 0
	},
	{
		"ID": 22039,
		"stage_BattleStage": 241006001,
		"unit_UnitUnit": 810008,
		"money": 300,
		"initial_coordinate_x": 3,
		"initial_coordinate_y": 21,
		"reinforcement_BattleReinforcement": 5,
		"initial_direction": 180.0,
		"ai_move_group": 0,
		"ai_target_move_x": -1,
		"ai_target_move_y": -1,
		"ai_skill_function": "",
		"ai_attack": "",
		"ai_move": "IF(turn <=15,0,1)",
		"ai_heal": "",
		"ai_skill": "",
		"ai_use": "",
		"skill_group_id": 830,
		"gear_GearGear": 13003,
		"gear_rank": 1,
		"proficiency_UnitProficiency": 3,
		"level": 60,
		"hp": 75,
		"strength": 58,
		"vitality": 43,
		"intelligence": 0,
		"mind": 25,
		"agility": 27,
		"dexterity": 50,
		"lucky": 3,
		"parameter_table_BattleEnemyParameterTable": 0,
		"parameter_deviation_table_BattleEnemyParameterDeviationTable": 0,
		"acquire_skill_group_id": 0,
		"level_correction": 0,
		"group_id": 0,
		"ai_script_id_BattleAIScript": 0
	},
	{
		"ID": 22040,
		"stage_BattleStage": 241006001,
		"unit_UnitUnit": 810008,
		"money": 275,
		"initial_coordinate_x": 9,
		"initial_coordinate_y": 24,
		"reinforcement_BattleReinforcement": 7,
		"initial_direction": 180.0,
		"ai_move_group": 0,
		"ai_target_move_x": -1,
		"ai_target_move_y": -1,
		"ai_skill_function": "",
		"ai_attack": "IF( turn <=80 ,IF(panel_move_distance <= 1, 1, 0),1)",
		"ai_move": "IF(turn <=80,0,1)",
		"ai_heal": "",
		"ai_skill": "",
		"ai_use": "",
		"skill_group_id": 830,
		"gear_GearGear": 13003,
		"gear_rank": 1,
		"proficiency_UnitProficiency": 3,
		"level": 55,
		"hp": 71,
		"strength": 54,
		"vitality": 61,
		"intelligence": 0,
		"mind": 23,
		"agility": 25,
		"dexterity": 46,
		"lucky": 3,
		"parameter_table_BattleEnemyParameterTable": 0,
		"parameter_deviation_table_BattleEnemyParameterDeviationTable": 0,
		"acquire_skill_group_id": 0,
		"level_correction": 0,
		"group_id": 0,
		"ai_script_id_BattleAIScript": 0
	},
	{
		"ID": 22041,
		"stage_BattleStage": 241006001,
		"unit_UnitUnit": 860010,
		"money": 270,
		"initial_coordinate_x": 10,
		"initial_coordinate_y": 24,
		"reinforcement_BattleReinforcement": 7,
		"initial_direction": 180.0,
		"ai_move_group": 0,
		"ai_target_move_x": -1,
		"ai_target_move_y": -1,
		"ai_skill_function": "",
		"ai_attack": "IF( turn <=80 ,IF(panel_move_distance <= 1, 1, 0),1)",
		"ai_move": "IF(turn <=80,0,1)",
		"ai_heal": "",
		"ai_skill": "",
		"ai_use": "",
		"skill_group_id": 670,
		"gear_GearGear": 80010,
		"gear_rank": 1,
		"proficiency_UnitProficiency": 3,
		"level": 54,
		"hp": 48,
		"strength": 2,
		"vitality": 39,
		"intelligence": 41,
		"mind": 58,
		"agility": 27,
		"dexterity": 36,
		"lucky": 5,
		"parameter_table_BattleEnemyParameterTable": 0,
		"parameter_deviation_table_BattleEnemyParameterDeviationTable": 0,
		"acquire_skill_group_id": 0,
		"level_correction": 0,
		"group_id": 0,
		"ai_script_id_BattleAIScript": 0
	},
	{
		"ID": 22042,
		"stage_BattleStage": 241006001,
		"unit_UnitUnit": 820008,
		"money": 275,
		"initial_coordinate_x": 11,
		"initial_coordinate_y": 24,
		"reinforcement_BattleReinforcement": 7,
		"initial_direction": 180.0,
		"ai_move_group": 0,
		"ai_target_move_x": -1,
		"ai_target_move_y": -1,
		"ai_skill_function": "",
		"ai_attack": "IF( turn <=80 ,IF(panel_move_distance <= 1, 1, 0),1)",
		"ai_move": "IF(turn <=80,0,1)",
		"ai_heal": "",
		"ai_skill": "",
		"ai_use": "",
		"skill_group_id": 840,
		"gear_GearGear": 22005,
		"gear_rank": 1,
		"proficiency_UnitProficiency": 2,
		"level": 55,
		"hp": 71,
		"strength": 57,
		"vitality": 61,
		"intelligence": 0,
		"mind": 25,
		"agility": 19,
		"dexterity": 43,
		"lucky": 3,
		"parameter_table_BattleEnemyParameterTable": 0,
		"parameter_deviation_table_BattleEnemyParameterDeviationTable": 0,
		"acquire_skill_group_id": 0,
		"level_correction": 0,
		"group_id": 0,
		"ai_script_id_BattleAIScript": 0
	},
	{
		"ID": 22043,
		"stage_BattleStage": 241006001,
		"unit_UnitUnit": 830001,
		"money": 300,
		"initial_coordinate_x": 1,
		"initial_coordinate_y": 8,
		"reinforcement_BattleReinforcement": 6,
		"initial_direction": 90.0,
		"ai_move_group": 0,
		"ai_target_move_x": -1,
		"ai_target_move_y": -1,
		"ai_skill_function": "",
		"ai_attack": "",
		"ai_move": "",
		"ai_heal": "",
		"ai_skill": "",
		"ai_use": "",
		"skill_group_id": 820,
		"gear_GearGear": 32003,
		"gear_rank": 1,
		"proficiency_UnitProficiency": 2,
		"level": 60,
		"hp": 55,
		"strength": 49,
		"vitality": 33,
		"intelligence": 11,
		"mind": 32,
		"agility": 37,
		"dexterity": 40,
		"lucky": 4,
		"parameter_table_BattleEnemyParameterTable": 0,
		"parameter_deviation_table_BattleEnemyParameterDeviationTable": 0,
		"acquire_skill_group_id": 0,
		"level_correction": 0,
		"group_id": 0,
		"ai_script_id_BattleAIScript": 0
	},
	{
		"ID": 22044,
		"stage_BattleStage": 241006001,
		"unit_UnitUnit": 830001,
		"money": 305,
		"initial_coordinate_x": 1,
		"initial_coordinate_y": 7,
		"reinforcement_BattleReinforcement": 6,
		"initial_direction": 90.0,
		"ai_move_group": 0,
		"ai_target_move_x": -1,
		"ai_target_move_y": -1,
		"ai_skill_function": "",
		"ai_attack": "",
		"ai_move": "",
		"ai_heal": "",
		"ai_skill": "",
		"ai_use": "",
		"skill_group_id": 820,
		"gear_GearGear": 32003,
		"gear_rank": 1,
		"proficiency_UnitProficiency": 2,
		"level": 61,
		"hp": 55,
		"strength": 50,
		"vitality": 34,
		"intelligence": 11,
		"mind": 33,
		"agility": 38,
		"dexterity": 41,
		"lucky": 5,
		"parameter_table_BattleEnemyParameterTable": 0,
		"parameter_deviation_table_BattleEnemyParameterDeviationTable": 0,
		"acquire_skill_group_id": 0,
		"level_correction": 0,
		"group_id": 0,
		"ai_script_id_BattleAIScript": 0
	},
	{
		"ID": 22045,
		"stage_BattleStage": 241006001,
		"unit_UnitUnit": 830001,
		"money": 310,
		"initial_coordinate_x": 1,
		"initial_coordinate_y": 6,
		"reinforcement_BattleReinforcement": 6,
		"initial_direction": 90.0,
		"ai_move_group": 0,
		"ai_target_move_x": -1,
		"ai_target_move_y": -1,
		"ai_skill_function": "",
		"ai_attack": "",
		"ai_move": "",
		"ai_heal": "",
		"ai_skill": "",
		"ai_use": "",
		"skill_group_id": 820,
		"gear_GearGear": 32003,
		"gear_rank": 1,
		"proficiency_UnitProficiency": 2,
		"level": 62,
		"hp": 56,
		"strength": 50,
		"vitality": 34,
		"intelligence": 11,
		"mind": 33,
		"agility": 38,
		"dexterity": 41,
		"lucky": 5,
		"parameter_table_BattleEnemyParameterTable": 0,
		"parameter_deviation_table_BattleEnemyParameterDeviationTable": 0,
		"acquire_skill_group_id": 0,
		"level_correction": 0,
		"group_id": 0,
		"ai_script_id_BattleAIScript": 0
	},
	{
		"ID": 22046,
		"stage_BattleStage": 241006001,
		"unit_UnitUnit": 830001,
		"money": 315,
		"initial_coordinate_x": 1,
		"initial_coordinate_y": 19,
		"reinforcement_BattleReinforcement": 10,
		"initial_direction": 90.0,
		"ai_move_group": 0,
		"ai_target_move_x": -1,
		"ai_target_move_y": -1,
		"ai_skill_function": "",
		"ai_attack": "",
		"ai_move": "",
		"ai_heal": "",
		"ai_skill": "",
		"ai_use": "",
		"skill_group_id": 820,
		"gear_GearGear": 32003,
		"gear_rank": 1,
		"proficiency_UnitProficiency": 2,
		"level": 63,
		"hp": 57,
		"strength": 77,
		"vitality": 53,
		"intelligence": 11,
		"mind": 34,
		"agility": 59,
		"dexterity": 63,
		"lucky": 5,
		"parameter_table_BattleEnemyParameterTable": 0,
		"parameter_deviation_table_BattleEnemyParameterDeviationTable": 0,
		"acquire_skill_group_id": 0,
		"level_correction": 0,
		"group_id": 0,
		"ai_script_id_BattleAIScript": 0
	},
	{
		"ID": 22047,
		"stage_BattleStage": 241006001,
		"unit_UnitUnit": 860010,
		"money": 305,
		"initial_coordinate_x": 9,
		"initial_coordinate_y": 25,
		"reinforcement_BattleReinforcement": 0,
		"initial_direction": 180.0,
		"ai_move_group": 0,
		"ai_target_move_x": -1,
		"ai_target_move_y": -1,
		"ai_skill_function": "",
		"ai_attack": "IF( turn <=80 ,IF(panel_move_distance <= 1, 1, 0),1)",
		"ai_move": "IF(turn <=80,0,1)",
		"ai_heal": "",
		"ai_skill": "",
		"ai_use": "",
		"skill_group_id": 670,
		"gear_GearGear": 80010,
		"gear_rank": 1,
		"proficiency_UnitProficiency": 3,
		"level": 61,
		"hp": 52,
		"strength": 2,
		"vitality": 29,
		"intelligence": 46,
		"mind": 64,
		"agility": 30,
		"dexterity": 40,
		"lucky": 6,
		"parameter_table_BattleEnemyParameterTable": 0,
		"parameter_deviation_table_BattleEnemyParameterDeviationTable": 0,
		"acquire_skill_group_id": 0,
		"level_correction": 0,
		"group_id": 0,
		"ai_script_id_BattleAIScript": 0
	},
	{
		"ID": 22048,
		"stage_BattleStage": 241006001,
		"unit_UnitUnit": 860010,
		"money": 310,
		"initial_coordinate_x": 11,
		"initial_coordinate_y": 25,
		"reinforcement_BattleReinforcement": 0,
		"initial_direction": 180.0,
		"ai_move_group": 0,
		"ai_target_move_x": -1,
		"ai_target_move_y": -1,
		"ai_skill_function": "",
		"ai_attack": "IF( turn <=80 ,IF(panel_move_distance <= 1, 1, 0),1)",
		"ai_move": "IF(turn <=80,0,1)",
		"ai_heal": "",
		"ai_skill": "",
		"ai_use": "",
		"skill_group_id": 670,
		"gear_GearGear": 80010,
		"gear_rank": 1,
		"proficiency_UnitProficiency": 3,
		"level": 62,
		"hp": 53,
		"strength": 2,
		"vitality": 29,
		"intelligence": 47,
		"mind": 65,
		"agility": 31,
		"dexterity": 40,
		"lucky": 6,
		"parameter_table_BattleEnemyParameterTable": 0,
		"parameter_deviation_table_BattleEnemyParameterDeviationTable": 0,
		"acquire_skill_group_id": 0,
		"level_correction": 0,
		"group_id": 0,
		"ai_script_id_BattleAIScript": 0
	},
	{
		"ID": 22049,
		"stage_BattleStage": 241006001,
		"unit_UnitUnit": 500613,
		"money": 325,
		"initial_coordinate_x": 10,
		"initial_coordinate_y": 25,
		"reinforcement_BattleReinforcement": 0,
		"initial_direction": 180.0,
		"ai_move_group": 0,
		"ai_target_move_x": -1,
		"ai_target_move_y": -1,
		"ai_skill_function": "",
		"ai_attack": "IF( turn <=80 ,IF(panel_move_distance <= 0, 1, 0),1)",
		"ai_move": "IF(turn <=80,0,1)",
		"ai_heal": "",
		"ai_skill": "",
		"ai_use": "",
		"skill_group_id": 3890,
		"gear_GearGear": 53001,
		"gear_rank": 1,
		"proficiency_UnitProficiency": 3,
		"level": 65,
		"hp": 200,
		"strength": 1,
		"vitality": 63,
		"intelligence": 60,
		"mind": 71,
		"agility": 45,
		"dexterity": 62,
		"lucky": 20,
		"parameter_table_BattleEnemyParameterTable": 0,
		"parameter_deviation_table_BattleEnemyParameterDeviationTable": 0,
		"acquire_skill_group_id": 0,
		"level_correction": 0,
		"group_id": 0,
		"ai_script_id_BattleAIScript": 0
	}
]