[
	{
		"ID": 28089,
		"stage_BattleStage": 241020004,
		"unit_UnitUnit": 101112,
		"money": 400,
		"initial_coordinate_x": 11,
		"initial_coordinate_y": 8,
		"reinforcement_BattleReinforcement": 0,
		"initial_direction": 180.0,
		"ai_move_group": 0,
		"ai_target_move_x": -1,
		"ai_target_move_y": -1,
		"ai_skill_function": "",
		"ai_attack": "IF(panel_move_distance <= 3, 1, 0)",
		"ai_move": "0.0",
		"ai_heal": "",
		"ai_skill": "",
		"ai_use": "",
		"skill_group_id": 0,
		"gear_GearGear": 15005,
		"gear_rank": 1,
		"proficiency_UnitProficiency": 5,
		"level": 1,
		"hp": 23,
		"strength": 8,
		"vitality": 4,
		"intelligence": 0,
		"mind": 1,
		"agility": 9,
		"dexterity": 8,
		"lucky": 3,
		"parameter_table_BattleEnemyParameterTable": 101112,
		"parameter_deviation_table_BattleEnemyParameterDeviationTable": 10,
		"acquire_skill_group_id": 24,
		"level_correction": 10,
		"group_id": 0,
		"ai_script_id_BattleAIScript": 0
	},
	{
		"ID": 28090,
		"stage_BattleStage": 241020004,
		"unit_UnitUnit": 810008,
		"money": 400,
		"initial_coordinate_x": 12,
		"initial_coordinate_y": 5,
		"reinforcement_BattleReinforcement": 0,
		"initial_direction": 180.0,
		"ai_move_group": 0,
		"ai_target_move_x": -1,
		"ai_target_move_y": -1,
		"ai_skill_function": "",
		"ai_attack": "0.0",
		"ai_move": "0.0",
		"ai_heal": "",
		"ai_skill": "",
		"ai_use": "",
		"skill_group_id": 0,
		"gear_GearGear": 15002,
		"gear_rank": 1,
		"proficiency_UnitProficiency": 5,
		"level": 1,
		"hp": 19,
		"strength": 25,
		"vitality": 911,
		"intelligence": 0,
		"mind": 911,
		"agility": 21,
		"dexterity": 30,
		"lucky": 45,
		"parameter_table_BattleEnemyParameterTable": 0,
		"parameter_deviation_table_BattleEnemyParameterDeviationTable": 0,
		"acquire_skill_group_id": 9,
		"level_correction": 0,
		"group_id": 0,
		"ai_script_id_BattleAIScript": 0
	},
	{
		"ID": 28091,
		"stage_BattleStage": 241020004,
		"unit_UnitUnit": 810008,
		"money": 400,
		"initial_coordinate_x": 13,
		"initial_coordinate_y": 5,
		"reinforcement_BattleReinforcement": 0,
		"initial_direction": 180.0,
		"ai_move_group": 0,
		"ai_target_move_x": -1,
		"ai_target_move_y": -1,
		"ai_skill_function": "",
		"ai_attack": "0.0",
		"ai_move": "0.0",
		"ai_heal": "",
		"ai_skill": "",
		"ai_use": "",
		"skill_group_id": 0,
		"gear_GearGear": 15003,
		"gear_rank": 1,
		"proficiency_UnitProficiency": 5,
		"level": 1,
		"hp": 19,
		"strength": 30,
		"vitality": 911,
		"intelligence": 0,
		"mind": 911,
		"agility": 24,
		"dexterity": 27,
		"lucky": 45,
		"parameter_table_BattleEnemyParameterTable": 0,
		"parameter_deviation_table_BattleEnemyParameterDeviationTable": 0,
		"acquire_skill_group_id": 10,
		"level_correction": 0,
		"group_id": 0,
		"ai_script_id_BattleAIScript": 0
	},
	{
		"ID": 28092,
		"stage_BattleStage": 241020004,
		"unit_UnitUnit": 810008,
		"money": 400,
		"initial_coordinate_x": 15,
		"initial_coordinate_y": 8,
		"reinforcement_BattleReinforcement": 0,
		"initial_direction": 180.0,
		"ai_move_group": 0,
		"ai_target_move_x": -1,
		"ai_target_move_y": -1,
		"ai_skill_function": "",
		"ai_attack": "0.0",
		"ai_move": "0.0",
		"ai_heal": "",
		"ai_skill": "",
		"ai_use": "",
		"skill_group_id": 0,
		"gear_GearGear": 15004,
		"gear_rank": 1,
		"proficiency_UnitProficiency": 5,
		"level": 1,
		"hp": 19,
		"strength": 30,
		"vitality": 911,
		"intelligence": 0,
		"mind": 911,
		"agility": 27,
		"dexterity": 24,
		"lucky": 45,
		"parameter_table_BattleEnemyParameterTable": 0,
		"parameter_deviation_table_BattleEnemyParameterDeviationTable": 0,
		"acquire_skill_group_id": 12,
		"level_correction": 0,
		"group_id": 0,
		"ai_script_id_BattleAIScript": 0
	},
	{
		"ID": 28093,
		"stage_BattleStage": 241020004,
		"unit_UnitUnit": 810008,
		"money": 400,
		"initial_coordinate_x": 16,
		"initial_coordinate_y": 8,
		"reinforcement_BattleReinforcement": 0,
		"initial_direction": 180.0,
		"ai_move_group": 0,
		"ai_target_move_x": -1,
		"ai_target_move_y": -1,
		"ai_skill_function": "",
		"ai_attack": "0.0",
		"ai_move": "0.0",
		"ai_heal": "",
		"ai_skill": "",
		"ai_use": "",
		"skill_group_id": 0,
		"gear_GearGear": 15005,
		"gear_rank": 1,
		"proficiency_UnitProficiency": 5,
		"level": 1,
		"hp": 19,
		"strength": 30,
		"vitality": 911,
		"intelligence": 0,
		"mind": 911,
		"agility": 24,
		"dexterity": 30,
		"lucky": 45,
		"parameter_table_BattleEnemyParameterTable": 0,
		"parameter_deviation_table_BattleEnemyParameterDeviationTable": 0,
		"acquire_skill_group_id": 12,
		"level_correction": 0,
		"group_id": 0,
		"ai_script_id_BattleAIScript": 0
	},
	{
		"ID": 28094,
		"stage_BattleStage": 241020004,
		"unit_UnitUnit": 810008,
		"money": 400,
		"initial_coordinate_x": 17,
		"initial_coordinate_y": 4,
		"reinforcement_BattleReinforcement": 0,
		"initial_direction": 180.0,
		"ai_move_group": 0,
		"ai_target_move_x": -1,
		"ai_target_move_y": -1,
		"ai_skill_function": "",
		"ai_attack": "0.0",
		"ai_move": "0.0",
		"ai_heal": "",
		"ai_skill": "",
		"ai_use": "",
		"skill_group_id": 0,
		"gear_GearGear": 15006,
		"gear_rank": 1,
		"proficiency_UnitProficiency": 5,
		"level": 1,
		"hp": 19,
		"strength": 30,
		"vitality": 911,
		"intelligence": 0,
		"mind": 911,
		"agility": 21,
		"dexterity": 30,
		"lucky": 45,
		"parameter_table_BattleEnemyParameterTable": 0,
		"parameter_deviation_table_BattleEnemyParameterDeviationTable": 0,
		"acquire_skill_group_id": 13,
		"level_correction": 0,
		"group_id": 0,
		"ai_script_id_BattleAIScript": 0
	},
	{
		"ID": 28095,
		"stage_BattleStage": 241020004,
		"unit_UnitUnit": 820008,
		"money": 400,
		"initial_coordinate_x": 18,
		"initial_coordinate_y": 4,
		"reinforcement_BattleReinforcement": 0,
		"initial_direction": 180.0,
		"ai_move_group": 0,
		"ai_target_move_x": -1,
		"ai_target_move_y": -1,
		"ai_skill_function": "",
		"ai_attack": "0.0",
		"ai_move": "0.0",
		"ai_heal": "",
		"ai_skill": "",
		"ai_use": "",
		"skill_group_id": 0,
		"gear_GearGear": 25001,
		"gear_rank": 1,
		"proficiency_UnitProficiency": 5,
		"level": 1,
		"hp": 19,
		"strength": 34,
		"vitality": 911,
		"intelligence": 0,
		"mind": 911,
		"agility": 20,
		"dexterity": 16,
		"lucky": 45,
		"parameter_table_BattleEnemyParameterTable": 0,
		"parameter_deviation_table_BattleEnemyParameterDeviationTable": 0,
		"acquire_skill_group_id": 12,
		"level_correction": 0,
		"group_id": 0,
		"ai_script_id_BattleAIScript": 0
	},
	{
		"ID": 28096,
		"stage_BattleStage": 241020004,
		"unit_UnitUnit": 820008,
		"money": 400,
		"initial_coordinate_x": 7,
		"initial_coordinate_y": 11,
		"reinforcement_BattleReinforcement": 0,
		"initial_direction": 180.0,
		"ai_move_group": 0,
		"ai_target_move_x": -1,
		"ai_target_move_y": -1,
		"ai_skill_function": "",
		"ai_attack": "0.0",
		"ai_move": "0.0",
		"ai_heal": "",
		"ai_skill": "",
		"ai_use": "",
		"skill_group_id": 0,
		"gear_GearGear": 25002,
		"gear_rank": 1,
		"proficiency_UnitProficiency": 5,
		"level": 1,
		"hp": 19,
		"strength": 30,
		"vitality": 911,
		"intelligence": 0,
		"mind": 911,
		"agility": 14,
		"dexterity": 12,
		"lucky": 45,
		"parameter_table_BattleEnemyParameterTable": 0,
		"parameter_deviation_table_BattleEnemyParameterDeviationTable": 0,
		"acquire_skill_group_id": 13,
		"level_correction": 0,
		"group_id": 0,
		"ai_script_id_BattleAIScript": 0
	},
	{
		"ID": 28097,
		"stage_BattleStage": 241020004,
		"unit_UnitUnit": 830008,
		"money": 400,
		"initial_coordinate_x": 6,
		"initial_coordinate_y": 8,
		"reinforcement_BattleReinforcement": 0,
		"initial_direction": 180.0,
		"ai_move_group": 0,
		"ai_target_move_x": -1,
		"ai_target_move_y": -1,
		"ai_skill_function": "",
		"ai_attack": "0.0",
		"ai_move": "0.0",
		"ai_heal": "",
		"ai_skill": "",
		"ai_use": "IF(turn==2,USESKILL(100000059), 0)",
		"skill_group_id": 0,
		"gear_GearGear": 35001,
		"gear_rank": 1,
		"proficiency_UnitProficiency": 5,
		"level": 1,
		"hp": 19,
		"strength": 30,
		"vitality": 911,
		"intelligence": 0,
		"mind": 911,
		"agility": 24,
		"dexterity": 15,
		"lucky": 45,
		"parameter_table_BattleEnemyParameterTable": 0,
		"parameter_deviation_table_BattleEnemyParameterDeviationTable": 0,
		"acquire_skill_group_id": 30,
		"level_correction": 0,
		"group_id": 0,
		"ai_script_id_BattleAIScript": 0
	},
	{
		"ID": 28098,
		"stage_BattleStage": 241020004,
		"unit_UnitUnit": 830008,
		"money": 400,
		"initial_coordinate_x": 5,
		"initial_coordinate_y": 8,
		"reinforcement_BattleReinforcement": 0,
		"initial_direction": 180.0,
		"ai_move_group": 0,
		"ai_target_move_x": -1,
		"ai_target_move_y": -1,
		"ai_skill_function": "",
		"ai_attack": "0.0",
		"ai_move": "0.0",
		"ai_heal": "",
		"ai_skill": "",
		"ai_use": "IF(turn==1,USESKILL(100000059), 0)",
		"skill_group_id": 0,
		"gear_GearGear": 35002,
		"gear_rank": 1,
		"proficiency_UnitProficiency": 5,
		"level": 1,
		"hp": 19,
		"strength": 25,
		"vitality": 911,
		"intelligence": 0,
		"mind": 911,
		"agility": 18,
		"dexterity": 15,
		"lucky": 45,
		"parameter_table_BattleEnemyParameterTable": 0,
		"parameter_deviation_table_BattleEnemyParameterDeviationTable": 0,
		"acquire_skill_group_id": 16,
		"level_correction": 0,
		"group_id": 0,
		"ai_script_id_BattleAIScript": 0
	},
	{
		"ID": 28099,
		"stage_BattleStage": 241020004,
		"unit_UnitUnit": 830008,
		"money": 400,
		"initial_coordinate_x": 9,
		"initial_coordinate_y": 2,
		"reinforcement_BattleReinforcement": 0,
		"initial_direction": 180.0,
		"ai_move_group": 0,
		"ai_target_move_x": -1,
		"ai_target_move_y": -1,
		"ai_skill_function": "",
		"ai_attack": "0.0",
		"ai_move": "0.0",
		"ai_heal": "",
		"ai_skill": "",
		"ai_use": "IF(turn==1,USESKILL(100000059), 0)",
		"skill_group_id": 0,
		"gear_GearGear": 35003,
		"gear_rank": 1,
		"proficiency_UnitProficiency": 5,
		"level": 1,
		"hp": 19,
		"strength": 30,
		"vitality": 911,
		"intelligence": 0,
		"mind": 911,
		"agility": 27,
		"dexterity": 24,
		"lucky": 45,
		"parameter_table_BattleEnemyParameterTable": 0,
		"parameter_deviation_table_BattleEnemyParameterDeviationTable": 0,
		"acquire_skill_group_id": 15,
		"level_correction": 0,
		"group_id": 0,
		"ai_script_id_BattleAIScript": 0
	},
	{
		"ID": 28100,
		"stage_BattleStage": 241020004,
		"unit_UnitUnit": 830008,
		"money": 400,
		"initial_coordinate_x": 5,
		"initial_coordinate_y": 10,
		"reinforcement_BattleReinforcement": 0,
		"initial_direction": 180.0,
		"ai_move_group": 0,
		"ai_target_move_x": -1,
		"ai_target_move_y": -1,
		"ai_skill_function": "",
		"ai_attack": "0.0",
		"ai_move": "0.0",
		"ai_heal": "",
		"ai_skill": "",
		"ai_use": "IF(turn==1,USESKILL(100000059), 0)",
		"skill_group_id": 0,
		"gear_GearGear": 35004,
		"gear_rank": 1,
		"proficiency_UnitProficiency": 5,
		"level": 1,
		"hp": 19,
		"strength": 35,
		"vitality": 911,
		"intelligence": 0,
		"mind": 911,
		"agility": 18,
		"dexterity": 18,
		"lucky": 45,
		"parameter_table_BattleEnemyParameterTable": 0,
		"parameter_deviation_table_BattleEnemyParameterDeviationTable": 0,
		"acquire_skill_group_id": 17,
		"level_correction": 0,
		"group_id": 0,
		"ai_script_id_BattleAIScript": 0
	},
	{
		"ID": 28101,
		"stage_BattleStage": 241020004,
		"unit_UnitUnit": 400532,
		"money": 400,
		"initial_coordinate_x": 11,
		"initial_coordinate_y": 10,
		"reinforcement_BattleReinforcement": 0,
		"initial_direction": 180.0,
		"ai_move_group": 0,
		"ai_target_move_x": -1,
		"ai_target_move_y": -1,
		"ai_skill_function": "",
		"ai_attack": "IF(panel_move_distance <= 0, 1, 0)",
		"ai_move": "0.0",
		"ai_heal": "",
		"ai_skill": "",
		"ai_use": "",
		"skill_group_id": 0,
		"gear_GearGear": 45007,
		"gear_rank": 1,
		"proficiency_UnitProficiency": 5,
		"level": 1,
		"hp": 30,
		"strength": 9,
		"vitality": 5,
		"intelligence": 0,
		"mind": 4,
		"agility": 9,
		"dexterity": 12,
		"lucky": 3,
		"parameter_table_BattleEnemyParameterTable": 0,
		"parameter_deviation_table_BattleEnemyParameterDeviationTable": 10,
		"acquire_skill_group_id": 6,
		"level_correction": 5,
		"group_id": 0,
		"ai_script_id_BattleAIScript": 0
	},
	{
		"ID": 28102,
		"stage_BattleStage": 241020004,
		"unit_UnitUnit": 400133,
		"money": 400,
		"initial_coordinate_x": 16,
		"initial_coordinate_y": 10,
		"reinforcement_BattleReinforcement": 0,
		"initial_direction": 180.0,
		"ai_move_group": 0,
		"ai_target_move_x": -1,
		"ai_target_move_y": -1,
		"ai_skill_function": "",
		"ai_attack": "IF(panel_move_distance <= 0, 1, 0)",
		"ai_move": "0.0",
		"ai_heal": "",
		"ai_skill": "",
		"ai_use": "",
		"skill_group_id": 0,
		"gear_GearGear": 45008,
		"gear_rank": 1,
		"proficiency_UnitProficiency": 5,
		"level": 1,
		"hp": 30,
		"strength": 9,
		"vitality": 5,
		"intelligence": 0,
		"mind": 4,
		"agility": 9,
		"dexterity": 12,
		"lucky": 3,
		"parameter_table_BattleEnemyParameterTable": 0,
		"parameter_deviation_table_BattleEnemyParameterDeviationTable": 10,
		"acquire_skill_group_id": 7,
		"level_correction": 5,
		"group_id": 0,
		"ai_script_id_BattleAIScript": 0
	},
	{
		"ID": 28103,
		"stage_BattleStage": 241020004,
		"unit_UnitUnit": 400523,
		"money": 400,
		"initial_coordinate_x": 12,
		"initial_coordinate_y": 3,
		"reinforcement_BattleReinforcement": 0,
		"initial_direction": 180.0,
		"ai_move_group": 0,
		"ai_target_move_x": -1,
		"ai_target_move_y": -1,
		"ai_skill_function": "",
		"ai_attack": "IF(panel_move_distance <= 0, 1, 0)",
		"ai_move": "0.0",
		"ai_heal": "",
		"ai_skill": "",
		"ai_use": "",
		"skill_group_id": 0,
		"gear_GearGear": 45007,
		"gear_rank": 1,
		"proficiency_UnitProficiency": 5,
		"level": 1,
		"hp": 23,
		"strength": 7,
		"vitality": 4,
		"intelligence": 0,
		"mind": 3,
		"agility": 7,
		"dexterity": 9,
		"lucky": 3,
		"parameter_table_BattleEnemyParameterTable": 0,
		"parameter_deviation_table_BattleEnemyParameterDeviationTable": 10,
		"acquire_skill_group_id": 6,
		"level_correction": 5,
		"group_id": 0,
		"ai_script_id_BattleAIScript": 0
	},
	{
		"ID": 28104,
		"stage_BattleStage": 241020004,
		"unit_UnitUnit": 401313,
		"money": 400,
		"initial_coordinate_x": 17,
		"initial_coordinate_y": 3,
		"reinforcement_BattleReinforcement": 0,
		"initial_direction": 180.0,
		"ai_move_group": 0,
		"ai_target_move_x": -1,
		"ai_target_move_y": -1,
		"ai_skill_function": "",
		"ai_attack": "IF(panel_move_distance <= 0, 1, 0)",
		"ai_move": "0.0",
		"ai_heal": "",
		"ai_skill": "",
		"ai_use": "",
		"skill_group_id": 0,
		"gear_GearGear": 45008,
		"gear_rank": 1,
		"proficiency_UnitProficiency": 5,
		"level": 1,
		"hp": 23,
		"strength": 7,
		"vitality": 4,
		"intelligence": 0,
		"mind": 3,
		"agility": 7,
		"dexterity": 9,
		"lucky": 3,
		"parameter_table_BattleEnemyParameterTable": 0,
		"parameter_deviation_table_BattleEnemyParameterDeviationTable": 10,
		"acquire_skill_group_id": 7,
		"level_correction": 5,
		"group_id": 0,
		"ai_script_id_BattleAIScript": 0
	},
	{
		"ID": 28105,
		"stage_BattleStage": 241020004,
		"unit_UnitUnit": 400552,
		"money": 400,
		"initial_coordinate_x": 6,
		"initial_coordinate_y": 10,
		"reinforcement_BattleReinforcement": 0,
		"initial_direction": 180.0,
		"ai_move_group": 0,
		"ai_target_move_x": -1,
		"ai_target_move_y": -1,
		"ai_skill_function": "",
		"ai_attack": "IF(panel_move_distance <= 0, 1, 0)",
		"ai_move": "0.0",
		"ai_heal": "",
		"ai_skill": "",
		"ai_use": "",
		"skill_group_id": 0,
		"gear_GearGear": 45007,
		"gear_rank": 1,
		"proficiency_UnitProficiency": 5,
		"level": 1,
		"hp": 23,
		"strength": 7,
		"vitality": 4,
		"intelligence": 0,
		"mind": 3,
		"agility": 7,
		"dexterity": 9,
		"lucky": 3,
		"parameter_table_BattleEnemyParameterTable": 0,
		"parameter_deviation_table_BattleEnemyParameterDeviationTable": 10,
		"acquire_skill_group_id": 6,
		"level_correction": 5,
		"group_id": 0,
		"ai_script_id_BattleAIScript": 0
	},
	{
		"ID": 28106,
		"stage_BattleStage": 241020004,
		"unit_UnitUnit": 802101,
		"money": 400,
		"initial_coordinate_x": 12,
		"initial_coordinate_y": 10,
		"reinforcement_BattleReinforcement": 0,
		"initial_direction": 180.0,
		"ai_move_group": 0,
		"ai_target_move_x": -1,
		"ai_target_move_y": -1,
		"ai_skill_function": "",
		"ai_attack": "IF(panel_move_distance <= 0, 1, 0)",
		"ai_move": "0.0",
		"ai_heal": "0.0",
		"ai_skill": "",
		"ai_use": "",
		"skill_group_id": 0,
		"gear_GearGear": 80016,
		"gear_rank": 1,
		"proficiency_UnitProficiency": 5,
		"level": 1,
		"hp": 27,
		"strength": 0,
		"vitality": 6,
		"intelligence": 10,
		"mind": 10,
		"agility": 8,
		"dexterity": 8,
		"lucky": 3,
		"parameter_table_BattleEnemyParameterTable": 0,
		"parameter_deviation_table_BattleEnemyParameterDeviationTable": 10,
		"acquire_skill_group_id": 150,
		"level_correction": 5,
		"group_id": 0,
		"ai_script_id_BattleAIScript": 0
	},
	{
		"ID": 28107,
		"stage_BattleStage": 241020004,
		"unit_UnitUnit": 802101,
		"money": 400,
		"initial_coordinate_x": 17,
		"initial_coordinate_y": 10,
		"reinforcement_BattleReinforcement": 0,
		"initial_direction": 180.0,
		"ai_move_group": 0,
		"ai_target_move_x": -1,
		"ai_target_move_y": -1,
		"ai_skill_function": "",
		"ai_attack": "IF(panel_move_distance <= 0, 1, 0)",
		"ai_move": "0.0",
		"ai_heal": "0.0",
		"ai_skill": "",
		"ai_use": "",
		"skill_group_id": 0,
		"gear_GearGear": 80016,
		"gear_rank": 1,
		"proficiency_UnitProficiency": 5,
		"level": 1,
		"hp": 27,
		"strength": 0,
		"vitality": 6,
		"intelligence": 10,
		"mind": 10,
		"agility": 8,
		"dexterity": 8,
		"lucky": 3,
		"parameter_table_BattleEnemyParameterTable": 0,
		"parameter_deviation_table_BattleEnemyParameterDeviationTable": 10,
		"acquire_skill_group_id": 150,
		"level_correction": 5,
		"group_id": 0,
		"ai_script_id_BattleAIScript": 0
	},
	{
		"ID": 28108,
		"stage_BattleStage": 241020004,
		"unit_UnitUnit": 802101,
		"money": 400,
		"initial_coordinate_x": 11,
		"initial_coordinate_y": 3,
		"reinforcement_BattleReinforcement": 0,
		"initial_direction": 180.0,
		"ai_move_group": 0,
		"ai_target_move_x": -1,
		"ai_target_move_y": -1,
		"ai_skill_function": "",
		"ai_attack": "IF(panel_move_distance <= 0, 1, 0)",
		"ai_move": "0.0",
		"ai_heal": "0.0",
		"ai_skill": "",
		"ai_use": "",
		"skill_group_id": 0,
		"gear_GearGear": 80016,
		"gear_rank": 1,
		"proficiency_UnitProficiency": 5,
		"level": 1,
		"hp": 22,
		"strength": 0,
		"vitality": 3,
		"intelligence": 8,
		"mind": 8,
		"agility": 5,
		"dexterity": 5,
		"lucky": 3,
		"parameter_table_BattleEnemyParameterTable": 0,
		"parameter_deviation_table_BattleEnemyParameterDeviationTable": 10,
		"acquire_skill_group_id": 150,
		"level_correction": 5,
		"group_id": 0,
		"ai_script_id_BattleAIScript": 0
	},
	{
		"ID": 28109,
		"stage_BattleStage": 241020004,
		"unit_UnitUnit": 802201,
		"money": 400,
		"initial_coordinate_x": 16,
		"initial_coordinate_y": 3,
		"reinforcement_BattleReinforcement": 0,
		"initial_direction": 180.0,
		"ai_move_group": 0,
		"ai_target_move_x": -1,
		"ai_target_move_y": -1,
		"ai_skill_function": "",
		"ai_attack": "IF(panel_move_distance <= 0, 1, 0)",
		"ai_move": "0.0",
		"ai_heal": "0.0",
		"ai_skill": "",
		"ai_use": "",
		"skill_group_id": 0,
		"gear_GearGear": 80016,
		"gear_rank": 1,
		"proficiency_UnitProficiency": 5,
		"level": 1,
		"hp": 27,
		"strength": 0,
		"vitality": 6,
		"intelligence": 10,
		"mind": 10,
		"agility": 8,
		"dexterity": 8,
		"lucky": 3,
		"parameter_table_BattleEnemyParameterTable": 0,
		"parameter_deviation_table_BattleEnemyParameterDeviationTable": 10,
		"acquire_skill_group_id": 150,
		"level_correction": 5,
		"group_id": 0,
		"ai_script_id_BattleAIScript": 0
	},
	{
		"ID": 28110,
		"stage_BattleStage": 241020004,
		"unit_UnitUnit": 802201,
		"money": 400,
		"initial_coordinate_x": 10,
		"initial_coordinate_y": 11,
		"reinforcement_BattleReinforcement": 0,
		"initial_direction": 180.0,
		"ai_move_group": 0,
		"ai_target_move_x": -1,
		"ai_target_move_y": -1,
		"ai_skill_function": "",
		"ai_attack": "IF(panel_move_distance <= 0, 1, 0)",
		"ai_move": "0.0",
		"ai_heal": "0.0",
		"ai_skill": "",
		"ai_use": "",
		"skill_group_id": 0,
		"gear_GearGear": 80016,
		"gear_rank": 1,
		"proficiency_UnitProficiency": 5,
		"level": 1,
		"hp": 22,
		"strength": 0,
		"vitality": 3,
		"intelligence": 8,
		"mind": 8,
		"agility": 5,
		"dexterity": 5,
		"lucky": 3,
		"parameter_table_BattleEnemyParameterTable": 0,
		"parameter_deviation_table_BattleEnemyParameterDeviationTable": 10,
		"acquire_skill_group_id": 150,
		"level_correction": 5,
		"group_id": 0,
		"ai_script_id_BattleAIScript": 0
	},
	{
		"ID": 28111,
		"stage_BattleStage": 241020004,
		"unit_UnitUnit": 102312,
		"money": 400,
		"initial_coordinate_x": 15,
		"initial_coordinate_y": 11,
		"reinforcement_BattleReinforcement": 0,
		"initial_direction": 180.0,
		"ai_move_group": 0,
		"ai_target_move_x": -1,
		"ai_target_move_y": -1,
		"ai_skill_function": "",
		"ai_attack": "IF(panel_move_distance <= 5, 1, 0)",
		"ai_move": "0.0",
		"ai_heal": "",
		"ai_skill": "",
		"ai_use": "",
		"skill_group_id": 0,
		"gear_GearGear": 15013,
		"gear_rank": 1,
		"proficiency_UnitProficiency": 4,
		"level": 1,
		"hp": 23,
		"strength": 8,
		"vitality": 3,
		"intelligence": 0,
		"mind": 5,
		"agility": 8,
		"dexterity": 7,
		"lucky": 3,
		"parameter_table_BattleEnemyParameterTable": 102312,
		"parameter_deviation_table_BattleEnemyParameterDeviationTable": 10,
		"acquire_skill_group_id": 31,
		"level_correction": 5,
		"group_id": 0,
		"ai_script_id_BattleAIScript": 0
	},
	{
		"ID": 28112,
		"stage_BattleStage": 241020004,
		"unit_UnitUnit": 300113,
		"money": 400,
		"initial_coordinate_x": 4,
		"initial_coordinate_y": 10,
		"reinforcement_BattleReinforcement": 0,
		"initial_direction": 180.0,
		"ai_move_group": 0,
		"ai_target_move_x": -1,
		"ai_target_move_y": -1,
		"ai_skill_function": "",
		"ai_attack": "IF(panel_move_distance <= 5, 1, 0)",
		"ai_move": "0.0",
		"ai_heal": "",
		"ai_skill": "",
		"ai_use": "",
		"skill_group_id": 0,
		"gear_GearGear": 34006,
		"gear_rank": 1,
		"proficiency_UnitProficiency": 5,
		"level": 1,
		"hp": 27,
		"strength": 10,
		"vitality": 7,
		"intelligence": 0,
		"mind": 0,
		"agility": 7,
		"dexterity": 4,
		"lucky": 3,
		"parameter_table_BattleEnemyParameterTable": 300113,
		"parameter_deviation_table_BattleEnemyParameterDeviationTable": 10,
		"acquire_skill_group_id": 32,
		"level_correction": 5,
		"group_id": 0,
		"ai_script_id_BattleAIScript": 0
	},
	{
		"ID": 28113,
		"stage_BattleStage": 241020004,
		"unit_UnitUnit": 100113,
		"money": 400,
		"initial_coordinate_x": 7,
		"initial_coordinate_y": 7,
		"reinforcement_BattleReinforcement": 0,
		"initial_direction": 180.0,
		"ai_move_group": 0,
		"ai_target_move_x": -1,
		"ai_target_move_y": -1,
		"ai_skill_function": "",
		"ai_attack": "IF(panel_move_distance <= 5, 1, 0)",
		"ai_move": "0.0",
		"ai_heal": "",
		"ai_skill": "",
		"ai_use": "",
		"skill_group_id": 0,
		"gear_GearGear": 140056,
		"gear_rank": 1,
		"proficiency_UnitProficiency": 5,
		"level": 1,
		"hp": 23,
		"strength": 8,
		"vitality": 4,
		"intelligence": 0,
		"mind": 3,
		"agility": 8,
		"dexterity": 8,
		"lucky": 3,
		"parameter_table_BattleEnemyParameterTable": 100113,
		"parameter_deviation_table_BattleEnemyParameterDeviationTable": 10,
		"acquire_skill_group_id": 33,
		"level_correction": 5,
		"group_id": 0,
		"ai_script_id_BattleAIScript": 0
	},
	{
		"ID": 28114,
		"stage_BattleStage": 241020004,
		"unit_UnitUnit": 200413,
		"money": 400,
		"initial_coordinate_x": 13,
		"initial_coordinate_y": 7,
		"reinforcement_BattleReinforcement": 0,
		"initial_direction": 180.0,
		"ai_move_group": 0,
		"ai_target_move_x": -1,
		"ai_target_move_y": -1,
		"ai_skill_function": "",
		"ai_attack": "IF(panel_move_distance <= 3, 1, 0)",
		"ai_move": "0.0",
		"ai_heal": "",
		"ai_skill": "",
		"ai_use": "",
		"skill_group_id": 0,
		"gear_GearGear": 25004,
		"gear_rank": 1,
		"proficiency_UnitProficiency": 5,
		"level": 1,
		"hp": 25,
		"strength": 9,
		"vitality": 4,
		"intelligence": 0,
		"mind": 1,
		"agility": 7,
		"dexterity": 7,
		"lucky": 3,
		"parameter_table_BattleEnemyParameterTable": 200413,
		"parameter_deviation_table_BattleEnemyParameterDeviationTable": 10,
		"acquire_skill_group_id": 34,
		"level_correction": 5,
		"group_id": 0,
		"ai_script_id_BattleAIScript": 0
	},
	{
		"ID": 28115,
		"stage_BattleStage": 241020004,
		"unit_UnitUnit": 100713,
		"money": 400,
		"initial_coordinate_x": 18,
		"initial_coordinate_y": 7,
		"reinforcement_BattleReinforcement": 0,
		"initial_direction": 180.0,
		"ai_move_group": 0,
		"ai_target_move_x": -1,
		"ai_target_move_y": -1,
		"ai_skill_function": "",
		"ai_attack": "IF(panel_move_distance <= 5, 1, 0)",
		"ai_move": "0.0",
		"ai_heal": "",
		"ai_skill": "",
		"ai_use": "",
		"skill_group_id": 0,
		"gear_GearGear": 15005,
		"gear_rank": 1,
		"proficiency_UnitProficiency": 5,
		"level": 1,
		"hp": 25,
		"strength": 8,
		"vitality": 4,
		"intelligence": 0,
		"mind": 3,
		"agility": 7,
		"dexterity": 8,
		"lucky": 3,
		"parameter_table_BattleEnemyParameterTable": 100713,
		"parameter_deviation_table_BattleEnemyParameterDeviationTable": 10,
		"acquire_skill_group_id": 35,
		"level_correction": 10,
		"group_id": 0,
		"ai_script_id_BattleAIScript": 0
	},
	{
		"ID": 28116,
		"stage_BattleStage": 241020004,
		"unit_UnitUnit": 100732,
		"money": 400,
		"initial_coordinate_x": 10,
		"initial_coordinate_y": 6,
		"reinforcement_BattleReinforcement": 0,
		"initial_direction": 180.0,
		"ai_move_group": 0,
		"ai_target_move_x": -1,
		"ai_target_move_y": -1,
		"ai_skill_function": "",
		"ai_attack": "IF(panel_move_distance <= 5, 1, 0)",
		"ai_move": "0.0",
		"ai_heal": "",
		"ai_skill": "",
		"ai_use": "",
		"skill_group_id": 0,
		"gear_GearGear": 15005,
		"gear_rank": 1,
		"proficiency_UnitProficiency": 5,
		"level": 1,
		"hp": 23,
		"strength": 8,
		"vitality": 3,
		"intelligence": 0,
		"mind": 5,
		"agility": 8,
		"dexterity": 7,
		"lucky": 3,
		"parameter_table_BattleEnemyParameterTable": 100732,
		"parameter_deviation_table_BattleEnemyParameterDeviationTable": 10,
		"acquire_skill_group_id": 36,
		"level_correction": 10,
		"group_id": 0,
		"ai_script_id_BattleAIScript": 0
	},
	{
		"ID": 28117,
		"stage_BattleStage": 241020004,
		"unit_UnitUnit": 501712,
		"money": 400,
		"initial_coordinate_x": 16,
		"initial_coordinate_y": 6,
		"reinforcement_BattleReinforcement": 0,
		"initial_direction": 180.0,
		"ai_move_group": 0,
		"ai_target_move_x": -1,
		"ai_target_move_y": -1,
		"ai_skill_function": "",
		"ai_attack": "IF(panel_move_distance <= 3, 1, 0)",
		"ai_move": "0.0",
		"ai_heal": "",
		"ai_skill": "",
		"ai_use": "",
		"skill_group_id": 0,
		"gear_GearGear": 55003,
		"gear_rank": 1,
		"proficiency_UnitProficiency": 5,
		"level": 1,
		"hp": 25,
		"strength": 9,
		"vitality": 4,
		"intelligence": 0,
		"mind": 1,
		"agility": 7,
		"dexterity": 7,
		"lucky": 3,
		"parameter_table_BattleEnemyParameterTable": 501712,
		"parameter_deviation_table_BattleEnemyParameterDeviationTable": 10,
		"acquire_skill_group_id": 37,
		"level_correction": 5,
		"group_id": 0,
		"ai_script_id_BattleAIScript": 0
	},
	{
		"ID": 28118,
		"stage_BattleStage": 241020004,
		"unit_UnitUnit": 301812,
		"money": 400,
		"initial_coordinate_x": 8,
		"initial_coordinate_y": 5,
		"reinforcement_BattleReinforcement": 0,
		"initial_direction": 180.0,
		"ai_move_group": 0,
		"ai_target_move_x": -1,
		"ai_target_move_y": -1,
		"ai_skill_function": "",
		"ai_attack": "IF(panel_move_distance <= 5, 1, 0)",
		"ai_move": "0.0",
		"ai_heal": "",
		"ai_skill": "",
		"ai_use": "",
		"skill_group_id": 0,
		"gear_GearGear": 35004,
		"gear_rank": 1,
		"proficiency_UnitProficiency": 5,
		"level": 1,
		"hp": 27,
		"strength": 10,
		"vitality": 7,
		"intelligence": 0,
		"mind": 0,
		"agility": 7,
		"dexterity": 4,
		"lucky": 3,
		"parameter_table_BattleEnemyParameterTable": 301812,
		"parameter_deviation_table_BattleEnemyParameterDeviationTable": 10,
		"acquire_skill_group_id": 38,
		"level_correction": 5,
		"group_id": 0,
		"ai_script_id_BattleAIScript": 0
	},
	{
		"ID": 28119,
		"stage_BattleStage": 241020004,
		"unit_UnitUnit": 100223,
		"money": 400,
		"initial_coordinate_x": 19,
		"initial_coordinate_y": 5,
		"reinforcement_BattleReinforcement": 0,
		"initial_direction": 180.0,
		"ai_move_group": 0,
		"ai_target_move_x": -1,
		"ai_target_move_y": -1,
		"ai_skill_function": "",
		"ai_attack": "IF(panel_move_distance <= 5, 1, 0)",
		"ai_move": "0.0",
		"ai_heal": "",
		"ai_skill": "",
		"ai_use": "",
		"skill_group_id": 0,
		"gear_GearGear": 140056,
		"gear_rank": 1,
		"proficiency_UnitProficiency": 5,
		"level": 1,
		"hp": 23,
		"strength": 8,
		"vitality": 4,
		"intelligence": 0,
		"mind": 3,
		"agility": 8,
		"dexterity": 8,
		"lucky": 3,
		"parameter_table_BattleEnemyParameterTable": 100223,
		"parameter_deviation_table_BattleEnemyParameterDeviationTable": 10,
		"acquire_skill_group_id": 39,
		"level_correction": 5,
		"group_id": 0,
		"ai_script_id_BattleAIScript": 0
	},
	{
		"ID": 28120,
		"stage_BattleStage": 241020004,
		"unit_UnitUnit": 500213,
		"money": 400,
		"initial_coordinate_x": 13,
		"initial_coordinate_y": 2,
		"reinforcement_BattleReinforcement": 0,
		"initial_direction": 180.0,
		"ai_move_group": 0,
		"ai_target_move_x": -1,
		"ai_target_move_y": -1,
		"ai_skill_function": "",
		"ai_attack": "IF(panel_move_distance <= 5, 1, 0)",
		"ai_move": "0.0",
		"ai_heal": "",
		"ai_skill": "",
		"ai_use": "",
		"skill_group_id": 0,
		"gear_GearGear": 55002,
		"gear_rank": 1,
		"proficiency_UnitProficiency": 5,
		"level": 1,
		"hp": 23,
		"strength": 8,
		"vitality": 3,
		"intelligence": 0,
		"mind": 5,
		"agility": 8,
		"dexterity": 7,
		"lucky": 3,
		"parameter_table_BattleEnemyParameterTable": 500213,
		"parameter_deviation_table_BattleEnemyParameterDeviationTable": 10,
		"acquire_skill_group_id": 40,
		"level_correction": 5,
		"group_id": 0,
		"ai_script_id_BattleAIScript": 0
	},
	{
		"ID": 28121,
		"stage_BattleStage": 241020004,
		"unit_UnitUnit": 101413,
		"money": 400,
		"initial_coordinate_x": 18,
		"initial_coordinate_y": 2,
		"reinforcement_BattleReinforcement": 0,
		"initial_direction": 180.0,
		"ai_move_group": 0,
		"ai_target_move_x": -1,
		"ai_target_move_y": -1,
		"ai_skill_function": "",
		"ai_attack": "IF(panel_move_distance <= 5, 1, 0)",
		"ai_move": "0.0",
		"ai_heal": "",
		"ai_skill": "",
		"ai_use": "",
		"skill_group_id": 0,
		"gear_GearGear": 15014,
		"gear_rank": 1,
		"proficiency_UnitProficiency": 5,
		"level": 1,
		"hp": 27,
		"strength": 10,
		"vitality": 7,
		"intelligence": 0,
		"mind": 0,
		"agility": 7,
		"dexterity": 4,
		"lucky": 3,
		"parameter_table_BattleEnemyParameterTable": 101413,
		"parameter_deviation_table_BattleEnemyParameterDeviationTable": 10,
		"acquire_skill_group_id": 41,
		"level_correction": 5,
		"group_id": 0,
		"ai_script_id_BattleAIScript": 0
	}
]