[
	{
		"ID": 19604,
		"stage_BattleStage": 241009012,
		"unit_UnitUnit": 810008,
		"money": 110,
		"initial_coordinate_x": 2,
		"initial_coordinate_y": 8,
		"reinforcement_BattleReinforcement": 0,
		"initial_direction": 180.0,
		"ai_move_group": 0,
		"ai_target_move_x": -1,
		"ai_target_move_y": -1,
		"ai_skill_function": "",
		"ai_attack": "",
		"ai_move": "",
		"ai_heal": "",
		"ai_skill": "",
		"ai_use": "",
		"skill_group_id": 0,
		"gear_GearGear": 12003,
		"gear_rank": 1,
		"proficiency_UnitProficiency": 2,
		"level": 22,
		"hp": 45,
		"strength": 25,
		"vitality": 21,
		"intelligence": 0,
		"mind": 5,
		"agility": 11,
		"dexterity": 21,
		"lucky": 3,
		"parameter_table_BattleEnemyParameterTable": 0,
		"parameter_deviation_table_BattleEnemyParameterDeviationTable": 0,
		"acquire_skill_group_id": 0,
		"level_correction": 0,
		"group_id": 0,
		"ai_script_id_BattleAIScript": 0
	},
	{
		"ID": 19605,
		"stage_BattleStage": 241009012,
		"unit_UnitUnit": 810008,
		"money": 115,
		"initial_coordinate_x": 4,
		"initial_coordinate_y": 7,
		"reinforcement_BattleReinforcement": 0,
		"initial_direction": 180.0,
		"ai_move_group": 0,
		"ai_target_move_x": -1,
		"ai_target_move_y": -1,
		"ai_skill_function": "",
		"ai_attack": "",
		"ai_move": "",
		"ai_heal": "",
		"ai_skill": "",
		"ai_use": "",
		"skill_group_id": 0,
		"gear_GearGear": 12003,
		"gear_rank": 1,
		"proficiency_UnitProficiency": 2,
		"level": 23,
		"hp": 45,
		"strength": 26,
		"vitality": 21,
		"intelligence": 0,
		"mind": 5,
		"agility": 11,
		"dexterity": 22,
		"lucky": 3,
		"parameter_table_BattleEnemyParameterTable": 0,
		"parameter_deviation_table_BattleEnemyParameterDeviationTable": 0,
		"acquire_skill_group_id": 0,
		"level_correction": 0,
		"group_id": 0,
		"ai_script_id_BattleAIScript": 0
	},
	{
		"ID": 19606,
		"stage_BattleStage": 241009012,
		"unit_UnitUnit": 810008,
		"money": 120,
		"initial_coordinate_x": 6,
		"initial_coordinate_y": 7,
		"reinforcement_BattleReinforcement": 0,
		"initial_direction": 180.0,
		"ai_move_group": 0,
		"ai_target_move_x": -1,
		"ai_target_move_y": -1,
		"ai_skill_function": "",
		"ai_attack": "",
		"ai_move": "",
		"ai_heal": "",
		"ai_skill": "",
		"ai_use": "",
		"skill_group_id": 0,
		"gear_GearGear": 12003,
		"gear_rank": 1,
		"proficiency_UnitProficiency": 2,
		"level": 24,
		"hp": 46,
		"strength": 27,
		"vitality": 22,
		"intelligence": 0,
		"mind": 6,
		"agility": 11,
		"dexterity": 23,
		"lucky": 3,
		"parameter_table_BattleEnemyParameterTable": 0,
		"parameter_deviation_table_BattleEnemyParameterDeviationTable": 0,
		"acquire_skill_group_id": 0,
		"level_correction": 0,
		"group_id": 0,
		"ai_script_id_BattleAIScript": 0
	},
	{
		"ID": 19607,
		"stage_BattleStage": 241009012,
		"unit_UnitUnit": 810008,
		"money": 125,
		"initial_coordinate_x": 9,
		"initial_coordinate_y": 6,
		"reinforcement_BattleReinforcement": 0,
		"initial_direction": 180.0,
		"ai_move_group": 0,
		"ai_target_move_x": -1,
		"ai_target_move_y": -1,
		"ai_skill_function": "",
		"ai_attack": "",
		"ai_move": "",
		"ai_heal": "",
		"ai_skill": "",
		"ai_use": "",
		"skill_group_id": 0,
		"gear_GearGear": 12003,
		"gear_rank": 1,
		"proficiency_UnitProficiency": 2,
		"level": 25,
		"hp": 47,
		"strength": 28,
		"vitality": 23,
		"intelligence": 0,
		"mind": 6,
		"agility": 12,
		"dexterity": 24,
		"lucky": 3,
		"parameter_table_BattleEnemyParameterTable": 0,
		"parameter_deviation_table_BattleEnemyParameterDeviationTable": 0,
		"acquire_skill_group_id": 0,
		"level_correction": 0,
		"group_id": 0,
		"ai_script_id_BattleAIScript": 0
	},
	{
		"ID": 19608,
		"stage_BattleStage": 241009012,
		"unit_UnitUnit": 820007,
		"money": 130,
		"initial_coordinate_x": 6,
		"initial_coordinate_y": 12,
		"reinforcement_BattleReinforcement": 3,
		"initial_direction": 180.0,
		"ai_move_group": 0,
		"ai_target_move_x": -1,
		"ai_target_move_y": -1,
		"ai_skill_function": "",
		"ai_attack": "",
		"ai_move": "",
		"ai_heal": "",
		"ai_skill": "",
		"ai_use": "",
		"skill_group_id": 0,
		"gear_GearGear": 22002,
		"gear_rank": 1,
		"proficiency_UnitProficiency": 2,
		"level": 26,
		"hp": 42,
		"strength": 28,
		"vitality": 21,
		"intelligence": 1,
		"mind": 3,
		"agility": 12,
		"dexterity": 18,
		"lucky": 4,
		"parameter_table_BattleEnemyParameterTable": 0,
		"parameter_deviation_table_BattleEnemyParameterDeviationTable": 0,
		"acquire_skill_group_id": 0,
		"level_correction": 0,
		"group_id": 0,
		"ai_script_id_BattleAIScript": 0
	},
	{
		"ID": 19609,
		"stage_BattleStage": 241009012,
		"unit_UnitUnit": 820007,
		"money": 135,
		"initial_coordinate_x": 7,
		"initial_coordinate_y": 12,
		"reinforcement_BattleReinforcement": 3,
		"initial_direction": 180.0,
		"ai_move_group": 0,
		"ai_target_move_x": -1,
		"ai_target_move_y": -1,
		"ai_skill_function": "",
		"ai_attack": "",
		"ai_move": "",
		"ai_heal": "",
		"ai_skill": "",
		"ai_use": "",
		"skill_group_id": 0,
		"gear_GearGear": 22002,
		"gear_rank": 1,
		"proficiency_UnitProficiency": 2,
		"level": 27,
		"hp": 42,
		"strength": 29,
		"vitality": 22,
		"intelligence": 1,
		"mind": 3,
		"agility": 12,
		"dexterity": 18,
		"lucky": 4,
		"parameter_table_BattleEnemyParameterTable": 0,
		"parameter_deviation_table_BattleEnemyParameterDeviationTable": 0,
		"acquire_skill_group_id": 0,
		"level_correction": 0,
		"group_id": 0,
		"ai_script_id_BattleAIScript": 0
	},
	{
		"ID": 19610,
		"stage_BattleStage": 241009012,
		"unit_UnitUnit": 820007,
		"money": 130,
		"initial_coordinate_x": 8,
		"initial_coordinate_y": 12,
		"reinforcement_BattleReinforcement": 3,
		"initial_direction": 180.0,
		"ai_move_group": 0,
		"ai_target_move_x": -1,
		"ai_target_move_y": -1,
		"ai_skill_function": "",
		"ai_attack": "",
		"ai_move": "",
		"ai_heal": "",
		"ai_skill": "",
		"ai_use": "",
		"skill_group_id": 0,
		"gear_GearGear": 22002,
		"gear_rank": 1,
		"proficiency_UnitProficiency": 2,
		"level": 26,
		"hp": 42,
		"strength": 28,
		"vitality": 21,
		"intelligence": 1,
		"mind": 3,
		"agility": 12,
		"dexterity": 18,
		"lucky": 4,
		"parameter_table_BattleEnemyParameterTable": 0,
		"parameter_deviation_table_BattleEnemyParameterDeviationTable": 0,
		"acquire_skill_group_id": 0,
		"level_correction": 0,
		"group_id": 0,
		"ai_script_id_BattleAIScript": 0
	},
	{
		"ID": 19611,
		"stage_BattleStage": 241009012,
		"unit_UnitUnit": 820007,
		"money": 125,
		"initial_coordinate_x": 9,
		"initial_coordinate_y": 12,
		"reinforcement_BattleReinforcement": 3,
		"initial_direction": 180.0,
		"ai_move_group": 0,
		"ai_target_move_x": -1,
		"ai_target_move_y": -1,
		"ai_skill_function": "",
		"ai_attack": "",
		"ai_move": "",
		"ai_heal": "",
		"ai_skill": "",
		"ai_use": "",
		"skill_group_id": 0,
		"gear_GearGear": 22002,
		"gear_rank": 1,
		"proficiency_UnitProficiency": 2,
		"level": 25,
		"hp": 41,
		"strength": 27,
		"vitality": 21,
		"intelligence": 0,
		"mind": 3,
		"agility": 11,
		"dexterity": 17,
		"lucky": 4,
		"parameter_table_BattleEnemyParameterTable": 0,
		"parameter_deviation_table_BattleEnemyParameterDeviationTable": 0,
		"acquire_skill_group_id": 0,
		"level_correction": 0,
		"group_id": 0,
		"ai_script_id_BattleAIScript": 0
	},
	{
		"ID": 19612,
		"stage_BattleStage": 241009012,
		"unit_UnitUnit": 830004,
		"money": 120,
		"initial_coordinate_x": 4,
		"initial_coordinate_y": 8,
		"reinforcement_BattleReinforcement": 0,
		"initial_direction": 180.0,
		"ai_move_group": 0,
		"ai_target_move_x": -1,
		"ai_target_move_y": -1,
		"ai_skill_function": "",
		"ai_attack": "",
		"ai_move": "IF(turn <=2,0,1)",
		"ai_heal": "",
		"ai_skill": "",
		"ai_use": "",
		"skill_group_id": 0,
		"gear_GearGear": 32001,
		"gear_rank": 1,
		"proficiency_UnitProficiency": 2,
		"level": 24,
		"hp": 34,
		"strength": 24,
		"vitality": 15,
		"intelligence": 0,
		"mind": 5,
		"agility": 17,
		"dexterity": 20,
		"lucky": 4,
		"parameter_table_BattleEnemyParameterTable": 0,
		"parameter_deviation_table_BattleEnemyParameterDeviationTable": 0,
		"acquire_skill_group_id": 0,
		"level_correction": 0,
		"group_id": 0,
		"ai_script_id_BattleAIScript": 0
	},
	{
		"ID": 19613,
		"stage_BattleStage": 241009012,
		"unit_UnitUnit": 830004,
		"money": 115,
		"initial_coordinate_x": 5,
		"initial_coordinate_y": 8,
		"reinforcement_BattleReinforcement": 0,
		"initial_direction": 180.0,
		"ai_move_group": 0,
		"ai_target_move_x": -1,
		"ai_target_move_y": -1,
		"ai_skill_function": "",
		"ai_attack": "",
		"ai_move": "IF(turn <=2,0,1)",
		"ai_heal": "",
		"ai_skill": "",
		"ai_use": "",
		"skill_group_id": 0,
		"gear_GearGear": 32001,
		"gear_rank": 1,
		"proficiency_UnitProficiency": 2,
		"level": 23,
		"hp": 34,
		"strength": 23,
		"vitality": 15,
		"intelligence": 0,
		"mind": 5,
		"agility": 16,
		"dexterity": 19,
		"lucky": 4,
		"parameter_table_BattleEnemyParameterTable": 0,
		"parameter_deviation_table_BattleEnemyParameterDeviationTable": 0,
		"acquire_skill_group_id": 0,
		"level_correction": 0,
		"group_id": 0,
		"ai_script_id_BattleAIScript": 0
	},
	{
		"ID": 19614,
		"stage_BattleStage": 241009012,
		"unit_UnitUnit": 830004,
		"money": 110,
		"initial_coordinate_x": 8,
		"initial_coordinate_y": 7,
		"reinforcement_BattleReinforcement": 0,
		"initial_direction": 180.0,
		"ai_move_group": 0,
		"ai_target_move_x": -1,
		"ai_target_move_y": -1,
		"ai_skill_function": "",
		"ai_attack": "",
		"ai_move": "IF(turn <=2,0,1)",
		"ai_heal": "",
		"ai_skill": "",
		"ai_use": "",
		"skill_group_id": 0,
		"gear_GearGear": 32001,
		"gear_rank": 1,
		"proficiency_UnitProficiency": 2,
		"level": 22,
		"hp": 33,
		"strength": 22,
		"vitality": 14,
		"intelligence": 0,
		"mind": 5,
		"agility": 16,
		"dexterity": 19,
		"lucky": 4,
		"parameter_table_BattleEnemyParameterTable": 0,
		"parameter_deviation_table_BattleEnemyParameterDeviationTable": 0,
		"acquire_skill_group_id": 0,
		"level_correction": 0,
		"group_id": 0,
		"ai_script_id_BattleAIScript": 0
	},
	{
		"ID": 19615,
		"stage_BattleStage": 241009012,
		"unit_UnitUnit": 830004,
		"money": 115,
		"initial_coordinate_x": 9,
		"initial_coordinate_y": 7,
		"reinforcement_BattleReinforcement": 0,
		"initial_direction": 180.0,
		"ai_move_group": 0,
		"ai_target_move_x": -1,
		"ai_target_move_y": -1,
		"ai_skill_function": "",
		"ai_attack": "",
		"ai_move": "IF(turn <=2,0,1)",
		"ai_heal": "",
		"ai_skill": "",
		"ai_use": "",
		"skill_group_id": 0,
		"gear_GearGear": 32001,
		"gear_rank": 1,
		"proficiency_UnitProficiency": 2,
		"level": 23,
		"hp": 34,
		"strength": 23,
		"vitality": 15,
		"intelligence": 0,
		"mind": 5,
		"agility": 16,
		"dexterity": 19,
		"lucky": 4,
		"parameter_table_BattleEnemyParameterTable": 0,
		"parameter_deviation_table_BattleEnemyParameterDeviationTable": 0,
		"acquire_skill_group_id": 0,
		"level_correction": 0,
		"group_id": 0,
		"ai_script_id_BattleAIScript": 0
	},
	{
		"ID": 19616,
		"stage_BattleStage": 241009012,
		"unit_UnitUnit": 840004,
		"money": 120,
		"initial_coordinate_x": 1,
		"initial_coordinate_y": 9,
		"reinforcement_BattleReinforcement": 0,
		"initial_direction": 180.0,
		"ai_move_group": 0,
		"ai_target_move_x": -1,
		"ai_target_move_y": -1,
		"ai_skill_function": "",
		"ai_attack": "",
		"ai_move": "",
		"ai_heal": "",
		"ai_skill": "",
		"ai_use": "",
		"skill_group_id": 0,
		"gear_GearGear": 42001,
		"gear_rank": 1,
		"proficiency_UnitProficiency": 2,
		"level": 24,
		"hp": 34,
		"strength": 23,
		"vitality": 15,
		"intelligence": 0,
		"mind": 5,
		"agility": 17,
		"dexterity": 21,
		"lucky": 4,
		"parameter_table_BattleEnemyParameterTable": 0,
		"parameter_deviation_table_BattleEnemyParameterDeviationTable": 0,
		"acquire_skill_group_id": 0,
		"level_correction": 0,
		"group_id": 0,
		"ai_script_id_BattleAIScript": 0
	},
	{
		"ID": 19617,
		"stage_BattleStage": 241009012,
		"unit_UnitUnit": 840004,
		"money": 125,
		"initial_coordinate_x": 2,
		"initial_coordinate_y": 9,
		"reinforcement_BattleReinforcement": 0,
		"initial_direction": 180.0,
		"ai_move_group": 0,
		"ai_target_move_x": -1,
		"ai_target_move_y": -1,
		"ai_skill_function": "",
		"ai_attack": "",
		"ai_move": "",
		"ai_heal": "",
		"ai_skill": "",
		"ai_use": "",
		"skill_group_id": 0,
		"gear_GearGear": 42001,
		"gear_rank": 1,
		"proficiency_UnitProficiency": 2,
		"level": 25,
		"hp": 35,
		"strength": 24,
		"vitality": 15,
		"intelligence": 0,
		"mind": 5,
		"agility": 18,
		"dexterity": 21,
		"lucky": 4,
		"parameter_table_BattleEnemyParameterTable": 0,
		"parameter_deviation_table_BattleEnemyParameterDeviationTable": 0,
		"acquire_skill_group_id": 0,
		"level_correction": 0,
		"group_id": 0,
		"ai_script_id_BattleAIScript": 0
	},
	{
		"ID": 19618,
		"stage_BattleStage": 241009012,
		"unit_UnitUnit": 840004,
		"money": 130,
		"initial_coordinate_x": 8,
		"initial_coordinate_y": 10,
		"reinforcement_BattleReinforcement": 0,
		"initial_direction": 180.0,
		"ai_move_group": 0,
		"ai_target_move_x": -1,
		"ai_target_move_y": -1,
		"ai_skill_function": "",
		"ai_attack": "",
		"ai_move": "",
		"ai_heal": "",
		"ai_skill": "",
		"ai_use": "",
		"skill_group_id": 0,
		"gear_GearGear": 42001,
		"gear_rank": 1,
		"proficiency_UnitProficiency": 2,
		"level": 26,
		"hp": 36,
		"strength": 25,
		"vitality": 16,
		"intelligence": 0,
		"mind": 5,
		"agility": 18,
		"dexterity": 22,
		"lucky": 4,
		"parameter_table_BattleEnemyParameterTable": 0,
		"parameter_deviation_table_BattleEnemyParameterDeviationTable": 0,
		"acquire_skill_group_id": 0,
		"level_correction": 0,
		"group_id": 0,
		"ai_script_id_BattleAIScript": 0
	},
	{
		"ID": 19619,
		"stage_BattleStage": 241009012,
		"unit_UnitUnit": 840004,
		"money": 135,
		"initial_coordinate_x": 9,
		"initial_coordinate_y": 10,
		"reinforcement_BattleReinforcement": 0,
		"initial_direction": 180.0,
		"ai_move_group": 0,
		"ai_target_move_x": -1,
		"ai_target_move_y": -1,
		"ai_skill_function": "",
		"ai_attack": "",
		"ai_move": "",
		"ai_heal": "",
		"ai_skill": "",
		"ai_use": "",
		"skill_group_id": 0,
		"gear_GearGear": 42001,
		"gear_rank": 1,
		"proficiency_UnitProficiency": 2,
		"level": 27,
		"hp": 36,
		"strength": 26,
		"vitality": 16,
		"intelligence": 0,
		"mind": 5,
		"agility": 19,
		"dexterity": 23,
		"lucky": 4,
		"parameter_table_BattleEnemyParameterTable": 0,
		"parameter_deviation_table_BattleEnemyParameterDeviationTable": 0,
		"acquire_skill_group_id": 0,
		"level_correction": 0,
		"group_id": 0,
		"ai_script_id_BattleAIScript": 0
	}
]