[
	{
		"ID": 73577,
		"stage_BattleStage": 241013163,
		"unit_UnitUnit": 920014,
		"money": 400,
		"initial_coordinate_x": 3,
		"initial_coordinate_y": 1,
		"reinforcement_BattleReinforcement": 0,
		"initial_direction": 90.0,
		"ai_move_group": 0,
		"ai_target_move_x": -1,
		"ai_target_move_y": -1,
		"ai_skill_function": "",
		"ai_attack": "1.0",
		"ai_move": "1.0",
		"ai_heal": "",
		"ai_skill": "",
		"ai_use": "",
		"skill_group_id": 17439,
		"gear_GearGear": 26001,
		"gear_rank": 1,
		"proficiency_UnitProficiency": 6,
		"level": 80,
		"hp": 90,
		"strength": 90,
		"vitality": 63,
		"intelligence": 10,
		"mind": 54,
		"agility": 72,
		"dexterity": 75,
		"lucky": 43,
		"parameter_table_BattleEnemyParameterTable": 0,
		"parameter_deviation_table_BattleEnemyParameterDeviationTable": 0,
		"acquire_skill_group_id": 0,
		"level_correction": 0,
		"group_id": 0,
		"ai_script_id_BattleAIScript": 0
	},
	{
		"ID": 73578,
		"stage_BattleStage": 241013163,
		"unit_UnitUnit": 920014,
		"money": 400,
		"initial_coordinate_x": 2,
		"initial_coordinate_y": 1,
		"reinforcement_BattleReinforcement": 0,
		"initial_direction": 90.0,
		"ai_move_group": 0,
		"ai_target_move_x": -1,
		"ai_target_move_y": -1,
		"ai_skill_function": "",
		"ai_attack": "1.0",
		"ai_move": "1.0",
		"ai_heal": "",
		"ai_skill": "",
		"ai_use": "",
		"skill_group_id": 17439,
		"gear_GearGear": 26001,
		"gear_rank": 1,
		"proficiency_UnitProficiency": 6,
		"level": 80,
		"hp": 94,
		"strength": 88,
		"vitality": 63,
		"intelligence": 11,
		"mind": 53,
		"agility": 74,
		"dexterity": 76,
		"lucky": 43,
		"parameter_table_BattleEnemyParameterTable": 0,
		"parameter_deviation_table_BattleEnemyParameterDeviationTable": 0,
		"acquire_skill_group_id": 0,
		"level_correction": 0,
		"group_id": 0,
		"ai_script_id_BattleAIScript": 0
	},
	{
		"ID": 73579,
		"stage_BattleStage": 241013163,
		"unit_UnitUnit": 900011,
		"money": 400,
		"initial_coordinate_x": 12,
		"initial_coordinate_y": 11,
		"reinforcement_BattleReinforcement": 0,
		"initial_direction": 180.0,
		"ai_move_group": 0,
		"ai_target_move_x": -1,
		"ai_target_move_y": -1,
		"ai_skill_function": "",
		"ai_attack": "1.0",
		"ai_move": "1.0",
		"ai_heal": "",
		"ai_skill": "",
		"ai_use": "",
		"skill_group_id": 18434,
		"gear_GearGear": 80003,
		"gear_rank": 1,
		"proficiency_UnitProficiency": 1,
		"level": 80,
		"hp": 112,
		"strength": 84,
		"vitality": 71,
		"intelligence": 10,
		"mind": 42,
		"agility": 74,
		"dexterity": 70,
		"lucky": 43,
		"parameter_table_BattleEnemyParameterTable": 0,
		"parameter_deviation_table_BattleEnemyParameterDeviationTable": 0,
		"acquire_skill_group_id": 0,
		"level_correction": 0,
		"group_id": 0,
		"ai_script_id_BattleAIScript": 0
	},
	{
		"ID": 73580,
		"stage_BattleStage": 241013163,
		"unit_UnitUnit": 900011,
		"money": 400,
		"initial_coordinate_x": 13,
		"initial_coordinate_y": 12,
		"reinforcement_BattleReinforcement": 0,
		"initial_direction": 180.0,
		"ai_move_group": 0,
		"ai_target_move_x": -1,
		"ai_target_move_y": -1,
		"ai_skill_function": "",
		"ai_attack": "1.0",
		"ai_move": "1.0",
		"ai_heal": "",
		"ai_skill": "",
		"ai_use": "",
		"skill_group_id": 18434,
		"gear_GearGear": 80003,
		"gear_rank": 1,
		"proficiency_UnitProficiency": 1,
		"level": 80,
		"hp": 116,
		"strength": 86,
		"vitality": 70,
		"intelligence": 9,
		"mind": 43,
		"agility": 71,
		"dexterity": 68,
		"lucky": 38,
		"parameter_table_BattleEnemyParameterTable": 0,
		"parameter_deviation_table_BattleEnemyParameterDeviationTable": 0,
		"acquire_skill_group_id": 0,
		"level_correction": 0,
		"group_id": 0,
		"ai_script_id_BattleAIScript": 0
	},
	{
		"ID": 73581,
		"stage_BattleStage": 241013163,
		"unit_UnitUnit": 900011,
		"money": 400,
		"initial_coordinate_x": 12,
		"initial_coordinate_y": 12,
		"reinforcement_BattleReinforcement": 0,
		"initial_direction": 180.0,
		"ai_move_group": 0,
		"ai_target_move_x": -1,
		"ai_target_move_y": -1,
		"ai_skill_function": "",
		"ai_attack": "1.0",
		"ai_move": "1.0",
		"ai_heal": "",
		"ai_skill": "",
		"ai_use": "",
		"skill_group_id": 18434,
		"gear_GearGear": 80003,
		"gear_rank": 1,
		"proficiency_UnitProficiency": 1,
		"level": 80,
		"hp": 112,
		"strength": 88,
		"vitality": 74,
		"intelligence": 9,
		"mind": 46,
		"agility": 73,
		"dexterity": 71,
		"lucky": 40,
		"parameter_table_BattleEnemyParameterTable": 0,
		"parameter_deviation_table_BattleEnemyParameterDeviationTable": 0,
		"acquire_skill_group_id": 0,
		"level_correction": 0,
		"group_id": 0,
		"ai_script_id_BattleAIScript": 0
	},
	{
		"ID": 73582,
		"stage_BattleStage": 241013163,
		"unit_UnitUnit": 900011,
		"money": 400,
		"initial_coordinate_x": 11,
		"initial_coordinate_y": 12,
		"reinforcement_BattleReinforcement": 0,
		"initial_direction": 180.0,
		"ai_move_group": 0,
		"ai_target_move_x": -1,
		"ai_target_move_y": -1,
		"ai_skill_function": "",
		"ai_attack": "1.0",
		"ai_move": "1.0",
		"ai_heal": "",
		"ai_skill": "",
		"ai_use": "",
		"skill_group_id": 18434,
		"gear_GearGear": 80003,
		"gear_rank": 1,
		"proficiency_UnitProficiency": 1,
		"level": 80,
		"hp": 116,
		"strength": 88,
		"vitality": 69,
		"intelligence": 11,
		"mind": 45,
		"agility": 71,
		"dexterity": 70,
		"lucky": 40,
		"parameter_table_BattleEnemyParameterTable": 0,
		"parameter_deviation_table_BattleEnemyParameterDeviationTable": 0,
		"acquire_skill_group_id": 0,
		"level_correction": 0,
		"group_id": 0,
		"ai_script_id_BattleAIScript": 0
	},
	{
		"ID": 73583,
		"stage_BattleStage": 241013163,
		"unit_UnitUnit": 900011,
		"money": 400,
		"initial_coordinate_x": 10,
		"initial_coordinate_y": 12,
		"reinforcement_BattleReinforcement": 0,
		"initial_direction": 180.0,
		"ai_move_group": 0,
		"ai_target_move_x": -1,
		"ai_target_move_y": -1,
		"ai_skill_function": "",
		"ai_attack": "1.0",
		"ai_move": "1.0",
		"ai_heal": "",
		"ai_skill": "",
		"ai_use": "",
		"skill_group_id": 18434,
		"gear_GearGear": 80003,
		"gear_rank": 1,
		"proficiency_UnitProficiency": 1,
		"level": 80,
		"hp": 114,
		"strength": 86,
		"vitality": 73,
		"intelligence": 6,
		"mind": 42,
		"agility": 73,
		"dexterity": 67,
		"lucky": 38,
		"parameter_table_BattleEnemyParameterTable": 0,
		"parameter_deviation_table_BattleEnemyParameterDeviationTable": 0,
		"acquire_skill_group_id": 0,
		"level_correction": 0,
		"group_id": 0,
		"ai_script_id_BattleAIScript": 0
	},
	{
		"ID": 73584,
		"stage_BattleStage": 241013163,
		"unit_UnitUnit": 900011,
		"money": 400,
		"initial_coordinate_x": 2,
		"initial_coordinate_y": 9,
		"reinforcement_BattleReinforcement": 0,
		"initial_direction": 90.0,
		"ai_move_group": 0,
		"ai_target_move_x": -1,
		"ai_target_move_y": -1,
		"ai_skill_function": "",
		"ai_attack": "IF( turn <=5 ,IF(panel_move_distance <= 5, 1, 0),1)",
		"ai_move": "IF(turn <5,0,1)",
		"ai_heal": "",
		"ai_skill": "",
		"ai_use": "",
		"skill_group_id": 18434,
		"gear_GearGear": 80003,
		"gear_rank": 1,
		"proficiency_UnitProficiency": 1,
		"level": 80,
		"hp": 113,
		"strength": 86,
		"vitality": 71,
		"intelligence": 8,
		"mind": 42,
		"agility": 74,
		"dexterity": 72,
		"lucky": 41,
		"parameter_table_BattleEnemyParameterTable": 0,
		"parameter_deviation_table_BattleEnemyParameterDeviationTable": 0,
		"acquire_skill_group_id": 0,
		"level_correction": 0,
		"group_id": 0,
		"ai_script_id_BattleAIScript": 0
	},
	{
		"ID": 73585,
		"stage_BattleStage": 241013163,
		"unit_UnitUnit": 900011,
		"money": 400,
		"initial_coordinate_x": 1,
		"initial_coordinate_y": 8,
		"reinforcement_BattleReinforcement": 0,
		"initial_direction": 90.0,
		"ai_move_group": 0,
		"ai_target_move_x": -1,
		"ai_target_move_y": -1,
		"ai_skill_function": "",
		"ai_attack": "IF( turn <=5 ,IF(panel_move_distance <= 5, 1, 0),1)",
		"ai_move": "IF(turn <5,0,1)",
		"ai_heal": "",
		"ai_skill": "",
		"ai_use": "",
		"skill_group_id": 18434,
		"gear_GearGear": 80003,
		"gear_rank": 1,
		"proficiency_UnitProficiency": 1,
		"level": 80,
		"hp": 114,
		"strength": 86,
		"vitality": 70,
		"intelligence": 6,
		"mind": 43,
		"agility": 74,
		"dexterity": 69,
		"lucky": 41,
		"parameter_table_BattleEnemyParameterTable": 0,
		"parameter_deviation_table_BattleEnemyParameterDeviationTable": 0,
		"acquire_skill_group_id": 0,
		"level_correction": 0,
		"group_id": 0,
		"ai_script_id_BattleAIScript": 0
	},
	{
		"ID": 73586,
		"stage_BattleStage": 241013163,
		"unit_UnitUnit": 960015,
		"money": 400,
		"initial_coordinate_x": 1,
		"initial_coordinate_y": 9,
		"reinforcement_BattleReinforcement": 0,
		"initial_direction": 90.0,
		"ai_move_group": 0,
		"ai_target_move_x": -1,
		"ai_target_move_y": -1,
		"ai_skill_function": "",
		"ai_attack": "IF( turn <=5 ,IF(panel_move_distance <= 5, 1, 0),1)",
		"ai_move": "IF(turn <5,0,1)",
		"ai_heal": "",
		"ai_skill": "",
		"ai_use": "",
		"skill_group_id": 18436,
		"gear_GearGear": 66006,
		"gear_rank": 1,
		"proficiency_UnitProficiency": 6,
		"level": 80,
		"hp": 95,
		"strength": 12,
		"vitality": 68,
		"intelligence": 95,
		"mind": 103,
		"agility": 88,
		"dexterity": 88,
		"lucky": 49,
		"parameter_table_BattleEnemyParameterTable": 0,
		"parameter_deviation_table_BattleEnemyParameterDeviationTable": 0,
		"acquire_skill_group_id": 0,
		"level_correction": 0,
		"group_id": 0,
		"ai_script_id_BattleAIScript": 0
	},
	{
		"ID": 73587,
		"stage_BattleStage": 241013163,
		"unit_UnitUnit": 900011,
		"money": 450,
		"initial_coordinate_x": 11,
		"initial_coordinate_y": 13,
		"reinforcement_BattleReinforcement": 0,
		"initial_direction": 180.0,
		"ai_move_group": 0,
		"ai_target_move_x": -1,
		"ai_target_move_y": -1,
		"ai_skill_function": "",
		"ai_attack": "1.0",
		"ai_move": "1.0",
		"ai_heal": "",
		"ai_skill": "",
		"ai_use": "",
		"skill_group_id": 18434,
		"gear_GearGear": 80003,
		"gear_rank": 1,
		"proficiency_UnitProficiency": 1,
		"level": 90,
		"hp": 115,
		"strength": 89,
		"vitality": 70,
		"intelligence": 8,
		"mind": 42,
		"agility": 75,
		"dexterity": 71,
		"lucky": 38,
		"parameter_table_BattleEnemyParameterTable": 0,
		"parameter_deviation_table_BattleEnemyParameterDeviationTable": 0,
		"acquire_skill_group_id": 0,
		"level_correction": 0,
		"group_id": 0,
		"ai_script_id_BattleAIScript": 0
	},
	{
		"ID": 73588,
		"stage_BattleStage": 241013163,
		"unit_UnitUnit": 900011,
		"money": 400,
		"initial_coordinate_x": 12,
		"initial_coordinate_y": 13,
		"reinforcement_BattleReinforcement": 0,
		"initial_direction": 180.0,
		"ai_move_group": 0,
		"ai_target_move_x": -1,
		"ai_target_move_y": -1,
		"ai_skill_function": "",
		"ai_attack": "1.0",
		"ai_move": "1.0",
		"ai_heal": "",
		"ai_skill": "",
		"ai_use": "",
		"skill_group_id": 18434,
		"gear_GearGear": 80003,
		"gear_rank": 1,
		"proficiency_UnitProficiency": 1,
		"level": 80,
		"hp": 114,
		"strength": 88,
		"vitality": 73,
		"intelligence": 10,
		"mind": 43,
		"agility": 75,
		"dexterity": 67,
		"lucky": 43,
		"parameter_table_BattleEnemyParameterTable": 0,
		"parameter_deviation_table_BattleEnemyParameterDeviationTable": 0,
		"acquire_skill_group_id": 0,
		"level_correction": 0,
		"group_id": 0,
		"ai_script_id_BattleAIScript": 0
	},
	{
		"ID": 73589,
		"stage_BattleStage": 241013163,
		"unit_UnitUnit": 900011,
		"money": 400,
		"initial_coordinate_x": 12,
		"initial_coordinate_y": 14,
		"reinforcement_BattleReinforcement": 0,
		"initial_direction": 180.0,
		"ai_move_group": 0,
		"ai_target_move_x": -1,
		"ai_target_move_y": -1,
		"ai_skill_function": "",
		"ai_attack": "1.0",
		"ai_move": "1.0",
		"ai_heal": "",
		"ai_skill": "",
		"ai_use": "",
		"skill_group_id": 18434,
		"gear_GearGear": 80003,
		"gear_rank": 1,
		"proficiency_UnitProficiency": 1,
		"level": 80,
		"hp": 114,
		"strength": 85,
		"vitality": 70,
		"intelligence": 10,
		"mind": 42,
		"agility": 72,
		"dexterity": 72,
		"lucky": 41,
		"parameter_table_BattleEnemyParameterTable": 0,
		"parameter_deviation_table_BattleEnemyParameterDeviationTable": 0,
		"acquire_skill_group_id": 0,
		"level_correction": 0,
		"group_id": 0,
		"ai_script_id_BattleAIScript": 0
	},
	{
		"ID": 73590,
		"stage_BattleStage": 241013163,
		"unit_UnitUnit": 900011,
		"money": 400,
		"initial_coordinate_x": 6,
		"initial_coordinate_y": 6,
		"reinforcement_BattleReinforcement": 0,
		"initial_direction": 90.0,
		"ai_move_group": 0,
		"ai_target_move_x": -1,
		"ai_target_move_y": -1,
		"ai_skill_function": "",
		"ai_attack": "IF(panel_move_distance <= 4, 1, 0)",
		"ai_move": "0.0",
		"ai_heal": "",
		"ai_skill": "",
		"ai_use": "",
		"skill_group_id": 18435,
		"gear_GearGear": 80003,
		"gear_rank": 1,
		"proficiency_UnitProficiency": 1,
		"level": 80,
		"hp": 113,
		"strength": 84,
		"vitality": 71,
		"intelligence": 11,
		"mind": 43,
		"agility": 71,
		"dexterity": 72,
		"lucky": 39,
		"parameter_table_BattleEnemyParameterTable": 0,
		"parameter_deviation_table_BattleEnemyParameterDeviationTable": 0,
		"acquire_skill_group_id": 0,
		"level_correction": 0,
		"group_id": 0,
		"ai_script_id_BattleAIScript": 0
	},
	{
		"ID": 73591,
		"stage_BattleStage": 241013163,
		"unit_UnitUnit": 900011,
		"money": 400,
		"initial_coordinate_x": 5,
		"initial_coordinate_y": 8,
		"reinforcement_BattleReinforcement": 0,
		"initial_direction": 90.0,
		"ai_move_group": 0,
		"ai_target_move_x": -1,
		"ai_target_move_y": -1,
		"ai_skill_function": "",
		"ai_attack": "IF(panel_move_distance <= 4, 1, 0)",
		"ai_move": "0.0",
		"ai_heal": "",
		"ai_skill": "",
		"ai_use": "",
		"skill_group_id": 18435,
		"gear_GearGear": 80003,
		"gear_rank": 1,
		"proficiency_UnitProficiency": 1,
		"level": 80,
		"hp": 113,
		"strength": 89,
		"vitality": 72,
		"intelligence": 9,
		"mind": 47,
		"agility": 75,
		"dexterity": 72,
		"lucky": 38,
		"parameter_table_BattleEnemyParameterTable": 0,
		"parameter_deviation_table_BattleEnemyParameterDeviationTable": 0,
		"acquire_skill_group_id": 0,
		"level_correction": 0,
		"group_id": 0,
		"ai_script_id_BattleAIScript": 0
	},
	{
		"ID": 73592,
		"stage_BattleStage": 241013163,
		"unit_UnitUnit": 900011,
		"money": 400,
		"initial_coordinate_x": 4,
		"initial_coordinate_y": 7,
		"reinforcement_BattleReinforcement": 0,
		"initial_direction": 90.0,
		"ai_move_group": 0,
		"ai_target_move_x": -1,
		"ai_target_move_y": -1,
		"ai_skill_function": "",
		"ai_attack": "IF(panel_move_distance <= 4, 1, 0)",
		"ai_move": "0.0",
		"ai_heal": "",
		"ai_skill": "",
		"ai_use": "",
		"skill_group_id": 18435,
		"gear_GearGear": 80003,
		"gear_rank": 1,
		"proficiency_UnitProficiency": 1,
		"level": 80,
		"hp": 113,
		"strength": 87,
		"vitality": 69,
		"intelligence": 9,
		"mind": 45,
		"agility": 74,
		"dexterity": 72,
		"lucky": 41,
		"parameter_table_BattleEnemyParameterTable": 0,
		"parameter_deviation_table_BattleEnemyParameterDeviationTable": 0,
		"acquire_skill_group_id": 0,
		"level_correction": 0,
		"group_id": 0,
		"ai_script_id_BattleAIScript": 0
	},
	{
		"ID": 73593,
		"stage_BattleStage": 241013163,
		"unit_UnitUnit": 900011,
		"money": 400,
		"initial_coordinate_x": 3,
		"initial_coordinate_y": 6,
		"reinforcement_BattleReinforcement": 0,
		"initial_direction": 90.0,
		"ai_move_group": 0,
		"ai_target_move_x": -1,
		"ai_target_move_y": -1,
		"ai_skill_function": "",
		"ai_attack": "IF(panel_move_distance <= 4, 1, 0)",
		"ai_move": "0.0",
		"ai_heal": "",
		"ai_skill": "",
		"ai_use": "",
		"skill_group_id": 18435,
		"gear_GearGear": 80003,
		"gear_rank": 1,
		"proficiency_UnitProficiency": 1,
		"level": 80,
		"hp": 115,
		"strength": 85,
		"vitality": 71,
		"intelligence": 9,
		"mind": 46,
		"agility": 75,
		"dexterity": 70,
		"lucky": 43,
		"parameter_table_BattleEnemyParameterTable": 0,
		"parameter_deviation_table_BattleEnemyParameterDeviationTable": 0,
		"acquire_skill_group_id": 0,
		"level_correction": 0,
		"group_id": 0,
		"ai_script_id_BattleAIScript": 0
	},
	{
		"ID": 73594,
		"stage_BattleStage": 241013163,
		"unit_UnitUnit": 900011,
		"money": 400,
		"initial_coordinate_x": 2,
		"initial_coordinate_y": 5,
		"reinforcement_BattleReinforcement": 0,
		"initial_direction": 90.0,
		"ai_move_group": 0,
		"ai_target_move_x": -1,
		"ai_target_move_y": -1,
		"ai_skill_function": "",
		"ai_attack": "IF(panel_move_distance <= 4, 1, 0)",
		"ai_move": "0.0",
		"ai_heal": "",
		"ai_skill": "",
		"ai_use": "",
		"skill_group_id": 18435,
		"gear_GearGear": 80003,
		"gear_rank": 1,
		"proficiency_UnitProficiency": 1,
		"level": 80,
		"hp": 115,
		"strength": 89,
		"vitality": 69,
		"intelligence": 10,
		"mind": 42,
		"agility": 75,
		"dexterity": 69,
		"lucky": 40,
		"parameter_table_BattleEnemyParameterTable": 0,
		"parameter_deviation_table_BattleEnemyParameterDeviationTable": 0,
		"acquire_skill_group_id": 0,
		"level_correction": 0,
		"group_id": 0,
		"ai_script_id_BattleAIScript": 0
	}
]