[
	{
		"ID": 68535,
		"stage_BattleStage": 241017033,
		"unit_UnitUnit": 808212,
		"money": 255,
		"initial_coordinate_x": 13,
		"initial_coordinate_y": 6,
		"reinforcement_BattleReinforcement": 0,
		"initial_direction": 0.0,
		"ai_move_group": 0,
		"ai_target_move_x": -1,
		"ai_target_move_y": -1,
		"ai_skill_function": "",
		"ai_attack": "IF(panel_move_distance <= 5, 1, 0)",
		"ai_move": "IF(turn <2,0,1)",
		"ai_heal": "",
		"ai_skill": "",
		"ai_use": "",
		"skill_group_id": 562,
		"gear_GearGear": 80003,
		"gear_rank": 1,
		"proficiency_UnitProficiency": 1,
		"level": 51,
		"hp": 186,
		"strength": 43,
		"vitality": 24,
		"intelligence": 27,
		"mind": 19,
		"agility": 36,
		"dexterity": 62,
		"lucky": 32,
		"parameter_table_BattleEnemyParameterTable": 0,
		"parameter_deviation_table_BattleEnemyParameterDeviationTable": 0,
		"acquire_skill_group_id": 0,
		"level_correction": 0,
		"group_id": 0,
		"ai_script_id_BattleAIScript": 0
	},
	{
		"ID": 68536,
		"stage_BattleStage": 241017033,
		"unit_UnitUnit": 2822004,
		"money": 240,
		"initial_coordinate_x": 12,
		"initial_coordinate_y": 3,
		"reinforcement_BattleReinforcement": 0,
		"initial_direction": 0.0,
		"ai_move_group": 0,
		"ai_target_move_x": -1,
		"ai_target_move_y": -1,
		"ai_skill_function": "",
		"ai_attack": "IF(panel_move_distance <= 5, 1, 0)",
		"ai_move": "IF(turn <2,0,1)",
		"ai_heal": "",
		"ai_skill": "",
		"ai_use": "",
		"skill_group_id": 561,
		"gear_GearGear": 23001,
		"gear_rank": 1,
		"proficiency_UnitProficiency": 3,
		"level": 48,
		"hp": 75,
		"strength": 65,
		"vitality": 35,
		"intelligence": 6,
		"mind": 22,
		"agility": 44,
		"dexterity": 55,
		"lucky": 14,
		"parameter_table_BattleEnemyParameterTable": 0,
		"parameter_deviation_table_BattleEnemyParameterDeviationTable": 0,
		"acquire_skill_group_id": 0,
		"level_correction": 0,
		"group_id": 0,
		"ai_script_id_BattleAIScript": 0
	},
	{
		"ID": 68537,
		"stage_BattleStage": 241017033,
		"unit_UnitUnit": 2832004,
		"money": 240,
		"initial_coordinate_x": 9,
		"initial_coordinate_y": 4,
		"reinforcement_BattleReinforcement": 0,
		"initial_direction": 0.0,
		"ai_move_group": 0,
		"ai_target_move_x": -1,
		"ai_target_move_y": -1,
		"ai_skill_function": "",
		"ai_attack": "IF(panel_move_distance <= 5, 1, 0)",
		"ai_move": "IF(turn <3,0,1)",
		"ai_heal": "",
		"ai_skill": "",
		"ai_use": "",
		"skill_group_id": 562,
		"gear_GearGear": 330011,
		"gear_rank": 1,
		"proficiency_UnitProficiency": 3,
		"level": 48,
		"hp": 74,
		"strength": 61,
		"vitality": 38,
		"intelligence": 6,
		"mind": 23,
		"agility": 48,
		"dexterity": 55,
		"lucky": 16,
		"parameter_table_BattleEnemyParameterTable": 0,
		"parameter_deviation_table_BattleEnemyParameterDeviationTable": 0,
		"acquire_skill_group_id": 0,
		"level_correction": 0,
		"group_id": 0,
		"ai_script_id_BattleAIScript": 0
	},
	{
		"ID": 68538,
		"stage_BattleStage": 241017033,
		"unit_UnitUnit": 2822004,
		"money": 245,
		"initial_coordinate_x": 7,
		"initial_coordinate_y": 7,
		"reinforcement_BattleReinforcement": 0,
		"initial_direction": 0.0,
		"ai_move_group": 0,
		"ai_target_move_x": -1,
		"ai_target_move_y": -1,
		"ai_skill_function": "",
		"ai_attack": "IF(panel_move_distance <= 5, 1, 0)",
		"ai_move": "IF(turn <3,0,1)",
		"ai_heal": "",
		"ai_skill": "",
		"ai_use": "",
		"skill_group_id": 561,
		"gear_GearGear": 23001,
		"gear_rank": 1,
		"proficiency_UnitProficiency": 3,
		"level": 49,
		"hp": 78,
		"strength": 64,
		"vitality": 37,
		"intelligence": 4,
		"mind": 22,
		"agility": 45,
		"dexterity": 55,
		"lucky": 15,
		"parameter_table_BattleEnemyParameterTable": 0,
		"parameter_deviation_table_BattleEnemyParameterDeviationTable": 0,
		"acquire_skill_group_id": 0,
		"level_correction": 0,
		"group_id": 0,
		"ai_script_id_BattleAIScript": 0
	},
	{
		"ID": 68539,
		"stage_BattleStage": 241017033,
		"unit_UnitUnit": 808214,
		"money": 255,
		"initial_coordinate_x": 5,
		"initial_coordinate_y": 6,
		"reinforcement_BattleReinforcement": 0,
		"initial_direction": 90.0,
		"ai_move_group": 0,
		"ai_target_move_x": -1,
		"ai_target_move_y": -1,
		"ai_skill_function": "",
		"ai_attack": "IF(panel_move_distance <= 5, 1, 0)",
		"ai_move": "IF(turn <3,0,1)",
		"ai_heal": "",
		"ai_skill": "",
		"ai_use": "",
		"skill_group_id": 564,
		"gear_GearGear": 80003,
		"gear_rank": 1,
		"proficiency_UnitProficiency": 1,
		"level": 51,
		"hp": 188,
		"strength": 41,
		"vitality": 25,
		"intelligence": 26,
		"mind": 19,
		"agility": 36,
		"dexterity": 62,
		"lucky": 32,
		"parameter_table_BattleEnemyParameterTable": 0,
		"parameter_deviation_table_BattleEnemyParameterDeviationTable": 0,
		"acquire_skill_group_id": 0,
		"level_correction": 0,
		"group_id": 0,
		"ai_script_id_BattleAIScript": 0
	},
	{
		"ID": 68540,
		"stage_BattleStage": 241017033,
		"unit_UnitUnit": 2832004,
		"money": 245,
		"initial_coordinate_x": 4,
		"initial_coordinate_y": 8,
		"reinforcement_BattleReinforcement": 0,
		"initial_direction": 90.0,
		"ai_move_group": 0,
		"ai_target_move_x": -1,
		"ai_target_move_y": -1,
		"ai_skill_function": "",
		"ai_attack": "IF(panel_move_distance <= 5, 1, 0)",
		"ai_move": "IF(turn <3,0,1)",
		"ai_heal": "",
		"ai_skill": "",
		"ai_use": "",
		"skill_group_id": 562,
		"gear_GearGear": 330011,
		"gear_rank": 1,
		"proficiency_UnitProficiency": 3,
		"level": 49,
		"hp": 75,
		"strength": 61,
		"vitality": 38,
		"intelligence": 5,
		"mind": 22,
		"agility": 48,
		"dexterity": 58,
		"lucky": 14,
		"parameter_table_BattleEnemyParameterTable": 0,
		"parameter_deviation_table_BattleEnemyParameterDeviationTable": 0,
		"acquire_skill_group_id": 0,
		"level_correction": 0,
		"group_id": 0,
		"ai_script_id_BattleAIScript": 0
	},
	{
		"ID": 68541,
		"stage_BattleStage": 241017033,
		"unit_UnitUnit": 808211,
		"money": 260,
		"initial_coordinate_x": 3,
		"initial_coordinate_y": 12,
		"reinforcement_BattleReinforcement": 0,
		"initial_direction": 90.0,
		"ai_move_group": 0,
		"ai_target_move_x": -1,
		"ai_target_move_y": -1,
		"ai_skill_function": "",
		"ai_attack": "IF(panel_move_distance <= 5, 1, 0)",
		"ai_move": "IF(turn <3,0,1)",
		"ai_heal": "",
		"ai_skill": "",
		"ai_use": "",
		"skill_group_id": 561,
		"gear_GearGear": 80003,
		"gear_rank": 1,
		"proficiency_UnitProficiency": 1,
		"level": 52,
		"hp": 188,
		"strength": 42,
		"vitality": 26,
		"intelligence": 27,
		"mind": 20,
		"agility": 37,
		"dexterity": 65,
		"lucky": 32,
		"parameter_table_BattleEnemyParameterTable": 0,
		"parameter_deviation_table_BattleEnemyParameterDeviationTable": 0,
		"acquire_skill_group_id": 0,
		"level_correction": 0,
		"group_id": 0,
		"ai_script_id_BattleAIScript": 0
	},
	{
		"ID": 68542,
		"stage_BattleStage": 241017033,
		"unit_UnitUnit": 2832004,
		"money": 240,
		"initial_coordinate_x": 2,
		"initial_coordinate_y": 11,
		"reinforcement_BattleReinforcement": 0,
		"initial_direction": 90.0,
		"ai_move_group": 0,
		"ai_target_move_x": -1,
		"ai_target_move_y": -1,
		"ai_skill_function": "",
		"ai_attack": "IF(panel_move_distance <= 5, 1, 0)",
		"ai_move": "IF(turn <2,0,1)",
		"ai_heal": "",
		"ai_skill": "",
		"ai_use": "",
		"skill_group_id": 562,
		"gear_GearGear": 330011,
		"gear_rank": 1,
		"proficiency_UnitProficiency": 3,
		"level": 48,
		"hp": 75,
		"strength": 60,
		"vitality": 36,
		"intelligence": 6,
		"mind": 23,
		"agility": 48,
		"dexterity": 55,
		"lucky": 16,
		"parameter_table_BattleEnemyParameterTable": 0,
		"parameter_deviation_table_BattleEnemyParameterDeviationTable": 0,
		"acquire_skill_group_id": 0,
		"level_correction": 0,
		"group_id": 0,
		"ai_script_id_BattleAIScript": 0
	},
	{
		"ID": 68543,
		"stage_BattleStage": 241017033,
		"unit_UnitUnit": 2832004,
		"money": 245,
		"initial_coordinate_x": 2,
		"initial_coordinate_y": 10,
		"reinforcement_BattleReinforcement": 0,
		"initial_direction": 90.0,
		"ai_move_group": 0,
		"ai_target_move_x": -1,
		"ai_target_move_y": -1,
		"ai_skill_function": "",
		"ai_attack": "IF(panel_move_distance <= 5, 1, 0)",
		"ai_move": "IF(turn <2,0,1)",
		"ai_heal": "",
		"ai_skill": "",
		"ai_use": "",
		"skill_group_id": 562,
		"gear_GearGear": 330011,
		"gear_rank": 1,
		"proficiency_UnitProficiency": 3,
		"level": 49,
		"hp": 76,
		"strength": 61,
		"vitality": 37,
		"intelligence": 4,
		"mind": 23,
		"agility": 50,
		"dexterity": 57,
		"lucky": 15,
		"parameter_table_BattleEnemyParameterTable": 0,
		"parameter_deviation_table_BattleEnemyParameterDeviationTable": 0,
		"acquire_skill_group_id": 0,
		"level_correction": 0,
		"group_id": 0,
		"ai_script_id_BattleAIScript": 0
	},
	{
		"ID": 68544,
		"stage_BattleStage": 241017033,
		"unit_UnitUnit": 808213,
		"money": 260,
		"initial_coordinate_x": 2,
		"initial_coordinate_y": 7,
		"reinforcement_BattleReinforcement": 0,
		"initial_direction": 90.0,
		"ai_move_group": 0,
		"ai_target_move_x": -1,
		"ai_target_move_y": -1,
		"ai_skill_function": "",
		"ai_attack": "IF(panel_move_distance <= 5, 1, 0)",
		"ai_move": "IF(turn <2,0,1)",
		"ai_heal": "",
		"ai_skill": "",
		"ai_use": "",
		"skill_group_id": 563,
		"gear_GearGear": 80003,
		"gear_rank": 1,
		"proficiency_UnitProficiency": 1,
		"level": 52,
		"hp": 189,
		"strength": 43,
		"vitality": 24,
		"intelligence": 26,
		"mind": 19,
		"agility": 38,
		"dexterity": 63,
		"lucky": 33,
		"parameter_table_BattleEnemyParameterTable": 0,
		"parameter_deviation_table_BattleEnemyParameterDeviationTable": 0,
		"acquire_skill_group_id": 0,
		"level_correction": 0,
		"group_id": 0,
		"ai_script_id_BattleAIScript": 0
	},
	{
		"ID": 68545,
		"stage_BattleStage": 241017033,
		"unit_UnitUnit": 2822004,
		"money": 240,
		"initial_coordinate_x": 3,
		"initial_coordinate_y": 4,
		"reinforcement_BattleReinforcement": 0,
		"initial_direction": 90.0,
		"ai_move_group": 0,
		"ai_target_move_x": -1,
		"ai_target_move_y": -1,
		"ai_skill_function": "",
		"ai_attack": "IF(panel_move_distance <= 5, 1, 0)",
		"ai_move": "IF(turn <3,0,1)",
		"ai_heal": "",
		"ai_skill": "",
		"ai_use": "",
		"skill_group_id": 563,
		"gear_GearGear": 23001,
		"gear_rank": 1,
		"proficiency_UnitProficiency": 3,
		"level": 48,
		"hp": 75,
		"strength": 65,
		"vitality": 36,
		"intelligence": 6,
		"mind": 21,
		"agility": 44,
		"dexterity": 56,
		"lucky": 14,
		"parameter_table_BattleEnemyParameterTable": 0,
		"parameter_deviation_table_BattleEnemyParameterDeviationTable": 0,
		"acquire_skill_group_id": 0,
		"level_correction": 0,
		"group_id": 0,
		"ai_script_id_BattleAIScript": 0
	},
	{
		"ID": 68546,
		"stage_BattleStage": 241017033,
		"unit_UnitUnit": 2822004,
		"money": 245,
		"initial_coordinate_x": 2,
		"initial_coordinate_y": 3,
		"reinforcement_BattleReinforcement": 0,
		"initial_direction": 90.0,
		"ai_move_group": 0,
		"ai_target_move_x": -1,
		"ai_target_move_y": -1,
		"ai_skill_function": "",
		"ai_attack": "IF(panel_move_distance <= 5, 1, 0)",
		"ai_move": "IF(turn <3,0,1)",
		"ai_heal": "",
		"ai_skill": "",
		"ai_use": "",
		"skill_group_id": 563,
		"gear_GearGear": 23001,
		"gear_rank": 1,
		"proficiency_UnitProficiency": 3,
		"level": 49,
		"hp": 78,
		"strength": 66,
		"vitality": 37,
		"intelligence": 4,
		"mind": 21,
		"agility": 43,
		"dexterity": 55,
		"lucky": 15,
		"parameter_table_BattleEnemyParameterTable": 0,
		"parameter_deviation_table_BattleEnemyParameterDeviationTable": 0,
		"acquire_skill_group_id": 0,
		"level_correction": 0,
		"group_id": 0,
		"ai_script_id_BattleAIScript": 0
	}
]