[
	{
		"ID": 19519,
		"stage_BattleStage": 241009004,
		"unit_UnitUnit": 820003,
		"money": 25,
		"initial_coordinate_x": 2,
		"initial_coordinate_y": 4,
		"reinforcement_BattleReinforcement": 0,
		"initial_direction": 0.0,
		"ai_move_group": 0,
		"ai_target_move_x": -1,
		"ai_target_move_y": -1,
		"ai_skill_function": "",
		"ai_attack": "",
		"ai_move": "",
		"ai_heal": "",
		"ai_skill": "",
		"ai_use": "",
		"skill_group_id": 0,
		"gear_GearGear": 20001,
		"gear_rank": 1,
		"proficiency_UnitProficiency": 1,
		"level": 5,
		"hp": 21,
		"strength": 9,
		"vitality": 12,
		"intelligence": 0,
		"mind": 0,
		"agility": 2,
		"dexterity": 5,
		"lucky": 3,
		"parameter_table_BattleEnemyParameterTable": 0,
		"parameter_deviation_table_BattleEnemyParameterDeviationTable": 0,
		"acquire_skill_group_id": 0,
		"level_correction": 0,
		"group_id": 0,
		"ai_script_id_BattleAIScript": 0
	},
	{
		"ID": 19520,
		"stage_BattleStage": 241009004,
		"unit_UnitUnit": 820003,
		"money": 20,
		"initial_coordinate_x": 3,
		"initial_coordinate_y": 3,
		"reinforcement_BattleReinforcement": 0,
		"initial_direction": 0.0,
		"ai_move_group": 0,
		"ai_target_move_x": -1,
		"ai_target_move_y": -1,
		"ai_skill_function": "",
		"ai_attack": "",
		"ai_move": "",
		"ai_heal": "",
		"ai_skill": "",
		"ai_use": "",
		"skill_group_id": 0,
		"gear_GearGear": 20001,
		"gear_rank": 1,
		"proficiency_UnitProficiency": 1,
		"level": 4,
		"hp": 21,
		"strength": 8,
		"vitality": 11,
		"intelligence": 0,
		"mind": 0,
		"agility": 1,
		"dexterity": 4,
		"lucky": 3,
		"parameter_table_BattleEnemyParameterTable": 0,
		"parameter_deviation_table_BattleEnemyParameterDeviationTable": 0,
		"acquire_skill_group_id": 0,
		"level_correction": 0,
		"group_id": 0,
		"ai_script_id_BattleAIScript": 0
	},
	{
		"ID": 19521,
		"stage_BattleStage": 241009004,
		"unit_UnitUnit": 820003,
		"money": 25,
		"initial_coordinate_x": 5,
		"initial_coordinate_y": 2,
		"reinforcement_BattleReinforcement": 0,
		"initial_direction": 0.0,
		"ai_move_group": 0,
		"ai_target_move_x": -1,
		"ai_target_move_y": -1,
		"ai_skill_function": "",
		"ai_attack": "",
		"ai_move": "",
		"ai_heal": "",
		"ai_skill": "",
		"ai_use": "",
		"skill_group_id": 0,
		"gear_GearGear": 20001,
		"gear_rank": 1,
		"proficiency_UnitProficiency": 1,
		"level": 5,
		"hp": 21,
		"strength": 9,
		"vitality": 12,
		"intelligence": 0,
		"mind": 0,
		"agility": 2,
		"dexterity": 5,
		"lucky": 3,
		"parameter_table_BattleEnemyParameterTable": 0,
		"parameter_deviation_table_BattleEnemyParameterDeviationTable": 0,
		"acquire_skill_group_id": 0,
		"level_correction": 0,
		"group_id": 0,
		"ai_script_id_BattleAIScript": 0
	},
	{
		"ID": 19522,
		"stage_BattleStage": 241009004,
		"unit_UnitUnit": 830004,
		"money": 20,
		"initial_coordinate_x": 1,
		"initial_coordinate_y": 1,
		"reinforcement_BattleReinforcement": 0,
		"initial_direction": 0.0,
		"ai_move_group": 0,
		"ai_target_move_x": -1,
		"ai_target_move_y": -1,
		"ai_skill_function": "",
		"ai_attack": "",
		"ai_move": "",
		"ai_heal": "",
		"ai_skill": "",
		"ai_use": "",
		"skill_group_id": 0,
		"gear_GearGear": 30001,
		"gear_rank": 1,
		"proficiency_UnitProficiency": 1,
		"level": 4,
		"hp": 16,
		"strength": 7,
		"vitality": 5,
		"intelligence": 0,
		"mind": 1,
		"agility": 7,
		"dexterity": 7,
		"lucky": 3,
		"parameter_table_BattleEnemyParameterTable": 0,
		"parameter_deviation_table_BattleEnemyParameterDeviationTable": 0,
		"acquire_skill_group_id": 0,
		"level_correction": 0,
		"group_id": 0,
		"ai_script_id_BattleAIScript": 0
	},
	{
		"ID": 19523,
		"stage_BattleStage": 241009004,
		"unit_UnitUnit": 830004,
		"money": 25,
		"initial_coordinate_x": 2,
		"initial_coordinate_y": 1,
		"reinforcement_BattleReinforcement": 0,
		"initial_direction": 0.0,
		"ai_move_group": 0,
		"ai_target_move_x": -1,
		"ai_target_move_y": -1,
		"ai_skill_function": "",
		"ai_attack": "",
		"ai_move": "",
		"ai_heal": "",
		"ai_skill": "",
		"ai_use": "",
		"skill_group_id": 0,
		"gear_GearGear": 30001,
		"gear_rank": 1,
		"proficiency_UnitProficiency": 1,
		"level": 5,
		"hp": 17,
		"strength": 8,
		"vitality": 6,
		"intelligence": 0,
		"mind": 1,
		"agility": 7,
		"dexterity": 8,
		"lucky": 3,
		"parameter_table_BattleEnemyParameterTable": 0,
		"parameter_deviation_table_BattleEnemyParameterDeviationTable": 0,
		"acquire_skill_group_id": 0,
		"level_correction": 0,
		"group_id": 0,
		"ai_script_id_BattleAIScript": 0
	}
]