[
	{
		"ID": 98435,
		"stage_BattleStage": 241403041,
		"unit_UnitUnit": 830002,
		"money": 455,
		"initial_coordinate_x": 12,
		"initial_coordinate_y": 9,
		"reinforcement_BattleReinforcement": 0,
		"initial_direction": 180.0,
		"ai_move_group": 0,
		"ai_target_move_x": -1,
		"ai_target_move_y": -1,
		"ai_skill_function": "",
		"ai_attack": "",
		"ai_move": "",
		"ai_heal": "",
		"ai_skill": "",
		"ai_use": "",
		"skill_group_id": 22150,
		"gear_GearGear": 35004,
		"gear_rank": 1,
		"proficiency_UnitProficiency": 5,
		"level": 91,
		"hp": 127,
		"strength": 126,
		"vitality": 76,
		"intelligence": 13,
		"mind": 49,
		"agility": 93,
		"dexterity": 103,
		"lucky": 26,
		"parameter_table_BattleEnemyParameterTable": 0,
		"parameter_deviation_table_BattleEnemyParameterDeviationTable": 0,
		"acquire_skill_group_id": 0,
		"level_correction": 0,
		"group_id": 0,
		"ai_script_id_BattleAIScript": 0
	},
	{
		"ID": 98436,
		"stage_BattleStage": 241403041,
		"unit_UnitUnit": 830002,
		"money": 455,
		"initial_coordinate_x": 13,
		"initial_coordinate_y": 9,
		"reinforcement_BattleReinforcement": 0,
		"initial_direction": 180.0,
		"ai_move_group": 0,
		"ai_target_move_x": -1,
		"ai_target_move_y": -1,
		"ai_skill_function": "",
		"ai_attack": "",
		"ai_move": "",
		"ai_heal": "",
		"ai_skill": "",
		"ai_use": "",
		"skill_group_id": 22150,
		"gear_GearGear": 35004,
		"gear_rank": 1,
		"proficiency_UnitProficiency": 5,
		"level": 91,
		"hp": 128,
		"strength": 125,
		"vitality": 74,
		"intelligence": 13,
		"mind": 50,
		"agility": 94,
		"dexterity": 102,
		"lucky": 24,
		"parameter_table_BattleEnemyParameterTable": 0,
		"parameter_deviation_table_BattleEnemyParameterDeviationTable": 0,
		"acquire_skill_group_id": 0,
		"level_correction": 0,
		"group_id": 0,
		"ai_script_id_BattleAIScript": 0
	},
	{
		"ID": 98437,
		"stage_BattleStage": 241403041,
		"unit_UnitUnit": 830002,
		"money": 455,
		"initial_coordinate_x": 14,
		"initial_coordinate_y": 9,
		"reinforcement_BattleReinforcement": 0,
		"initial_direction": 180.0,
		"ai_move_group": 0,
		"ai_target_move_x": -1,
		"ai_target_move_y": -1,
		"ai_skill_function": "",
		"ai_attack": "",
		"ai_move": "",
		"ai_heal": "",
		"ai_skill": "",
		"ai_use": "",
		"skill_group_id": 22150,
		"gear_GearGear": 35004,
		"gear_rank": 1,
		"proficiency_UnitProficiency": 5,
		"level": 91,
		"hp": 128,
		"strength": 124,
		"vitality": 76,
		"intelligence": 13,
		"mind": 48,
		"agility": 93,
		"dexterity": 103,
		"lucky": 25,
		"parameter_table_BattleEnemyParameterTable": 0,
		"parameter_deviation_table_BattleEnemyParameterDeviationTable": 0,
		"acquire_skill_group_id": 0,
		"level_correction": 0,
		"group_id": 0,
		"ai_script_id_BattleAIScript": 0
	},
	{
		"ID": 98438,
		"stage_BattleStage": 241403041,
		"unit_UnitUnit": 830002,
		"money": 460,
		"initial_coordinate_x": 6,
		"initial_coordinate_y": 9,
		"reinforcement_BattleReinforcement": 0,
		"initial_direction": 90.0,
		"ai_move_group": 0,
		"ai_target_move_x": -1,
		"ai_target_move_y": -1,
		"ai_skill_function": "",
		"ai_attack": "",
		"ai_move": "",
		"ai_heal": "",
		"ai_skill": "",
		"ai_use": "",
		"skill_group_id": 22150,
		"gear_GearGear": 35004,
		"gear_rank": 1,
		"proficiency_UnitProficiency": 5,
		"level": 92,
		"hp": 129,
		"strength": 126,
		"vitality": 75,
		"intelligence": 12,
		"mind": 49,
		"agility": 95,
		"dexterity": 103,
		"lucky": 25,
		"parameter_table_BattleEnemyParameterTable": 0,
		"parameter_deviation_table_BattleEnemyParameterDeviationTable": 0,
		"acquire_skill_group_id": 0,
		"level_correction": 0,
		"group_id": 0,
		"ai_script_id_BattleAIScript": 0
	},
	{
		"ID": 98439,
		"stage_BattleStage": 241403041,
		"unit_UnitUnit": 830002,
		"money": 455,
		"initial_coordinate_x": 5,
		"initial_coordinate_y": 8,
		"reinforcement_BattleReinforcement": 0,
		"initial_direction": 90.0,
		"ai_move_group": 0,
		"ai_target_move_x": -1,
		"ai_target_move_y": -1,
		"ai_skill_function": "",
		"ai_attack": "",
		"ai_move": "",
		"ai_heal": "",
		"ai_skill": "",
		"ai_use": "",
		"skill_group_id": 22150,
		"gear_GearGear": 35004,
		"gear_rank": 1,
		"proficiency_UnitProficiency": 5,
		"level": 91,
		"hp": 126,
		"strength": 124,
		"vitality": 74,
		"intelligence": 11,
		"mind": 50,
		"agility": 94,
		"dexterity": 102,
		"lucky": 26,
		"parameter_table_BattleEnemyParameterTable": 0,
		"parameter_deviation_table_BattleEnemyParameterDeviationTable": 0,
		"acquire_skill_group_id": 0,
		"level_correction": 0,
		"group_id": 0,
		"ai_script_id_BattleAIScript": 0
	},
	{
		"ID": 98440,
		"stage_BattleStage": 241403041,
		"unit_UnitUnit": 830002,
		"money": 455,
		"initial_coordinate_x": 4,
		"initial_coordinate_y": 7,
		"reinforcement_BattleReinforcement": 0,
		"initial_direction": 90.0,
		"ai_move_group": 0,
		"ai_target_move_x": -1,
		"ai_target_move_y": -1,
		"ai_skill_function": "",
		"ai_attack": "",
		"ai_move": "",
		"ai_heal": "",
		"ai_skill": "",
		"ai_use": "",
		"skill_group_id": 22150,
		"gear_GearGear": 35004,
		"gear_rank": 1,
		"proficiency_UnitProficiency": 5,
		"level": 91,
		"hp": 127,
		"strength": 125,
		"vitality": 76,
		"intelligence": 12,
		"mind": 48,
		"agility": 95,
		"dexterity": 103,
		"lucky": 24,
		"parameter_table_BattleEnemyParameterTable": 0,
		"parameter_deviation_table_BattleEnemyParameterDeviationTable": 0,
		"acquire_skill_group_id": 0,
		"level_correction": 0,
		"group_id": 0,
		"ai_script_id_BattleAIScript": 0
	},
	{
		"ID": 98441,
		"stage_BattleStage": 241403041,
		"unit_UnitUnit": 811004,
		"money": 455,
		"initial_coordinate_x": 1,
		"initial_coordinate_y": 6,
		"reinforcement_BattleReinforcement": 0,
		"initial_direction": 0.0,
		"ai_move_group": 0,
		"ai_target_move_x": -1,
		"ai_target_move_y": -1,
		"ai_skill_function": "",
		"ai_attack": "IF(panel_move_distance <= 2, 1, 0)",
		"ai_move": "IF(turn <2,0,1)",
		"ai_heal": "",
		"ai_skill": "",
		"ai_use": "",
		"skill_group_id": 22148,
		"gear_GearGear": 15007,
		"gear_rank": 1,
		"proficiency_UnitProficiency": 5,
		"level": 91,
		"hp": 121,
		"strength": 127,
		"vitality": 71,
		"intelligence": 11,
		"mind": 43,
		"agility": 99,
		"dexterity": 120,
		"lucky": 26,
		"parameter_table_BattleEnemyParameterTable": 0,
		"parameter_deviation_table_BattleEnemyParameterDeviationTable": 0,
		"acquire_skill_group_id": 0,
		"level_correction": 0,
		"group_id": 0,
		"ai_script_id_BattleAIScript": 0
	},
	{
		"ID": 98442,
		"stage_BattleStage": 241403041,
		"unit_UnitUnit": 811004,
		"money": 455,
		"initial_coordinate_x": 2,
		"initial_coordinate_y": 5,
		"reinforcement_BattleReinforcement": 0,
		"initial_direction": 0.0,
		"ai_move_group": 0,
		"ai_target_move_x": -1,
		"ai_target_move_y": -1,
		"ai_skill_function": "",
		"ai_attack": "IF(panel_move_distance <= 2, 1, 0)",
		"ai_move": "IF(turn <2,0,1)",
		"ai_heal": "",
		"ai_skill": "",
		"ai_use": "",
		"skill_group_id": 22148,
		"gear_GearGear": 15007,
		"gear_rank": 1,
		"proficiency_UnitProficiency": 5,
		"level": 91,
		"hp": 119,
		"strength": 126,
		"vitality": 71,
		"intelligence": 12,
		"mind": 44,
		"agility": 98,
		"dexterity": 119,
		"lucky": 25,
		"parameter_table_BattleEnemyParameterTable": 0,
		"parameter_deviation_table_BattleEnemyParameterDeviationTable": 0,
		"acquire_skill_group_id": 0,
		"level_correction": 0,
		"group_id": 0,
		"ai_script_id_BattleAIScript": 0
	},
	{
		"ID": 98443,
		"stage_BattleStage": 241403041,
		"unit_UnitUnit": 811004,
		"money": 460,
		"initial_coordinate_x": 3,
		"initial_coordinate_y": 6,
		"reinforcement_BattleReinforcement": 0,
		"initial_direction": 0.0,
		"ai_move_group": 0,
		"ai_target_move_x": -1,
		"ai_target_move_y": -1,
		"ai_skill_function": "",
		"ai_attack": "IF(panel_move_distance <= 2, 1, 0)",
		"ai_move": "IF(turn <2,0,1)",
		"ai_heal": "",
		"ai_skill": "",
		"ai_use": "",
		"skill_group_id": 22148,
		"gear_GearGear": 15007,
		"gear_rank": 1,
		"proficiency_UnitProficiency": 5,
		"level": 92,
		"hp": 121,
		"strength": 127,
		"vitality": 73,
		"intelligence": 13,
		"mind": 45,
		"agility": 98,
		"dexterity": 119,
		"lucky": 24,
		"parameter_table_BattleEnemyParameterTable": 0,
		"parameter_deviation_table_BattleEnemyParameterDeviationTable": 0,
		"acquire_skill_group_id": 0,
		"level_correction": 0,
		"group_id": 0,
		"ai_script_id_BattleAIScript": 0
	},
	{
		"ID": 98444,
		"stage_BattleStage": 241403041,
		"unit_UnitUnit": 3100213,
		"money": 450,
		"initial_coordinate_x": 13,
		"initial_coordinate_y": 10,
		"reinforcement_BattleReinforcement": 0,
		"initial_direction": 180.0,
		"ai_move_group": 0,
		"ai_target_move_x": -1,
		"ai_target_move_y": -1,
		"ai_skill_function": "",
		"ai_attack": "IF(panel_move_distance <= 2, 1, 0)",
		"ai_move": "IF(turn <2,0,1)",
		"ai_heal": "",
		"ai_skill": "",
		"ai_use": "",
		"skill_group_id": 22149,
		"gear_GearGear": 17011,
		"gear_rank": 1,
		"proficiency_UnitProficiency": 6,
		"level": 90,
		"hp": 350,
		"strength": 125,
		"vitality": 71,
		"intelligence": 13,
		"mind": 44,
		"agility": 90,
		"dexterity": 103,
		"lucky": 40,
		"parameter_table_BattleEnemyParameterTable": 0,
		"parameter_deviation_table_BattleEnemyParameterDeviationTable": 0,
		"acquire_skill_group_id": 0,
		"level_correction": 0,
		"group_id": 0,
		"ai_script_id_BattleAIScript": 0
	},
	{
		"ID": 98445,
		"stage_BattleStage": 241403041,
		"unit_UnitUnit": 601414,
		"money": 500,
		"initial_coordinate_x": 3,
		"initial_coordinate_y": 4,
		"reinforcement_BattleReinforcement": 0,
		"initial_direction": 0.0,
		"ai_move_group": 0,
		"ai_target_move_x": -1,
		"ai_target_move_y": -1,
		"ai_skill_function": "",
		"ai_attack": "IF(panel_move_distance <= 2, 1, 0)",
		"ai_move": "IF(turn <2,0,1)",
		"ai_heal": "",
		"ai_skill": "",
		"ai_use": "",
		"skill_group_id": 22147,
		"gear_GearGear": 67010,
		"gear_rank": 1,
		"proficiency_UnitProficiency": 6,
		"level": 100,
		"hp": 300,
		"strength": 30,
		"vitality": 60,
		"intelligence": 120,
		"mind": 80,
		"agility": 98,
		"dexterity": 103,
		"lucky": 40,
		"parameter_table_BattleEnemyParameterTable": 0,
		"parameter_deviation_table_BattleEnemyParameterDeviationTable": 0,
		"acquire_skill_group_id": 0,
		"level_correction": 0,
		"group_id": 0,
		"ai_script_id_BattleAIScript": 0
	}
]