[
	{
		"ID": 71199,
		"stage_BattleStage": 241402343,
		"unit_UnitUnit": 3830008,
		"money": 500,
		"initial_coordinate_x": 19,
		"initial_coordinate_y": 8,
		"reinforcement_BattleReinforcement": 0,
		"initial_direction": 270.0,
		"ai_move_group": 0,
		"ai_target_move_x": -1,
		"ai_target_move_y": -1,
		"ai_skill_function": "",
		"ai_attack": "1.0",
		"ai_move": "1.0",
		"ai_heal": "",
		"ai_skill": "",
		"ai_use": "IF(turn % 5 == 2 , IF(1 == 1, USESKILL(100000381), 0),IF(own_hp < 0.3, IF(1 == 1,USESKILL(100000373), 0), IF(sum_own < 7, IF(1 == 1,USESKILL(100000372),0),0)))",
		"skill_group_id": 18391,
		"gear_GearGear": 80029,
		"gear_rank": 1,
		"proficiency_UnitProficiency": 1,
		"level": 100,
		"hp": 6666,
		"strength": 14,
		"vitality": 108,
		"intelligence": 122,
		"mind": 111,
		"agility": 121,
		"dexterity": 141,
		"lucky": 72,
		"parameter_table_BattleEnemyParameterTable": 0,
		"parameter_deviation_table_BattleEnemyParameterDeviationTable": 0,
		"acquire_skill_group_id": 0,
		"level_correction": 0,
		"group_id": 0,
		"ai_script_id_BattleAIScript": 0
	},
	{
		"ID": 71200,
		"stage_BattleStage": 241402343,
		"unit_UnitUnit": 3830009,
		"money": 450,
		"initial_coordinate_x": 16,
		"initial_coordinate_y": 9,
		"reinforcement_BattleReinforcement": 473,
		"initial_direction": 270.0,
		"ai_move_group": 0,
		"ai_target_move_x": -1,
		"ai_target_move_y": -1,
		"ai_skill_function": "",
		"ai_attack": "1.0",
		"ai_move": "1.0",
		"ai_heal": "",
		"ai_skill": "",
		"ai_use": "IF(own_hp > 0.99, USESKILL(100000384), 0)",
		"skill_group_id": 18392,
		"gear_GearGear": 80029,
		"gear_rank": 1,
		"proficiency_UnitProficiency": 1,
		"level": 90,
		"hp": 501,
		"strength": 10,
		"vitality": 106,
		"intelligence": 110,
		"mind": 104,
		"agility": 113,
		"dexterity": 137,
		"lucky": 66,
		"parameter_table_BattleEnemyParameterTable": 0,
		"parameter_deviation_table_BattleEnemyParameterDeviationTable": 0,
		"acquire_skill_group_id": 0,
		"level_correction": 0,
		"group_id": 473,
		"ai_script_id_BattleAIScript": 0
	},
	{
		"ID": 71201,
		"stage_BattleStage": 241402343,
		"unit_UnitUnit": 3830009,
		"money": 450,
		"initial_coordinate_x": 17,
		"initial_coordinate_y": 8,
		"reinforcement_BattleReinforcement": 473,
		"initial_direction": 270.0,
		"ai_move_group": 0,
		"ai_target_move_x": -1,
		"ai_target_move_y": -1,
		"ai_skill_function": "",
		"ai_attack": "1.0",
		"ai_move": "1.0",
		"ai_heal": "",
		"ai_skill": "",
		"ai_use": "IF(own_hp > 0.99, USESKILL(100000384), 0)",
		"skill_group_id": 18392,
		"gear_GearGear": 80029,
		"gear_rank": 1,
		"proficiency_UnitProficiency": 1,
		"level": 90,
		"hp": 502,
		"strength": 14,
		"vitality": 104,
		"intelligence": 114,
		"mind": 104,
		"agility": 116,
		"dexterity": 136,
		"lucky": 68,
		"parameter_table_BattleEnemyParameterTable": 0,
		"parameter_deviation_table_BattleEnemyParameterDeviationTable": 0,
		"acquire_skill_group_id": 0,
		"level_correction": 0,
		"group_id": 473,
		"ai_script_id_BattleAIScript": 0
	},
	{
		"ID": 71202,
		"stage_BattleStage": 241402343,
		"unit_UnitUnit": 3830009,
		"money": 450,
		"initial_coordinate_x": 18,
		"initial_coordinate_y": 7,
		"reinforcement_BattleReinforcement": 473,
		"initial_direction": 270.0,
		"ai_move_group": 0,
		"ai_target_move_x": -1,
		"ai_target_move_y": -1,
		"ai_skill_function": "",
		"ai_attack": "1.0",
		"ai_move": "1.0",
		"ai_heal": "",
		"ai_skill": "",
		"ai_use": "IF(own_hp > 0.99, USESKILL(100000384), 0)",
		"skill_group_id": 18392,
		"gear_GearGear": 80029,
		"gear_rank": 1,
		"proficiency_UnitProficiency": 1,
		"level": 90,
		"hp": 503,
		"strength": 11,
		"vitality": 106,
		"intelligence": 114,
		"mind": 105,
		"agility": 116,
		"dexterity": 134,
		"lucky": 70,
		"parameter_table_BattleEnemyParameterTable": 0,
		"parameter_deviation_table_BattleEnemyParameterDeviationTable": 0,
		"acquire_skill_group_id": 0,
		"level_correction": 0,
		"group_id": 473,
		"ai_script_id_BattleAIScript": 0
	},
	{
		"ID": 71203,
		"stage_BattleStage": 241402343,
		"unit_UnitUnit": 3830009,
		"money": 450,
		"initial_coordinate_x": 19,
		"initial_coordinate_y": 6,
		"reinforcement_BattleReinforcement": 473,
		"initial_direction": 270.0,
		"ai_move_group": 0,
		"ai_target_move_x": -1,
		"ai_target_move_y": -1,
		"ai_skill_function": "",
		"ai_attack": "1.0",
		"ai_move": "1.0",
		"ai_heal": "",
		"ai_skill": "",
		"ai_use": "IF(own_hp > 0.99, USESKILL(100000384), 0)",
		"skill_group_id": 18392,
		"gear_GearGear": 80029,
		"gear_rank": 1,
		"proficiency_UnitProficiency": 1,
		"level": 90,
		"hp": 501,
		"strength": 14,
		"vitality": 105,
		"intelligence": 112,
		"mind": 105,
		"agility": 116,
		"dexterity": 133,
		"lucky": 69,
		"parameter_table_BattleEnemyParameterTable": 0,
		"parameter_deviation_table_BattleEnemyParameterDeviationTable": 0,
		"acquire_skill_group_id": 0,
		"level_correction": 0,
		"group_id": 473,
		"ai_script_id_BattleAIScript": 0
	},
	{
		"ID": 71204,
		"stage_BattleStage": 241402343,
		"unit_UnitUnit": 3830009,
		"money": 450,
		"initial_coordinate_x": 13,
		"initial_coordinate_y": 8,
		"reinforcement_BattleReinforcement": 473,
		"initial_direction": 270.0,
		"ai_move_group": 0,
		"ai_target_move_x": -1,
		"ai_target_move_y": -1,
		"ai_skill_function": "",
		"ai_attack": "1.0",
		"ai_move": "1.0",
		"ai_heal": "",
		"ai_skill": "",
		"ai_use": "IF(own_hp > 0.99, USESKILL(100000384), 0)",
		"skill_group_id": 18392,
		"gear_GearGear": 80029,
		"gear_rank": 1,
		"proficiency_UnitProficiency": 1,
		"level": 90,
		"hp": 502,
		"strength": 11,
		"vitality": 104,
		"intelligence": 110,
		"mind": 104,
		"agility": 112,
		"dexterity": 135,
		"lucky": 70,
		"parameter_table_BattleEnemyParameterTable": 0,
		"parameter_deviation_table_BattleEnemyParameterDeviationTable": 0,
		"acquire_skill_group_id": 0,
		"level_correction": 0,
		"group_id": 473,
		"ai_script_id_BattleAIScript": 0
	},
	{
		"ID": 71205,
		"stage_BattleStage": 241402343,
		"unit_UnitUnit": 3830009,
		"money": 450,
		"initial_coordinate_x": 14,
		"initial_coordinate_y": 7,
		"reinforcement_BattleReinforcement": 473,
		"initial_direction": 270.0,
		"ai_move_group": 0,
		"ai_target_move_x": -1,
		"ai_target_move_y": -1,
		"ai_skill_function": "",
		"ai_attack": "1.0",
		"ai_move": "1.0",
		"ai_heal": "",
		"ai_skill": "",
		"ai_use": "IF(own_hp > 0.99, USESKILL(100000384), 0)",
		"skill_group_id": 18392,
		"gear_GearGear": 80029,
		"gear_rank": 1,
		"proficiency_UnitProficiency": 1,
		"level": 90,
		"hp": 500,
		"strength": 11,
		"vitality": 106,
		"intelligence": 114,
		"mind": 106,
		"agility": 112,
		"dexterity": 136,
		"lucky": 67,
		"parameter_table_BattleEnemyParameterTable": 0,
		"parameter_deviation_table_BattleEnemyParameterDeviationTable": 0,
		"acquire_skill_group_id": 0,
		"level_correction": 0,
		"group_id": 473,
		"ai_script_id_BattleAIScript": 0
	},
	{
		"ID": 71206,
		"stage_BattleStage": 241402343,
		"unit_UnitUnit": 3830009,
		"money": 450,
		"initial_coordinate_x": 16,
		"initial_coordinate_y": 5,
		"reinforcement_BattleReinforcement": 473,
		"initial_direction": 270.0,
		"ai_move_group": 0,
		"ai_target_move_x": -1,
		"ai_target_move_y": -1,
		"ai_skill_function": "",
		"ai_attack": "1.0",
		"ai_move": "1.0",
		"ai_heal": "",
		"ai_skill": "",
		"ai_use": "IF(own_hp > 0.99, USESKILL(100000384), 0)",
		"skill_group_id": 18392,
		"gear_GearGear": 80029,
		"gear_rank": 1,
		"proficiency_UnitProficiency": 1,
		"level": 90,
		"hp": 501,
		"strength": 12,
		"vitality": 107,
		"intelligence": 113,
		"mind": 106,
		"agility": 116,
		"dexterity": 137,
		"lucky": 68,
		"parameter_table_BattleEnemyParameterTable": 0,
		"parameter_deviation_table_BattleEnemyParameterDeviationTable": 0,
		"acquire_skill_group_id": 0,
		"level_correction": 0,
		"group_id": 473,
		"ai_script_id_BattleAIScript": 0
	},
	{
		"ID": 71207,
		"stage_BattleStage": 241402343,
		"unit_UnitUnit": 3830009,
		"money": 450,
		"initial_coordinate_x": 17,
		"initial_coordinate_y": 5,
		"reinforcement_BattleReinforcement": 473,
		"initial_direction": 270.0,
		"ai_move_group": 0,
		"ai_target_move_x": -1,
		"ai_target_move_y": -1,
		"ai_skill_function": "",
		"ai_attack": "1.0",
		"ai_move": "1.0",
		"ai_heal": "",
		"ai_skill": "",
		"ai_use": "IF(own_hp > 0.99, USESKILL(100000384), 0)",
		"skill_group_id": 18392,
		"gear_GearGear": 80029,
		"gear_rank": 1,
		"proficiency_UnitProficiency": 1,
		"level": 90,
		"hp": 501,
		"strength": 10,
		"vitality": 107,
		"intelligence": 113,
		"mind": 108,
		"agility": 116,
		"dexterity": 133,
		"lucky": 69,
		"parameter_table_BattleEnemyParameterTable": 0,
		"parameter_deviation_table_BattleEnemyParameterDeviationTable": 0,
		"acquire_skill_group_id": 0,
		"level_correction": 0,
		"group_id": 473,
		"ai_script_id_BattleAIScript": 0
	},
	{
		"ID": 71208,
		"stage_BattleStage": 241402343,
		"unit_UnitUnit": 3830009,
		"money": 450,
		"initial_coordinate_x": 11,
		"initial_coordinate_y": 8,
		"reinforcement_BattleReinforcement": 473,
		"initial_direction": 270.0,
		"ai_move_group": 0,
		"ai_target_move_x": -1,
		"ai_target_move_y": -1,
		"ai_skill_function": "",
		"ai_attack": "1.0",
		"ai_move": "1.0",
		"ai_heal": "",
		"ai_skill": "",
		"ai_use": "IF(own_hp > 0.99, USESKILL(100000384), 0)",
		"skill_group_id": 18392,
		"gear_GearGear": 80029,
		"gear_rank": 1,
		"proficiency_UnitProficiency": 1,
		"level": 90,
		"hp": 504,
		"strength": 10,
		"vitality": 104,
		"intelligence": 113,
		"mind": 108,
		"agility": 116,
		"dexterity": 137,
		"lucky": 69,
		"parameter_table_BattleEnemyParameterTable": 0,
		"parameter_deviation_table_BattleEnemyParameterDeviationTable": 0,
		"acquire_skill_group_id": 0,
		"level_correction": 0,
		"group_id": 473,
		"ai_script_id_BattleAIScript": 0
	},
	{
		"ID": 71209,
		"stage_BattleStage": 241402343,
		"unit_UnitUnit": 3830009,
		"money": 450,
		"initial_coordinate_x": 12,
		"initial_coordinate_y": 7,
		"reinforcement_BattleReinforcement": 473,
		"initial_direction": 270.0,
		"ai_move_group": 0,
		"ai_target_move_x": -1,
		"ai_target_move_y": -1,
		"ai_skill_function": "",
		"ai_attack": "1.0",
		"ai_move": "1.0",
		"ai_heal": "",
		"ai_skill": "",
		"ai_use": "IF(own_hp > 0.99, USESKILL(100000384), 0)",
		"skill_group_id": 18392,
		"gear_GearGear": 80029,
		"gear_rank": 1,
		"proficiency_UnitProficiency": 1,
		"level": 90,
		"hp": 502,
		"strength": 12,
		"vitality": 107,
		"intelligence": 112,
		"mind": 107,
		"agility": 112,
		"dexterity": 137,
		"lucky": 66,
		"parameter_table_BattleEnemyParameterTable": 0,
		"parameter_deviation_table_BattleEnemyParameterDeviationTable": 0,
		"acquire_skill_group_id": 0,
		"level_correction": 0,
		"group_id": 473,
		"ai_script_id_BattleAIScript": 0
	},
	{
		"ID": 71210,
		"stage_BattleStage": 241402343,
		"unit_UnitUnit": 3830009,
		"money": 450,
		"initial_coordinate_x": 13,
		"initial_coordinate_y": 6,
		"reinforcement_BattleReinforcement": 473,
		"initial_direction": 270.0,
		"ai_move_group": 0,
		"ai_target_move_x": -1,
		"ai_target_move_y": -1,
		"ai_skill_function": "",
		"ai_attack": "1.0",
		"ai_move": "1.0",
		"ai_heal": "",
		"ai_skill": "",
		"ai_use": "IF(own_hp > 0.99, USESKILL(100000384), 0)",
		"skill_group_id": 18392,
		"gear_GearGear": 80029,
		"gear_rank": 1,
		"proficiency_UnitProficiency": 1,
		"level": 90,
		"hp": 502,
		"strength": 11,
		"vitality": 106,
		"intelligence": 113,
		"mind": 105,
		"agility": 115,
		"dexterity": 136,
		"lucky": 68,
		"parameter_table_BattleEnemyParameterTable": 0,
		"parameter_deviation_table_BattleEnemyParameterDeviationTable": 0,
		"acquire_skill_group_id": 0,
		"level_correction": 0,
		"group_id": 473,
		"ai_script_id_BattleAIScript": 0
	},
	{
		"ID": 71211,
		"stage_BattleStage": 241402343,
		"unit_UnitUnit": 3830009,
		"money": 450,
		"initial_coordinate_x": 12,
		"initial_coordinate_y": 4,
		"reinforcement_BattleReinforcement": 473,
		"initial_direction": 270.0,
		"ai_move_group": 0,
		"ai_target_move_x": -1,
		"ai_target_move_y": -1,
		"ai_skill_function": "",
		"ai_attack": "1.0",
		"ai_move": "1.0",
		"ai_heal": "",
		"ai_skill": "",
		"ai_use": "IF(own_hp > 0.99, USESKILL(100000384), 0)",
		"skill_group_id": 18392,
		"gear_GearGear": 80029,
		"gear_rank": 1,
		"proficiency_UnitProficiency": 1,
		"level": 90,
		"hp": 502,
		"strength": 13,
		"vitality": 108,
		"intelligence": 111,
		"mind": 107,
		"agility": 113,
		"dexterity": 133,
		"lucky": 69,
		"parameter_table_BattleEnemyParameterTable": 0,
		"parameter_deviation_table_BattleEnemyParameterDeviationTable": 0,
		"acquire_skill_group_id": 0,
		"level_correction": 0,
		"group_id": 473,
		"ai_script_id_BattleAIScript": 0
	},
	{
		"ID": 71212,
		"stage_BattleStage": 241402343,
		"unit_UnitUnit": 3830009,
		"money": 450,
		"initial_coordinate_x": 13,
		"initial_coordinate_y": 9,
		"reinforcement_BattleReinforcement": 473,
		"initial_direction": 270.0,
		"ai_move_group": 0,
		"ai_target_move_x": -1,
		"ai_target_move_y": -1,
		"ai_skill_function": "",
		"ai_attack": "1.0",
		"ai_move": "1.0",
		"ai_heal": "",
		"ai_skill": "",
		"ai_use": "IF(own_hp > 0.99, USESKILL(100000384), 0)",
		"skill_group_id": 18392,
		"gear_GearGear": 80029,
		"gear_rank": 1,
		"proficiency_UnitProficiency": 1,
		"level": 90,
		"hp": 502,
		"strength": 13,
		"vitality": 105,
		"intelligence": 110,
		"mind": 106,
		"agility": 116,
		"dexterity": 136,
		"lucky": 69,
		"parameter_table_BattleEnemyParameterTable": 0,
		"parameter_deviation_table_BattleEnemyParameterDeviationTable": 0,
		"acquire_skill_group_id": 0,
		"level_correction": 0,
		"group_id": 473,
		"ai_script_id_BattleAIScript": 0
	},
	{
		"ID": 71213,
		"stage_BattleStage": 241402343,
		"unit_UnitUnit": 3830009,
		"money": 450,
		"initial_coordinate_x": 14,
		"initial_coordinate_y": 8,
		"reinforcement_BattleReinforcement": 473,
		"initial_direction": 270.0,
		"ai_move_group": 0,
		"ai_target_move_x": -1,
		"ai_target_move_y": -1,
		"ai_skill_function": "",
		"ai_attack": "1.0",
		"ai_move": "1.0",
		"ai_heal": "",
		"ai_skill": "",
		"ai_use": "IF(own_hp > 0.99, USESKILL(100000384), 0)",
		"skill_group_id": 18392,
		"gear_GearGear": 80029,
		"gear_rank": 1,
		"proficiency_UnitProficiency": 1,
		"level": 90,
		"hp": 500,
		"strength": 10,
		"vitality": 107,
		"intelligence": 110,
		"mind": 108,
		"agility": 112,
		"dexterity": 133,
		"lucky": 67,
		"parameter_table_BattleEnemyParameterTable": 0,
		"parameter_deviation_table_BattleEnemyParameterDeviationTable": 0,
		"acquire_skill_group_id": 0,
		"level_correction": 0,
		"group_id": 473,
		"ai_script_id_BattleAIScript": 0
	},
	{
		"ID": 71214,
		"stage_BattleStage": 241402343,
		"unit_UnitUnit": 3830009,
		"money": 450,
		"initial_coordinate_x": 15,
		"initial_coordinate_y": 7,
		"reinforcement_BattleReinforcement": 473,
		"initial_direction": 270.0,
		"ai_move_group": 0,
		"ai_target_move_x": -1,
		"ai_target_move_y": -1,
		"ai_skill_function": "",
		"ai_attack": "1.0",
		"ai_move": "1.0",
		"ai_heal": "",
		"ai_skill": "",
		"ai_use": "IF(own_hp > 0.99, USESKILL(100000384), 0)",
		"skill_group_id": 18392,
		"gear_GearGear": 80029,
		"gear_rank": 1,
		"proficiency_UnitProficiency": 1,
		"level": 90,
		"hp": 500,
		"strength": 12,
		"vitality": 104,
		"intelligence": 112,
		"mind": 104,
		"agility": 116,
		"dexterity": 134,
		"lucky": 66,
		"parameter_table_BattleEnemyParameterTable": 0,
		"parameter_deviation_table_BattleEnemyParameterDeviationTable": 0,
		"acquire_skill_group_id": 0,
		"level_correction": 0,
		"group_id": 473,
		"ai_script_id_BattleAIScript": 0
	},
	{
		"ID": 71215,
		"stage_BattleStage": 241402343,
		"unit_UnitUnit": 3830009,
		"money": 450,
		"initial_coordinate_x": 17,
		"initial_coordinate_y": 6,
		"reinforcement_BattleReinforcement": 473,
		"initial_direction": 270.0,
		"ai_move_group": 0,
		"ai_target_move_x": -1,
		"ai_target_move_y": -1,
		"ai_skill_function": "",
		"ai_attack": "1.0",
		"ai_move": "1.0",
		"ai_heal": "",
		"ai_skill": "",
		"ai_use": "IF(own_hp > 0.99, USESKILL(100000384), 0)",
		"skill_group_id": 18392,
		"gear_GearGear": 80029,
		"gear_rank": 1,
		"proficiency_UnitProficiency": 1,
		"level": 90,
		"hp": 504,
		"strength": 10,
		"vitality": 107,
		"intelligence": 112,
		"mind": 106,
		"agility": 115,
		"dexterity": 135,
		"lucky": 70,
		"parameter_table_BattleEnemyParameterTable": 0,
		"parameter_deviation_table_BattleEnemyParameterDeviationTable": 0,
		"acquire_skill_group_id": 0,
		"level_correction": 0,
		"group_id": 473,
		"ai_script_id_BattleAIScript": 0
	},
	{
		"ID": 71216,
		"stage_BattleStage": 241402343,
		"unit_UnitUnit": 3830009,
		"money": 450,
		"initial_coordinate_x": 18,
		"initial_coordinate_y": 5,
		"reinforcement_BattleReinforcement": 473,
		"initial_direction": 270.0,
		"ai_move_group": 0,
		"ai_target_move_x": -1,
		"ai_target_move_y": -1,
		"ai_skill_function": "",
		"ai_attack": "1.0",
		"ai_move": "1.0",
		"ai_heal": "",
		"ai_skill": "",
		"ai_use": "IF(own_hp > 0.99, USESKILL(100000384), 0)",
		"skill_group_id": 18392,
		"gear_GearGear": 80029,
		"gear_rank": 1,
		"proficiency_UnitProficiency": 1,
		"level": 90,
		"hp": 503,
		"strength": 12,
		"vitality": 104,
		"intelligence": 110,
		"mind": 108,
		"agility": 114,
		"dexterity": 135,
		"lucky": 68,
		"parameter_table_BattleEnemyParameterTable": 0,
		"parameter_deviation_table_BattleEnemyParameterDeviationTable": 0,
		"acquire_skill_group_id": 0,
		"level_correction": 0,
		"group_id": 473,
		"ai_script_id_BattleAIScript": 0
	},
	{
		"ID": 71217,
		"stage_BattleStage": 241402343,
		"unit_UnitUnit": 3830009,
		"money": 450,
		"initial_coordinate_x": 18,
		"initial_coordinate_y": 8,
		"reinforcement_BattleReinforcement": 473,
		"initial_direction": 270.0,
		"ai_move_group": 0,
		"ai_target_move_x": -1,
		"ai_target_move_y": -1,
		"ai_skill_function": "",
		"ai_attack": "1.0",
		"ai_move": "1.0",
		"ai_heal": "",
		"ai_skill": "",
		"ai_use": "IF(own_hp > 0.99, USESKILL(100000384), 0)",
		"skill_group_id": 18392,
		"gear_GearGear": 80029,
		"gear_rank": 1,
		"proficiency_UnitProficiency": 1,
		"level": 90,
		"hp": 501,
		"strength": 11,
		"vitality": 106,
		"intelligence": 111,
		"mind": 105,
		"agility": 116,
		"dexterity": 133,
		"lucky": 69,
		"parameter_table_BattleEnemyParameterTable": 0,
		"parameter_deviation_table_BattleEnemyParameterDeviationTable": 0,
		"acquire_skill_group_id": 0,
		"level_correction": 0,
		"group_id": 473,
		"ai_script_id_BattleAIScript": 0
	},
	{
		"ID": 71218,
		"stage_BattleStage": 241402343,
		"unit_UnitUnit": 3830009,
		"money": 450,
		"initial_coordinate_x": 19,
		"initial_coordinate_y": 7,
		"reinforcement_BattleReinforcement": 473,
		"initial_direction": 270.0,
		"ai_move_group": 0,
		"ai_target_move_x": -1,
		"ai_target_move_y": -1,
		"ai_skill_function": "",
		"ai_attack": "1.0",
		"ai_move": "1.0",
		"ai_heal": "",
		"ai_skill": "",
		"ai_use": "IF(own_hp > 0.99, USESKILL(100000384), 0)",
		"skill_group_id": 18392,
		"gear_GearGear": 80029,
		"gear_rank": 1,
		"proficiency_UnitProficiency": 1,
		"level": 90,
		"hp": 504,
		"strength": 12,
		"vitality": 106,
		"intelligence": 112,
		"mind": 104,
		"agility": 112,
		"dexterity": 134,
		"lucky": 67,
		"parameter_table_BattleEnemyParameterTable": 0,
		"parameter_deviation_table_BattleEnemyParameterDeviationTable": 0,
		"acquire_skill_group_id": 0,
		"level_correction": 0,
		"group_id": 473,
		"ai_script_id_BattleAIScript": 0
	}
]