[
	{
		"ID": 27841,
		"stage_BattleStage": 271002215,
		"unit_UnitUnit": 820004,
		"money": 45,
		"initial_coordinate_x": 12,
		"initial_coordinate_y": 9,
		"reinforcement_BattleReinforcement": 0,
		"initial_direction": 270.0,
		"ai_move_group": 0,
		"ai_target_move_x": -1,
		"ai_target_move_y": -1,
		"ai_skill_function": "",
		"ai_attack": "",
		"ai_move": "",
		"ai_heal": "",
		"ai_skill": "",
		"ai_use": "",
		"skill_group_id": 480,
		"gear_GearGear": 23001,
		"gear_rank": 1,
		"proficiency_UnitProficiency": 3,
		"level": 9,
		"hp": 45,
		"strength": 38,
		"vitality": 34,
		"intelligence": 0,
		"mind": 10,
		"agility": 24,
		"dexterity": 32,
		"lucky": 4,
		"parameter_table_BattleEnemyParameterTable": 18200043,
		"parameter_deviation_table_BattleEnemyParameterDeviationTable": 1,
		"acquire_skill_group_id": 129,
		"level_correction": -1,
		"group_id": 0,
		"ai_script_id_BattleAIScript": 0
	},
	{
		"ID": 27842,
		"stage_BattleStage": 271002215,
		"unit_UnitUnit": 820004,
		"money": 50,
		"initial_coordinate_x": 13,
		"initial_coordinate_y": 9,
		"reinforcement_BattleReinforcement": 0,
		"initial_direction": 270.0,
		"ai_move_group": 0,
		"ai_target_move_x": -1,
		"ai_target_move_y": -1,
		"ai_skill_function": "",
		"ai_attack": "",
		"ai_move": "",
		"ai_heal": "",
		"ai_skill": "",
		"ai_use": "",
		"skill_group_id": 480,
		"gear_GearGear": 22002,
		"gear_rank": 1,
		"proficiency_UnitProficiency": 2,
		"level": 10,
		"hp": 46,
		"strength": 39,
		"vitality": 34,
		"intelligence": 0,
		"mind": 11,
		"agility": 24,
		"dexterity": 33,
		"lucky": 4,
		"parameter_table_BattleEnemyParameterTable": 18200043,
		"parameter_deviation_table_BattleEnemyParameterDeviationTable": 1,
		"acquire_skill_group_id": 129,
		"level_correction": -2,
		"group_id": 0,
		"ai_script_id_BattleAIScript": 0
	},
	{
		"ID": 27843,
		"stage_BattleStage": 271002215,
		"unit_UnitUnit": 820004,
		"money": 55,
		"initial_coordinate_x": 12,
		"initial_coordinate_y": 8,
		"reinforcement_BattleReinforcement": 0,
		"initial_direction": 270.0,
		"ai_move_group": 0,
		"ai_target_move_x": -1,
		"ai_target_move_y": -1,
		"ai_skill_function": "",
		"ai_attack": "",
		"ai_move": "",
		"ai_heal": "",
		"ai_skill": "",
		"ai_use": "",
		"skill_group_id": 480,
		"gear_GearGear": 23002,
		"gear_rank": 1,
		"proficiency_UnitProficiency": 3,
		"level": 11,
		"hp": 47,
		"strength": 40,
		"vitality": 35,
		"intelligence": 0,
		"mind": 11,
		"agility": 25,
		"dexterity": 33,
		"lucky": 5,
		"parameter_table_BattleEnemyParameterTable": 18200043,
		"parameter_deviation_table_BattleEnemyParameterDeviationTable": 1,
		"acquire_skill_group_id": 129,
		"level_correction": -1,
		"group_id": 0,
		"ai_script_id_BattleAIScript": 0
	},
	{
		"ID": 27844,
		"stage_BattleStage": 271002215,
		"unit_UnitUnit": 820004,
		"money": 60,
		"initial_coordinate_x": 13,
		"initial_coordinate_y": 8,
		"reinforcement_BattleReinforcement": 0,
		"initial_direction": 270.0,
		"ai_move_group": 0,
		"ai_target_move_x": -1,
		"ai_target_move_y": -1,
		"ai_skill_function": "",
		"ai_attack": "",
		"ai_move": "",
		"ai_heal": "",
		"ai_skill": "",
		"ai_use": "",
		"skill_group_id": 480,
		"gear_GearGear": 23001,
		"gear_rank": 1,
		"proficiency_UnitProficiency": 3,
		"level": 12,
		"hp": 48,
		"strength": 41,
		"vitality": 36,
		"intelligence": 0,
		"mind": 11,
		"agility": 25,
		"dexterity": 34,
		"lucky": 5,
		"parameter_table_BattleEnemyParameterTable": 18200043,
		"parameter_deviation_table_BattleEnemyParameterDeviationTable": 1,
		"acquire_skill_group_id": 129,
		"level_correction": 0,
		"group_id": 0,
		"ai_script_id_BattleAIScript": 0
	},
	{
		"ID": 27845,
		"stage_BattleStage": 271002215,
		"unit_UnitUnit": 820004,
		"money": 65,
		"initial_coordinate_x": 14,
		"initial_coordinate_y": 2,
		"reinforcement_BattleReinforcement": 0,
		"initial_direction": 270.0,
		"ai_move_group": 0,
		"ai_target_move_x": -1,
		"ai_target_move_y": -1,
		"ai_skill_function": "",
		"ai_attack": "",
		"ai_move": "",
		"ai_heal": "",
		"ai_skill": "",
		"ai_use": "",
		"skill_group_id": 480,
		"gear_GearGear": 23003,
		"gear_rank": 1,
		"proficiency_UnitProficiency": 3,
		"level": 13,
		"hp": 48,
		"strength": 41,
		"vitality": 36,
		"intelligence": 0,
		"mind": 11,
		"agility": 26,
		"dexterity": 35,
		"lucky": 5,
		"parameter_table_BattleEnemyParameterTable": 18200043,
		"parameter_deviation_table_BattleEnemyParameterDeviationTable": 1,
		"acquire_skill_group_id": 129,
		"level_correction": -1,
		"group_id": 0,
		"ai_script_id_BattleAIScript": 0
	},
	{
		"ID": 27846,
		"stage_BattleStage": 271002215,
		"unit_UnitUnit": 900029,
		"money": 60,
		"initial_coordinate_x": 15,
		"initial_coordinate_y": 2,
		"reinforcement_BattleReinforcement": 0,
		"initial_direction": 270.0,
		"ai_move_group": 0,
		"ai_target_move_x": -1,
		"ai_target_move_y": -1,
		"ai_skill_function": "",
		"ai_attack": "",
		"ai_move": "",
		"ai_heal": "",
		"ai_skill": "",
		"ai_use": "",
		"skill_group_id": 480,
		"gear_GearGear": 34006,
		"gear_rank": 1,
		"proficiency_UnitProficiency": 4,
		"level": 12,
		"hp": 49,
		"strength": 42,
		"vitality": 37,
		"intelligence": 0,
		"mind": 12,
		"agility": 26,
		"dexterity": 35,
		"lucky": 5,
		"parameter_table_BattleEnemyParameterTable": 19000292,
		"parameter_deviation_table_BattleEnemyParameterDeviationTable": 1,
		"acquire_skill_group_id": 46,
		"level_correction": -2,
		"group_id": 0,
		"ai_script_id_BattleAIScript": 0
	},
	{
		"ID": 27847,
		"stage_BattleStage": 271002215,
		"unit_UnitUnit": 820003,
		"money": 55,
		"initial_coordinate_x": 9,
		"initial_coordinate_y": 9,
		"reinforcement_BattleReinforcement": 0,
		"initial_direction": 270.0,
		"ai_move_group": 0,
		"ai_target_move_x": -1,
		"ai_target_move_y": -1,
		"ai_skill_function": "",
		"ai_attack": "",
		"ai_move": "",
		"ai_heal": "",
		"ai_skill": "",
		"ai_use": "",
		"skill_group_id": 480,
		"gear_GearGear": 22002,
		"gear_rank": 1,
		"proficiency_UnitProficiency": 2,
		"level": 11,
		"hp": 59,
		"strength": 45,
		"vitality": 50,
		"intelligence": 0,
		"mind": 3,
		"agility": 17,
		"dexterity": 31,
		"lucky": 5,
		"parameter_table_BattleEnemyParameterTable": 18200033,
		"parameter_deviation_table_BattleEnemyParameterDeviationTable": 1,
		"acquire_skill_group_id": 129,
		"level_correction": -1,
		"group_id": 0,
		"ai_script_id_BattleAIScript": 0
	},
	{
		"ID": 27848,
		"stage_BattleStage": 271002215,
		"unit_UnitUnit": 820003,
		"money": 50,
		"initial_coordinate_x": 10,
		"initial_coordinate_y": 9,
		"reinforcement_BattleReinforcement": 0,
		"initial_direction": 270.0,
		"ai_move_group": 0,
		"ai_target_move_x": -1,
		"ai_target_move_y": -1,
		"ai_skill_function": "",
		"ai_attack": "",
		"ai_move": "",
		"ai_heal": "",
		"ai_skill": "",
		"ai_use": "",
		"skill_group_id": 480,
		"gear_GearGear": 22005,
		"gear_rank": 1,
		"proficiency_UnitProficiency": 2,
		"level": 10,
		"hp": 58,
		"strength": 44,
		"vitality": 49,
		"intelligence": 0,
		"mind": 3,
		"agility": 16,
		"dexterity": 31,
		"lucky": 5,
		"parameter_table_BattleEnemyParameterTable": 18200033,
		"parameter_deviation_table_BattleEnemyParameterDeviationTable": 1,
		"acquire_skill_group_id": 129,
		"level_correction": 0,
		"group_id": 0,
		"ai_script_id_BattleAIScript": 0
	},
	{
		"ID": 27849,
		"stage_BattleStage": 271002215,
		"unit_UnitUnit": 820003,
		"money": 45,
		"initial_coordinate_x": 8,
		"initial_coordinate_y": 5,
		"reinforcement_BattleReinforcement": 0,
		"initial_direction": 270.0,
		"ai_move_group": 0,
		"ai_target_move_x": -1,
		"ai_target_move_y": -1,
		"ai_skill_function": "",
		"ai_attack": "",
		"ai_move": "",
		"ai_heal": "",
		"ai_skill": "",
		"ai_use": "",
		"skill_group_id": 480,
		"gear_GearGear": 23004,
		"gear_rank": 1,
		"proficiency_UnitProficiency": 3,
		"level": 9,
		"hp": 58,
		"strength": 43,
		"vitality": 48,
		"intelligence": 0,
		"mind": 3,
		"agility": 16,
		"dexterity": 30,
		"lucky": 5,
		"parameter_table_BattleEnemyParameterTable": 18200033,
		"parameter_deviation_table_BattleEnemyParameterDeviationTable": 1,
		"acquire_skill_group_id": 129,
		"level_correction": -1,
		"group_id": 0,
		"ai_script_id_BattleAIScript": 0
	},
	{
		"ID": 27850,
		"stage_BattleStage": 271002215,
		"unit_UnitUnit": 820003,
		"money": 40,
		"initial_coordinate_x": 9,
		"initial_coordinate_y": 5,
		"reinforcement_BattleReinforcement": 0,
		"initial_direction": 270.0,
		"ai_move_group": 0,
		"ai_target_move_x": -1,
		"ai_target_move_y": -1,
		"ai_skill_function": "",
		"ai_attack": "",
		"ai_move": "",
		"ai_heal": "",
		"ai_skill": "",
		"ai_use": "",
		"skill_group_id": 480,
		"gear_GearGear": 22005,
		"gear_rank": 1,
		"proficiency_UnitProficiency": 2,
		"level": 8,
		"hp": 57,
		"strength": 42,
		"vitality": 48,
		"intelligence": 0,
		"mind": 3,
		"agility": 16,
		"dexterity": 29,
		"lucky": 5,
		"parameter_table_BattleEnemyParameterTable": 18200033,
		"parameter_deviation_table_BattleEnemyParameterDeviationTable": 1,
		"acquire_skill_group_id": 129,
		"level_correction": 0,
		"group_id": 0,
		"ai_script_id_BattleAIScript": 0
	},
	{
		"ID": 27851,
		"stage_BattleStage": 271002215,
		"unit_UnitUnit": 820003,
		"money": 35,
		"initial_coordinate_x": 10,
		"initial_coordinate_y": 2,
		"reinforcement_BattleReinforcement": 0,
		"initial_direction": 270.0,
		"ai_move_group": 0,
		"ai_target_move_x": -1,
		"ai_target_move_y": -1,
		"ai_skill_function": "",
		"ai_attack": "",
		"ai_move": "",
		"ai_heal": "",
		"ai_skill": "",
		"ai_use": "",
		"skill_group_id": 480,
		"gear_GearGear": 24004,
		"gear_rank": 1,
		"proficiency_UnitProficiency": 4,
		"level": 7,
		"hp": 56,
		"strength": 41,
		"vitality": 47,
		"intelligence": 0,
		"mind": 3,
		"agility": 15,
		"dexterity": 29,
		"lucky": 5,
		"parameter_table_BattleEnemyParameterTable": 18200033,
		"parameter_deviation_table_BattleEnemyParameterDeviationTable": 1,
		"acquire_skill_group_id": 129,
		"level_correction": -1,
		"group_id": 0,
		"ai_script_id_BattleAIScript": 0
	},
	{
		"ID": 27852,
		"stage_BattleStage": 271002215,
		"unit_UnitUnit": 820003,
		"money": 40,
		"initial_coordinate_x": 11,
		"initial_coordinate_y": 2,
		"reinforcement_BattleReinforcement": 0,
		"initial_direction": 270.0,
		"ai_move_group": 0,
		"ai_target_move_x": -1,
		"ai_target_move_y": -1,
		"ai_skill_function": "",
		"ai_attack": "",
		"ai_move": "",
		"ai_heal": "",
		"ai_skill": "",
		"ai_use": "",
		"skill_group_id": 480,
		"gear_GearGear": 23001,
		"gear_rank": 1,
		"proficiency_UnitProficiency": 3,
		"level": 8,
		"hp": 55,
		"strength": 40,
		"vitality": 46,
		"intelligence": 0,
		"mind": 3,
		"agility": 15,
		"dexterity": 28,
		"lucky": 4,
		"parameter_table_BattleEnemyParameterTable": 18200033,
		"parameter_deviation_table_BattleEnemyParameterDeviationTable": 1,
		"acquire_skill_group_id": 129,
		"level_correction": -2,
		"group_id": 0,
		"ai_script_id_BattleAIScript": 0
	},
	{
		"ID": 27853,
		"stage_BattleStage": 271002215,
		"unit_UnitUnit": 900028,
		"money": 45,
		"initial_coordinate_x": 15,
		"initial_coordinate_y": 9,
		"reinforcement_BattleReinforcement": 0,
		"initial_direction": 270.0,
		"ai_move_group": 0,
		"ai_target_move_x": -1,
		"ai_target_move_y": -1,
		"ai_skill_function": "",
		"ai_attack": "",
		"ai_move": "",
		"ai_heal": "",
		"ai_skill": "",
		"ai_use": "",
		"skill_group_id": 480,
		"gear_GearGear": 13002,
		"gear_rank": 1,
		"proficiency_UnitProficiency": 3,
		"level": 9,
		"hp": 58,
		"strength": 42,
		"vitality": 40,
		"intelligence": 0,
		"mind": 9,
		"agility": 16,
		"dexterity": 34,
		"lucky": 3,
		"parameter_table_BattleEnemyParameterTable": 19000282,
		"parameter_deviation_table_BattleEnemyParameterDeviationTable": 1,
		"acquire_skill_group_id": 61,
		"level_correction": -1,
		"group_id": 0,
		"ai_script_id_BattleAIScript": 0
	},
	{
		"ID": 27854,
		"stage_BattleStage": 271002215,
		"unit_UnitUnit": 820008,
		"money": 50,
		"initial_coordinate_x": 16,
		"initial_coordinate_y": 9,
		"reinforcement_BattleReinforcement": 0,
		"initial_direction": 270.0,
		"ai_move_group": 0,
		"ai_target_move_x": -1,
		"ai_target_move_y": -1,
		"ai_skill_function": "",
		"ai_attack": "",
		"ai_move": "",
		"ai_heal": "",
		"ai_skill": "",
		"ai_use": "",
		"skill_group_id": 480,
		"gear_GearGear": 22001,
		"gear_rank": 1,
		"proficiency_UnitProficiency": 2,
		"level": 10,
		"hp": 59,
		"strength": 43,
		"vitality": 41,
		"intelligence": 0,
		"mind": 9,
		"agility": 17,
		"dexterity": 35,
		"lucky": 3,
		"parameter_table_BattleEnemyParameterTable": 18200083,
		"parameter_deviation_table_BattleEnemyParameterDeviationTable": 1,
		"acquire_skill_group_id": 129,
		"level_correction": 0,
		"group_id": 0,
		"ai_script_id_BattleAIScript": 0
	},
	{
		"ID": 27855,
		"stage_BattleStage": 271002215,
		"unit_UnitUnit": 820008,
		"money": 55,
		"initial_coordinate_x": 15,
		"initial_coordinate_y": 6,
		"reinforcement_BattleReinforcement": 0,
		"initial_direction": 270.0,
		"ai_move_group": 0,
		"ai_target_move_x": -1,
		"ai_target_move_y": -1,
		"ai_skill_function": "",
		"ai_attack": "",
		"ai_move": "",
		"ai_heal": "",
		"ai_skill": "",
		"ai_use": "",
		"skill_group_id": 480,
		"gear_GearGear": 21002,
		"gear_rank": 1,
		"proficiency_UnitProficiency": 1,
		"level": 11,
		"hp": 60,
		"strength": 44,
		"vitality": 41,
		"intelligence": 0,
		"mind": 10,
		"agility": 17,
		"dexterity": 36,
		"lucky": 3,
		"parameter_table_BattleEnemyParameterTable": 18200083,
		"parameter_deviation_table_BattleEnemyParameterDeviationTable": 1,
		"acquire_skill_group_id": 129,
		"level_correction": -1,
		"group_id": 0,
		"ai_script_id_BattleAIScript": 0
	},
	{
		"ID": 27856,
		"stage_BattleStage": 271002215,
		"unit_UnitUnit": 820008,
		"money": 60,
		"initial_coordinate_x": 16,
		"initial_coordinate_y": 6,
		"reinforcement_BattleReinforcement": 0,
		"initial_direction": 270.0,
		"ai_move_group": 0,
		"ai_target_move_x": -1,
		"ai_target_move_y": -1,
		"ai_skill_function": "",
		"ai_attack": "",
		"ai_move": "",
		"ai_heal": "",
		"ai_skill": "",
		"ai_use": "",
		"skill_group_id": 480,
		"gear_GearGear": 22003,
		"gear_rank": 1,
		"proficiency_UnitProficiency": 2,
		"level": 12,
		"hp": 61,
		"strength": 45,
		"vitality": 42,
		"intelligence": 0,
		"mind": 10,
		"agility": 17,
		"dexterity": 37,
		"lucky": 3,
		"parameter_table_BattleEnemyParameterTable": 18200083,
		"parameter_deviation_table_BattleEnemyParameterDeviationTable": 1,
		"acquire_skill_group_id": 129,
		"level_correction": -2,
		"group_id": 0,
		"ai_script_id_BattleAIScript": 0
	},
	{
		"ID": 27857,
		"stage_BattleStage": 271002215,
		"unit_UnitUnit": 820008,
		"money": 55,
		"initial_coordinate_x": 16,
		"initial_coordinate_y": 3,
		"reinforcement_BattleReinforcement": 0,
		"initial_direction": 270.0,
		"ai_move_group": 0,
		"ai_target_move_x": -1,
		"ai_target_move_y": -1,
		"ai_skill_function": "",
		"ai_attack": "",
		"ai_move": "",
		"ai_heal": "",
		"ai_skill": "",
		"ai_use": "",
		"skill_group_id": 480,
		"gear_GearGear": 22001,
		"gear_rank": 1,
		"proficiency_UnitProficiency": 2,
		"level": 11,
		"hp": 62,
		"strength": 46,
		"vitality": 43,
		"intelligence": 0,
		"mind": 10,
		"agility": 18,
		"dexterity": 37,
		"lucky": 3,
		"parameter_table_BattleEnemyParameterTable": 18200083,
		"parameter_deviation_table_BattleEnemyParameterDeviationTable": 1,
		"acquire_skill_group_id": 129,
		"level_correction": -1,
		"group_id": 0,
		"ai_script_id_BattleAIScript": 0
	},
	{
		"ID": 27858,
		"stage_BattleStage": 271002215,
		"unit_UnitUnit": 820008,
		"money": 50,
		"initial_coordinate_x": 17,
		"initial_coordinate_y": 3,
		"reinforcement_BattleReinforcement": 0,
		"initial_direction": 270.0,
		"ai_move_group": 0,
		"ai_target_move_x": -1,
		"ai_target_move_y": -1,
		"ai_skill_function": "",
		"ai_attack": "",
		"ai_move": "",
		"ai_heal": "",
		"ai_skill": "",
		"ai_use": "",
		"skill_group_id": 480,
		"gear_GearGear": 23001,
		"gear_rank": 1,
		"proficiency_UnitProficiency": 3,
		"level": 10,
		"hp": 62,
		"strength": 46,
		"vitality": 44,
		"intelligence": 0,
		"mind": 10,
		"agility": 18,
		"dexterity": 38,
		"lucky": 3,
		"parameter_table_BattleEnemyParameterTable": 18200083,
		"parameter_deviation_table_BattleEnemyParameterDeviationTable": 1,
		"acquire_skill_group_id": 129,
		"level_correction": 0,
		"group_id": 0,
		"ai_script_id_BattleAIScript": 0
	},
	{
		"ID": 27859,
		"stage_BattleStage": 271002215,
		"unit_UnitUnit": 501913,
		"money": 45,
		"initial_coordinate_x": 10,
		"initial_coordinate_y": 4,
		"reinforcement_BattleReinforcement": 0,
		"initial_direction": 270.0,
		"ai_move_group": 0,
		"ai_target_move_x": -1,
		"ai_target_move_y": -1,
		"ai_skill_function": "",
		"ai_attack": "",
		"ai_move": "",
		"ai_heal": "",
		"ai_skill": "",
		"ai_use": "",
		"skill_group_id": 492,
		"gear_GearGear": 53003,
		"gear_rank": 1,
		"proficiency_UnitProficiency": 3,
		"level": 9,
		"hp": 43,
		"strength": 5,
		"vitality": 29,
		"intelligence": 30,
		"mind": 24,
		"agility": 28,
		"dexterity": 32,
		"lucky": 5,
		"parameter_table_BattleEnemyParameterTable": 15019132,
		"parameter_deviation_table_BattleEnemyParameterDeviationTable": 1,
		"acquire_skill_group_id": 58,
		"level_correction": -1,
		"group_id": 0,
		"ai_script_id_BattleAIScript": 0
	}
]