[
	{
		"ID": 26925,
		"stage_BattleStage": 271002103,
		"unit_UnitUnit": 900026,
		"money": 15,
		"initial_coordinate_x": 4,
		"initial_coordinate_y": 3,
		"reinforcement_BattleReinforcement": 0,
		"initial_direction": 90.0,
		"ai_move_group": 0,
		"ai_target_move_x": -1,
		"ai_target_move_y": -1,
		"ai_skill_function": "",
		"ai_attack": "",
		"ai_move": "",
		"ai_heal": "",
		"ai_skill": "",
		"ai_use": "",
		"skill_group_id": 0,
		"gear_GearGear": 40001,
		"gear_rank": 1,
		"proficiency_UnitProficiency": 1,
		"level": 3,
		"hp": 15,
		"strength": 7,
		"vitality": 9,
		"intelligence": 0,
		"mind": 3,
		"agility": 8,
		"dexterity": 9,
		"lucky": 3,
		"parameter_table_BattleEnemyParameterTable": 19000261,
		"parameter_deviation_table_BattleEnemyParameterDeviationTable": 8,
		"acquire_skill_group_id": 62,
		"level_correction": -4,
		"group_id": 0,
		"ai_script_id_BattleAIScript": 0
	},
	{
		"ID": 26926,
		"stage_BattleStage": 271002103,
		"unit_UnitUnit": 830004,
		"money": 20,
		"initial_coordinate_x": 4,
		"initial_coordinate_y": 2,
		"reinforcement_BattleReinforcement": 0,
		"initial_direction": 90.0,
		"ai_move_group": 0,
		"ai_target_move_x": -1,
		"ai_target_move_y": -1,
		"ai_skill_function": "",
		"ai_attack": "",
		"ai_move": "",
		"ai_heal": "",
		"ai_skill": "",
		"ai_use": "",
		"skill_group_id": 0,
		"gear_GearGear": 30001,
		"gear_rank": 1,
		"proficiency_UnitProficiency": 1,
		"level": 4,
		"hp": 16,
		"strength": 8,
		"vitality": 10,
		"intelligence": 0,
		"mind": 3,
		"agility": 9,
		"dexterity": 9,
		"lucky": 3,
		"parameter_table_BattleEnemyParameterTable": 18300042,
		"parameter_deviation_table_BattleEnemyParameterDeviationTable": 4,
		"acquire_skill_group_id": 50,
		"level_correction": -3,
		"group_id": 0,
		"ai_script_id_BattleAIScript": 0
	},
	{
		"ID": 26927,
		"stage_BattleStage": 271002103,
		"unit_UnitUnit": 900028,
		"money": 15,
		"initial_coordinate_x": 4,
		"initial_coordinate_y": 1,
		"reinforcement_BattleReinforcement": 0,
		"initial_direction": 90.0,
		"ai_move_group": 0,
		"ai_target_move_x": -1,
		"ai_target_move_y": -1,
		"ai_skill_function": "",
		"ai_attack": "",
		"ai_move": "",
		"ai_heal": "",
		"ai_skill": "",
		"ai_use": "",
		"skill_group_id": 0,
		"gear_GearGear": 10001,
		"gear_rank": 1,
		"proficiency_UnitProficiency": 1,
		"level": 3,
		"hp": 16,
		"strength": 9,
		"vitality": 10,
		"intelligence": 0,
		"mind": 4,
		"agility": 9,
		"dexterity": 10,
		"lucky": 3,
		"parameter_table_BattleEnemyParameterTable": 19000281,
		"parameter_deviation_table_BattleEnemyParameterDeviationTable": 4,
		"acquire_skill_group_id": 45,
		"level_correction": -4,
		"group_id": 0,
		"ai_script_id_BattleAIScript": 0
	},
	{
		"ID": 26928,
		"stage_BattleStage": 271002103,
		"unit_UnitUnit": 830004,
		"money": 10,
		"initial_coordinate_x": 1,
		"initial_coordinate_y": 3,
		"reinforcement_BattleReinforcement": 0,
		"initial_direction": 90.0,
		"ai_move_group": 0,
		"ai_target_move_x": -1,
		"ai_target_move_y": -1,
		"ai_skill_function": "",
		"ai_attack": "",
		"ai_move": "",
		"ai_heal": "",
		"ai_skill": "",
		"ai_use": "",
		"skill_group_id": 0,
		"gear_GearGear": 30001,
		"gear_rank": 1,
		"proficiency_UnitProficiency": 1,
		"level": 2,
		"hp": 17,
		"strength": 9,
		"vitality": 11,
		"intelligence": 0,
		"mind": 4,
		"agility": 10,
		"dexterity": 11,
		"lucky": 3,
		"parameter_table_BattleEnemyParameterTable": 18300042,
		"parameter_deviation_table_BattleEnemyParameterDeviationTable": 4,
		"acquire_skill_group_id": 50,
		"level_correction": -3,
		"group_id": 0,
		"ai_script_id_BattleAIScript": 0
	},
	{
		"ID": 26929,
		"stage_BattleStage": 271002103,
		"unit_UnitUnit": 830004,
		"money": 5,
		"initial_coordinate_x": 1,
		"initial_coordinate_y": 2,
		"reinforcement_BattleReinforcement": 0,
		"initial_direction": 90.0,
		"ai_move_group": 0,
		"ai_target_move_x": -1,
		"ai_target_move_y": -1,
		"ai_skill_function": "",
		"ai_attack": "",
		"ai_move": "",
		"ai_heal": "",
		"ai_skill": "",
		"ai_use": "",
		"skill_group_id": 0,
		"gear_GearGear": 30001,
		"gear_rank": 1,
		"proficiency_UnitProficiency": 1,
		"level": 1,
		"hp": 16,
		"strength": 9,
		"vitality": 10,
		"intelligence": 0,
		"mind": 4,
		"agility": 9,
		"dexterity": 10,
		"lucky": 3,
		"parameter_table_BattleEnemyParameterTable": 18300042,
		"parameter_deviation_table_BattleEnemyParameterDeviationTable": 4,
		"acquire_skill_group_id": 50,
		"level_correction": -4,
		"group_id": 0,
		"ai_script_id_BattleAIScript": 0
	},
	{
		"ID": 26930,
		"stage_BattleStage": 271002103,
		"unit_UnitUnit": 102413,
		"money": 10,
		"initial_coordinate_x": 1,
		"initial_coordinate_y": 1,
		"reinforcement_BattleReinforcement": 0,
		"initial_direction": 90.0,
		"ai_move_group": 0,
		"ai_target_move_x": -1,
		"ai_target_move_y": -1,
		"ai_skill_function": "",
		"ai_attack": "",
		"ai_move": "",
		"ai_heal": "",
		"ai_skill": "",
		"ai_use": "",
		"skill_group_id": 0,
		"gear_GearGear": 10001,
		"gear_rank": 1,
		"proficiency_UnitProficiency": 1,
		"level": 2,
		"hp": 16,
		"strength": 8,
		"vitality": 10,
		"intelligence": 0,
		"mind": 3,
		"agility": 9,
		"dexterity": 9,
		"lucky": 3,
		"parameter_table_BattleEnemyParameterTable": 11024131,
		"parameter_deviation_table_BattleEnemyParameterDeviationTable": 4,
		"acquire_skill_group_id": 57,
		"level_correction": -3,
		"group_id": 0,
		"ai_script_id_BattleAIScript": 0
	}
]