[
	{
		"ID": 41617,
		"stage_BattleStage": 271002422,
		"unit_UnitUnit": 810008,
		"money": 355,
		"initial_coordinate_x": 4,
		"initial_coordinate_y": 7,
		"reinforcement_BattleReinforcement": 0,
		"initial_direction": 180.0,
		"ai_move_group": 0,
		"ai_target_move_x": -1,
		"ai_target_move_y": -1,
		"ai_skill_function": "",
		"ai_attack": "IF( turn <=5 ,IF(panel_move_distance <= 3, 1, 0),1)",
		"ai_move": "IF(turn <=5,0,1)",
		"ai_heal": "",
		"ai_skill": "",
		"ai_use": "",
		"skill_group_id": 0,
		"gear_GearGear": 14006,
		"gear_rank": 1,
		"proficiency_UnitProficiency": 4,
		"level": 71,
		"hp": 120,
		"strength": 66,
		"vitality": 54,
		"intelligence": 2,
		"mind": 26,
		"agility": 49,
		"dexterity": 69,
		"lucky": 16,
		"parameter_table_BattleEnemyParameterTable": 0,
		"parameter_deviation_table_BattleEnemyParameterDeviationTable": 0,
		"acquire_skill_group_id": 138,
		"level_correction": 0,
		"group_id": 0,
		"ai_script_id_BattleAIScript": 0
	},
	{
		"ID": 41618,
		"stage_BattleStage": 271002422,
		"unit_UnitUnit": 830008,
		"money": 350,
		"initial_coordinate_x": 5,
		"initial_coordinate_y": 7,
		"reinforcement_BattleReinforcement": 0,
		"initial_direction": 180.0,
		"ai_move_group": 0,
		"ai_target_move_x": -1,
		"ai_target_move_y": -1,
		"ai_skill_function": "",
		"ai_attack": "IF( turn <=5 ,IF(panel_move_distance <= 3, 1, 0),1)",
		"ai_move": "IF(turn <=5,0,1)",
		"ai_heal": "",
		"ai_skill": "",
		"ai_use": "",
		"skill_group_id": 0,
		"gear_GearGear": 34003,
		"gear_rank": 1,
		"proficiency_UnitProficiency": 4,
		"level": 70,
		"hp": 120,
		"strength": 64,
		"vitality": 56,
		"intelligence": 2,
		"mind": 27,
		"agility": 48,
		"dexterity": 67,
		"lucky": 17,
		"parameter_table_BattleEnemyParameterTable": 0,
		"parameter_deviation_table_BattleEnemyParameterDeviationTable": 0,
		"acquire_skill_group_id": 115,
		"level_correction": 0,
		"group_id": 0,
		"ai_script_id_BattleAIScript": 0
	},
	{
		"ID": 41619,
		"stage_BattleStage": 271002422,
		"unit_UnitUnit": 860006,
		"money": 355,
		"initial_coordinate_x": 4,
		"initial_coordinate_y": 8,
		"reinforcement_BattleReinforcement": 0,
		"initial_direction": 180.0,
		"ai_move_group": 0,
		"ai_target_move_x": -1,
		"ai_target_move_y": -1,
		"ai_skill_function": "",
		"ai_attack": "IF( turn <=5 ,IF(panel_move_distance <= 3, 1, 0),1)",
		"ai_move": "IF(turn <=5,0,1)",
		"ai_heal": "",
		"ai_skill": "",
		"ai_use": "",
		"skill_group_id": 0,
		"gear_GearGear": 80009,
		"gear_rank": 1,
		"proficiency_UnitProficiency": 2,
		"level": 71,
		"hp": 71,
		"strength": 8,
		"vitality": 20,
		"intelligence": 64,
		"mind": 42,
		"agility": 52,
		"dexterity": 58,
		"lucky": 16,
		"parameter_table_BattleEnemyParameterTable": 0,
		"parameter_deviation_table_BattleEnemyParameterDeviationTable": 0,
		"acquire_skill_group_id": 142,
		"level_correction": 0,
		"group_id": 0,
		"ai_script_id_BattleAIScript": 0
	},
	{
		"ID": 41620,
		"stage_BattleStage": 271002422,
		"unit_UnitUnit": 860006,
		"money": 350,
		"initial_coordinate_x": 5,
		"initial_coordinate_y": 8,
		"reinforcement_BattleReinforcement": 0,
		"initial_direction": 180.0,
		"ai_move_group": 0,
		"ai_target_move_x": -1,
		"ai_target_move_y": -1,
		"ai_skill_function": "",
		"ai_attack": "IF( turn <=5 ,IF(panel_move_distance <= 3, 1, 0),1)",
		"ai_move": "IF(turn <=5,0,1)",
		"ai_heal": "",
		"ai_skill": "",
		"ai_use": "",
		"skill_group_id": 0,
		"gear_GearGear": 80009,
		"gear_rank": 1,
		"proficiency_UnitProficiency": 2,
		"level": 70,
		"hp": 76,
		"strength": 8,
		"vitality": 20,
		"intelligence": 64,
		"mind": 41,
		"agility": 51,
		"dexterity": 57,
		"lucky": 20,
		"parameter_table_BattleEnemyParameterTable": 0,
		"parameter_deviation_table_BattleEnemyParameterDeviationTable": 0,
		"acquire_skill_group_id": 142,
		"level_correction": 0,
		"group_id": 0,
		"ai_script_id_BattleAIScript": 0
	},
	{
		"ID": 41621,
		"stage_BattleStage": 271002422,
		"unit_UnitUnit": 810008,
		"money": 355,
		"initial_coordinate_x": 11,
		"initial_coordinate_y": 6,
		"reinforcement_BattleReinforcement": 0,
		"initial_direction": 180.0,
		"ai_move_group": 0,
		"ai_target_move_x": -1,
		"ai_target_move_y": -1,
		"ai_skill_function": "",
		"ai_attack": "IF( turn <=5 ,IF(panel_move_distance <= 3, 1, 0),1)",
		"ai_move": "IF(turn <=5,0,1)",
		"ai_heal": "",
		"ai_skill": "",
		"ai_use": "",
		"skill_group_id": 0,
		"gear_GearGear": 14007,
		"gear_rank": 1,
		"proficiency_UnitProficiency": 4,
		"level": 71,
		"hp": 120,
		"strength": 66,
		"vitality": 54,
		"intelligence": 2,
		"mind": 26,
		"agility": 49,
		"dexterity": 69,
		"lucky": 18,
		"parameter_table_BattleEnemyParameterTable": 0,
		"parameter_deviation_table_BattleEnemyParameterDeviationTable": 0,
		"acquire_skill_group_id": 138,
		"level_correction": 0,
		"group_id": 0,
		"ai_script_id_BattleAIScript": 0
	},
	{
		"ID": 41622,
		"stage_BattleStage": 271002422,
		"unit_UnitUnit": 830008,
		"money": 350,
		"initial_coordinate_x": 12,
		"initial_coordinate_y": 6,
		"reinforcement_BattleReinforcement": 0,
		"initial_direction": 180.0,
		"ai_move_group": 0,
		"ai_target_move_x": -1,
		"ai_target_move_y": -1,
		"ai_skill_function": "",
		"ai_attack": "IF( turn <=5 ,IF(panel_move_distance <= 3, 1, 0),1)",
		"ai_move": "IF(turn <=5,0,1)",
		"ai_heal": "",
		"ai_skill": "",
		"ai_use": "",
		"skill_group_id": 0,
		"gear_GearGear": 34004,
		"gear_rank": 1,
		"proficiency_UnitProficiency": 4,
		"level": 70,
		"hp": 120,
		"strength": 64,
		"vitality": 56,
		"intelligence": 2,
		"mind": 27,
		"agility": 48,
		"dexterity": 67,
		"lucky": 24,
		"parameter_table_BattleEnemyParameterTable": 0,
		"parameter_deviation_table_BattleEnemyParameterDeviationTable": 0,
		"acquire_skill_group_id": 115,
		"level_correction": 0,
		"group_id": 0,
		"ai_script_id_BattleAIScript": 0
	},
	{
		"ID": 41623,
		"stage_BattleStage": 271002422,
		"unit_UnitUnit": 840004,
		"money": 355,
		"initial_coordinate_x": 8,
		"initial_coordinate_y": 7,
		"reinforcement_BattleReinforcement": 0,
		"initial_direction": 180.0,
		"ai_move_group": 0,
		"ai_target_move_x": -1,
		"ai_target_move_y": -1,
		"ai_skill_function": "",
		"ai_attack": "IF( turn <=5 ,IF(panel_move_distance <= 3, 1, 0),1)",
		"ai_move": "IF(turn <=5,0,1)",
		"ai_heal": "",
		"ai_skill": "",
		"ai_use": "",
		"skill_group_id": 0,
		"gear_GearGear": 43009,
		"gear_rank": 1,
		"proficiency_UnitProficiency": 3,
		"level": 71,
		"hp": 72,
		"strength": 64,
		"vitality": 31,
		"intelligence": 4,
		"mind": 26,
		"agility": 59,
		"dexterity": 65,
		"lucky": 16,
		"parameter_table_BattleEnemyParameterTable": 0,
		"parameter_deviation_table_BattleEnemyParameterDeviationTable": 0,
		"acquire_skill_group_id": 148,
		"level_correction": 0,
		"group_id": 0,
		"ai_script_id_BattleAIScript": 0
	},
	{
		"ID": 41624,
		"stage_BattleStage": 271002422,
		"unit_UnitUnit": 840004,
		"money": 350,
		"initial_coordinate_x": 9,
		"initial_coordinate_y": 6,
		"reinforcement_BattleReinforcement": 0,
		"initial_direction": 180.0,
		"ai_move_group": 0,
		"ai_target_move_x": -1,
		"ai_target_move_y": -1,
		"ai_skill_function": "",
		"ai_attack": "IF( turn <=5 ,IF(panel_move_distance <= 3, 1, 0),1)",
		"ai_move": "IF(turn <=5,0,1)",
		"ai_heal": "",
		"ai_skill": "",
		"ai_use": "",
		"skill_group_id": 0,
		"gear_GearGear": 43009,
		"gear_rank": 1,
		"proficiency_UnitProficiency": 3,
		"level": 70,
		"hp": 76,
		"strength": 64,
		"vitality": 31,
		"intelligence": 4,
		"mind": 25,
		"agility": 58,
		"dexterity": 64,
		"lucky": 20,
		"parameter_table_BattleEnemyParameterTable": 0,
		"parameter_deviation_table_BattleEnemyParameterDeviationTable": 0,
		"acquire_skill_group_id": 148,
		"level_correction": 0,
		"group_id": 0,
		"ai_script_id_BattleAIScript": 0
	},
	{
		"ID": 41625,
		"stage_BattleStage": 271002422,
		"unit_UnitUnit": 840004,
		"money": 355,
		"initial_coordinate_x": 7,
		"initial_coordinate_y": 10,
		"reinforcement_BattleReinforcement": 0,
		"initial_direction": 180.0,
		"ai_move_group": 0,
		"ai_target_move_x": -1,
		"ai_target_move_y": -1,
		"ai_skill_function": "",
		"ai_attack": "IF( turn <=5 ,IF(panel_move_distance <= 3, 1, 0),1)",
		"ai_move": "IF(turn <=5,0,1)",
		"ai_heal": "",
		"ai_skill": "",
		"ai_use": "",
		"skill_group_id": 0,
		"gear_GearGear": 43009,
		"gear_rank": 1,
		"proficiency_UnitProficiency": 3,
		"level": 71,
		"hp": 76,
		"strength": 64,
		"vitality": 31,
		"intelligence": 4,
		"mind": 26,
		"agility": 59,
		"dexterity": 65,
		"lucky": 20,
		"parameter_table_BattleEnemyParameterTable": 0,
		"parameter_deviation_table_BattleEnemyParameterDeviationTable": 0,
		"acquire_skill_group_id": 148,
		"level_correction": 0,
		"group_id": 0,
		"ai_script_id_BattleAIScript": 0
	},
	{
		"ID": 41626,
		"stage_BattleStage": 271002422,
		"unit_UnitUnit": 860006,
		"money": 350,
		"initial_coordinate_x": 7,
		"initial_coordinate_y": 9,
		"reinforcement_BattleReinforcement": 0,
		"initial_direction": 180.0,
		"ai_move_group": 0,
		"ai_target_move_x": -1,
		"ai_target_move_y": -1,
		"ai_skill_function": "",
		"ai_attack": "IF( turn <=5 ,IF(panel_move_distance <= 3, 1, 0),1)",
		"ai_move": "IF(turn <=5,0,1)",
		"ai_heal": "",
		"ai_skill": "",
		"ai_use": "",
		"skill_group_id": 0,
		"gear_GearGear": 80009,
		"gear_rank": 1,
		"proficiency_UnitProficiency": 2,
		"level": 70,
		"hp": 72,
		"strength": 8,
		"vitality": 20,
		"intelligence": 64,
		"mind": 41,
		"agility": 51,
		"dexterity": 57,
		"lucky": 16,
		"parameter_table_BattleEnemyParameterTable": 0,
		"parameter_deviation_table_BattleEnemyParameterDeviationTable": 0,
		"acquire_skill_group_id": 119,
		"level_correction": 0,
		"group_id": 0,
		"ai_script_id_BattleAIScript": 0
	},
	{
		"ID": 41627,
		"stage_BattleStage": 271002422,
		"unit_UnitUnit": 840004,
		"money": 355,
		"initial_coordinate_x": 8,
		"initial_coordinate_y": 12,
		"reinforcement_BattleReinforcement": 0,
		"initial_direction": 180.0,
		"ai_move_group": 0,
		"ai_target_move_x": -1,
		"ai_target_move_y": -1,
		"ai_skill_function": "",
		"ai_attack": "IF( turn <=5 ,IF(panel_move_distance <= 3, 1, 0),1)",
		"ai_move": "IF(turn <=5,0,1)",
		"ai_heal": "",
		"ai_skill": "",
		"ai_use": "",
		"skill_group_id": 0,
		"gear_GearGear": 43009,
		"gear_rank": 1,
		"proficiency_UnitProficiency": 3,
		"level": 71,
		"hp": 72,
		"strength": 64,
		"vitality": 31,
		"intelligence": 4,
		"mind": 26,
		"agility": 59,
		"dexterity": 65,
		"lucky": 17,
		"parameter_table_BattleEnemyParameterTable": 0,
		"parameter_deviation_table_BattleEnemyParameterDeviationTable": 0,
		"acquire_skill_group_id": 148,
		"level_correction": 0,
		"group_id": 0,
		"ai_script_id_BattleAIScript": 0
	},
	{
		"ID": 41628,
		"stage_BattleStage": 271002422,
		"unit_UnitUnit": 840004,
		"money": 350,
		"initial_coordinate_x": 9,
		"initial_coordinate_y": 13,
		"reinforcement_BattleReinforcement": 0,
		"initial_direction": 180.0,
		"ai_move_group": 0,
		"ai_target_move_x": -1,
		"ai_target_move_y": -1,
		"ai_skill_function": "",
		"ai_attack": "IF( turn <=5 ,IF(panel_move_distance <= 3, 1, 0),1)",
		"ai_move": "IF(turn <=5,0,1)",
		"ai_heal": "",
		"ai_skill": "",
		"ai_use": "",
		"skill_group_id": 0,
		"gear_GearGear": 43009,
		"gear_rank": 1,
		"proficiency_UnitProficiency": 3,
		"level": 70,
		"hp": 72,
		"strength": 64,
		"vitality": 31,
		"intelligence": 4,
		"mind": 25,
		"agility": 58,
		"dexterity": 64,
		"lucky": 20,
		"parameter_table_BattleEnemyParameterTable": 0,
		"parameter_deviation_table_BattleEnemyParameterDeviationTable": 0,
		"acquire_skill_group_id": 148,
		"level_correction": 0,
		"group_id": 0,
		"ai_script_id_BattleAIScript": 0
	},
	{
		"ID": 41629,
		"stage_BattleStage": 271002422,
		"unit_UnitUnit": 860006,
		"money": 355,
		"initial_coordinate_x": 3,
		"initial_coordinate_y": 14,
		"reinforcement_BattleReinforcement": 0,
		"initial_direction": 180.0,
		"ai_move_group": 0,
		"ai_target_move_x": -1,
		"ai_target_move_y": -1,
		"ai_skill_function": "",
		"ai_attack": "IF( turn <=5 ,IF(panel_move_distance <= 3, 1, 0),1)",
		"ai_move": "IF(turn <=5,0,1)",
		"ai_heal": "",
		"ai_skill": "",
		"ai_use": "",
		"skill_group_id": 0,
		"gear_GearGear": 80009,
		"gear_rank": 1,
		"proficiency_UnitProficiency": 2,
		"level": 71,
		"hp": 72,
		"strength": 8,
		"vitality": 20,
		"intelligence": 64,
		"mind": 42,
		"agility": 52,
		"dexterity": 58,
		"lucky": 23,
		"parameter_table_BattleEnemyParameterTable": 0,
		"parameter_deviation_table_BattleEnemyParameterDeviationTable": 0,
		"acquire_skill_group_id": 119,
		"level_correction": 0,
		"group_id": 0,
		"ai_script_id_BattleAIScript": 0
	},
	{
		"ID": 41630,
		"stage_BattleStage": 271002422,
		"unit_UnitUnit": 860006,
		"money": 350,
		"initial_coordinate_x": 4,
		"initial_coordinate_y": 15,
		"reinforcement_BattleReinforcement": 0,
		"initial_direction": 180.0,
		"ai_move_group": 0,
		"ai_target_move_x": -1,
		"ai_target_move_y": -1,
		"ai_skill_function": "",
		"ai_attack": "IF( turn <=5 ,IF(panel_move_distance <= 3, 1, 0),1)",
		"ai_move": "IF(turn <=5,0,1)",
		"ai_heal": "",
		"ai_skill": "",
		"ai_use": "",
		"skill_group_id": 0,
		"gear_GearGear": 80010,
		"gear_rank": 1,
		"proficiency_UnitProficiency": 3,
		"level": 70,
		"hp": 72,
		"strength": 8,
		"vitality": 20,
		"intelligence": 64,
		"mind": 41,
		"agility": 51,
		"dexterity": 57,
		"lucky": 18,
		"parameter_table_BattleEnemyParameterTable": 0,
		"parameter_deviation_table_BattleEnemyParameterDeviationTable": 0,
		"acquire_skill_group_id": 119,
		"level_correction": 0,
		"group_id": 0,
		"ai_script_id_BattleAIScript": 0
	},
	{
		"ID": 41631,
		"stage_BattleStage": 271002422,
		"unit_UnitUnit": 820008,
		"money": 355,
		"initial_coordinate_x": 7,
		"initial_coordinate_y": 15,
		"reinforcement_BattleReinforcement": 0,
		"initial_direction": 180.0,
		"ai_move_group": 0,
		"ai_target_move_x": -1,
		"ai_target_move_y": -1,
		"ai_skill_function": "",
		"ai_attack": "IF( turn <=5 ,IF(panel_move_distance <= 3, 1, 0),1)",
		"ai_move": "IF(turn <=5,0,1)",
		"ai_heal": "",
		"ai_skill": "",
		"ai_use": "",
		"skill_group_id": 0,
		"gear_GearGear": 24005,
		"gear_rank": 1,
		"proficiency_UnitProficiency": 4,
		"level": 71,
		"hp": 120,
		"strength": 70,
		"vitality": 56,
		"intelligence": 2,
		"mind": 27,
		"agility": 42,
		"dexterity": 65,
		"lucky": 19,
		"parameter_table_BattleEnemyParameterTable": 0,
		"parameter_deviation_table_BattleEnemyParameterDeviationTable": 0,
		"acquire_skill_group_id": 119,
		"level_correction": 0,
		"group_id": 0,
		"ai_script_id_BattleAIScript": 0
	},
	{
		"ID": 41632,
		"stage_BattleStage": 271002422,
		"unit_UnitUnit": 830008,
		"money": 350,
		"initial_coordinate_x": 8,
		"initial_coordinate_y": 15,
		"reinforcement_BattleReinforcement": 0,
		"initial_direction": 180.0,
		"ai_move_group": 0,
		"ai_target_move_x": -1,
		"ai_target_move_y": -1,
		"ai_skill_function": "",
		"ai_attack": "IF( turn <=5 ,IF(panel_move_distance <= 3, 1, 0),1)",
		"ai_move": "IF(turn <=5,0,1)",
		"ai_heal": "",
		"ai_skill": "",
		"ai_use": "",
		"skill_group_id": 0,
		"gear_GearGear": 34004,
		"gear_rank": 1,
		"proficiency_UnitProficiency": 4,
		"level": 70,
		"hp": 120,
		"strength": 64,
		"vitality": 56,
		"intelligence": 2,
		"mind": 27,
		"agility": 48,
		"dexterity": 67,
		"lucky": 16,
		"parameter_table_BattleEnemyParameterTable": 0,
		"parameter_deviation_table_BattleEnemyParameterDeviationTable": 0,
		"acquire_skill_group_id": 115,
		"level_correction": 0,
		"group_id": 0,
		"ai_script_id_BattleAIScript": 0
	},
	{
		"ID": 41633,
		"stage_BattleStage": 271002422,
		"unit_UnitUnit": 860006,
		"money": 355,
		"initial_coordinate_x": 7,
		"initial_coordinate_y": 16,
		"reinforcement_BattleReinforcement": 0,
		"initial_direction": 180.0,
		"ai_move_group": 0,
		"ai_target_move_x": -1,
		"ai_target_move_y": -1,
		"ai_skill_function": "",
		"ai_attack": "IF( turn <=5 ,IF(panel_move_distance <= 3, 1, 0),1)",
		"ai_move": "IF(turn <=5,0,1)",
		"ai_heal": "",
		"ai_skill": "",
		"ai_use": "",
		"skill_group_id": 0,
		"gear_GearGear": 80009,
		"gear_rank": 1,
		"proficiency_UnitProficiency": 2,
		"level": 71,
		"hp": 72,
		"strength": 8,
		"vitality": 20,
		"intelligence": 64,
		"mind": 42,
		"agility": 52,
		"dexterity": 58,
		"lucky": 16,
		"parameter_table_BattleEnemyParameterTable": 0,
		"parameter_deviation_table_BattleEnemyParameterDeviationTable": 0,
		"acquire_skill_group_id": 142,
		"level_correction": 0,
		"group_id": 0,
		"ai_script_id_BattleAIScript": 0
	},
	{
		"ID": 41634,
		"stage_BattleStage": 271002422,
		"unit_UnitUnit": 860006,
		"money": 350,
		"initial_coordinate_x": 8,
		"initial_coordinate_y": 16,
		"reinforcement_BattleReinforcement": 0,
		"initial_direction": 180.0,
		"ai_move_group": 0,
		"ai_target_move_x": -1,
		"ai_target_move_y": -1,
		"ai_skill_function": "",
		"ai_attack": "IF( turn <=5 ,IF(panel_move_distance <= 3, 1, 0),1)",
		"ai_move": "IF(turn <=5,0,1)",
		"ai_heal": "",
		"ai_skill": "",
		"ai_use": "",
		"skill_group_id": 0,
		"gear_GearGear": 80010,
		"gear_rank": 1,
		"proficiency_UnitProficiency": 3,
		"level": 70,
		"hp": 72,
		"strength": 8,
		"vitality": 20,
		"intelligence": 64,
		"mind": 41,
		"agility": 51,
		"dexterity": 57,
		"lucky": 17,
		"parameter_table_BattleEnemyParameterTable": 0,
		"parameter_deviation_table_BattleEnemyParameterDeviationTable": 0,
		"acquire_skill_group_id": 142,
		"level_correction": 0,
		"group_id": 0,
		"ai_script_id_BattleAIScript": 0
	},
	{
		"ID": 41635,
		"stage_BattleStage": 271002422,
		"unit_UnitUnit": 820008,
		"money": 355,
		"initial_coordinate_x": 6,
		"initial_coordinate_y": 20,
		"reinforcement_BattleReinforcement": 0,
		"initial_direction": 180.0,
		"ai_move_group": 0,
		"ai_target_move_x": -1,
		"ai_target_move_y": -1,
		"ai_skill_function": "",
		"ai_attack": "IF( turn <=5 ,IF(panel_move_distance <= 3, 1, 0),1)",
		"ai_move": "IF(turn <=5,0,1)",
		"ai_heal": "",
		"ai_skill": "",
		"ai_use": "",
		"skill_group_id": 0,
		"gear_GearGear": 24005,
		"gear_rank": 1,
		"proficiency_UnitProficiency": 4,
		"level": 71,
		"hp": 120,
		"strength": 70,
		"vitality": 56,
		"intelligence": 2,
		"mind": 27,
		"agility": 42,
		"dexterity": 65,
		"lucky": 16,
		"parameter_table_BattleEnemyParameterTable": 0,
		"parameter_deviation_table_BattleEnemyParameterDeviationTable": 0,
		"acquire_skill_group_id": 139,
		"level_correction": 0,
		"group_id": 0,
		"ai_script_id_BattleAIScript": 0
	},
	{
		"ID": 41636,
		"stage_BattleStage": 271002422,
		"unit_UnitUnit": 830008,
		"money": 355,
		"initial_coordinate_x": 7,
		"initial_coordinate_y": 20,
		"reinforcement_BattleReinforcement": 0,
		"initial_direction": 180.0,
		"ai_move_group": 0,
		"ai_target_move_x": -1,
		"ai_target_move_y": -1,
		"ai_skill_function": "",
		"ai_attack": "IF( turn <=7 ,IF(panel_move_distance <= 3, 1, 0),1)",
		"ai_move": "IF(turn <=7,0,1)",
		"ai_heal": "",
		"ai_skill": "",
		"ai_use": "",
		"skill_group_id": 0,
		"gear_GearGear": 34004,
		"gear_rank": 1,
		"proficiency_UnitProficiency": 4,
		"level": 71,
		"hp": 120,
		"strength": 66,
		"vitality": 54,
		"intelligence": 2,
		"mind": 26,
		"agility": 49,
		"dexterity": 69,
		"lucky": 16,
		"parameter_table_BattleEnemyParameterTable": 0,
		"parameter_deviation_table_BattleEnemyParameterDeviationTable": 0,
		"acquire_skill_group_id": 138,
		"level_correction": 0,
		"group_id": 0,
		"ai_script_id_BattleAIScript": 0
	},
	{
		"ID": 41637,
		"stage_BattleStage": 271002422,
		"unit_UnitUnit": 860006,
		"money": 355,
		"initial_coordinate_x": 6,
		"initial_coordinate_y": 21,
		"reinforcement_BattleReinforcement": 0,
		"initial_direction": 180.0,
		"ai_move_group": 0,
		"ai_target_move_x": -1,
		"ai_target_move_y": -1,
		"ai_skill_function": "",
		"ai_attack": "IF( turn <=7 ,IF(panel_move_distance <= 3, 1, 0),1)",
		"ai_move": "IF(turn <=7,0,1)",
		"ai_heal": "",
		"ai_skill": "",
		"ai_use": "",
		"skill_group_id": 0,
		"gear_GearGear": 80009,
		"gear_rank": 1,
		"proficiency_UnitProficiency": 2,
		"level": 71,
		"hp": 72,
		"strength": 8,
		"vitality": 20,
		"intelligence": 64,
		"mind": 42,
		"agility": 52,
		"dexterity": 58,
		"lucky": 22,
		"parameter_table_BattleEnemyParameterTable": 0,
		"parameter_deviation_table_BattleEnemyParameterDeviationTable": 0,
		"acquire_skill_group_id": 142,
		"level_correction": 0,
		"group_id": 0,
		"ai_script_id_BattleAIScript": 0
	},
	{
		"ID": 41638,
		"stage_BattleStage": 271002422,
		"unit_UnitUnit": 860006,
		"money": 350,
		"initial_coordinate_x": 7,
		"initial_coordinate_y": 21,
		"reinforcement_BattleReinforcement": 0,
		"initial_direction": 180.0,
		"ai_move_group": 0,
		"ai_target_move_x": -1,
		"ai_target_move_y": -1,
		"ai_skill_function": "",
		"ai_attack": "IF( turn <=7 ,IF(panel_move_distance <= 3, 1, 0),1)",
		"ai_move": "IF(turn <=7,0,1)",
		"ai_heal": "",
		"ai_skill": "",
		"ai_use": "",
		"skill_group_id": 0,
		"gear_GearGear": 80010,
		"gear_rank": 1,
		"proficiency_UnitProficiency": 3,
		"level": 70,
		"hp": 72,
		"strength": 8,
		"vitality": 20,
		"intelligence": 64,
		"mind": 41,
		"agility": 51,
		"dexterity": 57,
		"lucky": 17,
		"parameter_table_BattleEnemyParameterTable": 0,
		"parameter_deviation_table_BattleEnemyParameterDeviationTable": 0,
		"acquire_skill_group_id": 142,
		"level_correction": 0,
		"group_id": 0,
		"ai_script_id_BattleAIScript": 0
	},
	{
		"ID": 41639,
		"stage_BattleStage": 271002422,
		"unit_UnitUnit": 501913,
		"money": 400,
		"initial_coordinate_x": 6,
		"initial_coordinate_y": 23,
		"reinforcement_BattleReinforcement": 0,
		"initial_direction": 180.0,
		"ai_move_group": 0,
		"ai_target_move_x": -1,
		"ai_target_move_y": -1,
		"ai_skill_function": "",
		"ai_attack": "IF( turn <=9 ,IF(panel_move_distance <= 3, 1, 0),1)",
		"ai_move": "IF(turn <=9,0,1)",
		"ai_heal": "",
		"ai_skill": "",
		"ai_use": "",
		"skill_group_id": 0,
		"gear_GearGear": 55002,
		"gear_rank": 1,
		"proficiency_UnitProficiency": 5,
		"level": 80,
		"hp": 120,
		"strength": 9,
		"vitality": 28,
		"intelligence": 70,
		"mind": 58,
		"agility": 66,
		"dexterity": 67,
		"lucky": 35,
		"parameter_table_BattleEnemyParameterTable": 0,
		"parameter_deviation_table_BattleEnemyParameterDeviationTable": 0,
		"acquire_skill_group_id": 58,
		"level_correction": 0,
		"group_id": 0,
		"ai_script_id_BattleAIScript": 0
	},
	{
		"ID": 41640,
		"stage_BattleStage": 271002422,
		"unit_UnitUnit": 301913,
		"money": 450,
		"initial_coordinate_x": 7,
		"initial_coordinate_y": 23,
		"reinforcement_BattleReinforcement": 0,
		"initial_direction": 180.0,
		"ai_move_group": 0,
		"ai_target_move_x": -1,
		"ai_target_move_y": -1,
		"ai_skill_function": "",
		"ai_attack": "IF( turn <=9 ,IF(panel_move_distance <= 3, 1, 0),1)",
		"ai_move": "IF(turn <=9,0,1)",
		"ai_heal": "",
		"ai_skill": "",
		"ai_use": "",
		"skill_group_id": 0,
		"gear_GearGear": 35002,
		"gear_rank": 1,
		"proficiency_UnitProficiency": 5,
		"level": 90,
		"hp": 240,
		"strength": 75,
		"vitality": 41,
		"intelligence": 12,
		"mind": 28,
		"agility": 72,
		"dexterity": 62,
		"lucky": 32,
		"parameter_table_BattleEnemyParameterTable": 0,
		"parameter_deviation_table_BattleEnemyParameterDeviationTable": 0,
		"acquire_skill_group_id": 60,
		"level_correction": 0,
		"group_id": 0,
		"ai_script_id_BattleAIScript": 0
	},
	{
		"ID": 41641,
		"stage_BattleStage": 271002422,
		"unit_UnitUnit": 810018,
		"money": 355,
		"initial_coordinate_x": 1,
		"initial_coordinate_y": 17,
		"reinforcement_BattleReinforcement": 6,
		"initial_direction": 90.0,
		"ai_move_group": 6,
		"ai_target_move_x": -1,
		"ai_target_move_y": -1,
		"ai_skill_function": "",
		"ai_attack": "",
		"ai_move": "",
		"ai_heal": "",
		"ai_skill": "",
		"ai_use": "",
		"skill_group_id": 0,
		"gear_GearGear": 14007,
		"gear_rank": 1,
		"proficiency_UnitProficiency": 4,
		"level": 71,
		"hp": 96,
		"strength": 54,
		"vitality": 36,
		"intelligence": 4,
		"mind": 24,
		"agility": 56,
		"dexterity": 62,
		"lucky": 16,
		"parameter_table_BattleEnemyParameterTable": 0,
		"parameter_deviation_table_BattleEnemyParameterDeviationTable": 0,
		"acquire_skill_group_id": 144,
		"level_correction": 0,
		"group_id": 0,
		"ai_script_id_BattleAIScript": 0
	},
	{
		"ID": 41642,
		"stage_BattleStage": 271002422,
		"unit_UnitUnit": 830002,
		"money": 350,
		"initial_coordinate_x": 1,
		"initial_coordinate_y": 17,
		"reinforcement_BattleReinforcement": 6,
		"initial_direction": 90.0,
		"ai_move_group": 6,
		"ai_target_move_x": -1,
		"ai_target_move_y": -1,
		"ai_skill_function": "",
		"ai_attack": "",
		"ai_move": "",
		"ai_heal": "",
		"ai_skill": "",
		"ai_use": "",
		"skill_group_id": 0,
		"gear_GearGear": 34003,
		"gear_rank": 1,
		"proficiency_UnitProficiency": 4,
		"level": 70,
		"hp": 97,
		"strength": 52,
		"vitality": 34,
		"intelligence": 4,
		"mind": 25,
		"agility": 56,
		"dexterity": 56,
		"lucky": 20,
		"parameter_table_BattleEnemyParameterTable": 0,
		"parameter_deviation_table_BattleEnemyParameterDeviationTable": 0,
		"acquire_skill_group_id": 143,
		"level_correction": 0,
		"group_id": 0,
		"ai_script_id_BattleAIScript": 0
	},
	{
		"ID": 41643,
		"stage_BattleStage": 271002422,
		"unit_UnitUnit": 810018,
		"money": 355,
		"initial_coordinate_x": 1,
		"initial_coordinate_y": 16,
		"reinforcement_BattleReinforcement": 6,
		"initial_direction": 90.0,
		"ai_move_group": 6,
		"ai_target_move_x": -1,
		"ai_target_move_y": -1,
		"ai_skill_function": "",
		"ai_attack": "",
		"ai_move": "",
		"ai_heal": "",
		"ai_skill": "",
		"ai_use": "",
		"skill_group_id": 0,
		"gear_GearGear": 14006,
		"gear_rank": 1,
		"proficiency_UnitProficiency": 4,
		"level": 71,
		"hp": 96,
		"strength": 54,
		"vitality": 36,
		"intelligence": 4,
		"mind": 24,
		"agility": 56,
		"dexterity": 62,
		"lucky": 16,
		"parameter_table_BattleEnemyParameterTable": 0,
		"parameter_deviation_table_BattleEnemyParameterDeviationTable": 0,
		"acquire_skill_group_id": 144,
		"level_correction": 0,
		"group_id": 0,
		"ai_script_id_BattleAIScript": 0
	},
	{
		"ID": 41644,
		"stage_BattleStage": 271002422,
		"unit_UnitUnit": 830002,
		"money": 350,
		"initial_coordinate_x": 1,
		"initial_coordinate_y": 16,
		"reinforcement_BattleReinforcement": 6,
		"initial_direction": 90.0,
		"ai_move_group": 6,
		"ai_target_move_x": -1,
		"ai_target_move_y": -1,
		"ai_skill_function": "",
		"ai_attack": "",
		"ai_move": "",
		"ai_heal": "",
		"ai_skill": "",
		"ai_use": "",
		"skill_group_id": 0,
		"gear_GearGear": 34004,
		"gear_rank": 1,
		"proficiency_UnitProficiency": 4,
		"level": 70,
		"hp": 97,
		"strength": 52,
		"vitality": 34,
		"intelligence": 4,
		"mind": 25,
		"agility": 56,
		"dexterity": 56,
		"lucky": 16,
		"parameter_table_BattleEnemyParameterTable": 0,
		"parameter_deviation_table_BattleEnemyParameterDeviationTable": 0,
		"acquire_skill_group_id": 143,
		"level_correction": 0,
		"group_id": 0,
		"ai_script_id_BattleAIScript": 0
	},
	{
		"ID": 41645,
		"stage_BattleStage": 271002422,
		"unit_UnitUnit": 810018,
		"money": 355,
		"initial_coordinate_x": 1,
		"initial_coordinate_y": 15,
		"reinforcement_BattleReinforcement": 6,
		"initial_direction": 90.0,
		"ai_move_group": 6,
		"ai_target_move_x": -1,
		"ai_target_move_y": -1,
		"ai_skill_function": "",
		"ai_attack": "",
		"ai_move": "",
		"ai_heal": "",
		"ai_skill": "",
		"ai_use": "",
		"skill_group_id": 0,
		"gear_GearGear": 14007,
		"gear_rank": 1,
		"proficiency_UnitProficiency": 4,
		"level": 71,
		"hp": 96,
		"strength": 54,
		"vitality": 36,
		"intelligence": 4,
		"mind": 24,
		"agility": 56,
		"dexterity": 62,
		"lucky": 16,
		"parameter_table_BattleEnemyParameterTable": 0,
		"parameter_deviation_table_BattleEnemyParameterDeviationTable": 0,
		"acquire_skill_group_id": 144,
		"level_correction": 0,
		"group_id": 0,
		"ai_script_id_BattleAIScript": 0
	},
	{
		"ID": 41646,
		"stage_BattleStage": 271002422,
		"unit_UnitUnit": 830002,
		"money": 350,
		"initial_coordinate_x": 1,
		"initial_coordinate_y": 15,
		"reinforcement_BattleReinforcement": 6,
		"initial_direction": 90.0,
		"ai_move_group": 6,
		"ai_target_move_x": -1,
		"ai_target_move_y": -1,
		"ai_skill_function": "",
		"ai_attack": "",
		"ai_move": "",
		"ai_heal": "",
		"ai_skill": "",
		"ai_use": "",
		"skill_group_id": 0,
		"gear_GearGear": 34005,
		"gear_rank": 1,
		"proficiency_UnitProficiency": 4,
		"level": 70,
		"hp": 97,
		"strength": 52,
		"vitality": 34,
		"intelligence": 4,
		"mind": 25,
		"agility": 56,
		"dexterity": 56,
		"lucky": 23,
		"parameter_table_BattleEnemyParameterTable": 0,
		"parameter_deviation_table_BattleEnemyParameterDeviationTable": 0,
		"acquire_skill_group_id": 143,
		"level_correction": 0,
		"group_id": 0,
		"ai_script_id_BattleAIScript": 0
	},
	{
		"ID": 41647,
		"stage_BattleStage": 271002422,
		"unit_UnitUnit": 810018,
		"money": 355,
		"initial_coordinate_x": 13,
		"initial_coordinate_y": 18,
		"reinforcement_BattleReinforcement": 6,
		"initial_direction": 270.0,
		"ai_move_group": 6,
		"ai_target_move_x": -1,
		"ai_target_move_y": -1,
		"ai_skill_function": "",
		"ai_attack": "",
		"ai_move": "",
		"ai_heal": "",
		"ai_skill": "",
		"ai_use": "",
		"skill_group_id": 0,
		"gear_GearGear": 14006,
		"gear_rank": 1,
		"proficiency_UnitProficiency": 4,
		"level": 71,
		"hp": 96,
		"strength": 54,
		"vitality": 36,
		"intelligence": 4,
		"mind": 24,
		"agility": 56,
		"dexterity": 62,
		"lucky": 20,
		"parameter_table_BattleEnemyParameterTable": 0,
		"parameter_deviation_table_BattleEnemyParameterDeviationTable": 0,
		"acquire_skill_group_id": 144,
		"level_correction": 0,
		"group_id": 0,
		"ai_script_id_BattleAIScript": 0
	},
	{
		"ID": 41648,
		"stage_BattleStage": 271002422,
		"unit_UnitUnit": 830002,
		"money": 350,
		"initial_coordinate_x": 13,
		"initial_coordinate_y": 18,
		"reinforcement_BattleReinforcement": 6,
		"initial_direction": 270.0,
		"ai_move_group": 6,
		"ai_target_move_x": -1,
		"ai_target_move_y": -1,
		"ai_skill_function": "",
		"ai_attack": "",
		"ai_move": "",
		"ai_heal": "",
		"ai_skill": "",
		"ai_use": "",
		"skill_group_id": 0,
		"gear_GearGear": 34003,
		"gear_rank": 1,
		"proficiency_UnitProficiency": 4,
		"level": 70,
		"hp": 97,
		"strength": 52,
		"vitality": 34,
		"intelligence": 4,
		"mind": 25,
		"agility": 56,
		"dexterity": 56,
		"lucky": 19,
		"parameter_table_BattleEnemyParameterTable": 0,
		"parameter_deviation_table_BattleEnemyParameterDeviationTable": 0,
		"acquire_skill_group_id": 143,
		"level_correction": 0,
		"group_id": 0,
		"ai_script_id_BattleAIScript": 0
	},
	{
		"ID": 41649,
		"stage_BattleStage": 271002422,
		"unit_UnitUnit": 810018,
		"money": 355,
		"initial_coordinate_x": 13,
		"initial_coordinate_y": 17,
		"reinforcement_BattleReinforcement": 6,
		"initial_direction": 270.0,
		"ai_move_group": 6,
		"ai_target_move_x": -1,
		"ai_target_move_y": -1,
		"ai_skill_function": "",
		"ai_attack": "",
		"ai_move": "",
		"ai_heal": "",
		"ai_skill": "",
		"ai_use": "",
		"skill_group_id": 0,
		"gear_GearGear": 14004,
		"gear_rank": 1,
		"proficiency_UnitProficiency": 4,
		"level": 71,
		"hp": 96,
		"strength": 54,
		"vitality": 36,
		"intelligence": 4,
		"mind": 24,
		"agility": 56,
		"dexterity": 62,
		"lucky": 16,
		"parameter_table_BattleEnemyParameterTable": 0,
		"parameter_deviation_table_BattleEnemyParameterDeviationTable": 0,
		"acquire_skill_group_id": 144,
		"level_correction": 0,
		"group_id": 0,
		"ai_script_id_BattleAIScript": 0
	},
	{
		"ID": 41650,
		"stage_BattleStage": 271002422,
		"unit_UnitUnit": 830002,
		"money": 350,
		"initial_coordinate_x": 13,
		"initial_coordinate_y": 17,
		"reinforcement_BattleReinforcement": 6,
		"initial_direction": 270.0,
		"ai_move_group": 6,
		"ai_target_move_x": -1,
		"ai_target_move_y": -1,
		"ai_skill_function": "",
		"ai_attack": "",
		"ai_move": "",
		"ai_heal": "",
		"ai_skill": "",
		"ai_use": "",
		"skill_group_id": 0,
		"gear_GearGear": 34004,
		"gear_rank": 1,
		"proficiency_UnitProficiency": 4,
		"level": 70,
		"hp": 97,
		"strength": 52,
		"vitality": 34,
		"intelligence": 4,
		"mind": 25,
		"agility": 56,
		"dexterity": 56,
		"lucky": 21,
		"parameter_table_BattleEnemyParameterTable": 0,
		"parameter_deviation_table_BattleEnemyParameterDeviationTable": 0,
		"acquire_skill_group_id": 143,
		"level_correction": 0,
		"group_id": 0,
		"ai_script_id_BattleAIScript": 0
	},
	{
		"ID": 41651,
		"stage_BattleStage": 271002422,
		"unit_UnitUnit": 810018,
		"money": 355,
		"initial_coordinate_x": 13,
		"initial_coordinate_y": 16,
		"reinforcement_BattleReinforcement": 6,
		"initial_direction": 270.0,
		"ai_move_group": 6,
		"ai_target_move_x": -1,
		"ai_target_move_y": -1,
		"ai_skill_function": "",
		"ai_attack": "",
		"ai_move": "",
		"ai_heal": "",
		"ai_skill": "",
		"ai_use": "",
		"skill_group_id": 0,
		"gear_GearGear": 14004,
		"gear_rank": 1,
		"proficiency_UnitProficiency": 4,
		"level": 71,
		"hp": 96,
		"strength": 54,
		"vitality": 36,
		"intelligence": 4,
		"mind": 24,
		"agility": 56,
		"dexterity": 62,
		"lucky": 21,
		"parameter_table_BattleEnemyParameterTable": 0,
		"parameter_deviation_table_BattleEnemyParameterDeviationTable": 0,
		"acquire_skill_group_id": 144,
		"level_correction": 0,
		"group_id": 0,
		"ai_script_id_BattleAIScript": 0
	},
	{
		"ID": 41652,
		"stage_BattleStage": 271002422,
		"unit_UnitUnit": 830002,
		"money": 350,
		"initial_coordinate_x": 13,
		"initial_coordinate_y": 16,
		"reinforcement_BattleReinforcement": 6,
		"initial_direction": 270.0,
		"ai_move_group": 4,
		"ai_target_move_x": -1,
		"ai_target_move_y": -1,
		"ai_skill_function": "",
		"ai_attack": "",
		"ai_move": "",
		"ai_heal": "",
		"ai_skill": "",
		"ai_use": "",
		"skill_group_id": 0,
		"gear_GearGear": 34005,
		"gear_rank": 1,
		"proficiency_UnitProficiency": 4,
		"level": 70,
		"hp": 97,
		"strength": 52,
		"vitality": 34,
		"intelligence": 4,
		"mind": 25,
		"agility": 56,
		"dexterity": 56,
		"lucky": 16,
		"parameter_table_BattleEnemyParameterTable": 0,
		"parameter_deviation_table_BattleEnemyParameterDeviationTable": 0,
		"acquire_skill_group_id": 143,
		"level_correction": 0,
		"group_id": 0,
		"ai_script_id_BattleAIScript": 0
	},
	{
		"ID": 41653,
		"stage_BattleStage": 271002422,
		"unit_UnitUnit": 830001,
		"money": 355,
		"initial_coordinate_x": 12,
		"initial_coordinate_y": 12,
		"reinforcement_BattleReinforcement": 4,
		"initial_direction": 270.0,
		"ai_move_group": 4,
		"ai_target_move_x": -1,
		"ai_target_move_y": -1,
		"ai_skill_function": "",
		"ai_attack": "",
		"ai_move": "",
		"ai_heal": "",
		"ai_skill": "",
		"ai_use": "",
		"skill_group_id": 0,
		"gear_GearGear": 34003,
		"gear_rank": 1,
		"proficiency_UnitProficiency": 4,
		"level": 71,
		"hp": 88,
		"strength": 43,
		"vitality": 35,
		"intelligence": 11,
		"mind": 33,
		"agility": 60,
		"dexterity": 58,
		"lucky": 23,
		"parameter_table_BattleEnemyParameterTable": 0,
		"parameter_deviation_table_BattleEnemyParameterDeviationTable": 0,
		"acquire_skill_group_id": 143,
		"level_correction": 0,
		"group_id": 0,
		"ai_script_id_BattleAIScript": 0
	},
	{
		"ID": 41654,
		"stage_BattleStage": 271002422,
		"unit_UnitUnit": 830001,
		"money": 350,
		"initial_coordinate_x": 12,
		"initial_coordinate_y": 12,
		"reinforcement_BattleReinforcement": 4,
		"initial_direction": 270.0,
		"ai_move_group": 4,
		"ai_target_move_x": -1,
		"ai_target_move_y": -1,
		"ai_skill_function": "",
		"ai_attack": "",
		"ai_move": "",
		"ai_heal": "",
		"ai_skill": "",
		"ai_use": "",
		"skill_group_id": 0,
		"gear_GearGear": 34004,
		"gear_rank": 1,
		"proficiency_UnitProficiency": 4,
		"level": 70,
		"hp": 92,
		"strength": 42,
		"vitality": 35,
		"intelligence": 10,
		"mind": 33,
		"agility": 59,
		"dexterity": 58,
		"lucky": 20,
		"parameter_table_BattleEnemyParameterTable": 0,
		"parameter_deviation_table_BattleEnemyParameterDeviationTable": 0,
		"acquire_skill_group_id": 143,
		"level_correction": 0,
		"group_id": 0,
		"ai_script_id_BattleAIScript": 0
	},
	{
		"ID": 41655,
		"stage_BattleStage": 271002422,
		"unit_UnitUnit": 830001,
		"money": 355,
		"initial_coordinate_x": 11,
		"initial_coordinate_y": 11,
		"reinforcement_BattleReinforcement": 4,
		"initial_direction": 270.0,
		"ai_move_group": 4,
		"ai_target_move_x": -1,
		"ai_target_move_y": -1,
		"ai_skill_function": "",
		"ai_attack": "",
		"ai_move": "",
		"ai_heal": "",
		"ai_skill": "",
		"ai_use": "",
		"skill_group_id": 0,
		"gear_GearGear": 34005,
		"gear_rank": 1,
		"proficiency_UnitProficiency": 4,
		"level": 71,
		"hp": 88,
		"strength": 43,
		"vitality": 35,
		"intelligence": 11,
		"mind": 33,
		"agility": 60,
		"dexterity": 58,
		"lucky": 16,
		"parameter_table_BattleEnemyParameterTable": 0,
		"parameter_deviation_table_BattleEnemyParameterDeviationTable": 0,
		"acquire_skill_group_id": 143,
		"level_correction": 0,
		"group_id": 0,
		"ai_script_id_BattleAIScript": 0
	},
	{
		"ID": 41656,
		"stage_BattleStage": 271002422,
		"unit_UnitUnit": 860001,
		"money": 350,
		"initial_coordinate_x": 11,
		"initial_coordinate_y": 11,
		"reinforcement_BattleReinforcement": 4,
		"initial_direction": 270.0,
		"ai_move_group": 4,
		"ai_target_move_x": -1,
		"ai_target_move_y": -1,
		"ai_skill_function": "",
		"ai_attack": "",
		"ai_move": "",
		"ai_heal": "",
		"ai_skill": "",
		"ai_use": "",
		"skill_group_id": 0,
		"gear_GearGear": 80009,
		"gear_rank": 1,
		"proficiency_UnitProficiency": 2,
		"level": 70,
		"hp": 72,
		"strength": 7,
		"vitality": 26,
		"intelligence": 64,
		"mind": 44,
		"agility": 59,
		"dexterity": 55,
		"lucky": 16,
		"parameter_table_BattleEnemyParameterTable": 0,
		"parameter_deviation_table_BattleEnemyParameterDeviationTable": 0,
		"acquire_skill_group_id": 147,
		"level_correction": 0,
		"group_id": 0,
		"ai_script_id_BattleAIScript": 0
	},
	{
		"ID": 41657,
		"stage_BattleStage": 271002422,
		"unit_UnitUnit": 860001,
		"money": 355,
		"initial_coordinate_x": 10,
		"initial_coordinate_y": 10,
		"reinforcement_BattleReinforcement": 4,
		"initial_direction": 270.0,
		"ai_move_group": 4,
		"ai_target_move_x": -1,
		"ai_target_move_y": -1,
		"ai_skill_function": "",
		"ai_attack": "",
		"ai_move": "",
		"ai_heal": "",
		"ai_skill": "",
		"ai_use": "",
		"skill_group_id": 0,
		"gear_GearGear": 80010,
		"gear_rank": 1,
		"proficiency_UnitProficiency": 3,
		"level": 71,
		"hp": 76,
		"strength": 7,
		"vitality": 27,
		"intelligence": 64,
		"mind": 44,
		"agility": 60,
		"dexterity": 56,
		"lucky": 20,
		"parameter_table_BattleEnemyParameterTable": 0,
		"parameter_deviation_table_BattleEnemyParameterDeviationTable": 0,
		"acquire_skill_group_id": 147,
		"level_correction": 0,
		"group_id": 0,
		"ai_script_id_BattleAIScript": 0
	},
	{
		"ID": 41658,
		"stage_BattleStage": 271002422,
		"unit_UnitUnit": 860001,
		"money": 350,
		"initial_coordinate_x": 10,
		"initial_coordinate_y": 10,
		"reinforcement_BattleReinforcement": 4,
		"initial_direction": 270.0,
		"ai_move_group": 4,
		"ai_target_move_x": -1,
		"ai_target_move_y": -1,
		"ai_skill_function": "",
		"ai_attack": "",
		"ai_move": "",
		"ai_heal": "",
		"ai_skill": "",
		"ai_use": "",
		"skill_group_id": 0,
		"gear_GearGear": 80009,
		"gear_rank": 1,
		"proficiency_UnitProficiency": 2,
		"level": 70,
		"hp": 72,
		"strength": 7,
		"vitality": 26,
		"intelligence": 64,
		"mind": 44,
		"agility": 59,
		"dexterity": 55,
		"lucky": 24,
		"parameter_table_BattleEnemyParameterTable": 0,
		"parameter_deviation_table_BattleEnemyParameterDeviationTable": 0,
		"acquire_skill_group_id": 147,
		"level_correction": 0,
		"group_id": 0,
		"ai_script_id_BattleAIScript": 0
	},
	{
		"ID": 41659,
		"stage_BattleStage": 271002422,
		"unit_UnitUnit": 821007,
		"money": 355,
		"initial_coordinate_x": 9,
		"initial_coordinate_y": 9,
		"reinforcement_BattleReinforcement": 4,
		"initial_direction": 270.0,
		"ai_move_group": 4,
		"ai_target_move_x": -1,
		"ai_target_move_y": -1,
		"ai_skill_function": "",
		"ai_attack": "",
		"ai_move": "",
		"ai_heal": "",
		"ai_skill": "",
		"ai_use": "",
		"skill_group_id": 0,
		"gear_GearGear": 24004,
		"gear_rank": 1,
		"proficiency_UnitProficiency": 4,
		"level": 71,
		"hp": 106,
		"strength": 59,
		"vitality": 43,
		"intelligence": 4,
		"mind": 18,
		"agility": 40,
		"dexterity": 54,
		"lucky": 16,
		"parameter_table_BattleEnemyParameterTable": 0,
		"parameter_deviation_table_BattleEnemyParameterDeviationTable": 0,
		"acquire_skill_group_id": 145,
		"level_correction": 0,
		"group_id": 0,
		"ai_script_id_BattleAIScript": 0
	},
	{
		"ID": 41660,
		"stage_BattleStage": 271002422,
		"unit_UnitUnit": 821007,
		"money": 350,
		"initial_coordinate_x": 9,
		"initial_coordinate_y": 9,
		"reinforcement_BattleReinforcement": 4,
		"initial_direction": 270.0,
		"ai_move_group": 4,
		"ai_target_move_x": -1,
		"ai_target_move_y": -1,
		"ai_skill_function": "",
		"ai_attack": "",
		"ai_move": "",
		"ai_heal": "",
		"ai_skill": "",
		"ai_use": "",
		"skill_group_id": 0,
		"gear_GearGear": 24005,
		"gear_rank": 1,
		"proficiency_UnitProficiency": 4,
		"level": 70,
		"hp": 103,
		"strength": 58,
		"vitality": 42,
		"intelligence": 4,
		"mind": 17,
		"agility": 39,
		"dexterity": 53,
		"lucky": 20,
		"parameter_table_BattleEnemyParameterTable": 0,
		"parameter_deviation_table_BattleEnemyParameterDeviationTable": 0,
		"acquire_skill_group_id": 145,
		"level_correction": 0,
		"group_id": 0,
		"ai_script_id_BattleAIScript": 0
	},
	{
		"ID": 41661,
		"stage_BattleStage": 271002422,
		"unit_UnitUnit": 821007,
		"money": 355,
		"initial_coordinate_x": 10,
		"initial_coordinate_y": 8,
		"reinforcement_BattleReinforcement": 4,
		"initial_direction": 270.0,
		"ai_move_group": 4,
		"ai_target_move_x": -1,
		"ai_target_move_y": -1,
		"ai_skill_function": "",
		"ai_attack": "",
		"ai_move": "",
		"ai_heal": "",
		"ai_skill": "",
		"ai_use": "",
		"skill_group_id": 0,
		"gear_GearGear": 24003,
		"gear_rank": 1,
		"proficiency_UnitProficiency": 4,
		"level": 71,
		"hp": 106,
		"strength": 59,
		"vitality": 43,
		"intelligence": 4,
		"mind": 18,
		"agility": 40,
		"dexterity": 54,
		"lucky": 16,
		"parameter_table_BattleEnemyParameterTable": 0,
		"parameter_deviation_table_BattleEnemyParameterDeviationTable": 0,
		"acquire_skill_group_id": 145,
		"level_correction": 0,
		"group_id": 0,
		"ai_script_id_BattleAIScript": 0
	},
	{
		"ID": 41662,
		"stage_BattleStage": 271002422,
		"unit_UnitUnit": 860001,
		"money": 350,
		"initial_coordinate_x": 10,
		"initial_coordinate_y": 8,
		"reinforcement_BattleReinforcement": 4,
		"initial_direction": 270.0,
		"ai_move_group": 4,
		"ai_target_move_x": -1,
		"ai_target_move_y": -1,
		"ai_skill_function": "",
		"ai_attack": "",
		"ai_move": "",
		"ai_heal": "",
		"ai_skill": "",
		"ai_use": "",
		"skill_group_id": 0,
		"gear_GearGear": 80009,
		"gear_rank": 1,
		"proficiency_UnitProficiency": 2,
		"level": 70,
		"hp": 72,
		"strength": 7,
		"vitality": 26,
		"intelligence": 64,
		"mind": 44,
		"agility": 59,
		"dexterity": 55,
		"lucky": 23,
		"parameter_table_BattleEnemyParameterTable": 0,
		"parameter_deviation_table_BattleEnemyParameterDeviationTable": 0,
		"acquire_skill_group_id": 147,
		"level_correction": 0,
		"group_id": 0,
		"ai_script_id_BattleAIScript": 0
	},
	{
		"ID": 41663,
		"stage_BattleStage": 271002422,
		"unit_UnitUnit": 860001,
		"money": 355,
		"initial_coordinate_x": 11,
		"initial_coordinate_y": 7,
		"reinforcement_BattleReinforcement": 4,
		"initial_direction": 270.0,
		"ai_move_group": 4,
		"ai_target_move_x": -1,
		"ai_target_move_y": -1,
		"ai_skill_function": "",
		"ai_attack": "",
		"ai_move": "",
		"ai_heal": "",
		"ai_skill": "",
		"ai_use": "",
		"skill_group_id": 0,
		"gear_GearGear": 80010,
		"gear_rank": 1,
		"proficiency_UnitProficiency": 3,
		"level": 71,
		"hp": 76,
		"strength": 7,
		"vitality": 27,
		"intelligence": 64,
		"mind": 44,
		"agility": 60,
		"dexterity": 56,
		"lucky": 23,
		"parameter_table_BattleEnemyParameterTable": 0,
		"parameter_deviation_table_BattleEnemyParameterDeviationTable": 0,
		"acquire_skill_group_id": 147,
		"level_correction": 0,
		"group_id": 0,
		"ai_script_id_BattleAIScript": 0
	},
	{
		"ID": 41664,
		"stage_BattleStage": 271002422,
		"unit_UnitUnit": 860001,
		"money": 350,
		"initial_coordinate_x": 11,
		"initial_coordinate_y": 7,
		"reinforcement_BattleReinforcement": 4,
		"initial_direction": 270.0,
		"ai_move_group": 4,
		"ai_target_move_x": -1,
		"ai_target_move_y": -1,
		"ai_skill_function": "",
		"ai_attack": "",
		"ai_move": "",
		"ai_heal": "",
		"ai_skill": "",
		"ai_use": "",
		"skill_group_id": 0,
		"gear_GearGear": 80009,
		"gear_rank": 1,
		"proficiency_UnitProficiency": 2,
		"level": 70,
		"hp": 72,
		"strength": 7,
		"vitality": 26,
		"intelligence": 64,
		"mind": 44,
		"agility": 59,
		"dexterity": 55,
		"lucky": 17,
		"parameter_table_BattleEnemyParameterTable": 0,
		"parameter_deviation_table_BattleEnemyParameterDeviationTable": 0,
		"acquire_skill_group_id": 147,
		"level_correction": 0,
		"group_id": 0,
		"ai_script_id_BattleAIScript": 0
	}
]