[
	{
		"ID": 83952,
		"stage_BattleStage": 272019004,
		"unit_UnitUnit": 7502311,
		"money": 0,
		"initial_coordinate_x": 6,
		"initial_coordinate_y": 10,
		"reinforcement_BattleReinforcement": 0,
		"initial_direction": 270.0,
		"ai_move_group": 0,
		"ai_target_move_x": -1,
		"ai_target_move_y": -1,
		"ai_skill_function": "",
		"ai_attack": "",
		"ai_move": "",
		"ai_heal": "",
		"ai_skill": "",
		"ai_use": "",
		"skill_group_id": 19751,
		"gear_GearGear": 55011,
		"gear_rank": 1,
		"proficiency_UnitProficiency": 5,
		"level": 28,
		"hp": 53,
		"strength": 5,
		"vitality": 16,
		"intelligence": 35,
		"mind": 23,
		"agility": 29,
		"dexterity": 34,
		"lucky": 12,
		"parameter_table_BattleEnemyParameterTable": 0,
		"parameter_deviation_table_BattleEnemyParameterDeviationTable": 0,
		"acquire_skill_group_id": 0,
		"level_correction": 0,
		"group_id": 0,
		"ai_script_id_BattleAIScript": 0
	},
	{
		"ID": 83953,
		"stage_BattleStage": 272019004,
		"unit_UnitUnit": 7502311,
		"money": 0,
		"initial_coordinate_x": 5,
		"initial_coordinate_y": 8,
		"reinforcement_BattleReinforcement": 0,
		"initial_direction": 0.0,
		"ai_move_group": 0,
		"ai_target_move_x": -1,
		"ai_target_move_y": -1,
		"ai_skill_function": "",
		"ai_attack": "",
		"ai_move": "",
		"ai_heal": "",
		"ai_skill": "",
		"ai_use": "",
		"skill_group_id": 19751,
		"gear_GearGear": 55011,
		"gear_rank": 1,
		"proficiency_UnitProficiency": 5,
		"level": 28,
		"hp": 51,
		"strength": 5,
		"vitality": 17,
		"intelligence": 35,
		"mind": 23,
		"agility": 28,
		"dexterity": 34,
		"lucky": 11,
		"parameter_table_BattleEnemyParameterTable": 0,
		"parameter_deviation_table_BattleEnemyParameterDeviationTable": 0,
		"acquire_skill_group_id": 0,
		"level_correction": 0,
		"group_id": 0,
		"ai_script_id_BattleAIScript": 0
	},
	{
		"ID": 83954,
		"stage_BattleStage": 272019004,
		"unit_UnitUnit": 7502311,
		"money": 0,
		"initial_coordinate_x": 7,
		"initial_coordinate_y": 8,
		"reinforcement_BattleReinforcement": 0,
		"initial_direction": 0.0,
		"ai_move_group": 0,
		"ai_target_move_x": -1,
		"ai_target_move_y": -1,
		"ai_skill_function": "",
		"ai_attack": "",
		"ai_move": "",
		"ai_heal": "",
		"ai_skill": "",
		"ai_use": "",
		"skill_group_id": 19751,
		"gear_GearGear": 55011,
		"gear_rank": 1,
		"proficiency_UnitProficiency": 5,
		"level": 28,
		"hp": 51,
		"strength": 5,
		"vitality": 16,
		"intelligence": 36,
		"mind": 24,
		"agility": 29,
		"dexterity": 34,
		"lucky": 13,
		"parameter_table_BattleEnemyParameterTable": 0,
		"parameter_deviation_table_BattleEnemyParameterDeviationTable": 0,
		"acquire_skill_group_id": 0,
		"level_correction": 0,
		"group_id": 0,
		"ai_script_id_BattleAIScript": 0
	},
	{
		"ID": 83955,
		"stage_BattleStage": 272019004,
		"unit_UnitUnit": 7502311,
		"money": 0,
		"initial_coordinate_x": 6,
		"initial_coordinate_y": 7,
		"reinforcement_BattleReinforcement": 0,
		"initial_direction": 0.0,
		"ai_move_group": 0,
		"ai_target_move_x": -1,
		"ai_target_move_y": -1,
		"ai_skill_function": "",
		"ai_attack": "",
		"ai_move": "",
		"ai_heal": "",
		"ai_skill": "",
		"ai_use": "",
		"skill_group_id": 19751,
		"gear_GearGear": 55011,
		"gear_rank": 1,
		"proficiency_UnitProficiency": 5,
		"level": 28,
		"hp": 53,
		"strength": 7,
		"vitality": 17,
		"intelligence": 37,
		"mind": 24,
		"agility": 30,
		"dexterity": 35,
		"lucky": 13,
		"parameter_table_BattleEnemyParameterTable": 0,
		"parameter_deviation_table_BattleEnemyParameterDeviationTable": 0,
		"acquire_skill_group_id": 0,
		"level_correction": 0,
		"group_id": 0,
		"ai_script_id_BattleAIScript": 0
	},
	{
		"ID": 83956,
		"stage_BattleStage": 272019004,
		"unit_UnitUnit": 7502311,
		"money": 0,
		"initial_coordinate_x": 5,
		"initial_coordinate_y": 5,
		"reinforcement_BattleReinforcement": 0,
		"initial_direction": 0.0,
		"ai_move_group": 0,
		"ai_target_move_x": -1,
		"ai_target_move_y": -1,
		"ai_skill_function": "",
		"ai_attack": "",
		"ai_move": "",
		"ai_heal": "",
		"ai_skill": "",
		"ai_use": "",
		"skill_group_id": 19751,
		"gear_GearGear": 55011,
		"gear_rank": 1,
		"proficiency_UnitProficiency": 5,
		"level": 33,
		"hp": 56,
		"strength": 8,
		"vitality": 19,
		"intelligence": 41,
		"mind": 26,
		"agility": 32,
		"dexterity": 37,
		"lucky": 12,
		"parameter_table_BattleEnemyParameterTable": 0,
		"parameter_deviation_table_BattleEnemyParameterDeviationTable": 0,
		"acquire_skill_group_id": 0,
		"level_correction": 0,
		"group_id": 0,
		"ai_script_id_BattleAIScript": 0
	},
	{
		"ID": 83957,
		"stage_BattleStage": 272019004,
		"unit_UnitUnit": 7502311,
		"money": 0,
		"initial_coordinate_x": 7,
		"initial_coordinate_y": 5,
		"reinforcement_BattleReinforcement": 0,
		"initial_direction": 0.0,
		"ai_move_group": 0,
		"ai_target_move_x": -1,
		"ai_target_move_y": -1,
		"ai_skill_function": "",
		"ai_attack": "",
		"ai_move": "",
		"ai_heal": "",
		"ai_skill": "",
		"ai_use": "",
		"skill_group_id": 19751,
		"gear_GearGear": 55011,
		"gear_rank": 1,
		"proficiency_UnitProficiency": 5,
		"level": 33,
		"hp": 57,
		"strength": 7,
		"vitality": 18,
		"intelligence": 41,
		"mind": 28,
		"agility": 34,
		"dexterity": 39,
		"lucky": 13,
		"parameter_table_BattleEnemyParameterTable": 0,
		"parameter_deviation_table_BattleEnemyParameterDeviationTable": 0,
		"acquire_skill_group_id": 0,
		"level_correction": 0,
		"group_id": 0,
		"ai_script_id_BattleAIScript": 0
	},
	{
		"ID": 83958,
		"stage_BattleStage": 272019004,
		"unit_UnitUnit": 7502311,
		"money": 0,
		"initial_coordinate_x": 6,
		"initial_coordinate_y": 3,
		"reinforcement_BattleReinforcement": 0,
		"initial_direction": 0.0,
		"ai_move_group": 0,
		"ai_target_move_x": -1,
		"ai_target_move_y": -1,
		"ai_skill_function": "",
		"ai_attack": "",
		"ai_move": "IF(turn <=3,0,1)",
		"ai_heal": "",
		"ai_skill": "",
		"ai_use": "",
		"skill_group_id": 19751,
		"gear_GearGear": 55011,
		"gear_rank": 1,
		"proficiency_UnitProficiency": 5,
		"level": 33,
		"hp": 56,
		"strength": 7,
		"vitality": 18,
		"intelligence": 42,
		"mind": 26,
		"agility": 33,
		"dexterity": 39,
		"lucky": 12,
		"parameter_table_BattleEnemyParameterTable": 0,
		"parameter_deviation_table_BattleEnemyParameterDeviationTable": 0,
		"acquire_skill_group_id": 0,
		"level_correction": 0,
		"group_id": 0,
		"ai_script_id_BattleAIScript": 0
	},
	{
		"ID": 83959,
		"stage_BattleStage": 272019004,
		"unit_UnitUnit": 7502311,
		"money": 0,
		"initial_coordinate_x": 9,
		"initial_coordinate_y": 9,
		"reinforcement_BattleReinforcement": 0,
		"initial_direction": 270.0,
		"ai_move_group": 0,
		"ai_target_move_x": -1,
		"ai_target_move_y": -1,
		"ai_skill_function": "",
		"ai_attack": "",
		"ai_move": "IF(turn <=3,0,1)",
		"ai_heal": "",
		"ai_skill": "",
		"ai_use": "",
		"skill_group_id": 19751,
		"gear_GearGear": 55011,
		"gear_rank": 1,
		"proficiency_UnitProficiency": 5,
		"level": 36,
		"hp": 58,
		"strength": 8,
		"vitality": 20,
		"intelligence": 45,
		"mind": 28,
		"agility": 36,
		"dexterity": 40,
		"lucky": 13,
		"parameter_table_BattleEnemyParameterTable": 0,
		"parameter_deviation_table_BattleEnemyParameterDeviationTable": 0,
		"acquire_skill_group_id": 0,
		"level_correction": 0,
		"group_id": 0,
		"ai_script_id_BattleAIScript": 0
	},
	{
		"ID": 83960,
		"stage_BattleStage": 272019004,
		"unit_UnitUnit": 7502311,
		"money": 0,
		"initial_coordinate_x": 10,
		"initial_coordinate_y": 8,
		"reinforcement_BattleReinforcement": 0,
		"initial_direction": 270.0,
		"ai_move_group": 0,
		"ai_target_move_x": -1,
		"ai_target_move_y": -1,
		"ai_skill_function": "",
		"ai_attack": "",
		"ai_move": "IF(turn <=3,0,1)",
		"ai_heal": "",
		"ai_skill": "",
		"ai_use": "",
		"skill_group_id": 19751,
		"gear_GearGear": 55011,
		"gear_rank": 1,
		"proficiency_UnitProficiency": 5,
		"level": 36,
		"hp": 60,
		"strength": 8,
		"vitality": 20,
		"intelligence": 45,
		"mind": 28,
		"agility": 35,
		"dexterity": 42,
		"lucky": 12,
		"parameter_table_BattleEnemyParameterTable": 0,
		"parameter_deviation_table_BattleEnemyParameterDeviationTable": 0,
		"acquire_skill_group_id": 0,
		"level_correction": 0,
		"group_id": 0,
		"ai_script_id_BattleAIScript": 0
	},
	{
		"ID": 83961,
		"stage_BattleStage": 272019004,
		"unit_UnitUnit": 7502311,
		"money": 0,
		"initial_coordinate_x": 10,
		"initial_coordinate_y": 12,
		"reinforcement_BattleReinforcement": 0,
		"initial_direction": 180.0,
		"ai_move_group": 0,
		"ai_target_move_x": -1,
		"ai_target_move_y": -1,
		"ai_skill_function": "",
		"ai_attack": "",
		"ai_move": "IF(turn <=3,0,1)",
		"ai_heal": "",
		"ai_skill": "",
		"ai_use": "",
		"skill_group_id": 19751,
		"gear_GearGear": 55011,
		"gear_rank": 1,
		"proficiency_UnitProficiency": 5,
		"level": 40,
		"hp": 64,
		"strength": 8,
		"vitality": 21,
		"intelligence": 47,
		"mind": 33,
		"agility": 38,
		"dexterity": 43,
		"lucky": 13,
		"parameter_table_BattleEnemyParameterTable": 0,
		"parameter_deviation_table_BattleEnemyParameterDeviationTable": 0,
		"acquire_skill_group_id": 0,
		"level_correction": 0,
		"group_id": 0,
		"ai_script_id_BattleAIScript": 0
	}
]