[
	{
		"ID": 40618,
		"stage_BattleStage": 275001002,
		"unit_UnitUnit": 810008,
		"money": 90,
		"initial_coordinate_x": 2,
		"initial_coordinate_y": 14,
		"reinforcement_BattleReinforcement": 0,
		"initial_direction": 180.0,
		"ai_move_group": 0,
		"ai_target_move_x": -1,
		"ai_target_move_y": -1,
		"ai_skill_function": "",
		"ai_attack": "IF( turn <=7 ,IF(panel_move_distance <= 5, 1, 0),1)",
		"ai_move": "IF(turn <=7,0,1)",
		"ai_heal": "",
		"ai_skill": "",
		"ai_use": "",
		"skill_group_id": 565,
		"gear_GearGear": 11002,
		"gear_rank": 1,
		"proficiency_UnitProficiency": 1,
		"level": 18,
		"hp": 44,
		"strength": 33,
		"vitality": 24,
		"intelligence": 7,
		"mind": 9,
		"agility": 30,
		"dexterity": 33,
		"lucky": 27,
		"parameter_table_BattleEnemyParameterTable": 0,
		"parameter_deviation_table_BattleEnemyParameterDeviationTable": 0,
		"acquire_skill_group_id": 0,
		"level_correction": 0,
		"group_id": 0,
		"ai_script_id_BattleAIScript": 0
	},
	{
		"ID": 40619,
		"stage_BattleStage": 275001002,
		"unit_UnitUnit": 810004,
		"money": 90,
		"initial_coordinate_x": 6,
		"initial_coordinate_y": 13,
		"reinforcement_BattleReinforcement": 0,
		"initial_direction": 180.0,
		"ai_move_group": 0,
		"ai_target_move_x": -1,
		"ai_target_move_y": -1,
		"ai_skill_function": "",
		"ai_attack": "IF( turn <=5 ,IF(panel_move_distance <= 5, 1, 0),1)",
		"ai_move": "IF(turn <=5,0,1)",
		"ai_heal": "",
		"ai_skill": "",
		"ai_use": "",
		"skill_group_id": 9975,
		"gear_GearGear": 11002,
		"gear_rank": 1,
		"proficiency_UnitProficiency": 1,
		"level": 18,
		"hp": 39,
		"strength": 27,
		"vitality": 18,
		"intelligence": 4,
		"mind": 10,
		"agility": 37,
		"dexterity": 39,
		"lucky": 25,
		"parameter_table_BattleEnemyParameterTable": 0,
		"parameter_deviation_table_BattleEnemyParameterDeviationTable": 0,
		"acquire_skill_group_id": 0,
		"level_correction": 0,
		"group_id": 0,
		"ai_script_id_BattleAIScript": 0
	},
	{
		"ID": 40620,
		"stage_BattleStage": 275001002,
		"unit_UnitUnit": 820004,
		"money": 90,
		"initial_coordinate_x": 8,
		"initial_coordinate_y": 13,
		"reinforcement_BattleReinforcement": 0,
		"initial_direction": 180.0,
		"ai_move_group": 0,
		"ai_target_move_x": -1,
		"ai_target_move_y": -1,
		"ai_skill_function": "",
		"ai_attack": "IF( turn <=5 ,IF(panel_move_distance <= 5, 1, 0),1)",
		"ai_move": "IF(turn <=5,0,1)",
		"ai_heal": "",
		"ai_skill": "",
		"ai_use": "",
		"skill_group_id": 275,
		"gear_GearGear": 21002,
		"gear_rank": 1,
		"proficiency_UnitProficiency": 1,
		"level": 18,
		"hp": 42,
		"strength": 28,
		"vitality": 13,
		"intelligence": 6,
		"mind": 9,
		"agility": 34,
		"dexterity": 36,
		"lucky": 27,
		"parameter_table_BattleEnemyParameterTable": 0,
		"parameter_deviation_table_BattleEnemyParameterDeviationTable": 0,
		"acquire_skill_group_id": 0,
		"level_correction": 0,
		"group_id": 0,
		"ai_script_id_BattleAIScript": 0
	},
	{
		"ID": 40621,
		"stage_BattleStage": 275001002,
		"unit_UnitUnit": 810004,
		"money": 90,
		"initial_coordinate_x": 2,
		"initial_coordinate_y": 10,
		"reinforcement_BattleReinforcement": 0,
		"initial_direction": 180.0,
		"ai_move_group": 0,
		"ai_target_move_x": -1,
		"ai_target_move_y": -1,
		"ai_skill_function": "",
		"ai_attack": "IF( turn <=5 ,IF(panel_move_distance <= 5, 1, 0),1)",
		"ai_move": "IF(turn <=5,0,1)",
		"ai_heal": "",
		"ai_skill": "",
		"ai_use": "",
		"skill_group_id": 271,
		"gear_GearGear": 11002,
		"gear_rank": 1,
		"proficiency_UnitProficiency": 1,
		"level": 18,
		"hp": 40,
		"strength": 25,
		"vitality": 16,
		"intelligence": 4,
		"mind": 9,
		"agility": 36,
		"dexterity": 40,
		"lucky": 28,
		"parameter_table_BattleEnemyParameterTable": 0,
		"parameter_deviation_table_BattleEnemyParameterDeviationTable": 0,
		"acquire_skill_group_id": 0,
		"level_correction": 0,
		"group_id": 0,
		"ai_script_id_BattleAIScript": 0
	},
	{
		"ID": 40622,
		"stage_BattleStage": 275001002,
		"unit_UnitUnit": 830004,
		"money": 90,
		"initial_coordinate_x": 1,
		"initial_coordinate_y": 9,
		"reinforcement_BattleReinforcement": 0,
		"initial_direction": 180.0,
		"ai_move_group": 0,
		"ai_target_move_x": -1,
		"ai_target_move_y": -1,
		"ai_skill_function": "",
		"ai_attack": "IF( turn <=5 ,IF(panel_move_distance <= 5, 1, 0),1)",
		"ai_move": "IF(turn <=5,0,1)",
		"ai_heal": "",
		"ai_skill": "",
		"ai_use": "",
		"skill_group_id": 9971,
		"gear_GearGear": 31002,
		"gear_rank": 1,
		"proficiency_UnitProficiency": 1,
		"level": 18,
		"hp": 43,
		"strength": 25,
		"vitality": 19,
		"intelligence": 3,
		"mind": 10,
		"agility": 34,
		"dexterity": 37,
		"lucky": 21,
		"parameter_table_BattleEnemyParameterTable": 0,
		"parameter_deviation_table_BattleEnemyParameterDeviationTable": 0,
		"acquire_skill_group_id": 0,
		"level_correction": 0,
		"group_id": 0,
		"ai_script_id_BattleAIScript": 0
	},
	{
		"ID": 40623,
		"stage_BattleStage": 275001002,
		"unit_UnitUnit": 840004,
		"money": 90,
		"initial_coordinate_x": 5,
		"initial_coordinate_y": 6,
		"reinforcement_BattleReinforcement": 0,
		"initial_direction": 180.0,
		"ai_move_group": 0,
		"ai_target_move_x": -1,
		"ai_target_move_y": -1,
		"ai_skill_function": "",
		"ai_attack": "IF( turn <=3 ,IF(panel_move_distance <= 5, 1, 0),1)",
		"ai_move": "IF(turn <=3,0,1)",
		"ai_heal": "",
		"ai_skill": "",
		"ai_use": "",
		"skill_group_id": 275,
		"gear_GearGear": 41002,
		"gear_rank": 1,
		"proficiency_UnitProficiency": 1,
		"level": 18,
		"hp": 42,
		"strength": 24,
		"vitality": 19,
		"intelligence": 4,
		"mind": 9,
		"agility": 31,
		"dexterity": 45,
		"lucky": 24,
		"parameter_table_BattleEnemyParameterTable": 0,
		"parameter_deviation_table_BattleEnemyParameterDeviationTable": 0,
		"acquire_skill_group_id": 0,
		"level_correction": 0,
		"group_id": 0,
		"ai_script_id_BattleAIScript": 0
	},
	{
		"ID": 40624,
		"stage_BattleStage": 275001002,
		"unit_UnitUnit": 840004,
		"money": 90,
		"initial_coordinate_x": 6,
		"initial_coordinate_y": 7,
		"reinforcement_BattleReinforcement": 0,
		"initial_direction": 180.0,
		"ai_move_group": 0,
		"ai_target_move_x": -1,
		"ai_target_move_y": -1,
		"ai_skill_function": "",
		"ai_attack": "IF( turn <=3 ,IF(panel_move_distance <= 5, 1, 0),1)",
		"ai_move": "IF(turn <=3,0,1)",
		"ai_heal": "",
		"ai_skill": "",
		"ai_use": "",
		"skill_group_id": 271,
		"gear_GearGear": 41002,
		"gear_rank": 1,
		"proficiency_UnitProficiency": 1,
		"level": 18,
		"hp": 40,
		"strength": 25,
		"vitality": 18,
		"intelligence": 6,
		"mind": 7,
		"agility": 30,
		"dexterity": 43,
		"lucky": 22,
		"parameter_table_BattleEnemyParameterTable": 0,
		"parameter_deviation_table_BattleEnemyParameterDeviationTable": 0,
		"acquire_skill_group_id": 0,
		"level_correction": 0,
		"group_id": 0,
		"ai_script_id_BattleAIScript": 0
	},
	{
		"ID": 40625,
		"stage_BattleStage": 275001002,
		"unit_UnitUnit": 820003,
		"money": 90,
		"initial_coordinate_x": 11,
		"initial_coordinate_y": 10,
		"reinforcement_BattleReinforcement": 0,
		"initial_direction": 180.0,
		"ai_move_group": 0,
		"ai_target_move_x": -1,
		"ai_target_move_y": -1,
		"ai_skill_function": "",
		"ai_attack": "IF( turn <=3 ,IF(panel_move_distance <= 5, 1, 0),1)",
		"ai_move": "IF(turn <=3,0,1)",
		"ai_heal": "",
		"ai_skill": "",
		"ai_use": "",
		"skill_group_id": 261,
		"gear_GearGear": 21002,
		"gear_rank": 1,
		"proficiency_UnitProficiency": 1,
		"level": 18,
		"hp": 48,
		"strength": 30,
		"vitality": 36,
		"intelligence": 4,
		"mind": 3,
		"agility": 22,
		"dexterity": 30,
		"lucky": 25,
		"parameter_table_BattleEnemyParameterTable": 0,
		"parameter_deviation_table_BattleEnemyParameterDeviationTable": 0,
		"acquire_skill_group_id": 0,
		"level_correction": 0,
		"group_id": 0,
		"ai_script_id_BattleAIScript": 0
	},
	{
		"ID": 40626,
		"stage_BattleStage": 275001002,
		"unit_UnitUnit": 810004,
		"money": 90,
		"initial_coordinate_x": 12,
		"initial_coordinate_y": 10,
		"reinforcement_BattleReinforcement": 0,
		"initial_direction": 180.0,
		"ai_move_group": 0,
		"ai_target_move_x": -1,
		"ai_target_move_y": -1,
		"ai_skill_function": "",
		"ai_attack": "IF( turn <=3 ,IF(panel_move_distance <= 5, 1, 0),1)",
		"ai_move": "IF(turn <=3,0,1)",
		"ai_heal": "",
		"ai_skill": "",
		"ai_use": "",
		"skill_group_id": 1,
		"gear_GearGear": 11002,
		"gear_rank": 1,
		"proficiency_UnitProficiency": 1,
		"level": 18,
		"hp": 38,
		"strength": 25,
		"vitality": 18,
		"intelligence": 3,
		"mind": 9,
		"agility": 33,
		"dexterity": 43,
		"lucky": 24,
		"parameter_table_BattleEnemyParameterTable": 0,
		"parameter_deviation_table_BattleEnemyParameterDeviationTable": 0,
		"acquire_skill_group_id": 0,
		"level_correction": 0,
		"group_id": 0,
		"ai_script_id_BattleAIScript": 0
	},
	{
		"ID": 40627,
		"stage_BattleStage": 275001002,
		"unit_UnitUnit": 830003,
		"money": 90,
		"initial_coordinate_x": 5,
		"initial_coordinate_y": 3,
		"reinforcement_BattleReinforcement": 0,
		"initial_direction": 90.0,
		"ai_move_group": 0,
		"ai_target_move_x": -1,
		"ai_target_move_y": -1,
		"ai_skill_function": "",
		"ai_attack": "IF(panel_move_distance <= 5, 1, 0)",
		"ai_move": "0.0",
		"ai_heal": "",
		"ai_skill": "",
		"ai_use": "",
		"skill_group_id": 265,
		"gear_GearGear": 31002,
		"gear_rank": 1,
		"proficiency_UnitProficiency": 1,
		"level": 18,
		"hp": 49,
		"strength": 33,
		"vitality": 34,
		"intelligence": 1,
		"mind": 4,
		"agility": 24,
		"dexterity": 31,
		"lucky": 19,
		"parameter_table_BattleEnemyParameterTable": 0,
		"parameter_deviation_table_BattleEnemyParameterDeviationTable": 0,
		"acquire_skill_group_id": 0,
		"level_correction": 0,
		"group_id": 0,
		"ai_script_id_BattleAIScript": 0
	},
	{
		"ID": 40628,
		"stage_BattleStage": 275001002,
		"unit_UnitUnit": 810004,
		"money": 90,
		"initial_coordinate_x": 5,
		"initial_coordinate_y": 1,
		"reinforcement_BattleReinforcement": 0,
		"initial_direction": 90.0,
		"ai_move_group": 0,
		"ai_target_move_x": -1,
		"ai_target_move_y": -1,
		"ai_skill_function": "",
		"ai_attack": "IF(panel_move_distance <= 5, 1, 0)",
		"ai_move": "0.0",
		"ai_heal": "",
		"ai_skill": "",
		"ai_use": "",
		"skill_group_id": 9975,
		"gear_GearGear": 11002,
		"gear_rank": 1,
		"proficiency_UnitProficiency": 1,
		"level": 18,
		"hp": 39,
		"strength": 24,
		"vitality": 16,
		"intelligence": 4,
		"mind": 7,
		"agility": 37,
		"dexterity": 40,
		"lucky": 21,
		"parameter_table_BattleEnemyParameterTable": 0,
		"parameter_deviation_table_BattleEnemyParameterDeviationTable": 0,
		"acquire_skill_group_id": 0,
		"level_correction": 0,
		"group_id": 0,
		"ai_script_id_BattleAIScript": 0
	},
	{
		"ID": 40629,
		"stage_BattleStage": 275001002,
		"unit_UnitUnit": 860001,
		"money": 90,
		"initial_coordinate_x": 2,
		"initial_coordinate_y": 2,
		"reinforcement_BattleReinforcement": 3,
		"initial_direction": 90.0,
		"ai_move_group": 0,
		"ai_target_move_x": -1,
		"ai_target_move_y": -1,
		"ai_skill_function": "",
		"ai_attack": "",
		"ai_move": "1 / (panel_enemy_distance + 1)",
		"ai_heal": "",
		"ai_skill": "",
		"ai_use": "",
		"skill_group_id": 21,
		"gear_GearGear": 80008,
		"gear_rank": 1,
		"proficiency_UnitProficiency": 1,
		"level": 18,
		"hp": 36,
		"strength": 7,
		"vitality": 13,
		"intelligence": 27,
		"mind": 21,
		"agility": 33,
		"dexterity": 39,
		"lucky": 28,
		"parameter_table_BattleEnemyParameterTable": 0,
		"parameter_deviation_table_BattleEnemyParameterDeviationTable": 0,
		"acquire_skill_group_id": 0,
		"level_correction": 0,
		"group_id": 0,
		"ai_script_id_BattleAIScript": 0
	},
	{
		"ID": 40630,
		"stage_BattleStage": 275001002,
		"unit_UnitUnit": 820007,
		"money": 90,
		"initial_coordinate_x": 13,
		"initial_coordinate_y": 15,
		"reinforcement_BattleReinforcement": 4,
		"initial_direction": 180.0,
		"ai_move_group": 0,
		"ai_target_move_x": -1,
		"ai_target_move_y": -1,
		"ai_skill_function": "",
		"ai_attack": "",
		"ai_move": "1 / (panel_enemy_distance + 1)",
		"ai_heal": "",
		"ai_skill": "",
		"ai_use": "",
		"skill_group_id": 9961,
		"gear_GearGear": 21002,
		"gear_rank": 1,
		"proficiency_UnitProficiency": 1,
		"level": 18,
		"hp": 46,
		"strength": 31,
		"vitality": 28,
		"intelligence": 4,
		"mind": 3,
		"agility": 28,
		"dexterity": 27,
		"lucky": 21,
		"parameter_table_BattleEnemyParameterTable": 0,
		"parameter_deviation_table_BattleEnemyParameterDeviationTable": 0,
		"acquire_skill_group_id": 0,
		"level_correction": 0,
		"group_id": 0,
		"ai_script_id_BattleAIScript": 0
	},
	{
		"ID": 40631,
		"stage_BattleStage": 275001002,
		"unit_UnitUnit": 820007,
		"money": 90,
		"initial_coordinate_x": 15,
		"initial_coordinate_y": 15,
		"reinforcement_BattleReinforcement": 4,
		"initial_direction": 180.0,
		"ai_move_group": 0,
		"ai_target_move_x": -1,
		"ai_target_move_y": -1,
		"ai_skill_function": "",
		"ai_attack": "",
		"ai_move": "1 / (panel_enemy_distance + 1)",
		"ai_heal": "",
		"ai_skill": "",
		"ai_use": "",
		"skill_group_id": 9965,
		"gear_GearGear": 21002,
		"gear_rank": 1,
		"proficiency_UnitProficiency": 1,
		"level": 18,
		"hp": 48,
		"strength": 34,
		"vitality": 25,
		"intelligence": 3,
		"mind": 4,
		"agility": 27,
		"dexterity": 28,
		"lucky": 19,
		"parameter_table_BattleEnemyParameterTable": 0,
		"parameter_deviation_table_BattleEnemyParameterDeviationTable": 0,
		"acquire_skill_group_id": 0,
		"level_correction": 0,
		"group_id": 0,
		"ai_script_id_BattleAIScript": 0
	}
]