[
	{
		"ID": 35646,
		"stage_BattleStage": 291002002,
		"unit_UnitUnit": 10022401,
		"money": 335,
		"initial_coordinate_x": 12,
		"initial_coordinate_y": 2,
		"reinforcement_BattleReinforcement": 0,
		"initial_direction": 270.0,
		"ai_move_group": 0,
		"ai_target_move_x": -1,
		"ai_target_move_y": -1,
		"ai_skill_function": "",
		"ai_attack": "IF(panel_move_distance <= 3, 1, 0)",
		"ai_move": "IF(turn <=8,0,1)",
		"ai_heal": "",
		"ai_skill": "",
		"ai_use": "",
		"skill_group_id": 17540,
		"gear_GearGear": 160221,
		"gear_rank": 1,
		"proficiency_UnitProficiency": 1,
		"level": 67,
		"hp": 96,
		"strength": 67,
		"vitality": 50,
		"intelligence": 24,
		"mind": 27,
		"agility": 80,
		"dexterity": 81,
		"lucky": 49,
		"parameter_table_BattleEnemyParameterTable": 0,
		"parameter_deviation_table_BattleEnemyParameterDeviationTable": 0,
		"acquire_skill_group_id": 0,
		"level_correction": 0,
		"group_id": 0,
		"ai_script_id_BattleAIScript": 0
	},
	{
		"ID": 35647,
		"stage_BattleStage": 291002002,
		"unit_UnitUnit": 10024301,
		"money": 320,
		"initial_coordinate_x": 8,
		"initial_coordinate_y": 4,
		"reinforcement_BattleReinforcement": 0,
		"initial_direction": 270.0,
		"ai_move_group": 0,
		"ai_target_move_x": -1,
		"ai_target_move_y": -1,
		"ai_skill_function": "",
		"ai_attack": "IF(panel_move_distance <= 3, 1, 0)",
		"ai_move": "IF(turn <=8,0,1)",
		"ai_heal": "",
		"ai_skill": "",
		"ai_use": "",
		"skill_group_id": 17550,
		"gear_GearGear": 160225,
		"gear_rank": 1,
		"proficiency_UnitProficiency": 1,
		"level": 64,
		"hp": 100,
		"strength": 64,
		"vitality": 43,
		"intelligence": 23,
		"mind": 25,
		"agility": 83,
		"dexterity": 89,
		"lucky": 49,
		"parameter_table_BattleEnemyParameterTable": 0,
		"parameter_deviation_table_BattleEnemyParameterDeviationTable": 0,
		"acquire_skill_group_id": 0,
		"level_correction": 0,
		"group_id": 0,
		"ai_script_id_BattleAIScript": 0
	},
	{
		"ID": 35648,
		"stage_BattleStage": 291002002,
		"unit_UnitUnit": 10025401,
		"money": 335,
		"initial_coordinate_x": 3,
		"initial_coordinate_y": 12,
		"reinforcement_BattleReinforcement": 0,
		"initial_direction": 180.0,
		"ai_move_group": 0,
		"ai_target_move_x": -1,
		"ai_target_move_y": -1,
		"ai_skill_function": "",
		"ai_attack": "IF(panel_move_distance <= 3, 1, 0)",
		"ai_move": "IF(turn <=8,0,1)",
		"ai_heal": "",
		"ai_skill": "",
		"ai_use": "",
		"skill_group_id": 17543,
		"gear_GearGear": 160222,
		"gear_rank": 1,
		"proficiency_UnitProficiency": 1,
		"level": 67,
		"hp": 96,
		"strength": 67,
		"vitality": 50,
		"intelligence": 24,
		"mind": 27,
		"agility": 80,
		"dexterity": 82,
		"lucky": 49,
		"parameter_table_BattleEnemyParameterTable": 0,
		"parameter_deviation_table_BattleEnemyParameterDeviationTable": 0,
		"acquire_skill_group_id": 0,
		"level_correction": 0,
		"group_id": 0,
		"ai_script_id_BattleAIScript": 0
	},
	{
		"ID": 35649,
		"stage_BattleStage": 291002002,
		"unit_UnitUnit": 10026401,
		"money": 335,
		"initial_coordinate_x": 11,
		"initial_coordinate_y": 8,
		"reinforcement_BattleReinforcement": 0,
		"initial_direction": 0.0,
		"ai_move_group": 0,
		"ai_target_move_x": -1,
		"ai_target_move_y": -1,
		"ai_skill_function": "",
		"ai_attack": "IF(panel_move_distance <= 3, 1, 0)",
		"ai_move": "IF(turn <=5,0,1)",
		"ai_heal": "",
		"ai_skill": "",
		"ai_use": "",
		"skill_group_id": 17544,
		"gear_GearGear": 160224,
		"gear_rank": 1,
		"proficiency_UnitProficiency": 1,
		"level": 67,
		"hp": 96,
		"strength": 70,
		"vitality": 50,
		"intelligence": 24,
		"mind": 27,
		"agility": 84,
		"dexterity": 92,
		"lucky": 56,
		"parameter_table_BattleEnemyParameterTable": 0,
		"parameter_deviation_table_BattleEnemyParameterDeviationTable": 0,
		"acquire_skill_group_id": 0,
		"level_correction": 0,
		"group_id": 0,
		"ai_script_id_BattleAIScript": 0
	},
	{
		"ID": 35650,
		"stage_BattleStage": 291002002,
		"unit_UnitUnit": 10023201,
		"money": 290,
		"initial_coordinate_x": 7,
		"initial_coordinate_y": 10,
		"reinforcement_BattleReinforcement": 0,
		"initial_direction": 180.0,
		"ai_move_group": 0,
		"ai_target_move_x": -1,
		"ai_target_move_y": -1,
		"ai_skill_function": "",
		"ai_attack": "IF(panel_move_distance <= 3, 1, 0)",
		"ai_move": "IF(turn <=5,0,1)",
		"ai_heal": "",
		"ai_skill": "",
		"ai_use": "",
		"skill_group_id": 17550,
		"gear_GearGear": 160223,
		"gear_rank": 1,
		"proficiency_UnitProficiency": 1,
		"level": 58,
		"hp": 89,
		"strength": 64,
		"vitality": 49,
		"intelligence": 23,
		"mind": 18,
		"agility": 62,
		"dexterity": 65,
		"lucky": 49,
		"parameter_table_BattleEnemyParameterTable": 0,
		"parameter_deviation_table_BattleEnemyParameterDeviationTable": 0,
		"acquire_skill_group_id": 0,
		"level_correction": 0,
		"group_id": 0,
		"ai_script_id_BattleAIScript": 0
	},
	{
		"ID": 35651,
		"stage_BattleStage": 291002002,
		"unit_UnitUnit": 10021301,
		"money": 280,
		"initial_coordinate_x": 11,
		"initial_coordinate_y": 8,
		"reinforcement_BattleReinforcement": 0,
		"initial_direction": 0.0,
		"ai_move_group": 0,
		"ai_target_move_x": -1,
		"ai_target_move_y": -1,
		"ai_skill_function": "",
		"ai_attack": "IF(panel_move_distance <= 3, 1, 0)",
		"ai_move": "IF(turn <=5,0,1)",
		"ai_heal": "",
		"ai_skill": "",
		"ai_use": "",
		"skill_group_id": 17541,
		"gear_GearGear": 160221,
		"gear_rank": 1,
		"proficiency_UnitProficiency": 1,
		"level": 56,
		"hp": 86,
		"strength": 57,
		"vitality": 44,
		"intelligence": 22,
		"mind": 23,
		"agility": 75,
		"dexterity": 73,
		"lucky": 48,
		"parameter_table_BattleEnemyParameterTable": 0,
		"parameter_deviation_table_BattleEnemyParameterDeviationTable": 0,
		"acquire_skill_group_id": 0,
		"level_correction": 0,
		"group_id": 0,
		"ai_script_id_BattleAIScript": 0
	},
	{
		"ID": 35652,
		"stage_BattleStage": 291002002,
		"unit_UnitUnit": 830008,
		"money": 270,
		"initial_coordinate_x": 10,
		"initial_coordinate_y": 2,
		"reinforcement_BattleReinforcement": 0,
		"initial_direction": 270.0,
		"ai_move_group": 0,
		"ai_target_move_x": -1,
		"ai_target_move_y": -1,
		"ai_skill_function": "",
		"ai_attack": "IF(panel_move_distance <= 5, 1, 0)",
		"ai_move": "IF(turn <=8,0,1)",
		"ai_heal": "",
		"ai_skill": "",
		"ai_use": "",
		"skill_group_id": 564,
		"gear_GearGear": 33003,
		"gear_rank": 1,
		"proficiency_UnitProficiency": 1,
		"level": 54,
		"hp": 97,
		"strength": 64,
		"vitality": 56,
		"intelligence": 8,
		"mind": 25,
		"agility": 40,
		"dexterity": 69,
		"lucky": 19,
		"parameter_table_BattleEnemyParameterTable": 0,
		"parameter_deviation_table_BattleEnemyParameterDeviationTable": 0,
		"acquire_skill_group_id": 0,
		"level_correction": 0,
		"group_id": 0,
		"ai_script_id_BattleAIScript": 0
	},
	{
		"ID": 35653,
		"stage_BattleStage": 291002002,
		"unit_UnitUnit": 830008,
		"money": 295,
		"initial_coordinate_x": 11,
		"initial_coordinate_y": 3,
		"reinforcement_BattleReinforcement": 0,
		"initial_direction": 270.0,
		"ai_move_group": 0,
		"ai_target_move_x": -1,
		"ai_target_move_y": -1,
		"ai_skill_function": "",
		"ai_attack": "IF(panel_move_distance <= 5, 1, 0)",
		"ai_move": "IF(turn <=8,0,1)",
		"ai_heal": "",
		"ai_skill": "",
		"ai_use": "",
		"skill_group_id": 564,
		"gear_GearGear": 33002,
		"gear_rank": 1,
		"proficiency_UnitProficiency": 1,
		"level": 59,
		"hp": 96,
		"strength": 69,
		"vitality": 60,
		"intelligence": 7,
		"mind": 30,
		"agility": 43,
		"dexterity": 74,
		"lucky": 23,
		"parameter_table_BattleEnemyParameterTable": 0,
		"parameter_deviation_table_BattleEnemyParameterDeviationTable": 0,
		"acquire_skill_group_id": 0,
		"level_correction": 0,
		"group_id": 0,
		"ai_script_id_BattleAIScript": 0
	},
	{
		"ID": 35654,
		"stage_BattleStage": 291002002,
		"unit_UnitUnit": 820008,
		"money": 285,
		"initial_coordinate_x": 7,
		"initial_coordinate_y": 3,
		"reinforcement_BattleReinforcement": 0,
		"initial_direction": 270.0,
		"ai_move_group": 0,
		"ai_target_move_x": -1,
		"ai_target_move_y": -1,
		"ai_skill_function": "",
		"ai_attack": "IF(panel_move_distance <= 5, 1, 0)",
		"ai_move": "IF(turn <=8,0,1)",
		"ai_heal": "",
		"ai_skill": "",
		"ai_use": "",
		"skill_group_id": 564,
		"gear_GearGear": 23003,
		"gear_rank": 1,
		"proficiency_UnitProficiency": 1,
		"level": 57,
		"hp": 76,
		"strength": 66,
		"vitality": 39,
		"intelligence": 9,
		"mind": 24,
		"agility": 53,
		"dexterity": 71,
		"lucky": 28,
		"parameter_table_BattleEnemyParameterTable": 0,
		"parameter_deviation_table_BattleEnemyParameterDeviationTable": 0,
		"acquire_skill_group_id": 0,
		"level_correction": 0,
		"group_id": 0,
		"ai_script_id_BattleAIScript": 0
	},
	{
		"ID": 35655,
		"stage_BattleStage": 291002002,
		"unit_UnitUnit": 820008,
		"money": 280,
		"initial_coordinate_x": 7,
		"initial_coordinate_y": 5,
		"reinforcement_BattleReinforcement": 0,
		"initial_direction": 270.0,
		"ai_move_group": 0,
		"ai_target_move_x": -1,
		"ai_target_move_y": -1,
		"ai_skill_function": "",
		"ai_attack": "IF(panel_move_distance <= 5, 1, 0)",
		"ai_move": "IF(turn <=8,0,1)",
		"ai_heal": "",
		"ai_skill": "",
		"ai_use": "",
		"skill_group_id": 564,
		"gear_GearGear": 23002,
		"gear_rank": 1,
		"proficiency_UnitProficiency": 1,
		"level": 56,
		"hp": 77,
		"strength": 61,
		"vitality": 38,
		"intelligence": 10,
		"mind": 24,
		"agility": 51,
		"dexterity": 67,
		"lucky": 22,
		"parameter_table_BattleEnemyParameterTable": 0,
		"parameter_deviation_table_BattleEnemyParameterDeviationTable": 0,
		"acquire_skill_group_id": 0,
		"level_correction": 0,
		"group_id": 0,
		"ai_script_id_BattleAIScript": 0
	},
	{
		"ID": 35656,
		"stage_BattleStage": 291002002,
		"unit_UnitUnit": 840008,
		"money": 270,
		"initial_coordinate_x": 10,
		"initial_coordinate_y": 9,
		"reinforcement_BattleReinforcement": 0,
		"initial_direction": 0.0,
		"ai_move_group": 0,
		"ai_target_move_x": -1,
		"ai_target_move_y": -1,
		"ai_skill_function": "",
		"ai_attack": "IF(panel_move_distance <= 5, 1, 0)",
		"ai_move": "IF(turn <=8,0,1)",
		"ai_heal": "",
		"ai_skill": "",
		"ai_use": "",
		"skill_group_id": 564,
		"gear_GearGear": 45007,
		"gear_rank": 1,
		"proficiency_UnitProficiency": 4,
		"level": 54,
		"hp": 69,
		"strength": 58,
		"vitality": 34,
		"intelligence": 9,
		"mind": 25,
		"agility": 50,
		"dexterity": 67,
		"lucky": 29,
		"parameter_table_BattleEnemyParameterTable": 0,
		"parameter_deviation_table_BattleEnemyParameterDeviationTable": 0,
		"acquire_skill_group_id": 0,
		"level_correction": 0,
		"group_id": 0,
		"ai_script_id_BattleAIScript": 0
	},
	{
		"ID": 35657,
		"stage_BattleStage": 291002002,
		"unit_UnitUnit": 840008,
		"money": 270,
		"initial_coordinate_x": 12,
		"initial_coordinate_y": 9,
		"reinforcement_BattleReinforcement": 0,
		"initial_direction": 0.0,
		"ai_move_group": 0,
		"ai_target_move_x": -1,
		"ai_target_move_y": -1,
		"ai_skill_function": "",
		"ai_attack": "IF(panel_move_distance <= 5, 1, 0)",
		"ai_move": "IF(turn <=8,0,1)",
		"ai_heal": "",
		"ai_skill": "",
		"ai_use": "",
		"skill_group_id": 564,
		"gear_GearGear": 45007,
		"gear_rank": 1,
		"proficiency_UnitProficiency": 4,
		"level": 54,
		"hp": 73,
		"strength": 50,
		"vitality": 37,
		"intelligence": 10,
		"mind": 25,
		"agility": 52,
		"dexterity": 67,
		"lucky": 22,
		"parameter_table_BattleEnemyParameterTable": 0,
		"parameter_deviation_table_BattleEnemyParameterDeviationTable": 0,
		"acquire_skill_group_id": 0,
		"level_correction": 0,
		"group_id": 0,
		"ai_script_id_BattleAIScript": 0
	},
	{
		"ID": 35658,
		"stage_BattleStage": 291002002,
		"unit_UnitUnit": 810008,
		"money": 285,
		"initial_coordinate_x": 6,
		"initial_coordinate_y": 9,
		"reinforcement_BattleReinforcement": 0,
		"initial_direction": 180.0,
		"ai_move_group": 0,
		"ai_target_move_x": -1,
		"ai_target_move_y": -1,
		"ai_skill_function": "",
		"ai_attack": "IF(panel_move_distance <= 5, 1, 0)",
		"ai_move": "IF(turn <=5,0,1)",
		"ai_heal": "",
		"ai_skill": "",
		"ai_use": "",
		"skill_group_id": 564,
		"gear_GearGear": 13001,
		"gear_rank": 1,
		"proficiency_UnitProficiency": 3,
		"level": 57,
		"hp": 75,
		"strength": 63,
		"vitality": 38,
		"intelligence": 6,
		"mind": 26,
		"agility": 51,
		"dexterity": 71,
		"lucky": 26,
		"parameter_table_BattleEnemyParameterTable": 0,
		"parameter_deviation_table_BattleEnemyParameterDeviationTable": 0,
		"acquire_skill_group_id": 0,
		"level_correction": 0,
		"group_id": 0,
		"ai_script_id_BattleAIScript": 0
	},
	{
		"ID": 35659,
		"stage_BattleStage": 291002002,
		"unit_UnitUnit": 810008,
		"money": 270,
		"initial_coordinate_x": 8,
		"initial_coordinate_y": 11,
		"reinforcement_BattleReinforcement": 0,
		"initial_direction": 180.0,
		"ai_move_group": 0,
		"ai_target_move_x": -1,
		"ai_target_move_y": -1,
		"ai_skill_function": "",
		"ai_attack": "IF(panel_move_distance <= 5, 1, 0)",
		"ai_move": "IF(turn <=5,0,1)",
		"ai_heal": "",
		"ai_skill": "",
		"ai_use": "",
		"skill_group_id": 564,
		"gear_GearGear": 13002,
		"gear_rank": 1,
		"proficiency_UnitProficiency": 3,
		"level": 54,
		"hp": 73,
		"strength": 63,
		"vitality": 35,
		"intelligence": 10,
		"mind": 22,
		"agility": 52,
		"dexterity": 69,
		"lucky": 29,
		"parameter_table_BattleEnemyParameterTable": 0,
		"parameter_deviation_table_BattleEnemyParameterDeviationTable": 0,
		"acquire_skill_group_id": 0,
		"level_correction": 0,
		"group_id": 0,
		"ai_script_id_BattleAIScript": 0
	},
	{
		"ID": 35660,
		"stage_BattleStage": 291002002,
		"unit_UnitUnit": 960015,
		"money": 275,
		"initial_coordinate_x": 2,
		"initial_coordinate_y": 13,
		"reinforcement_BattleReinforcement": 0,
		"initial_direction": 180.0,
		"ai_move_group": 0,
		"ai_target_move_x": -1,
		"ai_target_move_y": -1,
		"ai_skill_function": "",
		"ai_attack": "IF(panel_move_distance <= 5, 1, 0)",
		"ai_move": "IF(turn <=5,0,1)",
		"ai_heal": "",
		"ai_skill": "",
		"ai_use": "",
		"skill_group_id": 584,
		"gear_GearGear": 80010,
		"gear_rank": 1,
		"proficiency_UnitProficiency": 6,
		"level": 55,
		"hp": 63,
		"strength": 7,
		"vitality": 32,
		"intelligence": 71,
		"mind": 67,
		"agility": 43,
		"dexterity": 60,
		"lucky": 26,
		"parameter_table_BattleEnemyParameterTable": 0,
		"parameter_deviation_table_BattleEnemyParameterDeviationTable": 0,
		"acquire_skill_group_id": 0,
		"level_correction": 0,
		"group_id": 0,
		"ai_script_id_BattleAIScript": 0
	},
	{
		"ID": 35661,
		"stage_BattleStage": 291002002,
		"unit_UnitUnit": 960015,
		"money": 255,
		"initial_coordinate_x": 4,
		"initial_coordinate_y": 11,
		"reinforcement_BattleReinforcement": 0,
		"initial_direction": 180.0,
		"ai_move_group": 0,
		"ai_target_move_x": -1,
		"ai_target_move_y": -1,
		"ai_skill_function": "",
		"ai_attack": "IF(panel_move_distance <= 5, 1, 0)",
		"ai_move": "IF(turn <=5,0,1)",
		"ai_heal": "",
		"ai_skill": "",
		"ai_use": "",
		"skill_group_id": 584,
		"gear_GearGear": 80010,
		"gear_rank": 1,
		"proficiency_UnitProficiency": 6,
		"level": 51,
		"hp": 61,
		"strength": 10,
		"vitality": 35,
		"intelligence": 65,
		"mind": 65,
		"agility": 41,
		"dexterity": 59,
		"lucky": 28,
		"parameter_table_BattleEnemyParameterTable": 0,
		"parameter_deviation_table_BattleEnemyParameterDeviationTable": 0,
		"acquire_skill_group_id": 0,
		"level_correction": 0,
		"group_id": 0,
		"ai_script_id_BattleAIScript": 0
	},
	{
		"ID": 35662,
		"stage_BattleStage": 291002002,
		"unit_UnitUnit": 810004,
		"money": 270,
		"initial_coordinate_x": 1,
		"initial_coordinate_y": 9,
		"reinforcement_BattleReinforcement": 0,
		"initial_direction": 180.0,
		"ai_move_group": 0,
		"ai_target_move_x": -1,
		"ai_target_move_y": -1,
		"ai_skill_function": "",
		"ai_attack": "IF(panel_move_distance <= 5, 1, 0)",
		"ai_move": "IF(turn <=5,0,1)",
		"ai_heal": "",
		"ai_skill": "",
		"ai_use": "",
		"skill_group_id": 564,
		"gear_GearGear": 14001,
		"gear_rank": 1,
		"proficiency_UnitProficiency": 3,
		"level": 54,
		"hp": 71,
		"strength": 62,
		"vitality": 40,
		"intelligence": 9,
		"mind": 25,
		"agility": 49,
		"dexterity": 65,
		"lucky": 22,
		"parameter_table_BattleEnemyParameterTable": 0,
		"parameter_deviation_table_BattleEnemyParameterDeviationTable": 0,
		"acquire_skill_group_id": 0,
		"level_correction": 0,
		"group_id": 0,
		"ai_script_id_BattleAIScript": 0
	},
	{
		"ID": 35663,
		"stage_BattleStage": 291002002,
		"unit_UnitUnit": 810004,
		"money": 275,
		"initial_coordinate_x": 7,
		"initial_coordinate_y": 13,
		"reinforcement_BattleReinforcement": 0,
		"initial_direction": 90.0,
		"ai_move_group": 0,
		"ai_target_move_x": -1,
		"ai_target_move_y": -1,
		"ai_skill_function": "",
		"ai_attack": "IF(panel_move_distance <= 5, 1, 0)",
		"ai_move": "IF(turn <=5,0,1)",
		"ai_heal": "",
		"ai_skill": "",
		"ai_use": "",
		"skill_group_id": 564,
		"gear_GearGear": 14001,
		"gear_rank": 1,
		"proficiency_UnitProficiency": 3,
		"level": 55,
		"hp": 75,
		"strength": 62,
		"vitality": 34,
		"intelligence": 10,
		"mind": 24,
		"agility": 50,
		"dexterity": 66,
		"lucky": 31,
		"parameter_table_BattleEnemyParameterTable": 0,
		"parameter_deviation_table_BattleEnemyParameterDeviationTable": 0,
		"acquire_skill_group_id": 0,
		"level_correction": 0,
		"group_id": 0,
		"ai_script_id_BattleAIScript": 0
	},
	{
		"ID": 35664,
		"stage_BattleStage": 291002002,
		"unit_UnitUnit": 820007,
		"money": 290,
		"initial_coordinate_x": 13,
		"initial_coordinate_y": 6,
		"reinforcement_BattleReinforcement": 0,
		"initial_direction": 270.0,
		"ai_move_group": 0,
		"ai_target_move_x": -1,
		"ai_target_move_y": -1,
		"ai_skill_function": "",
		"ai_attack": "IF(panel_move_distance <= 5, 1, 0)",
		"ai_move": "IF(turn <=8,0,1)",
		"ai_heal": "",
		"ai_skill": "",
		"ai_use": "",
		"skill_group_id": 564,
		"gear_GearGear": 24006,
		"gear_rank": 1,
		"proficiency_UnitProficiency": 3,
		"level": 58,
		"hp": 83,
		"strength": 70,
		"vitality": 44,
		"intelligence": 6,
		"mind": 24,
		"agility": 52,
		"dexterity": 72,
		"lucky": 29,
		"parameter_table_BattleEnemyParameterTable": 0,
		"parameter_deviation_table_BattleEnemyParameterDeviationTable": 0,
		"acquire_skill_group_id": 0,
		"level_correction": 0,
		"group_id": 0,
		"ai_script_id_BattleAIScript": 0
	},
	{
		"ID": 35665,
		"stage_BattleStage": 291002002,
		"unit_UnitUnit": 820007,
		"money": 295,
		"initial_coordinate_x": 8,
		"initial_coordinate_y": 1,
		"reinforcement_BattleReinforcement": 0,
		"initial_direction": 0.0,
		"ai_move_group": 0,
		"ai_target_move_x": -1,
		"ai_target_move_y": -1,
		"ai_skill_function": "",
		"ai_attack": "IF(panel_move_distance <= 5, 1, 0)",
		"ai_move": "IF(turn <=8,0,1)",
		"ai_heal": "",
		"ai_skill": "",
		"ai_use": "",
		"skill_group_id": 564,
		"gear_GearGear": 24006,
		"gear_rank": 1,
		"proficiency_UnitProficiency": 3,
		"level": 59,
		"hp": 86,
		"strength": 62,
		"vitality": 48,
		"intelligence": 8,
		"mind": 24,
		"agility": 51,
		"dexterity": 71,
		"lucky": 28,
		"parameter_table_BattleEnemyParameterTable": 0,
		"parameter_deviation_table_BattleEnemyParameterDeviationTable": 0,
		"acquire_skill_group_id": 0,
		"level_correction": 0,
		"group_id": 0,
		"ai_script_id_BattleAIScript": 0
	}
]