[
	{
		"ID": 44489,
		"stage_BattleStage": 292001031,
		"unit_UnitUnit": 500269,
		"money": 450,
		"initial_coordinate_x": 2,
		"initial_coordinate_y": 10,
		"reinforcement_BattleReinforcement": 0,
		"initial_direction": 180.0,
		"ai_move_group": 0,
		"ai_target_move_x": -1,
		"ai_target_move_y": -1,
		"ai_skill_function": "",
		"ai_attack": "",
		"ai_move": "IF(turn <2,0,1)",
		"ai_heal": "",
		"ai_skill": "",
		"ai_use": "",
		"skill_group_id": 12750,
		"gear_GearGear": 54015,
		"gear_rank": 1,
		"proficiency_UnitProficiency": 4,
		"level": 90,
		"hp": 150,
		"strength": 31,
		"vitality": 88,
		"intelligence": 98,
		"mind": 90,
		"agility": 102,
		"dexterity": 105,
		"lucky": 53,
		"parameter_table_BattleEnemyParameterTable": 0,
		"parameter_deviation_table_BattleEnemyParameterDeviationTable": 0,
		"acquire_skill_group_id": 0,
		"level_correction": 0,
		"group_id": 0,
		"ai_script_id_BattleAIScript": 0
	},
	{
		"ID": 44490,
		"stage_BattleStage": 292001031,
		"unit_UnitUnit": 300189,
		"money": 450,
		"initial_coordinate_x": 1,
		"initial_coordinate_y": 10,
		"reinforcement_BattleReinforcement": 0,
		"initial_direction": 180.0,
		"ai_move_group": 0,
		"ai_target_move_x": -1,
		"ai_target_move_y": -1,
		"ai_skill_function": "",
		"ai_attack": "",
		"ai_move": "IF(turn <2,0,1)",
		"ai_heal": "",
		"ai_skill": "",
		"ai_use": "",
		"skill_group_id": 12720,
		"gear_GearGear": 34021,
		"gear_rank": 1,
		"proficiency_UnitProficiency": 4,
		"level": 90,
		"hp": 150,
		"strength": 98,
		"vitality": 90,
		"intelligence": 31,
		"mind": 88,
		"agility": 102,
		"dexterity": 105,
		"lucky": 53,
		"parameter_table_BattleEnemyParameterTable": 0,
		"parameter_deviation_table_BattleEnemyParameterDeviationTable": 0,
		"acquire_skill_group_id": 0,
		"level_correction": 0,
		"group_id": 0,
		"ai_script_id_BattleAIScript": 0
	},
	{
		"ID": 44491,
		"stage_BattleStage": 292001031,
		"unit_UnitUnit": 830001,
		"money": 190,
		"initial_coordinate_x": 9,
		"initial_coordinate_y": 5,
		"reinforcement_BattleReinforcement": 0,
		"initial_direction": 270.0,
		"ai_move_group": 0,
		"ai_target_move_x": -1,
		"ai_target_move_y": -1,
		"ai_skill_function": "",
		"ai_attack": "",
		"ai_move": "",
		"ai_heal": "",
		"ai_skill": "",
		"ai_use": "",
		"skill_group_id": 470,
		"gear_GearGear": 33001,
		"gear_rank": 1,
		"proficiency_UnitProficiency": 3,
		"level": 38,
		"hp": 58,
		"strength": 35,
		"vitality": 31,
		"intelligence": 12,
		"mind": 25,
		"agility": 39,
		"dexterity": 39,
		"lucky": 13,
		"parameter_table_BattleEnemyParameterTable": 0,
		"parameter_deviation_table_BattleEnemyParameterDeviationTable": 0,
		"acquire_skill_group_id": 0,
		"level_correction": 0,
		"group_id": 0,
		"ai_script_id_BattleAIScript": 0
	},
	{
		"ID": 44492,
		"stage_BattleStage": 292001031,
		"unit_UnitUnit": 830001,
		"money": 195,
		"initial_coordinate_x": 10,
		"initial_coordinate_y": 3,
		"reinforcement_BattleReinforcement": 0,
		"initial_direction": 270.0,
		"ai_move_group": 0,
		"ai_target_move_x": -1,
		"ai_target_move_y": -1,
		"ai_skill_function": "",
		"ai_attack": "",
		"ai_move": "",
		"ai_heal": "",
		"ai_skill": "",
		"ai_use": "",
		"skill_group_id": 470,
		"gear_GearGear": 33001,
		"gear_rank": 1,
		"proficiency_UnitProficiency": 3,
		"level": 39,
		"hp": 57,
		"strength": 35,
		"vitality": 30,
		"intelligence": 10,
		"mind": 23,
		"agility": 41,
		"dexterity": 41,
		"lucky": 12,
		"parameter_table_BattleEnemyParameterTable": 0,
		"parameter_deviation_table_BattleEnemyParameterDeviationTable": 0,
		"acquire_skill_group_id": 0,
		"level_correction": 0,
		"group_id": 0,
		"ai_script_id_BattleAIScript": 0
	},
	{
		"ID": 44493,
		"stage_BattleStage": 292001031,
		"unit_UnitUnit": 830001,
		"money": 190,
		"initial_coordinate_x": 12,
		"initial_coordinate_y": 4,
		"reinforcement_BattleReinforcement": 0,
		"initial_direction": 270.0,
		"ai_move_group": 0,
		"ai_target_move_x": -1,
		"ai_target_move_y": -1,
		"ai_skill_function": "",
		"ai_attack": "",
		"ai_move": "",
		"ai_heal": "",
		"ai_skill": "",
		"ai_use": "",
		"skill_group_id": 470,
		"gear_GearGear": 33001,
		"gear_rank": 1,
		"proficiency_UnitProficiency": 3,
		"level": 38,
		"hp": 59,
		"strength": 36,
		"vitality": 31,
		"intelligence": 11,
		"mind": 23,
		"agility": 40,
		"dexterity": 39,
		"lucky": 12,
		"parameter_table_BattleEnemyParameterTable": 0,
		"parameter_deviation_table_BattleEnemyParameterDeviationTable": 0,
		"acquire_skill_group_id": 0,
		"level_correction": 0,
		"group_id": 0,
		"ai_script_id_BattleAIScript": 0
	},
	{
		"ID": 44494,
		"stage_BattleStage": 292001031,
		"unit_UnitUnit": 830008,
		"money": 180,
		"initial_coordinate_x": 10,
		"initial_coordinate_y": 8,
		"reinforcement_BattleReinforcement": 0,
		"initial_direction": 270.0,
		"ai_move_group": 0,
		"ai_target_move_x": -1,
		"ai_target_move_y": -1,
		"ai_skill_function": "",
		"ai_attack": "",
		"ai_move": "",
		"ai_heal": "",
		"ai_skill": "",
		"ai_use": "",
		"skill_group_id": 470,
		"gear_GearGear": 33001,
		"gear_rank": 1,
		"proficiency_UnitProficiency": 3,
		"level": 36,
		"hp": 95,
		"strength": 51,
		"vitality": 46,
		"intelligence": 2,
		"mind": 20,
		"agility": 30,
		"dexterity": 46,
		"lucky": 6,
		"parameter_table_BattleEnemyParameterTable": 0,
		"parameter_deviation_table_BattleEnemyParameterDeviationTable": 0,
		"acquire_skill_group_id": 0,
		"level_correction": 0,
		"group_id": 0,
		"ai_script_id_BattleAIScript": 0
	},
	{
		"ID": 44495,
		"stage_BattleStage": 292001031,
		"unit_UnitUnit": 830008,
		"money": 180,
		"initial_coordinate_x": 11,
		"initial_coordinate_y": 8,
		"reinforcement_BattleReinforcement": 0,
		"initial_direction": 270.0,
		"ai_move_group": 0,
		"ai_target_move_x": -1,
		"ai_target_move_y": -1,
		"ai_skill_function": "",
		"ai_attack": "",
		"ai_move": "",
		"ai_heal": "",
		"ai_skill": "",
		"ai_use": "",
		"skill_group_id": 470,
		"gear_GearGear": 33001,
		"gear_rank": 1,
		"proficiency_UnitProficiency": 3,
		"level": 36,
		"hp": 93,
		"strength": 52,
		"vitality": 46,
		"intelligence": 2,
		"mind": 19,
		"agility": 29,
		"dexterity": 48,
		"lucky": 6,
		"parameter_table_BattleEnemyParameterTable": 0,
		"parameter_deviation_table_BattleEnemyParameterDeviationTable": 0,
		"acquire_skill_group_id": 0,
		"level_correction": 0,
		"group_id": 0,
		"ai_script_id_BattleAIScript": 0
	},
	{
		"ID": 44496,
		"stage_BattleStage": 292001031,
		"unit_UnitUnit": 830008,
		"money": 180,
		"initial_coordinate_x": 12,
		"initial_coordinate_y": 8,
		"reinforcement_BattleReinforcement": 0,
		"initial_direction": 270.0,
		"ai_move_group": 0,
		"ai_target_move_x": -1,
		"ai_target_move_y": -1,
		"ai_skill_function": "",
		"ai_attack": "",
		"ai_move": "",
		"ai_heal": "",
		"ai_skill": "",
		"ai_use": "",
		"skill_group_id": 470,
		"gear_GearGear": 33001,
		"gear_rank": 1,
		"proficiency_UnitProficiency": 3,
		"level": 36,
		"hp": 95,
		"strength": 52,
		"vitality": 46,
		"intelligence": 4,
		"mind": 20,
		"agility": 30,
		"dexterity": 47,
		"lucky": 7,
		"parameter_table_BattleEnemyParameterTable": 0,
		"parameter_deviation_table_BattleEnemyParameterDeviationTable": 0,
		"acquire_skill_group_id": 0,
		"level_correction": 0,
		"group_id": 0,
		"ai_script_id_BattleAIScript": 0
	},
	{
		"ID": 44497,
		"stage_BattleStage": 292001031,
		"unit_UnitUnit": 810008,
		"money": 175,
		"initial_coordinate_x": 6,
		"initial_coordinate_y": 10,
		"reinforcement_BattleReinforcement": 0,
		"initial_direction": 180.0,
		"ai_move_group": 0,
		"ai_target_move_x": -1,
		"ai_target_move_y": -1,
		"ai_skill_function": "",
		"ai_attack": "",
		"ai_move": "IF(turn <3,0,1)",
		"ai_heal": "",
		"ai_skill": "",
		"ai_use": "",
		"skill_group_id": 470,
		"gear_GearGear": 13003,
		"gear_rank": 1,
		"proficiency_UnitProficiency": 3,
		"level": 35,
		"hp": 97,
		"strength": 53,
		"vitality": 47,
		"intelligence": 2,
		"mind": 19,
		"agility": 32,
		"dexterity": 49,
		"lucky": 6,
		"parameter_table_BattleEnemyParameterTable": 0,
		"parameter_deviation_table_BattleEnemyParameterDeviationTable": 0,
		"acquire_skill_group_id": 0,
		"level_correction": 0,
		"group_id": 0,
		"ai_script_id_BattleAIScript": 0
	},
	{
		"ID": 44498,
		"stage_BattleStage": 292001031,
		"unit_UnitUnit": 860006,
		"money": 175,
		"initial_coordinate_x": 7,
		"initial_coordinate_y": 9,
		"reinforcement_BattleReinforcement": 0,
		"initial_direction": 180.0,
		"ai_move_group": 0,
		"ai_target_move_x": -1,
		"ai_target_move_y": -1,
		"ai_skill_function": "",
		"ai_attack": "",
		"ai_move": "IF(turn <3,0,1)",
		"ai_heal": "",
		"ai_skill": "",
		"ai_use": "",
		"skill_group_id": 584,
		"gear_GearGear": 80010,
		"gear_rank": 1,
		"proficiency_UnitProficiency": 3,
		"level": 35,
		"hp": 62,
		"strength": 9,
		"vitality": 19,
		"intelligence": 47,
		"mind": 32,
		"agility": 38,
		"dexterity": 42,
		"lucky": 13,
		"parameter_table_BattleEnemyParameterTable": 0,
		"parameter_deviation_table_BattleEnemyParameterDeviationTable": 0,
		"acquire_skill_group_id": 0,
		"level_correction": 0,
		"group_id": 0,
		"ai_script_id_BattleAIScript": 0
	},
	{
		"ID": 44499,
		"stage_BattleStage": 292001031,
		"unit_UnitUnit": 810008,
		"money": 175,
		"initial_coordinate_x": 8,
		"initial_coordinate_y": 10,
		"reinforcement_BattleReinforcement": 0,
		"initial_direction": 180.0,
		"ai_move_group": 0,
		"ai_target_move_x": -1,
		"ai_target_move_y": -1,
		"ai_skill_function": "",
		"ai_attack": "",
		"ai_move": "IF(turn <3,0,1)",
		"ai_heal": "",
		"ai_skill": "",
		"ai_use": "",
		"skill_group_id": 470,
		"gear_GearGear": 13003,
		"gear_rank": 1,
		"proficiency_UnitProficiency": 3,
		"level": 35,
		"hp": 30,
		"strength": 11,
		"vitality": 9,
		"intelligence": 1,
		"mind": 2,
		"agility": 15,
		"dexterity": 15,
		"lucky": 7,
		"parameter_table_BattleEnemyParameterTable": 0,
		"parameter_deviation_table_BattleEnemyParameterDeviationTable": 0,
		"acquire_skill_group_id": 0,
		"level_correction": 0,
		"group_id": 0,
		"ai_script_id_BattleAIScript": 0
	}
]