[
	{
		"ID": 28175,
		"stage_BattleStage": 310082301,
		"unit_UnitUnit": 810008,
		"money": 275,
		"initial_coordinate_x": 2,
		"initial_coordinate_y": 8,
		"reinforcement_BattleReinforcement": 0,
		"initial_direction": 180.0,
		"ai_move_group": 0,
		"ai_target_move_x": -1,
		"ai_target_move_y": -1,
		"ai_skill_function": "",
		"ai_attack": "",
		"ai_move": "",
		"ai_heal": "",
		"ai_skill": "",
		"ai_use": "",
		"skill_group_id": 430,
		"gear_GearGear": 13003,
		"gear_rank": 1,
		"proficiency_UnitProficiency": 3,
		"level": 55,
		"hp": 115,
		"strength": 72,
		"vitality": 65,
		"intelligence": 3,
		"mind": 25,
		"agility": 44,
		"dexterity": 67,
		"lucky": 30,
		"parameter_table_BattleEnemyParameterTable": 0,
		"parameter_deviation_table_BattleEnemyParameterDeviationTable": 0,
		"acquire_skill_group_id": 0,
		"level_correction": 0,
		"group_id": 0,
		"ai_script_id_BattleAIScript": 0
	},
	{
		"ID": 28176,
		"stage_BattleStage": 310082301,
		"unit_UnitUnit": 810008,
		"money": 280,
		"initial_coordinate_x": 1,
		"initial_coordinate_y": 10,
		"reinforcement_BattleReinforcement": 0,
		"initial_direction": 180.0,
		"ai_move_group": 0,
		"ai_target_move_x": -1,
		"ai_target_move_y": -1,
		"ai_skill_function": "",
		"ai_attack": "",
		"ai_move": "",
		"ai_heal": "",
		"ai_skill": "",
		"ai_use": "",
		"skill_group_id": 430,
		"gear_GearGear": 13003,
		"gear_rank": 1,
		"proficiency_UnitProficiency": 3,
		"level": 56,
		"hp": 116,
		"strength": 73,
		"vitality": 66,
		"intelligence": 3,
		"mind": 26,
		"agility": 44,
		"dexterity": 68,
		"lucky": 30,
		"parameter_table_BattleEnemyParameterTable": 0,
		"parameter_deviation_table_BattleEnemyParameterDeviationTable": 0,
		"acquire_skill_group_id": 0,
		"level_correction": 0,
		"group_id": 0,
		"ai_script_id_BattleAIScript": 0
	},
	{
		"ID": 28177,
		"stage_BattleStage": 310082301,
		"unit_UnitUnit": 810008,
		"money": 285,
		"initial_coordinate_x": 2,
		"initial_coordinate_y": 12,
		"reinforcement_BattleReinforcement": 0,
		"initial_direction": 180.0,
		"ai_move_group": 0,
		"ai_target_move_x": -1,
		"ai_target_move_y": -1,
		"ai_skill_function": "",
		"ai_attack": "",
		"ai_move": "",
		"ai_heal": "",
		"ai_skill": "",
		"ai_use": "",
		"skill_group_id": 430,
		"gear_GearGear": 13003,
		"gear_rank": 1,
		"proficiency_UnitProficiency": 3,
		"level": 57,
		"hp": 117,
		"strength": 74,
		"vitality": 67,
		"intelligence": 3,
		"mind": 26,
		"agility": 45,
		"dexterity": 69,
		"lucky": 30,
		"parameter_table_BattleEnemyParameterTable": 0,
		"parameter_deviation_table_BattleEnemyParameterDeviationTable": 0,
		"acquire_skill_group_id": 0,
		"level_correction": 0,
		"group_id": 0,
		"ai_script_id_BattleAIScript": 0
	},
	{
		"ID": 28178,
		"stage_BattleStage": 310082301,
		"unit_UnitUnit": 810008,
		"money": 290,
		"initial_coordinate_x": 2,
		"initial_coordinate_y": 15,
		"reinforcement_BattleReinforcement": 0,
		"initial_direction": 180.0,
		"ai_move_group": 0,
		"ai_target_move_x": -1,
		"ai_target_move_y": -1,
		"ai_skill_function": "",
		"ai_attack": "",
		"ai_move": "",
		"ai_heal": "",
		"ai_skill": "",
		"ai_use": "",
		"skill_group_id": 430,
		"gear_GearGear": 13003,
		"gear_rank": 1,
		"proficiency_UnitProficiency": 3,
		"level": 58,
		"hp": 118,
		"strength": 75,
		"vitality": 68,
		"intelligence": 3,
		"mind": 26,
		"agility": 46,
		"dexterity": 70,
		"lucky": 30,
		"parameter_table_BattleEnemyParameterTable": 0,
		"parameter_deviation_table_BattleEnemyParameterDeviationTable": 0,
		"acquire_skill_group_id": 0,
		"level_correction": 0,
		"group_id": 0,
		"ai_script_id_BattleAIScript": 0
	},
	{
		"ID": 28179,
		"stage_BattleStage": 310082301,
		"unit_UnitUnit": 810008,
		"money": 295,
		"initial_coordinate_x": 2,
		"initial_coordinate_y": 18,
		"reinforcement_BattleReinforcement": 0,
		"initial_direction": 180.0,
		"ai_move_group": 0,
		"ai_target_move_x": -1,
		"ai_target_move_y": -1,
		"ai_skill_function": "",
		"ai_attack": "",
		"ai_move": "",
		"ai_heal": "",
		"ai_skill": "",
		"ai_use": "",
		"skill_group_id": 430,
		"gear_GearGear": 13003,
		"gear_rank": 1,
		"proficiency_UnitProficiency": 3,
		"level": 59,
		"hp": 119,
		"strength": 76,
		"vitality": 69,
		"intelligence": 3,
		"mind": 27,
		"agility": 46,
		"dexterity": 71,
		"lucky": 30,
		"parameter_table_BattleEnemyParameterTable": 0,
		"parameter_deviation_table_BattleEnemyParameterDeviationTable": 0,
		"acquire_skill_group_id": 0,
		"level_correction": 0,
		"group_id": 0,
		"ai_script_id_BattleAIScript": 0
	},
	{
		"ID": 28180,
		"stage_BattleStage": 310082301,
		"unit_UnitUnit": 810008,
		"money": 300,
		"initial_coordinate_x": 3,
		"initial_coordinate_y": 21,
		"reinforcement_BattleReinforcement": 0,
		"initial_direction": 180.0,
		"ai_move_group": 0,
		"ai_target_move_x": -1,
		"ai_target_move_y": -1,
		"ai_skill_function": "",
		"ai_attack": "",
		"ai_move": "",
		"ai_heal": "",
		"ai_skill": "",
		"ai_use": "",
		"skill_group_id": 430,
		"gear_GearGear": 13003,
		"gear_rank": 1,
		"proficiency_UnitProficiency": 3,
		"level": 60,
		"hp": 120,
		"strength": 77,
		"vitality": 69,
		"intelligence": 3,
		"mind": 27,
		"agility": 47,
		"dexterity": 72,
		"lucky": 30,
		"parameter_table_BattleEnemyParameterTable": 0,
		"parameter_deviation_table_BattleEnemyParameterDeviationTable": 0,
		"acquire_skill_group_id": 0,
		"level_correction": 0,
		"group_id": 0,
		"ai_script_id_BattleAIScript": 0
	},
	{
		"ID": 28181,
		"stage_BattleStage": 310082301,
		"unit_UnitUnit": 820008,
		"money": 295,
		"initial_coordinate_x": 3,
		"initial_coordinate_y": 8,
		"reinforcement_BattleReinforcement": 0,
		"initial_direction": 180.0,
		"ai_move_group": 0,
		"ai_target_move_x": -1,
		"ai_target_move_y": -1,
		"ai_skill_function": "",
		"ai_attack": "",
		"ai_move": "",
		"ai_heal": "",
		"ai_skill": "",
		"ai_use": "",
		"skill_group_id": 440,
		"gear_GearGear": 23001,
		"gear_rank": 1,
		"proficiency_UnitProficiency": 3,
		"level": 59,
		"hp": 119,
		"strength": 80,
		"vitality": 69,
		"intelligence": 3,
		"mind": 28,
		"agility": 39,
		"dexterity": 67,
		"lucky": 30,
		"parameter_table_BattleEnemyParameterTable": 0,
		"parameter_deviation_table_BattleEnemyParameterDeviationTable": 0,
		"acquire_skill_group_id": 0,
		"level_correction": 0,
		"group_id": 0,
		"ai_script_id_BattleAIScript": 0
	},
	{
		"ID": 28182,
		"stage_BattleStage": 310082301,
		"unit_UnitUnit": 820008,
		"money": 290,
		"initial_coordinate_x": 2,
		"initial_coordinate_y": 10,
		"reinforcement_BattleReinforcement": 0,
		"initial_direction": 180.0,
		"ai_move_group": 0,
		"ai_target_move_x": -1,
		"ai_target_move_y": -1,
		"ai_skill_function": "",
		"ai_attack": "",
		"ai_move": "",
		"ai_heal": "",
		"ai_skill": "",
		"ai_use": "",
		"skill_group_id": 440,
		"gear_GearGear": 23001,
		"gear_rank": 1,
		"proficiency_UnitProficiency": 3,
		"level": 58,
		"hp": 118,
		"strength": 79,
		"vitality": 68,
		"intelligence": 3,
		"mind": 27,
		"agility": 38,
		"dexterity": 66,
		"lucky": 30,
		"parameter_table_BattleEnemyParameterTable": 0,
		"parameter_deviation_table_BattleEnemyParameterDeviationTable": 0,
		"acquire_skill_group_id": 0,
		"level_correction": 0,
		"group_id": 0,
		"ai_script_id_BattleAIScript": 0
	},
	{
		"ID": 28183,
		"stage_BattleStage": 310082301,
		"unit_UnitUnit": 820008,
		"money": 285,
		"initial_coordinate_x": 3,
		"initial_coordinate_y": 12,
		"reinforcement_BattleReinforcement": 0,
		"initial_direction": 180.0,
		"ai_move_group": 0,
		"ai_target_move_x": -1,
		"ai_target_move_y": -1,
		"ai_skill_function": "",
		"ai_attack": "",
		"ai_move": "",
		"ai_heal": "",
		"ai_skill": "",
		"ai_use": "",
		"skill_group_id": 440,
		"gear_GearGear": 23001,
		"gear_rank": 1,
		"proficiency_UnitProficiency": 3,
		"level": 57,
		"hp": 117,
		"strength": 78,
		"vitality": 67,
		"intelligence": 3,
		"mind": 27,
		"agility": 38,
		"dexterity": 65,
		"lucky": 30,
		"parameter_table_BattleEnemyParameterTable": 0,
		"parameter_deviation_table_BattleEnemyParameterDeviationTable": 0,
		"acquire_skill_group_id": 0,
		"level_correction": 0,
		"group_id": 0,
		"ai_script_id_BattleAIScript": 0
	},
	{
		"ID": 28184,
		"stage_BattleStage": 310082301,
		"unit_UnitUnit": 820008,
		"money": 280,
		"initial_coordinate_x": 3,
		"initial_coordinate_y": 15,
		"reinforcement_BattleReinforcement": 0,
		"initial_direction": 180.0,
		"ai_move_group": 0,
		"ai_target_move_x": -1,
		"ai_target_move_y": -1,
		"ai_skill_function": "",
		"ai_attack": "",
		"ai_move": "",
		"ai_heal": "",
		"ai_skill": "",
		"ai_use": "",
		"skill_group_id": 440,
		"gear_GearGear": 23001,
		"gear_rank": 1,
		"proficiency_UnitProficiency": 3,
		"level": 56,
		"hp": 116,
		"strength": 77,
		"vitality": 66,
		"intelligence": 3,
		"mind": 27,
		"agility": 37,
		"dexterity": 64,
		"lucky": 30,
		"parameter_table_BattleEnemyParameterTable": 0,
		"parameter_deviation_table_BattleEnemyParameterDeviationTable": 0,
		"acquire_skill_group_id": 0,
		"level_correction": 0,
		"group_id": 0,
		"ai_script_id_BattleAIScript": 0
	},
	{
		"ID": 28185,
		"stage_BattleStage": 310082301,
		"unit_UnitUnit": 820008,
		"money": 275,
		"initial_coordinate_x": 3,
		"initial_coordinate_y": 18,
		"reinforcement_BattleReinforcement": 0,
		"initial_direction": 180.0,
		"ai_move_group": 0,
		"ai_target_move_x": -1,
		"ai_target_move_y": -1,
		"ai_skill_function": "",
		"ai_attack": "",
		"ai_move": "",
		"ai_heal": "",
		"ai_skill": "",
		"ai_use": "",
		"skill_group_id": 440,
		"gear_GearGear": 23001,
		"gear_rank": 1,
		"proficiency_UnitProficiency": 3,
		"level": 55,
		"hp": 115,
		"strength": 76,
		"vitality": 65,
		"intelligence": 3,
		"mind": 26,
		"agility": 36,
		"dexterity": 63,
		"lucky": 30,
		"parameter_table_BattleEnemyParameterTable": 0,
		"parameter_deviation_table_BattleEnemyParameterDeviationTable": 0,
		"acquire_skill_group_id": 0,
		"level_correction": 0,
		"group_id": 0,
		"ai_script_id_BattleAIScript": 0
	},
	{
		"ID": 28186,
		"stage_BattleStage": 310082301,
		"unit_UnitUnit": 820008,
		"money": 280,
		"initial_coordinate_x": 4,
		"initial_coordinate_y": 21,
		"reinforcement_BattleReinforcement": 0,
		"initial_direction": 180.0,
		"ai_move_group": 0,
		"ai_target_move_x": -1,
		"ai_target_move_y": -1,
		"ai_skill_function": "",
		"ai_attack": "",
		"ai_move": "",
		"ai_heal": "",
		"ai_skill": "",
		"ai_use": "",
		"skill_group_id": 440,
		"gear_GearGear": 23001,
		"gear_rank": 1,
		"proficiency_UnitProficiency": 3,
		"level": 56,
		"hp": 116,
		"strength": 77,
		"vitality": 66,
		"intelligence": 3,
		"mind": 27,
		"agility": 37,
		"dexterity": 64,
		"lucky": 30,
		"parameter_table_BattleEnemyParameterTable": 0,
		"parameter_deviation_table_BattleEnemyParameterDeviationTable": 0,
		"acquire_skill_group_id": 0,
		"level_correction": 0,
		"group_id": 0,
		"ai_script_id_BattleAIScript": 0
	},
	{
		"ID": 28187,
		"stage_BattleStage": 310082301,
		"unit_UnitUnit": 840008,
		"money": 285,
		"initial_coordinate_x": 4,
		"initial_coordinate_y": 8,
		"reinforcement_BattleReinforcement": 0,
		"initial_direction": 180.0,
		"ai_move_group": 0,
		"ai_target_move_x": -1,
		"ai_target_move_y": -1,
		"ai_skill_function": "",
		"ai_attack": "",
		"ai_move": "",
		"ai_heal": "",
		"ai_skill": "",
		"ai_use": "",
		"skill_group_id": 560,
		"gear_GearGear": 44003,
		"gear_rank": 1,
		"proficiency_UnitProficiency": 4,
		"level": 57,
		"hp": 113,
		"strength": 72,
		"vitality": 66,
		"intelligence": 3,
		"mind": 29,
		"agility": 45,
		"dexterity": 69,
		"lucky": 30,
		"parameter_table_BattleEnemyParameterTable": 0,
		"parameter_deviation_table_BattleEnemyParameterDeviationTable": 0,
		"acquire_skill_group_id": 0,
		"level_correction": 0,
		"group_id": 0,
		"ai_script_id_BattleAIScript": 0
	},
	{
		"ID": 28188,
		"stage_BattleStage": 310082301,
		"unit_UnitUnit": 840008,
		"money": 290,
		"initial_coordinate_x": 3,
		"initial_coordinate_y": 10,
		"reinforcement_BattleReinforcement": 0,
		"initial_direction": 180.0,
		"ai_move_group": 0,
		"ai_target_move_x": -1,
		"ai_target_move_y": -1,
		"ai_skill_function": "",
		"ai_attack": "",
		"ai_move": "",
		"ai_heal": "",
		"ai_skill": "",
		"ai_use": "",
		"skill_group_id": 560,
		"gear_GearGear": 44003,
		"gear_rank": 1,
		"proficiency_UnitProficiency": 4,
		"level": 58,
		"hp": 114,
		"strength": 73,
		"vitality": 67,
		"intelligence": 3,
		"mind": 29,
		"agility": 46,
		"dexterity": 70,
		"lucky": 30,
		"parameter_table_BattleEnemyParameterTable": 0,
		"parameter_deviation_table_BattleEnemyParameterDeviationTable": 0,
		"acquire_skill_group_id": 0,
		"level_correction": 0,
		"group_id": 0,
		"ai_script_id_BattleAIScript": 0
	},
	{
		"ID": 28189,
		"stage_BattleStage": 310082301,
		"unit_UnitUnit": 840008,
		"money": 295,
		"initial_coordinate_x": 4,
		"initial_coordinate_y": 12,
		"reinforcement_BattleReinforcement": 0,
		"initial_direction": 180.0,
		"ai_move_group": 0,
		"ai_target_move_x": -1,
		"ai_target_move_y": -1,
		"ai_skill_function": "",
		"ai_attack": "",
		"ai_move": "",
		"ai_heal": "",
		"ai_skill": "",
		"ai_use": "",
		"skill_group_id": 560,
		"gear_GearGear": 44003,
		"gear_rank": 1,
		"proficiency_UnitProficiency": 4,
		"level": 59,
		"hp": 115,
		"strength": 74,
		"vitality": 68,
		"intelligence": 3,
		"mind": 30,
		"agility": 46,
		"dexterity": 71,
		"lucky": 30,
		"parameter_table_BattleEnemyParameterTable": 0,
		"parameter_deviation_table_BattleEnemyParameterDeviationTable": 0,
		"acquire_skill_group_id": 0,
		"level_correction": 0,
		"group_id": 0,
		"ai_script_id_BattleAIScript": 0
	},
	{
		"ID": 28190,
		"stage_BattleStage": 310082301,
		"unit_UnitUnit": 840008,
		"money": 300,
		"initial_coordinate_x": 6,
		"initial_coordinate_y": 9,
		"reinforcement_BattleReinforcement": 3,
		"initial_direction": 270.0,
		"ai_move_group": 0,
		"ai_target_move_x": -1,
		"ai_target_move_y": -1,
		"ai_skill_function": "",
		"ai_attack": "IF( turn <=11 ,IF(panel_move_distance <= 1, 1, 0),1)",
		"ai_move": "IF(turn <=11,0,1)",
		"ai_heal": "",
		"ai_skill": "",
		"ai_use": "",
		"skill_group_id": 560,
		"gear_GearGear": 44003,
		"gear_rank": 1,
		"proficiency_UnitProficiency": 4,
		"level": 60,
		"hp": 116,
		"strength": 75,
		"vitality": 69,
		"intelligence": 3,
		"mind": 30,
		"agility": 47,
		"dexterity": 72,
		"lucky": 30,
		"parameter_table_BattleEnemyParameterTable": 0,
		"parameter_deviation_table_BattleEnemyParameterDeviationTable": 0,
		"acquire_skill_group_id": 0,
		"level_correction": 0,
		"group_id": 0,
		"ai_script_id_BattleAIScript": 0
	},
	{
		"ID": 28191,
		"stage_BattleStage": 310082301,
		"unit_UnitUnit": 840008,
		"money": 305,
		"initial_coordinate_x": 6,
		"initial_coordinate_y": 8,
		"reinforcement_BattleReinforcement": 3,
		"initial_direction": 270.0,
		"ai_move_group": 0,
		"ai_target_move_x": -1,
		"ai_target_move_y": -1,
		"ai_skill_function": "",
		"ai_attack": "IF( turn <=11 ,IF(panel_move_distance <= 1, 1, 0),1)",
		"ai_move": "IF(turn <=11,0,1)",
		"ai_heal": "",
		"ai_skill": "",
		"ai_use": "",
		"skill_group_id": 560,
		"gear_GearGear": 44003,
		"gear_rank": 1,
		"proficiency_UnitProficiency": 4,
		"level": 61,
		"hp": 117,
		"strength": 77,
		"vitality": 70,
		"intelligence": 3,
		"mind": 31,
		"agility": 48,
		"dexterity": 73,
		"lucky": 31,
		"parameter_table_BattleEnemyParameterTable": 0,
		"parameter_deviation_table_BattleEnemyParameterDeviationTable": 0,
		"acquire_skill_group_id": 0,
		"level_correction": 0,
		"group_id": 0,
		"ai_script_id_BattleAIScript": 0
	},
	{
		"ID": 28192,
		"stage_BattleStage": 310082301,
		"unit_UnitUnit": 100821,
		"money": 350,
		"initial_coordinate_x": 6,
		"initial_coordinate_y": 20,
		"reinforcement_BattleReinforcement": 0,
		"initial_direction": 180.0,
		"ai_move_group": 0,
		"ai_target_move_x": -1,
		"ai_target_move_y": -1,
		"ai_skill_function": "",
		"ai_attack": "",
		"ai_move": "",
		"ai_heal": "",
		"ai_skill": "",
		"ai_use": "",
		"skill_group_id": 470,
		"gear_GearGear": 13004,
		"gear_rank": 1,
		"proficiency_UnitProficiency": 3,
		"level": 70,
		"hp": 88,
		"strength": 74,
		"vitality": 55,
		"intelligence": 12,
		"mind": 33,
		"agility": 70,
		"dexterity": 62,
		"lucky": 15,
		"parameter_table_BattleEnemyParameterTable": 0,
		"parameter_deviation_table_BattleEnemyParameterDeviationTable": 0,
		"acquire_skill_group_id": 0,
		"level_correction": 0,
		"group_id": 0,
		"ai_script_id_BattleAIScript": 0
	},
	{
		"ID": 28193,
		"stage_BattleStage": 310082301,
		"unit_UnitUnit": 100822,
		"money": 375,
		"initial_coordinate_x": 6,
		"initial_coordinate_y": 20,
		"reinforcement_BattleReinforcement": 4,
		"initial_direction": 180.0,
		"ai_move_group": 0,
		"ai_target_move_x": -1,
		"ai_target_move_y": -1,
		"ai_skill_function": "",
		"ai_attack": "",
		"ai_move": "",
		"ai_heal": "",
		"ai_skill": "",
		"ai_use": "",
		"skill_group_id": 470,
		"gear_GearGear": 14005,
		"gear_rank": 1,
		"proficiency_UnitProficiency": 4,
		"level": 75,
		"hp": 98,
		"strength": 80,
		"vitality": 65,
		"intelligence": 15,
		"mind": 45,
		"agility": 80,
		"dexterity": 70,
		"lucky": 20,
		"parameter_table_BattleEnemyParameterTable": 0,
		"parameter_deviation_table_BattleEnemyParameterDeviationTable": 0,
		"acquire_skill_group_id": 0,
		"level_correction": 0,
		"group_id": 0,
		"ai_script_id_BattleAIScript": 0
	},
	{
		"ID": 28194,
		"stage_BattleStage": 310082301,
		"unit_UnitUnit": 100823,
		"money": 400,
		"initial_coordinate_x": 6,
		"initial_coordinate_y": 20,
		"reinforcement_BattleReinforcement": 7,
		"initial_direction": 180.0,
		"ai_move_group": 0,
		"ai_target_move_x": -1,
		"ai_target_move_y": -1,
		"ai_skill_function": "",
		"ai_attack": "",
		"ai_move": "",
		"ai_heal": "",
		"ai_skill": "",
		"ai_use": "",
		"skill_group_id": 560,
		"gear_GearGear": 15005,
		"gear_rank": 1,
		"proficiency_UnitProficiency": 5,
		"level": 80,
		"hp": 108,
		"strength": 88,
		"vitality": 78,
		"intelligence": 20,
		"mind": 55,
		"agility": 90,
		"dexterity": 75,
		"lucky": 25,
		"parameter_table_BattleEnemyParameterTable": 0,
		"parameter_deviation_table_BattleEnemyParameterDeviationTable": 0,
		"acquire_skill_group_id": 0,
		"level_correction": 0,
		"group_id": 0,
		"ai_script_id_BattleAIScript": 0
	}
]