[
	{
		"ID": 17913,
		"stage_BattleStage": 320122202,
		"unit_UnitUnit": 820003,
		"money": 190,
		"initial_coordinate_x": 2,
		"initial_coordinate_y": 7,
		"reinforcement_BattleReinforcement": 0,
		"initial_direction": 180.0,
		"ai_move_group": 0,
		"ai_target_move_x": -1,
		"ai_target_move_y": -1,
		"ai_skill_function": "",
		"ai_attack": "",
		"ai_move": "",
		"ai_heal": "",
		"ai_skill": "",
		"ai_use": "",
		"skill_group_id": 0,
		"gear_GearGear": 21002,
		"gear_rank": 1,
		"proficiency_UnitProficiency": 1,
		"level": 38,
		"hp": 53,
		"strength": 38,
		"vitality": 31,
		"intelligence": 0,
		"mind": 2,
		"agility": 12,
		"dexterity": 24,
		"lucky": 4,
		"parameter_table_BattleEnemyParameterTable": 0,
		"parameter_deviation_table_BattleEnemyParameterDeviationTable": 0,
		"acquire_skill_group_id": 0,
		"level_correction": 0,
		"group_id": 0,
		"ai_script_id_BattleAIScript": 0
	},
	{
		"ID": 17914,
		"stage_BattleStage": 320122202,
		"unit_UnitUnit": 820003,
		"money": 195,
		"initial_coordinate_x": 3,
		"initial_coordinate_y": 7,
		"reinforcement_BattleReinforcement": 0,
		"initial_direction": 180.0,
		"ai_move_group": 0,
		"ai_target_move_x": -1,
		"ai_target_move_y": -1,
		"ai_skill_function": "",
		"ai_attack": "",
		"ai_move": "",
		"ai_heal": "",
		"ai_skill": "",
		"ai_use": "",
		"skill_group_id": 0,
		"gear_GearGear": 21002,
		"gear_rank": 1,
		"proficiency_UnitProficiency": 1,
		"level": 39,
		"hp": 54,
		"strength": 39,
		"vitality": 32,
		"intelligence": 0,
		"mind": 3,
		"agility": 12,
		"dexterity": 24,
		"lucky": 4,
		"parameter_table_BattleEnemyParameterTable": 0,
		"parameter_deviation_table_BattleEnemyParameterDeviationTable": 0,
		"acquire_skill_group_id": 0,
		"level_correction": 0,
		"group_id": 0,
		"ai_script_id_BattleAIScript": 0
	},
	{
		"ID": 17915,
		"stage_BattleStage": 320122202,
		"unit_UnitUnit": 820003,
		"money": 200,
		"initial_coordinate_x": 2,
		"initial_coordinate_y": 6,
		"reinforcement_BattleReinforcement": 0,
		"initial_direction": 180.0,
		"ai_move_group": 0,
		"ai_target_move_x": -1,
		"ai_target_move_y": -1,
		"ai_skill_function": "",
		"ai_attack": "",
		"ai_move": "",
		"ai_heal": "",
		"ai_skill": "",
		"ai_use": "",
		"skill_group_id": 0,
		"gear_GearGear": 21002,
		"gear_rank": 1,
		"proficiency_UnitProficiency": 1,
		"level": 40,
		"hp": 55,
		"strength": 39,
		"vitality": 32,
		"intelligence": 0,
		"mind": 3,
		"agility": 13,
		"dexterity": 25,
		"lucky": 4,
		"parameter_table_BattleEnemyParameterTable": 0,
		"parameter_deviation_table_BattleEnemyParameterDeviationTable": 0,
		"acquire_skill_group_id": 0,
		"level_correction": 0,
		"group_id": 0,
		"ai_script_id_BattleAIScript": 0
	},
	{
		"ID": 17916,
		"stage_BattleStage": 320122202,
		"unit_UnitUnit": 820003,
		"money": 205,
		"initial_coordinate_x": 3,
		"initial_coordinate_y": 6,
		"reinforcement_BattleReinforcement": 0,
		"initial_direction": 180.0,
		"ai_move_group": 0,
		"ai_target_move_x": -1,
		"ai_target_move_y": -1,
		"ai_skill_function": "",
		"ai_attack": "",
		"ai_move": "",
		"ai_heal": "",
		"ai_skill": "",
		"ai_use": "",
		"skill_group_id": 0,
		"gear_GearGear": 21002,
		"gear_rank": 1,
		"proficiency_UnitProficiency": 1,
		"level": 41,
		"hp": 56,
		"strength": 40,
		"vitality": 33,
		"intelligence": 0,
		"mind": 3,
		"agility": 13,
		"dexterity": 25,
		"lucky": 5,
		"parameter_table_BattleEnemyParameterTable": 0,
		"parameter_deviation_table_BattleEnemyParameterDeviationTable": 0,
		"acquire_skill_group_id": 0,
		"level_correction": 0,
		"group_id": 0,
		"ai_script_id_BattleAIScript": 0
	},
	{
		"ID": 17917,
		"stage_BattleStage": 320122202,
		"unit_UnitUnit": 830003,
		"money": 210,
		"initial_coordinate_x": 9,
		"initial_coordinate_y": 6,
		"reinforcement_BattleReinforcement": 0,
		"initial_direction": 180.0,
		"ai_move_group": 0,
		"ai_target_move_x": -1,
		"ai_target_move_y": -1,
		"ai_skill_function": "",
		"ai_attack": "",
		"ai_move": "IF(turn <=2,0,1)",
		"ai_heal": "",
		"ai_skill": "",
		"ai_use": "",
		"skill_group_id": 0,
		"gear_GearGear": 31002,
		"gear_rank": 1,
		"proficiency_UnitProficiency": 1,
		"level": 42,
		"hp": 56,
		"strength": 39,
		"vitality": 34,
		"intelligence": 0,
		"mind": 3,
		"agility": 16,
		"dexterity": 27,
		"lucky": 5,
		"parameter_table_BattleEnemyParameterTable": 0,
		"parameter_deviation_table_BattleEnemyParameterDeviationTable": 0,
		"acquire_skill_group_id": 0,
		"level_correction": 0,
		"group_id": 0,
		"ai_script_id_BattleAIScript": 0
	},
	{
		"ID": 17918,
		"stage_BattleStage": 320122202,
		"unit_UnitUnit": 830003,
		"money": 215,
		"initial_coordinate_x": 10,
		"initial_coordinate_y": 6,
		"reinforcement_BattleReinforcement": 0,
		"initial_direction": 180.0,
		"ai_move_group": 0,
		"ai_target_move_x": -1,
		"ai_target_move_y": -1,
		"ai_skill_function": "",
		"ai_attack": "",
		"ai_move": "IF(turn <=2,0,1)",
		"ai_heal": "",
		"ai_skill": "",
		"ai_use": "",
		"skill_group_id": 0,
		"gear_GearGear": 31002,
		"gear_rank": 1,
		"proficiency_UnitProficiency": 1,
		"level": 43,
		"hp": 57,
		"strength": 40,
		"vitality": 34,
		"intelligence": 0,
		"mind": 3,
		"agility": 17,
		"dexterity": 27,
		"lucky": 5,
		"parameter_table_BattleEnemyParameterTable": 0,
		"parameter_deviation_table_BattleEnemyParameterDeviationTable": 0,
		"acquire_skill_group_id": 0,
		"level_correction": 0,
		"group_id": 0,
		"ai_script_id_BattleAIScript": 0
	},
	{
		"ID": 17919,
		"stage_BattleStage": 320122202,
		"unit_UnitUnit": 830003,
		"money": 210,
		"initial_coordinate_x": 9,
		"initial_coordinate_y": 5,
		"reinforcement_BattleReinforcement": 0,
		"initial_direction": 180.0,
		"ai_move_group": 0,
		"ai_target_move_x": -1,
		"ai_target_move_y": -1,
		"ai_skill_function": "",
		"ai_attack": "",
		"ai_move": "IF(turn <=2,0,1)",
		"ai_heal": "",
		"ai_skill": "",
		"ai_use": "",
		"skill_group_id": 0,
		"gear_GearGear": 31002,
		"gear_rank": 1,
		"proficiency_UnitProficiency": 1,
		"level": 42,
		"hp": 56,
		"strength": 39,
		"vitality": 34,
		"intelligence": 0,
		"mind": 3,
		"agility": 16,
		"dexterity": 27,
		"lucky": 5,
		"parameter_table_BattleEnemyParameterTable": 0,
		"parameter_deviation_table_BattleEnemyParameterDeviationTable": 0,
		"acquire_skill_group_id": 0,
		"level_correction": 0,
		"group_id": 0,
		"ai_script_id_BattleAIScript": 0
	},
	{
		"ID": 17920,
		"stage_BattleStage": 320122202,
		"unit_UnitUnit": 830003,
		"money": 205,
		"initial_coordinate_x": 10,
		"initial_coordinate_y": 5,
		"reinforcement_BattleReinforcement": 0,
		"initial_direction": 180.0,
		"ai_move_group": 0,
		"ai_target_move_x": -1,
		"ai_target_move_y": -1,
		"ai_skill_function": "",
		"ai_attack": "",
		"ai_move": "IF(turn <=2,0,1)",
		"ai_heal": "",
		"ai_skill": "",
		"ai_use": "",
		"skill_group_id": 0,
		"gear_GearGear": 31002,
		"gear_rank": 1,
		"proficiency_UnitProficiency": 1,
		"level": 41,
		"hp": 55,
		"strength": 38,
		"vitality": 33,
		"intelligence": 0,
		"mind": 3,
		"agility": 16,
		"dexterity": 26,
		"lucky": 5,
		"parameter_table_BattleEnemyParameterTable": 0,
		"parameter_deviation_table_BattleEnemyParameterDeviationTable": 0,
		"acquire_skill_group_id": 0,
		"level_correction": 0,
		"group_id": 0,
		"ai_script_id_BattleAIScript": 0
	},
	{
		"ID": 17921,
		"stage_BattleStage": 320122202,
		"unit_UnitUnit": 830001,
		"money": 200,
		"initial_coordinate_x": 2,
		"initial_coordinate_y": 3,
		"reinforcement_BattleReinforcement": 3,
		"initial_direction": 90.0,
		"ai_move_group": 0,
		"ai_target_move_x": -1,
		"ai_target_move_y": -1,
		"ai_skill_function": "",
		"ai_attack": "",
		"ai_move": "",
		"ai_heal": "",
		"ai_skill": "",
		"ai_use": "",
		"skill_group_id": 0,
		"gear_GearGear": 31002,
		"gear_rank": 1,
		"proficiency_UnitProficiency": 1,
		"level": 40,
		"hp": 42,
		"strength": 34,
		"vitality": 24,
		"intelligence": 8,
		"mind": 12,
		"agility": 28,
		"dexterity": 28,
		"lucky": 3,
		"parameter_table_BattleEnemyParameterTable": 0,
		"parameter_deviation_table_BattleEnemyParameterDeviationTable": 0,
		"acquire_skill_group_id": 0,
		"level_correction": 0,
		"group_id": 0,
		"ai_script_id_BattleAIScript": 0
	},
	{
		"ID": 17922,
		"stage_BattleStage": 320122202,
		"unit_UnitUnit": 830001,
		"money": 195,
		"initial_coordinate_x": 2,
		"initial_coordinate_y": 2,
		"reinforcement_BattleReinforcement": 3,
		"initial_direction": 90.0,
		"ai_move_group": 0,
		"ai_target_move_x": -1,
		"ai_target_move_y": -1,
		"ai_skill_function": "",
		"ai_attack": "",
		"ai_move": "",
		"ai_heal": "",
		"ai_skill": "",
		"ai_use": "",
		"skill_group_id": 0,
		"gear_GearGear": 31002,
		"gear_rank": 1,
		"proficiency_UnitProficiency": 1,
		"level": 39,
		"hp": 41,
		"strength": 33,
		"vitality": 23,
		"intelligence": 8,
		"mind": 11,
		"agility": 27,
		"dexterity": 27,
		"lucky": 3,
		"parameter_table_BattleEnemyParameterTable": 0,
		"parameter_deviation_table_BattleEnemyParameterDeviationTable": 0,
		"acquire_skill_group_id": 0,
		"level_correction": 0,
		"group_id": 0,
		"ai_script_id_BattleAIScript": 0
	},
	{
		"ID": 17923,
		"stage_BattleStage": 320122202,
		"unit_UnitUnit": 830001,
		"money": 190,
		"initial_coordinate_x": 1,
		"initial_coordinate_y": 3,
		"reinforcement_BattleReinforcement": 3,
		"initial_direction": 90.0,
		"ai_move_group": 0,
		"ai_target_move_x": -1,
		"ai_target_move_y": -1,
		"ai_skill_function": "",
		"ai_attack": "",
		"ai_move": "",
		"ai_heal": "",
		"ai_skill": "",
		"ai_use": "",
		"skill_group_id": 0,
		"gear_GearGear": 31002,
		"gear_rank": 1,
		"proficiency_UnitProficiency": 1,
		"level": 38,
		"hp": 41,
		"strength": 32,
		"vitality": 23,
		"intelligence": 8,
		"mind": 11,
		"agility": 27,
		"dexterity": 27,
		"lucky": 3,
		"parameter_table_BattleEnemyParameterTable": 0,
		"parameter_deviation_table_BattleEnemyParameterDeviationTable": 0,
		"acquire_skill_group_id": 0,
		"level_correction": 0,
		"group_id": 0,
		"ai_script_id_BattleAIScript": 0
	},
	{
		"ID": 17924,
		"stage_BattleStage": 320122202,
		"unit_UnitUnit": 830001,
		"money": 185,
		"initial_coordinate_x": 1,
		"initial_coordinate_y": 2,
		"reinforcement_BattleReinforcement": 3,
		"initial_direction": 90.0,
		"ai_move_group": 0,
		"ai_target_move_x": -1,
		"ai_target_move_y": -1,
		"ai_skill_function": "",
		"ai_attack": "",
		"ai_move": "",
		"ai_heal": "",
		"ai_skill": "",
		"ai_use": "",
		"skill_group_id": 0,
		"gear_GearGear": 31002,
		"gear_rank": 1,
		"proficiency_UnitProficiency": 1,
		"level": 37,
		"hp": 40,
		"strength": 31,
		"vitality": 22,
		"intelligence": 8,
		"mind": 11,
		"agility": 26,
		"dexterity": 26,
		"lucky": 3,
		"parameter_table_BattleEnemyParameterTable": 0,
		"parameter_deviation_table_BattleEnemyParameterDeviationTable": 0,
		"acquire_skill_group_id": 0,
		"level_correction": 0,
		"group_id": 0,
		"ai_script_id_BattleAIScript": 0
	},
	{
		"ID": 17925,
		"stage_BattleStage": 320122202,
		"unit_UnitUnit": 830008,
		"money": 190,
		"initial_coordinate_x": 7,
		"initial_coordinate_y": 6,
		"reinforcement_BattleReinforcement": 0,
		"initial_direction": 180.0,
		"ai_move_group": 0,
		"ai_target_move_x": -1,
		"ai_target_move_y": -1,
		"ai_skill_function": "",
		"ai_attack": "",
		"ai_move": "",
		"ai_heal": "",
		"ai_skill": "",
		"ai_use": "",
		"skill_group_id": 0,
		"gear_GearGear": 31002,
		"gear_rank": 1,
		"proficiency_UnitProficiency": 1,
		"level": 38,
		"hp": 57,
		"strength": 39,
		"vitality": 31,
		"intelligence": 0,
		"mind": 9,
		"agility": 17,
		"dexterity": 32,
		"lucky": 3,
		"parameter_table_BattleEnemyParameterTable": 0,
		"parameter_deviation_table_BattleEnemyParameterDeviationTable": 0,
		"acquire_skill_group_id": 0,
		"level_correction": 0,
		"group_id": 0,
		"ai_script_id_BattleAIScript": 0
	},
	{
		"ID": 17926,
		"stage_BattleStage": 320122202,
		"unit_UnitUnit": 830008,
		"money": 195,
		"initial_coordinate_x": 7,
		"initial_coordinate_y": 5,
		"reinforcement_BattleReinforcement": 0,
		"initial_direction": 180.0,
		"ai_move_group": 0,
		"ai_target_move_x": -1,
		"ai_target_move_y": -1,
		"ai_skill_function": "",
		"ai_attack": "",
		"ai_move": "",
		"ai_heal": "",
		"ai_skill": "",
		"ai_use": "",
		"skill_group_id": 0,
		"gear_GearGear": 31002,
		"gear_rank": 1,
		"proficiency_UnitProficiency": 1,
		"level": 39,
		"hp": 58,
		"strength": 40,
		"vitality": 31,
		"intelligence": 0,
		"mind": 9,
		"agility": 17,
		"dexterity": 33,
		"lucky": 3,
		"parameter_table_BattleEnemyParameterTable": 0,
		"parameter_deviation_table_BattleEnemyParameterDeviationTable": 0,
		"acquire_skill_group_id": 0,
		"level_correction": 0,
		"group_id": 0,
		"ai_script_id_BattleAIScript": 0
	},
	{
		"ID": 17927,
		"stage_BattleStage": 320122202,
		"unit_UnitUnit": 830008,
		"money": 200,
		"initial_coordinate_x": 7,
		"initial_coordinate_y": 4,
		"reinforcement_BattleReinforcement": 0,
		"initial_direction": 180.0,
		"ai_move_group": 0,
		"ai_target_move_x": -1,
		"ai_target_move_y": -1,
		"ai_skill_function": "",
		"ai_attack": "",
		"ai_move": "",
		"ai_heal": "",
		"ai_skill": "",
		"ai_use": "",
		"skill_group_id": 0,
		"gear_GearGear": 31002,
		"gear_rank": 1,
		"proficiency_UnitProficiency": 1,
		"level": 40,
		"hp": 58,
		"strength": 41,
		"vitality": 32,
		"intelligence": 0,
		"mind": 9,
		"agility": 17,
		"dexterity": 34,
		"lucky": 3,
		"parameter_table_BattleEnemyParameterTable": 0,
		"parameter_deviation_table_BattleEnemyParameterDeviationTable": 0,
		"acquire_skill_group_id": 0,
		"level_correction": 0,
		"group_id": 0,
		"ai_script_id_BattleAIScript": 0
	},
	{
		"ID": 17928,
		"stage_BattleStage": 320122202,
		"unit_UnitUnit": 830008,
		"money": 205,
		"initial_coordinate_x": 4,
		"initial_coordinate_y": 3,
		"reinforcement_BattleReinforcement": 0,
		"initial_direction": 90.0,
		"ai_move_group": 0,
		"ai_target_move_x": -1,
		"ai_target_move_y": -1,
		"ai_skill_function": "",
		"ai_attack": "",
		"ai_move": "",
		"ai_heal": "",
		"ai_skill": "",
		"ai_use": "",
		"skill_group_id": 0,
		"gear_GearGear": 31002,
		"gear_rank": 1,
		"proficiency_UnitProficiency": 1,
		"level": 41,
		"hp": 59,
		"strength": 42,
		"vitality": 33,
		"intelligence": 0,
		"mind": 10,
		"agility": 18,
		"dexterity": 34,
		"lucky": 3,
		"parameter_table_BattleEnemyParameterTable": 0,
		"parameter_deviation_table_BattleEnemyParameterDeviationTable": 0,
		"acquire_skill_group_id": 0,
		"level_correction": 0,
		"group_id": 0,
		"ai_script_id_BattleAIScript": 0
	},
	{
		"ID": 17929,
		"stage_BattleStage": 320122202,
		"unit_UnitUnit": 830008,
		"money": 210,
		"initial_coordinate_x": 5,
		"initial_coordinate_y": 3,
		"reinforcement_BattleReinforcement": 0,
		"initial_direction": 90.0,
		"ai_move_group": 0,
		"ai_target_move_x": -1,
		"ai_target_move_y": -1,
		"ai_skill_function": "",
		"ai_attack": "",
		"ai_move": "",
		"ai_heal": "",
		"ai_skill": "",
		"ai_use": "",
		"skill_group_id": 0,
		"gear_GearGear": 31002,
		"gear_rank": 1,
		"proficiency_UnitProficiency": 1,
		"level": 42,
		"hp": 60,
		"strength": 43,
		"vitality": 33,
		"intelligence": 0,
		"mind": 10,
		"agility": 18,
		"dexterity": 35,
		"lucky": 3,
		"parameter_table_BattleEnemyParameterTable": 0,
		"parameter_deviation_table_BattleEnemyParameterDeviationTable": 0,
		"acquire_skill_group_id": 0,
		"level_correction": 0,
		"group_id": 0,
		"ai_script_id_BattleAIScript": 0
	},
	{
		"ID": 17930,
		"stage_BattleStage": 320122202,
		"unit_UnitUnit": 830008,
		"money": 215,
		"initial_coordinate_x": 6,
		"initial_coordinate_y": 3,
		"reinforcement_BattleReinforcement": 0,
		"initial_direction": 90.0,
		"ai_move_group": 0,
		"ai_target_move_x": -1,
		"ai_target_move_y": -1,
		"ai_skill_function": "",
		"ai_attack": "",
		"ai_move": "",
		"ai_heal": "",
		"ai_skill": "",
		"ai_use": "",
		"skill_group_id": 0,
		"gear_GearGear": 31002,
		"gear_rank": 1,
		"proficiency_UnitProficiency": 1,
		"level": 43,
		"hp": 61,
		"strength": 43,
		"vitality": 34,
		"intelligence": 0,
		"mind": 10,
		"agility": 19,
		"dexterity": 36,
		"lucky": 3,
		"parameter_table_BattleEnemyParameterTable": 0,
		"parameter_deviation_table_BattleEnemyParameterDeviationTable": 0,
		"acquire_skill_group_id": 0,
		"level_correction": 0,
		"group_id": 0,
		"ai_script_id_BattleAIScript": 0
	}
]