[
	{
		"ID": 88265,
		"stage_BattleStage": 331050222,
		"unit_UnitUnit": 300925,
		"money": 500,
		"initial_coordinate_x": 7,
		"initial_coordinate_y": 6,
		"reinforcement_BattleReinforcement": 0,
		"initial_direction": 270.0,
		"ai_move_group": 0,
		"ai_target_move_x": -1,
		"ai_target_move_y": -1,
		"ai_skill_function": "",
		"ai_attack": "IF( turn <=4 ,IF(panel_move_distance <= 4, 1, 0),1)",
		"ai_move": "IF(turn <=4,0,1)",
		"ai_heal": "",
		"ai_skill": "",
		"ai_use": "",
		"skill_group_id": 20388,
		"gear_GearGear": 37011,
		"gear_rank": 10,
		"proficiency_UnitProficiency": 6,
		"level": 100,
		"hp": 381,
		"strength": 69,
		"vitality": 82,
		"intelligence": 13,
		"mind": 85,
		"agility": 93,
		"dexterity": 88,
		"lucky": 30,
		"parameter_table_BattleEnemyParameterTable": 0,
		"parameter_deviation_table_BattleEnemyParameterDeviationTable": 0,
		"acquire_skill_group_id": 0,
		"level_correction": 0,
		"group_id": 0,
		"ai_script_id_BattleAIScript": 0
	},
	{
		"ID": 88266,
		"stage_BattleStage": 331050222,
		"unit_UnitUnit": 860010,
		"money": 460,
		"initial_coordinate_x": 6,
		"initial_coordinate_y": 6,
		"reinforcement_BattleReinforcement": 0,
		"initial_direction": 270.0,
		"ai_move_group": 0,
		"ai_target_move_x": -1,
		"ai_target_move_y": -1,
		"ai_skill_function": "",
		"ai_attack": "IF( turn <=4 ,IF(panel_move_distance <= 4, 1, 0),1)",
		"ai_move": "IF(turn <=4,0,1)",
		"ai_heal": "",
		"ai_skill": "",
		"ai_use": "",
		"skill_group_id": 20372,
		"gear_GearGear": 65003,
		"gear_rank": 6,
		"proficiency_UnitProficiency": 5,
		"level": 92,
		"hp": 108,
		"strength": 15,
		"vitality": 52,
		"intelligence": 98,
		"mind": 86,
		"agility": 75,
		"dexterity": 88,
		"lucky": 26,
		"parameter_table_BattleEnemyParameterTable": 0,
		"parameter_deviation_table_BattleEnemyParameterDeviationTable": 0,
		"acquire_skill_group_id": 0,
		"level_correction": 0,
		"group_id": 0,
		"ai_script_id_BattleAIScript": 0
	},
	{
		"ID": 88267,
		"stage_BattleStage": 331050222,
		"unit_UnitUnit": 860010,
		"money": 460,
		"initial_coordinate_x": 8,
		"initial_coordinate_y": 6,
		"reinforcement_BattleReinforcement": 0,
		"initial_direction": 270.0,
		"ai_move_group": 0,
		"ai_target_move_x": -1,
		"ai_target_move_y": -1,
		"ai_skill_function": "",
		"ai_attack": "IF( turn <=4 ,IF(panel_move_distance <= 4, 1, 0),1)",
		"ai_move": "IF(turn <=4,0,1)",
		"ai_heal": "",
		"ai_skill": "",
		"ai_use": "",
		"skill_group_id": 20372,
		"gear_GearGear": 65003,
		"gear_rank": 6,
		"proficiency_UnitProficiency": 5,
		"level": 92,
		"hp": 106,
		"strength": 14,
		"vitality": 52,
		"intelligence": 101,
		"mind": 83,
		"agility": 73,
		"dexterity": 87,
		"lucky": 26,
		"parameter_table_BattleEnemyParameterTable": 0,
		"parameter_deviation_table_BattleEnemyParameterDeviationTable": 0,
		"acquire_skill_group_id": 0,
		"level_correction": 0,
		"group_id": 0,
		"ai_script_id_BattleAIScript": 0
	},
	{
		"ID": 88268,
		"stage_BattleStage": 331050222,
		"unit_UnitUnit": 860010,
		"money": 460,
		"initial_coordinate_x": 5,
		"initial_coordinate_y": 10,
		"reinforcement_BattleReinforcement": 0,
		"initial_direction": 270.0,
		"ai_move_group": 0,
		"ai_target_move_x": -1,
		"ai_target_move_y": -1,
		"ai_skill_function": "",
		"ai_attack": "IF(panel_move_distance <= 7, 1, 0)",
		"ai_move": "0.0",
		"ai_heal": "",
		"ai_skill": "",
		"ai_use": "",
		"skill_group_id": 20372,
		"gear_GearGear": 65003,
		"gear_rank": 6,
		"proficiency_UnitProficiency": 5,
		"level": 92,
		"hp": 108,
		"strength": 14,
		"vitality": 57,
		"intelligence": 102,
		"mind": 86,
		"agility": 75,
		"dexterity": 92,
		"lucky": 24,
		"parameter_table_BattleEnemyParameterTable": 0,
		"parameter_deviation_table_BattleEnemyParameterDeviationTable": 0,
		"acquire_skill_group_id": 0,
		"level_correction": 0,
		"group_id": 0,
		"ai_script_id_BattleAIScript": 0
	},
	{
		"ID": 88269,
		"stage_BattleStage": 331050222,
		"unit_UnitUnit": 860010,
		"money": 460,
		"initial_coordinate_x": 5,
		"initial_coordinate_y": 1,
		"reinforcement_BattleReinforcement": 0,
		"initial_direction": 270.0,
		"ai_move_group": 0,
		"ai_target_move_x": -1,
		"ai_target_move_y": -1,
		"ai_skill_function": "",
		"ai_attack": "IF(panel_move_distance <= 7, 1, 0)",
		"ai_move": "0.0",
		"ai_heal": "",
		"ai_skill": "",
		"ai_use": "",
		"skill_group_id": 20372,
		"gear_GearGear": 65003,
		"gear_rank": 6,
		"proficiency_UnitProficiency": 5,
		"level": 92,
		"hp": 107,
		"strength": 17,
		"vitality": 56,
		"intelligence": 101,
		"mind": 86,
		"agility": 73,
		"dexterity": 88,
		"lucky": 21,
		"parameter_table_BattleEnemyParameterTable": 0,
		"parameter_deviation_table_BattleEnemyParameterDeviationTable": 0,
		"acquire_skill_group_id": 0,
		"level_correction": 0,
		"group_id": 0,
		"ai_script_id_BattleAIScript": 0
	},
	{
		"ID": 88270,
		"stage_BattleStage": 331050222,
		"unit_UnitUnit": 860010,
		"money": 460,
		"initial_coordinate_x": 3,
		"initial_coordinate_y": 7,
		"reinforcement_BattleReinforcement": 3,
		"initial_direction": 270.0,
		"ai_move_group": 0,
		"ai_target_move_x": -1,
		"ai_target_move_y": -1,
		"ai_skill_function": "",
		"ai_attack": "",
		"ai_move": "",
		"ai_heal": "",
		"ai_skill": "",
		"ai_use": "",
		"skill_group_id": 20372,
		"gear_GearGear": 65003,
		"gear_rank": 6,
		"proficiency_UnitProficiency": 5,
		"level": 92,
		"hp": 106,
		"strength": 19,
		"vitality": 55,
		"intelligence": 98,
		"mind": 81,
		"agility": 71,
		"dexterity": 92,
		"lucky": 26,
		"parameter_table_BattleEnemyParameterTable": 0,
		"parameter_deviation_table_BattleEnemyParameterDeviationTable": 0,
		"acquire_skill_group_id": 0,
		"level_correction": 0,
		"group_id": 0,
		"ai_script_id_BattleAIScript": 0
	},
	{
		"ID": 88271,
		"stage_BattleStage": 331050222,
		"unit_UnitUnit": 860010,
		"money": 460,
		"initial_coordinate_x": 3,
		"initial_coordinate_y": 6,
		"reinforcement_BattleReinforcement": 3,
		"initial_direction": 270.0,
		"ai_move_group": 0,
		"ai_target_move_x": -1,
		"ai_target_move_y": -1,
		"ai_skill_function": "",
		"ai_attack": "",
		"ai_move": "",
		"ai_heal": "",
		"ai_skill": "",
		"ai_use": "",
		"skill_group_id": 20372,
		"gear_GearGear": 65003,
		"gear_rank": 6,
		"proficiency_UnitProficiency": 5,
		"level": 92,
		"hp": 108,
		"strength": 17,
		"vitality": 52,
		"intelligence": 102,
		"mind": 84,
		"agility": 73,
		"dexterity": 90,
		"lucky": 24,
		"parameter_table_BattleEnemyParameterTable": 0,
		"parameter_deviation_table_BattleEnemyParameterDeviationTable": 0,
		"acquire_skill_group_id": 0,
		"level_correction": 0,
		"group_id": 0,
		"ai_script_id_BattleAIScript": 0
	},
	{
		"ID": 88272,
		"stage_BattleStage": 331050222,
		"unit_UnitUnit": 820007,
		"money": 450,
		"initial_coordinate_x": 6,
		"initial_coordinate_y": 1,
		"reinforcement_BattleReinforcement": 0,
		"initial_direction": 270.0,
		"ai_move_group": 0,
		"ai_target_move_x": -1,
		"ai_target_move_y": -1,
		"ai_skill_function": "",
		"ai_attack": "IF(panel_move_distance <= 7, 1, 0)",
		"ai_move": "0.0",
		"ai_heal": "",
		"ai_skill": "",
		"ai_use": "",
		"skill_group_id": 20373,
		"gear_GearGear": 25009,
		"gear_rank": 6,
		"proficiency_UnitProficiency": 5,
		"level": 90,
		"hp": 137,
		"strength": 120,
		"vitality": 83,
		"intelligence": 13,
		"mind": 31,
		"agility": 57,
		"dexterity": 85,
		"lucky": 25,
		"parameter_table_BattleEnemyParameterTable": 0,
		"parameter_deviation_table_BattleEnemyParameterDeviationTable": 0,
		"acquire_skill_group_id": 0,
		"level_correction": 0,
		"group_id": 0,
		"ai_script_id_BattleAIScript": 0
	},
	{
		"ID": 88273,
		"stage_BattleStage": 331050222,
		"unit_UnitUnit": 820007,
		"money": 450,
		"initial_coordinate_x": 6,
		"initial_coordinate_y": 2,
		"reinforcement_BattleReinforcement": 2,
		"initial_direction": 270.0,
		"ai_move_group": 0,
		"ai_target_move_x": -1,
		"ai_target_move_y": -1,
		"ai_skill_function": "",
		"ai_attack": "IF(panel_move_distance <= 7, 1, 0)",
		"ai_move": "0.0",
		"ai_heal": "",
		"ai_skill": "",
		"ai_use": "",
		"skill_group_id": 20373,
		"gear_GearGear": 25009,
		"gear_rank": 6,
		"proficiency_UnitProficiency": 5,
		"level": 90,
		"hp": 136,
		"strength": 120,
		"vitality": 86,
		"intelligence": 12,
		"mind": 34,
		"agility": 57,
		"dexterity": 86,
		"lucky": 26,
		"parameter_table_BattleEnemyParameterTable": 0,
		"parameter_deviation_table_BattleEnemyParameterDeviationTable": 0,
		"acquire_skill_group_id": 0,
		"level_correction": 0,
		"group_id": 0,
		"ai_script_id_BattleAIScript": 0
	},
	{
		"ID": 88274,
		"stage_BattleStage": 331050222,
		"unit_UnitUnit": 820007,
		"money": 450,
		"initial_coordinate_x": 7,
		"initial_coordinate_y": 2,
		"reinforcement_BattleReinforcement": 2,
		"initial_direction": 270.0,
		"ai_move_group": 0,
		"ai_target_move_x": -1,
		"ai_target_move_y": -1,
		"ai_skill_function": "",
		"ai_attack": "IF(panel_move_distance <= 7, 1, 0)",
		"ai_move": "0.0",
		"ai_heal": "",
		"ai_skill": "",
		"ai_use": "",
		"skill_group_id": 20373,
		"gear_GearGear": 25009,
		"gear_rank": 6,
		"proficiency_UnitProficiency": 5,
		"level": 90,
		"hp": 137,
		"strength": 119,
		"vitality": 87,
		"intelligence": 11,
		"mind": 28,
		"agility": 56,
		"dexterity": 87,
		"lucky": 26,
		"parameter_table_BattleEnemyParameterTable": 0,
		"parameter_deviation_table_BattleEnemyParameterDeviationTable": 0,
		"acquire_skill_group_id": 0,
		"level_correction": 0,
		"group_id": 0,
		"ai_script_id_BattleAIScript": 0
	},
	{
		"ID": 88275,
		"stage_BattleStage": 331050222,
		"unit_UnitUnit": 820007,
		"money": 450,
		"initial_coordinate_x": 1,
		"initial_coordinate_y": 3,
		"reinforcement_BattleReinforcement": 3,
		"initial_direction": 0.0,
		"ai_move_group": 0,
		"ai_target_move_x": -1,
		"ai_target_move_y": -1,
		"ai_skill_function": "",
		"ai_attack": "",
		"ai_move": "",
		"ai_heal": "",
		"ai_skill": "",
		"ai_use": "",
		"skill_group_id": 20373,
		"gear_GearGear": 25009,
		"gear_rank": 6,
		"proficiency_UnitProficiency": 5,
		"level": 90,
		"hp": 133,
		"strength": 120,
		"vitality": 82,
		"intelligence": 15,
		"mind": 34,
		"agility": 53,
		"dexterity": 84,
		"lucky": 24,
		"parameter_table_BattleEnemyParameterTable": 0,
		"parameter_deviation_table_BattleEnemyParameterDeviationTable": 0,
		"acquire_skill_group_id": 0,
		"level_correction": 0,
		"group_id": 0,
		"ai_script_id_BattleAIScript": 0
	},
	{
		"ID": 88276,
		"stage_BattleStage": 331050222,
		"unit_UnitUnit": 820007,
		"money": 450,
		"initial_coordinate_x": 2,
		"initial_coordinate_y": 3,
		"reinforcement_BattleReinforcement": 3,
		"initial_direction": 0.0,
		"ai_move_group": 0,
		"ai_target_move_x": -1,
		"ai_target_move_y": -1,
		"ai_skill_function": "",
		"ai_attack": "",
		"ai_move": "",
		"ai_heal": "",
		"ai_skill": "",
		"ai_use": "",
		"skill_group_id": 20373,
		"gear_GearGear": 25009,
		"gear_rank": 6,
		"proficiency_UnitProficiency": 5,
		"level": 90,
		"hp": 138,
		"strength": 120,
		"vitality": 80,
		"intelligence": 11,
		"mind": 33,
		"agility": 59,
		"dexterity": 83,
		"lucky": 23,
		"parameter_table_BattleEnemyParameterTable": 0,
		"parameter_deviation_table_BattleEnemyParameterDeviationTable": 0,
		"acquire_skill_group_id": 0,
		"level_correction": 0,
		"group_id": 0,
		"ai_script_id_BattleAIScript": 0
	},
	{
		"ID": 88277,
		"stage_BattleStage": 331050222,
		"unit_UnitUnit": 820007,
		"money": 450,
		"initial_coordinate_x": 3,
		"initial_coordinate_y": 3,
		"reinforcement_BattleReinforcement": 3,
		"initial_direction": 0.0,
		"ai_move_group": 0,
		"ai_target_move_x": -1,
		"ai_target_move_y": -1,
		"ai_skill_function": "",
		"ai_attack": "",
		"ai_move": "",
		"ai_heal": "",
		"ai_skill": "",
		"ai_use": "",
		"skill_group_id": 20373,
		"gear_GearGear": 25009,
		"gear_rank": 6,
		"proficiency_UnitProficiency": 5,
		"level": 90,
		"hp": 135,
		"strength": 118,
		"vitality": 80,
		"intelligence": 15,
		"mind": 32,
		"agility": 57,
		"dexterity": 82,
		"lucky": 26,
		"parameter_table_BattleEnemyParameterTable": 0,
		"parameter_deviation_table_BattleEnemyParameterDeviationTable": 0,
		"acquire_skill_group_id": 0,
		"level_correction": 0,
		"group_id": 0,
		"ai_script_id_BattleAIScript": 0
	},
	{
		"ID": 88278,
		"stage_BattleStage": 331050222,
		"unit_UnitUnit": 831002,
		"money": 455,
		"initial_coordinate_x": 6,
		"initial_coordinate_y": 10,
		"reinforcement_BattleReinforcement": 0,
		"initial_direction": 270.0,
		"ai_move_group": 0,
		"ai_target_move_x": -1,
		"ai_target_move_y": -1,
		"ai_skill_function": "",
		"ai_attack": "IF(panel_move_distance <= 7, 1, 0)",
		"ai_move": "0.0",
		"ai_heal": "",
		"ai_skill": "",
		"ai_use": "",
		"skill_group_id": 20374,
		"gear_GearGear": 35004,
		"gear_rank": 6,
		"proficiency_UnitProficiency": 5,
		"level": 91,
		"hp": 127,
		"strength": 106,
		"vitality": 63,
		"intelligence": 16,
		"mind": 40,
		"agility": 81,
		"dexterity": 90,
		"lucky": 27,
		"parameter_table_BattleEnemyParameterTable": 0,
		"parameter_deviation_table_BattleEnemyParameterDeviationTable": 0,
		"acquire_skill_group_id": 0,
		"level_correction": 0,
		"group_id": 0,
		"ai_script_id_BattleAIScript": 0
	},
	{
		"ID": 88279,
		"stage_BattleStage": 331050222,
		"unit_UnitUnit": 831002,
		"money": 455,
		"initial_coordinate_x": 7,
		"initial_coordinate_y": 10,
		"reinforcement_BattleReinforcement": 2,
		"initial_direction": 270.0,
		"ai_move_group": 0,
		"ai_target_move_x": -1,
		"ai_target_move_y": -1,
		"ai_skill_function": "",
		"ai_attack": "IF(panel_move_distance <= 7, 1, 0)",
		"ai_move": "0.0",
		"ai_heal": "",
		"ai_skill": "",
		"ai_use": "",
		"skill_group_id": 20374,
		"gear_GearGear": 35004,
		"gear_rank": 6,
		"proficiency_UnitProficiency": 5,
		"level": 91,
		"hp": 130,
		"strength": 110,
		"vitality": 63,
		"intelligence": 13,
		"mind": 44,
		"agility": 83,
		"dexterity": 89,
		"lucky": 21,
		"parameter_table_BattleEnemyParameterTable": 0,
		"parameter_deviation_table_BattleEnemyParameterDeviationTable": 0,
		"acquire_skill_group_id": 0,
		"level_correction": 0,
		"group_id": 0,
		"ai_script_id_BattleAIScript": 0
	},
	{
		"ID": 88280,
		"stage_BattleStage": 331050222,
		"unit_UnitUnit": 831002,
		"money": 455,
		"initial_coordinate_x": 8,
		"initial_coordinate_y": 10,
		"reinforcement_BattleReinforcement": 2,
		"initial_direction": 270.0,
		"ai_move_group": 0,
		"ai_target_move_x": -1,
		"ai_target_move_y": -1,
		"ai_skill_function": "",
		"ai_attack": "IF(panel_move_distance <= 7, 1, 0)",
		"ai_move": "0.0",
		"ai_heal": "",
		"ai_skill": "",
		"ai_use": "",
		"skill_group_id": 20374,
		"gear_GearGear": 35004,
		"gear_rank": 6,
		"proficiency_UnitProficiency": 5,
		"level": 91,
		"hp": 128,
		"strength": 108,
		"vitality": 64,
		"intelligence": 12,
		"mind": 41,
		"agility": 80,
		"dexterity": 87,
		"lucky": 21,
		"parameter_table_BattleEnemyParameterTable": 0,
		"parameter_deviation_table_BattleEnemyParameterDeviationTable": 0,
		"acquire_skill_group_id": 0,
		"level_correction": 0,
		"group_id": 0,
		"ai_script_id_BattleAIScript": 0
	},
	{
		"ID": 88281,
		"stage_BattleStage": 331050222,
		"unit_UnitUnit": 831002,
		"money": 455,
		"initial_coordinate_x": 2,
		"initial_coordinate_y": 9,
		"reinforcement_BattleReinforcement": 3,
		"initial_direction": 180.0,
		"ai_move_group": 0,
		"ai_target_move_x": -1,
		"ai_target_move_y": -1,
		"ai_skill_function": "",
		"ai_attack": "",
		"ai_move": "",
		"ai_heal": "",
		"ai_skill": "",
		"ai_use": "",
		"skill_group_id": 20374,
		"gear_GearGear": 35004,
		"gear_rank": 6,
		"proficiency_UnitProficiency": 5,
		"level": 91,
		"hp": 130,
		"strength": 109,
		"vitality": 65,
		"intelligence": 15,
		"mind": 41,
		"agility": 80,
		"dexterity": 86,
		"lucky": 25,
		"parameter_table_BattleEnemyParameterTable": 0,
		"parameter_deviation_table_BattleEnemyParameterDeviationTable": 0,
		"acquire_skill_group_id": 0,
		"level_correction": 0,
		"group_id": 0,
		"ai_script_id_BattleAIScript": 0
	},
	{
		"ID": 88282,
		"stage_BattleStage": 331050222,
		"unit_UnitUnit": 831002,
		"money": 455,
		"initial_coordinate_x": 1,
		"initial_coordinate_y": 9,
		"reinforcement_BattleReinforcement": 3,
		"initial_direction": 180.0,
		"ai_move_group": 0,
		"ai_target_move_x": -1,
		"ai_target_move_y": -1,
		"ai_skill_function": "",
		"ai_attack": "",
		"ai_move": "",
		"ai_heal": "",
		"ai_skill": "",
		"ai_use": "",
		"skill_group_id": 20374,
		"gear_GearGear": 35004,
		"gear_rank": 6,
		"proficiency_UnitProficiency": 5,
		"level": 91,
		"hp": 128,
		"strength": 105,
		"vitality": 67,
		"intelligence": 12,
		"mind": 40,
		"agility": 80,
		"dexterity": 92,
		"lucky": 23,
		"parameter_table_BattleEnemyParameterTable": 0,
		"parameter_deviation_table_BattleEnemyParameterDeviationTable": 0,
		"acquire_skill_group_id": 0,
		"level_correction": 0,
		"group_id": 0,
		"ai_script_id_BattleAIScript": 0
	}
]