[
	{
		"ID": 64394,
		"stage_BattleStage": 331050301,
		"unit_UnitUnit": 900014,
		"money": 450,
		"initial_coordinate_x": 13,
		"initial_coordinate_y": 17,
		"reinforcement_BattleReinforcement": 0,
		"initial_direction": 90.0,
		"ai_move_group": 0,
		"ai_target_move_x": -1,
		"ai_target_move_y": -1,
		"ai_skill_function": "",
		"ai_attack": "IF( turn <=4 ,IF(panel_move_distance <= 4, 1, 0),1)",
		"ai_move": "IF(turn <=4,0,1)",
		"ai_heal": "",
		"ai_skill": "",
		"ai_use": "",
		"skill_group_id": 17803,
		"gear_GearGear": 80005,
		"gear_rank": 1,
		"proficiency_UnitProficiency": 1,
		"level": 90,
		"hp": 157,
		"strength": 127,
		"vitality": 122,
		"intelligence": 13,
		"mind": 51,
		"agility": 80,
		"dexterity": 85,
		"lucky": 51,
		"parameter_table_BattleEnemyParameterTable": 0,
		"parameter_deviation_table_BattleEnemyParameterDeviationTable": 0,
		"acquire_skill_group_id": 0,
		"level_correction": 0,
		"group_id": 0,
		"ai_script_id_BattleAIScript": 0
	},
	{
		"ID": 64395,
		"stage_BattleStage": 331050301,
		"unit_UnitUnit": 900014,
		"money": 450,
		"initial_coordinate_x": 14,
		"initial_coordinate_y": 16,
		"reinforcement_BattleReinforcement": 0,
		"initial_direction": 90.0,
		"ai_move_group": 0,
		"ai_target_move_x": -1,
		"ai_target_move_y": -1,
		"ai_skill_function": "",
		"ai_attack": "IF( turn <=4 ,IF(panel_move_distance <= 4, 1, 0),1)",
		"ai_move": "IF(turn <=4,0,1)",
		"ai_heal": "",
		"ai_skill": "",
		"ai_use": "",
		"skill_group_id": 17803,
		"gear_GearGear": 80005,
		"gear_rank": 1,
		"proficiency_UnitProficiency": 1,
		"level": 90,
		"hp": 160,
		"strength": 122,
		"vitality": 123,
		"intelligence": 13,
		"mind": 51,
		"agility": 81,
		"dexterity": 86,
		"lucky": 50,
		"parameter_table_BattleEnemyParameterTable": 0,
		"parameter_deviation_table_BattleEnemyParameterDeviationTable": 0,
		"acquire_skill_group_id": 0,
		"level_correction": 0,
		"group_id": 0,
		"ai_script_id_BattleAIScript": 0
	},
	{
		"ID": 64396,
		"stage_BattleStage": 331050301,
		"unit_UnitUnit": 900014,
		"money": 450,
		"initial_coordinate_x": 19,
		"initial_coordinate_y": 12,
		"reinforcement_BattleReinforcement": 0,
		"initial_direction": 0.0,
		"ai_move_group": 0,
		"ai_target_move_x": -1,
		"ai_target_move_y": -1,
		"ai_skill_function": "",
		"ai_attack": "IF( turn <=4 ,IF(panel_move_distance <= 4, 1, 0),1)",
		"ai_move": "IF(turn <=4,0,1)",
		"ai_heal": "",
		"ai_skill": "",
		"ai_use": "",
		"skill_group_id": 17803,
		"gear_GearGear": 80005,
		"gear_rank": 1,
		"proficiency_UnitProficiency": 1,
		"level": 90,
		"hp": 161,
		"strength": 127,
		"vitality": 123,
		"intelligence": 8,
		"mind": 50,
		"agility": 81,
		"dexterity": 84,
		"lucky": 49,
		"parameter_table_BattleEnemyParameterTable": 0,
		"parameter_deviation_table_BattleEnemyParameterDeviationTable": 0,
		"acquire_skill_group_id": 0,
		"level_correction": 0,
		"group_id": 0,
		"ai_script_id_BattleAIScript": 0
	},
	{
		"ID": 64397,
		"stage_BattleStage": 331050301,
		"unit_UnitUnit": 900014,
		"money": 450,
		"initial_coordinate_x": 20,
		"initial_coordinate_y": 11,
		"reinforcement_BattleReinforcement": 0,
		"initial_direction": 0.0,
		"ai_move_group": 0,
		"ai_target_move_x": -1,
		"ai_target_move_y": -1,
		"ai_skill_function": "",
		"ai_attack": "IF( turn <=4 ,IF(panel_move_distance <= 4, 1, 0),1)",
		"ai_move": "IF(turn <=4,0,1)",
		"ai_heal": "",
		"ai_skill": "",
		"ai_use": "",
		"skill_group_id": 17803,
		"gear_GearGear": 80005,
		"gear_rank": 1,
		"proficiency_UnitProficiency": 1,
		"level": 90,
		"hp": 159,
		"strength": 126,
		"vitality": 122,
		"intelligence": 13,
		"mind": 47,
		"agility": 77,
		"dexterity": 81,
		"lucky": 50,
		"parameter_table_BattleEnemyParameterTable": 0,
		"parameter_deviation_table_BattleEnemyParameterDeviationTable": 0,
		"acquire_skill_group_id": 0,
		"level_correction": 0,
		"group_id": 0,
		"ai_script_id_BattleAIScript": 0
	},
	{
		"ID": 64398,
		"stage_BattleStage": 331050301,
		"unit_UnitUnit": 840018,
		"money": 450,
		"initial_coordinate_x": 10,
		"initial_coordinate_y": 16,
		"reinforcement_BattleReinforcement": 0,
		"initial_direction": 90.0,
		"ai_move_group": 0,
		"ai_target_move_x": -1,
		"ai_target_move_y": -1,
		"ai_skill_function": "",
		"ai_attack": "IF( turn <=4 ,IF(panel_move_distance <= 7, 1, 0),1)",
		"ai_move": "IF(turn <=4,0,1)",
		"ai_heal": "",
		"ai_skill": "",
		"ai_use": "",
		"skill_group_id": 17804,
		"gear_GearGear": 45007,
		"gear_rank": 1,
		"proficiency_UnitProficiency": 5,
		"level": 90,
		"hp": 97,
		"strength": 85,
		"vitality": 66,
		"intelligence": 14,
		"mind": 65,
		"agility": 107,
		"dexterity": 110,
		"lucky": 53,
		"parameter_table_BattleEnemyParameterTable": 0,
		"parameter_deviation_table_BattleEnemyParameterDeviationTable": 0,
		"acquire_skill_group_id": 0,
		"level_correction": 0,
		"group_id": 0,
		"ai_script_id_BattleAIScript": 0
	},
	{
		"ID": 64399,
		"stage_BattleStage": 331050301,
		"unit_UnitUnit": 840018,
		"money": 450,
		"initial_coordinate_x": 11,
		"initial_coordinate_y": 15,
		"reinforcement_BattleReinforcement": 0,
		"initial_direction": 90.0,
		"ai_move_group": 0,
		"ai_target_move_x": -1,
		"ai_target_move_y": -1,
		"ai_skill_function": "",
		"ai_attack": "IF( turn <=4 ,IF(panel_move_distance <= 7, 1, 0),1)",
		"ai_move": "IF(turn <=4,0,1)",
		"ai_heal": "",
		"ai_skill": "",
		"ai_use": "",
		"skill_group_id": 17804,
		"gear_GearGear": 45007,
		"gear_rank": 1,
		"proficiency_UnitProficiency": 5,
		"level": 90,
		"hp": 100,
		"strength": 85,
		"vitality": 71,
		"intelligence": 11,
		"mind": 61,
		"agility": 109,
		"dexterity": 110,
		"lucky": 53,
		"parameter_table_BattleEnemyParameterTable": 0,
		"parameter_deviation_table_BattleEnemyParameterDeviationTable": 0,
		"acquire_skill_group_id": 0,
		"level_correction": 0,
		"group_id": 0,
		"ai_script_id_BattleAIScript": 0
	},
	{
		"ID": 64400,
		"stage_BattleStage": 331050301,
		"unit_UnitUnit": 840018,
		"money": 450,
		"initial_coordinate_x": 17,
		"initial_coordinate_y": 10,
		"reinforcement_BattleReinforcement": 0,
		"initial_direction": 0.0,
		"ai_move_group": 0,
		"ai_target_move_x": -1,
		"ai_target_move_y": -1,
		"ai_skill_function": "",
		"ai_attack": "IF( turn <=4 ,IF(panel_move_distance <= 7, 1, 0),1)",
		"ai_move": "IF(turn <=4,0,1)",
		"ai_heal": "",
		"ai_skill": "",
		"ai_use": "",
		"skill_group_id": 17804,
		"gear_GearGear": 45007,
		"gear_rank": 1,
		"proficiency_UnitProficiency": 5,
		"level": 90,
		"hp": 96,
		"strength": 89,
		"vitality": 67,
		"intelligence": 13,
		"mind": 66,
		"agility": 106,
		"dexterity": 113,
		"lucky": 53,
		"parameter_table_BattleEnemyParameterTable": 0,
		"parameter_deviation_table_BattleEnemyParameterDeviationTable": 0,
		"acquire_skill_group_id": 0,
		"level_correction": 0,
		"group_id": 0,
		"ai_script_id_BattleAIScript": 0
	},
	{
		"ID": 64401,
		"stage_BattleStage": 331050301,
		"unit_UnitUnit": 840018,
		"money": 450,
		"initial_coordinate_x": 18,
		"initial_coordinate_y": 9,
		"reinforcement_BattleReinforcement": 0,
		"initial_direction": 0.0,
		"ai_move_group": 0,
		"ai_target_move_x": -1,
		"ai_target_move_y": -1,
		"ai_skill_function": "",
		"ai_attack": "IF( turn <=4 ,IF(panel_move_distance <= 7, 1, 0),1)",
		"ai_move": "IF(turn <=4,0,1)",
		"ai_heal": "",
		"ai_skill": "",
		"ai_use": "",
		"skill_group_id": 17804,
		"gear_GearGear": 45007,
		"gear_rank": 1,
		"proficiency_UnitProficiency": 5,
		"level": 90,
		"hp": 98,
		"strength": 88,
		"vitality": 66,
		"intelligence": 14,
		"mind": 66,
		"agility": 108,
		"dexterity": 109,
		"lucky": 53,
		"parameter_table_BattleEnemyParameterTable": 0,
		"parameter_deviation_table_BattleEnemyParameterDeviationTable": 0,
		"acquire_skill_group_id": 0,
		"level_correction": 0,
		"group_id": 0,
		"ai_script_id_BattleAIScript": 0
	},
	{
		"ID": 64402,
		"stage_BattleStage": 331050301,
		"unit_UnitUnit": 900014,
		"money": 450,
		"initial_coordinate_x": 13,
		"initial_coordinate_y": 9,
		"reinforcement_BattleReinforcement": 4,
		"initial_direction": 0.0,
		"ai_move_group": 0,
		"ai_target_move_x": -1,
		"ai_target_move_y": -1,
		"ai_skill_function": "",
		"ai_attack": "IF( turn <=6 ,IF(panel_move_distance <= 4, 1, 0),1)",
		"ai_move": "IF(turn <=6,0,1)",
		"ai_heal": "",
		"ai_skill": "",
		"ai_use": "",
		"skill_group_id": 17803,
		"gear_GearGear": 80005,
		"gear_rank": 1,
		"proficiency_UnitProficiency": 1,
		"level": 90,
		"hp": 157,
		"strength": 127,
		"vitality": 126,
		"intelligence": 11,
		"mind": 50,
		"agility": 77,
		"dexterity": 81,
		"lucky": 53,
		"parameter_table_BattleEnemyParameterTable": 0,
		"parameter_deviation_table_BattleEnemyParameterDeviationTable": 0,
		"acquire_skill_group_id": 0,
		"level_correction": 0,
		"group_id": 0,
		"ai_script_id_BattleAIScript": 0
	},
	{
		"ID": 64403,
		"stage_BattleStage": 331050301,
		"unit_UnitUnit": 900014,
		"money": 450,
		"initial_coordinate_x": 10,
		"initial_coordinate_y": 5,
		"reinforcement_BattleReinforcement": 5,
		"initial_direction": 90.0,
		"ai_move_group": 0,
		"ai_target_move_x": -1,
		"ai_target_move_y": -1,
		"ai_skill_function": "",
		"ai_attack": "IF( turn <=6 ,IF(panel_move_distance <= 4, 1, 0),1)",
		"ai_move": "IF(turn <=6,0,1)",
		"ai_heal": "",
		"ai_skill": "",
		"ai_use": "",
		"skill_group_id": 17803,
		"gear_GearGear": 80005,
		"gear_rank": 1,
		"proficiency_UnitProficiency": 1,
		"level": 90,
		"hp": 158,
		"strength": 125,
		"vitality": 127,
		"intelligence": 12,
		"mind": 49,
		"agility": 81,
		"dexterity": 84,
		"lucky": 53,
		"parameter_table_BattleEnemyParameterTable": 0,
		"parameter_deviation_table_BattleEnemyParameterDeviationTable": 0,
		"acquire_skill_group_id": 0,
		"level_correction": 0,
		"group_id": 0,
		"ai_script_id_BattleAIScript": 0
	},
	{
		"ID": 64404,
		"stage_BattleStage": 331050301,
		"unit_UnitUnit": 900014,
		"money": 450,
		"initial_coordinate_x": 4,
		"initial_coordinate_y": 9,
		"reinforcement_BattleReinforcement": 5,
		"initial_direction": 0.0,
		"ai_move_group": 0,
		"ai_target_move_x": -1,
		"ai_target_move_y": -1,
		"ai_skill_function": "",
		"ai_attack": "IF( turn <=6 ,IF(panel_move_distance <= 4, 1, 0),1)",
		"ai_move": "IF(turn <=6,0,1)",
		"ai_heal": "",
		"ai_skill": "",
		"ai_use": "",
		"skill_group_id": 17803,
		"gear_GearGear": 80005,
		"gear_rank": 1,
		"proficiency_UnitProficiency": 1,
		"level": 90,
		"hp": 162,
		"strength": 124,
		"vitality": 122,
		"intelligence": 12,
		"mind": 52,
		"agility": 80,
		"dexterity": 81,
		"lucky": 49,
		"parameter_table_BattleEnemyParameterTable": 0,
		"parameter_deviation_table_BattleEnemyParameterDeviationTable": 0,
		"acquire_skill_group_id": 0,
		"level_correction": 0,
		"group_id": 0,
		"ai_script_id_BattleAIScript": 0
	},
	{
		"ID": 64405,
		"stage_BattleStage": 331050301,
		"unit_UnitUnit": 900014,
		"money": 450,
		"initial_coordinate_x": 6,
		"initial_coordinate_y": 9,
		"reinforcement_BattleReinforcement": 5,
		"initial_direction": 0.0,
		"ai_move_group": 0,
		"ai_target_move_x": -1,
		"ai_target_move_y": -1,
		"ai_skill_function": "",
		"ai_attack": "IF( turn <=6 ,IF(panel_move_distance <= 4, 1, 0),1)",
		"ai_move": "IF(turn <=6,0,1)",
		"ai_heal": "",
		"ai_skill": "",
		"ai_use": "",
		"skill_group_id": 17803,
		"gear_GearGear": 80005,
		"gear_rank": 1,
		"proficiency_UnitProficiency": 1,
		"level": 90,
		"hp": 162,
		"strength": 125,
		"vitality": 122,
		"intelligence": 10,
		"mind": 49,
		"agility": 81,
		"dexterity": 81,
		"lucky": 48,
		"parameter_table_BattleEnemyParameterTable": 0,
		"parameter_deviation_table_BattleEnemyParameterDeviationTable": 0,
		"acquire_skill_group_id": 0,
		"level_correction": 0,
		"group_id": 0,
		"ai_script_id_BattleAIScript": 0
	},
	{
		"ID": 64406,
		"stage_BattleStage": 331050301,
		"unit_UnitUnit": 900014,
		"money": 450,
		"initial_coordinate_x": 8,
		"initial_coordinate_y": 7,
		"reinforcement_BattleReinforcement": 5,
		"initial_direction": 90.0,
		"ai_move_group": 0,
		"ai_target_move_x": -1,
		"ai_target_move_y": -1,
		"ai_skill_function": "",
		"ai_attack": "IF( turn <=6 ,IF(panel_move_distance <= 4, 1, 0),1)",
		"ai_move": "IF(turn <=6,0,1)",
		"ai_heal": "",
		"ai_skill": "",
		"ai_use": "",
		"skill_group_id": 17803,
		"gear_GearGear": 80005,
		"gear_rank": 1,
		"proficiency_UnitProficiency": 1,
		"level": 90,
		"hp": 159,
		"strength": 125,
		"vitality": 125,
		"intelligence": 10,
		"mind": 50,
		"agility": 78,
		"dexterity": 83,
		"lucky": 53,
		"parameter_table_BattleEnemyParameterTable": 0,
		"parameter_deviation_table_BattleEnemyParameterDeviationTable": 0,
		"acquire_skill_group_id": 0,
		"level_correction": 0,
		"group_id": 0,
		"ai_script_id_BattleAIScript": 0
	},
	{
		"ID": 64407,
		"stage_BattleStage": 331050301,
		"unit_UnitUnit": 860010,
		"money": 450,
		"initial_coordinate_x": 5,
		"initial_coordinate_y": 6,
		"reinforcement_BattleReinforcement": 5,
		"initial_direction": 90.0,
		"ai_move_group": 0,
		"ai_target_move_x": -1,
		"ai_target_move_y": -1,
		"ai_skill_function": "",
		"ai_attack": "IF( turn <=6 ,IF(panel_move_distance <= 4, 1, 0),1)",
		"ai_move": "IF(turn <=6,0,1)",
		"ai_heal": "",
		"ai_skill": "",
		"ai_use": "",
		"skill_group_id": 17805,
		"gear_GearGear": 76005,
		"gear_rank": 1,
		"proficiency_UnitProficiency": 6,
		"level": 90,
		"hp": 101,
		"strength": 11,
		"vitality": 86,
		"intelligence": 88,
		"mind": 105,
		"agility": 88,
		"dexterity": 90,
		"lucky": 56,
		"parameter_table_BattleEnemyParameterTable": 0,
		"parameter_deviation_table_BattleEnemyParameterDeviationTable": 0,
		"acquire_skill_group_id": 0,
		"level_correction": 0,
		"group_id": 0,
		"ai_script_id_BattleAIScript": 0
	},
	{
		"ID": 64408,
		"stage_BattleStage": 331050301,
		"unit_UnitUnit": 860010,
		"money": 450,
		"initial_coordinate_x": 6,
		"initial_coordinate_y": 5,
		"reinforcement_BattleReinforcement": 5,
		"initial_direction": 90.0,
		"ai_move_group": 0,
		"ai_target_move_x": -1,
		"ai_target_move_y": -1,
		"ai_skill_function": "",
		"ai_attack": "IF( turn <=6 ,IF(panel_move_distance <= 4, 1, 0),1)",
		"ai_move": "IF(turn <=6,0,1)",
		"ai_heal": "",
		"ai_skill": "",
		"ai_use": "",
		"skill_group_id": 17805,
		"gear_GearGear": 76005,
		"gear_rank": 1,
		"proficiency_UnitProficiency": 6,
		"level": 90,
		"hp": 99,
		"strength": 8,
		"vitality": 86,
		"intelligence": 89,
		"mind": 105,
		"agility": 90,
		"dexterity": 94,
		"lucky": 53,
		"parameter_table_BattleEnemyParameterTable": 0,
		"parameter_deviation_table_BattleEnemyParameterDeviationTable": 0,
		"acquire_skill_group_id": 0,
		"level_correction": 0,
		"group_id": 0,
		"ai_script_id_BattleAIScript": 0
	},
	{
		"ID": 64409,
		"stage_BattleStage": 331050301,
		"unit_UnitUnit": 830001,
		"money": 450,
		"initial_coordinate_x": 6,
		"initial_coordinate_y": 7,
		"reinforcement_BattleReinforcement": 7,
		"initial_direction": 90.0,
		"ai_move_group": 0,
		"ai_target_move_x": -1,
		"ai_target_move_y": -1,
		"ai_skill_function": "",
		"ai_attack": "1.0",
		"ai_move": "1.0",
		"ai_heal": "",
		"ai_skill": "",
		"ai_use": "",
		"skill_group_id": 17806,
		"gear_GearGear": 36010,
		"gear_rank": 1,
		"proficiency_UnitProficiency": 6,
		"level": 90,
		"hp": 102,
		"strength": 101,
		"vitality": 94,
		"intelligence": 8,
		"mind": 77,
		"agility": 98,
		"dexterity": 104,
		"lucky": 54,
		"parameter_table_BattleEnemyParameterTable": 0,
		"parameter_deviation_table_BattleEnemyParameterDeviationTable": 0,
		"acquire_skill_group_id": 0,
		"level_correction": 0,
		"group_id": 0,
		"ai_script_id_BattleAIScript": 0
	},
	{
		"ID": 64410,
		"stage_BattleStage": 331050301,
		"unit_UnitUnit": 830001,
		"money": 450,
		"initial_coordinate_x": 8,
		"initial_coordinate_y": 5,
		"reinforcement_BattleReinforcement": 7,
		"initial_direction": 90.0,
		"ai_move_group": 0,
		"ai_target_move_x": -1,
		"ai_target_move_y": -1,
		"ai_skill_function": "",
		"ai_attack": "1.0",
		"ai_move": "1.0",
		"ai_heal": "",
		"ai_skill": "",
		"ai_use": "",
		"skill_group_id": 17806,
		"gear_GearGear": 36010,
		"gear_rank": 1,
		"proficiency_UnitProficiency": 6,
		"level": 90,
		"hp": 101,
		"strength": 100,
		"vitality": 92,
		"intelligence": 8,
		"mind": 80,
		"agility": 101,
		"dexterity": 100,
		"lucky": 52,
		"parameter_table_BattleEnemyParameterTable": 0,
		"parameter_deviation_table_BattleEnemyParameterDeviationTable": 0,
		"acquire_skill_group_id": 0,
		"level_correction": 0,
		"group_id": 0,
		"ai_script_id_BattleAIScript": 0
	},
	{
		"ID": 64411,
		"stage_BattleStage": 331050301,
		"unit_UnitUnit": 100425,
		"money": 500,
		"initial_coordinate_x": 2,
		"initial_coordinate_y": 4,
		"reinforcement_BattleReinforcement": 0,
		"initial_direction": 90.0,
		"ai_move_group": 0,
		"ai_target_move_x": -1,
		"ai_target_move_y": -1,
		"ai_skill_function": "",
		"ai_attack": "IF( turn <=8 ,IF(panel_move_distance <= 6, 1, 0),1)",
		"ai_move": "IF(turn <=8,0,1)",
		"ai_heal": "",
		"ai_skill": "",
		"ai_use": "",
		"skill_group_id": 17802,
		"gear_GearGear": 16035,
		"gear_rank": 1,
		"proficiency_UnitProficiency": 6,
		"level": 100,
		"hp": 245,
		"strength": 81,
		"vitality": 53,
		"intelligence": 25,
		"mind": 59,
		"agility": 127,
		"dexterity": 124,
		"lucky": 60,
		"parameter_table_BattleEnemyParameterTable": 0,
		"parameter_deviation_table_BattleEnemyParameterDeviationTable": 0,
		"acquire_skill_group_id": 0,
		"level_correction": 0,
		"group_id": 0,
		"ai_script_id_BattleAIScript": 0
	}
]