[
	{
		"ID": 98417,
		"stage_BattleStage": 331050257,
		"unit_UnitUnit": 201014,
		"money": 500,
		"initial_coordinate_x": 11,
		"initial_coordinate_y": 10,
		"reinforcement_BattleReinforcement": 0,
		"initial_direction": 270.0,
		"ai_move_group": 0,
		"ai_target_move_x": -1,
		"ai_target_move_y": -1,
		"ai_skill_function": "",
		"ai_attack": "",
		"ai_move": "",
		"ai_heal": "",
		"ai_skill": "",
		"ai_use": "",
		"skill_group_id": 22144,
		"gear_GearGear": 27013,
		"gear_rank": 10,
		"proficiency_UnitProficiency": 6,
		"level": 100,
		"hp": 300,
		"strength": 120,
		"vitality": 81,
		"intelligence": 9,
		"mind": 37,
		"agility": 82,
		"dexterity": 103,
		"lucky": 40,
		"parameter_table_BattleEnemyParameterTable": 0,
		"parameter_deviation_table_BattleEnemyParameterDeviationTable": 0,
		"acquire_skill_group_id": 0,
		"level_correction": 0,
		"group_id": 0,
		"ai_script_id_BattleAIScript": 0
	},
	{
		"ID": 98418,
		"stage_BattleStage": 331050257,
		"unit_UnitUnit": 811004,
		"money": 455,
		"initial_coordinate_x": 8,
		"initial_coordinate_y": 9,
		"reinforcement_BattleReinforcement": 0,
		"initial_direction": 270.0,
		"ai_move_group": 0,
		"ai_target_move_x": -1,
		"ai_target_move_y": -1,
		"ai_skill_function": "",
		"ai_attack": "",
		"ai_move": "",
		"ai_heal": "",
		"ai_skill": "",
		"ai_use": "",
		"skill_group_id": 22145,
		"gear_GearGear": 15007,
		"gear_rank": 10,
		"proficiency_UnitProficiency": 5,
		"level": 91,
		"hp": 121,
		"strength": 127,
		"vitality": 73,
		"intelligence": 13,
		"mind": 43,
		"agility": 97,
		"dexterity": 119,
		"lucky": 24,
		"parameter_table_BattleEnemyParameterTable": 0,
		"parameter_deviation_table_BattleEnemyParameterDeviationTable": 0,
		"acquire_skill_group_id": 0,
		"level_correction": 0,
		"group_id": 0,
		"ai_script_id_BattleAIScript": 0
	},
	{
		"ID": 98419,
		"stage_BattleStage": 331050257,
		"unit_UnitUnit": 811004,
		"money": 455,
		"initial_coordinate_x": 3,
		"initial_coordinate_y": 11,
		"reinforcement_BattleReinforcement": 0,
		"initial_direction": 180.0,
		"ai_move_group": 0,
		"ai_target_move_x": -1,
		"ai_target_move_y": -1,
		"ai_skill_function": "",
		"ai_attack": "",
		"ai_move": "",
		"ai_heal": "",
		"ai_skill": "",
		"ai_use": "",
		"skill_group_id": 22145,
		"gear_GearGear": 15007,
		"gear_rank": 10,
		"proficiency_UnitProficiency": 5,
		"level": 91,
		"hp": 120,
		"strength": 128,
		"vitality": 72,
		"intelligence": 12,
		"mind": 44,
		"agility": 97,
		"dexterity": 118,
		"lucky": 24,
		"parameter_table_BattleEnemyParameterTable": 0,
		"parameter_deviation_table_BattleEnemyParameterDeviationTable": 0,
		"acquire_skill_group_id": 0,
		"level_correction": 0,
		"group_id": 0,
		"ai_script_id_BattleAIScript": 0
	},
	{
		"ID": 98420,
		"stage_BattleStage": 331050257,
		"unit_UnitUnit": 811004,
		"money": 460,
		"initial_coordinate_x": 4,
		"initial_coordinate_y": 10,
		"reinforcement_BattleReinforcement": 0,
		"initial_direction": 180.0,
		"ai_move_group": 0,
		"ai_target_move_x": -1,
		"ai_target_move_y": -1,
		"ai_skill_function": "",
		"ai_attack": "",
		"ai_move": "",
		"ai_heal": "",
		"ai_skill": "",
		"ai_use": "",
		"skill_group_id": 22145,
		"gear_GearGear": 15007,
		"gear_rank": 10,
		"proficiency_UnitProficiency": 5,
		"level": 92,
		"hp": 120,
		"strength": 127,
		"vitality": 74,
		"intelligence": 12,
		"mind": 43,
		"agility": 100,
		"dexterity": 119,
		"lucky": 24,
		"parameter_table_BattleEnemyParameterTable": 0,
		"parameter_deviation_table_BattleEnemyParameterDeviationTable": 0,
		"acquire_skill_group_id": 0,
		"level_correction": 0,
		"group_id": 0,
		"ai_script_id_BattleAIScript": 0
	},
	{
		"ID": 98421,
		"stage_BattleStage": 331050257,
		"unit_UnitUnit": 811004,
		"money": 455,
		"initial_coordinate_x": 5,
		"initial_coordinate_y": 11,
		"reinforcement_BattleReinforcement": 0,
		"initial_direction": 180.0,
		"ai_move_group": 0,
		"ai_target_move_x": -1,
		"ai_target_move_y": -1,
		"ai_skill_function": "",
		"ai_attack": "",
		"ai_move": "",
		"ai_heal": "",
		"ai_skill": "",
		"ai_use": "",
		"skill_group_id": 22145,
		"gear_GearGear": 15007,
		"gear_rank": 10,
		"proficiency_UnitProficiency": 5,
		"level": 91,
		"hp": 120,
		"strength": 127,
		"vitality": 72,
		"intelligence": 12,
		"mind": 44,
		"agility": 98,
		"dexterity": 120,
		"lucky": 24,
		"parameter_table_BattleEnemyParameterTable": 0,
		"parameter_deviation_table_BattleEnemyParameterDeviationTable": 0,
		"acquire_skill_group_id": 0,
		"level_correction": 0,
		"group_id": 0,
		"ai_script_id_BattleAIScript": 0
	},
	{
		"ID": 98422,
		"stage_BattleStage": 331050257,
		"unit_UnitUnit": 811004,
		"money": 455,
		"initial_coordinate_x": 6,
		"initial_coordinate_y": 8,
		"reinforcement_BattleReinforcement": 0,
		"initial_direction": 180.0,
		"ai_move_group": 0,
		"ai_target_move_x": -1,
		"ai_target_move_y": -1,
		"ai_skill_function": "",
		"ai_attack": "",
		"ai_move": "",
		"ai_heal": "",
		"ai_skill": "",
		"ai_use": "",
		"skill_group_id": 22145,
		"gear_GearGear": 15007,
		"gear_rank": 10,
		"proficiency_UnitProficiency": 5,
		"level": 91,
		"hp": 120,
		"strength": 126,
		"vitality": 73,
		"intelligence": 11,
		"mind": 45,
		"agility": 97,
		"dexterity": 119,
		"lucky": 26,
		"parameter_table_BattleEnemyParameterTable": 0,
		"parameter_deviation_table_BattleEnemyParameterDeviationTable": 0,
		"acquire_skill_group_id": 0,
		"level_correction": 0,
		"group_id": 0,
		"ai_script_id_BattleAIScript": 0
	},
	{
		"ID": 98423,
		"stage_BattleStage": 331050257,
		"unit_UnitUnit": 811004,
		"money": 455,
		"initial_coordinate_x": 9,
		"initial_coordinate_y": 8,
		"reinforcement_BattleReinforcement": 0,
		"initial_direction": 270.0,
		"ai_move_group": 0,
		"ai_target_move_x": -1,
		"ai_target_move_y": -1,
		"ai_skill_function": "",
		"ai_attack": "",
		"ai_move": "",
		"ai_heal": "",
		"ai_skill": "",
		"ai_use": "",
		"skill_group_id": 22145,
		"gear_GearGear": 15007,
		"gear_rank": 10,
		"proficiency_UnitProficiency": 5,
		"level": 91,
		"hp": 121,
		"strength": 127,
		"vitality": 73,
		"intelligence": 12,
		"mind": 43,
		"agility": 98,
		"dexterity": 118,
		"lucky": 25,
		"parameter_table_BattleEnemyParameterTable": 0,
		"parameter_deviation_table_BattleEnemyParameterDeviationTable": 0,
		"acquire_skill_group_id": 0,
		"level_correction": 0,
		"group_id": 0,
		"ai_script_id_BattleAIScript": 0
	},
	{
		"ID": 98424,
		"stage_BattleStage": 331050257,
		"unit_UnitUnit": 811004,
		"money": 455,
		"initial_coordinate_x": 2,
		"initial_coordinate_y": 6,
		"reinforcement_BattleReinforcement": 0,
		"initial_direction": 180.0,
		"ai_move_group": 0,
		"ai_target_move_x": -1,
		"ai_target_move_y": -1,
		"ai_skill_function": "",
		"ai_attack": "",
		"ai_move": "",
		"ai_heal": "",
		"ai_skill": "",
		"ai_use": "",
		"skill_group_id": 22145,
		"gear_GearGear": 15007,
		"gear_rank": 10,
		"proficiency_UnitProficiency": 5,
		"level": 91,
		"hp": 119,
		"strength": 127,
		"vitality": 71,
		"intelligence": 11,
		"mind": 43,
		"agility": 98,
		"dexterity": 118,
		"lucky": 25,
		"parameter_table_BattleEnemyParameterTable": 0,
		"parameter_deviation_table_BattleEnemyParameterDeviationTable": 0,
		"acquire_skill_group_id": 0,
		"level_correction": 0,
		"group_id": 0,
		"ai_script_id_BattleAIScript": 0
	},
	{
		"ID": 98425,
		"stage_BattleStage": 331050257,
		"unit_UnitUnit": 811004,
		"money": 460,
		"initial_coordinate_x": 4,
		"initial_coordinate_y": 6,
		"reinforcement_BattleReinforcement": 0,
		"initial_direction": 180.0,
		"ai_move_group": 0,
		"ai_target_move_x": -1,
		"ai_target_move_y": -1,
		"ai_skill_function": "",
		"ai_attack": "",
		"ai_move": "",
		"ai_heal": "",
		"ai_skill": "",
		"ai_use": "",
		"skill_group_id": 22145,
		"gear_GearGear": 15007,
		"gear_rank": 10,
		"proficiency_UnitProficiency": 5,
		"level": 92,
		"hp": 122,
		"strength": 129,
		"vitality": 74,
		"intelligence": 11,
		"mind": 45,
		"agility": 100,
		"dexterity": 120,
		"lucky": 25,
		"parameter_table_BattleEnemyParameterTable": 0,
		"parameter_deviation_table_BattleEnemyParameterDeviationTable": 0,
		"acquire_skill_group_id": 0,
		"level_correction": 0,
		"group_id": 0,
		"ai_script_id_BattleAIScript": 0
	},
	{
		"ID": 98426,
		"stage_BattleStage": 331050257,
		"unit_UnitUnit": 811004,
		"money": 455,
		"initial_coordinate_x": 11,
		"initial_coordinate_y": 11,
		"reinforcement_BattleReinforcement": 0,
		"initial_direction": 270.0,
		"ai_move_group": 0,
		"ai_target_move_x": -1,
		"ai_target_move_y": -1,
		"ai_skill_function": "",
		"ai_attack": "",
		"ai_move": "",
		"ai_heal": "",
		"ai_skill": "",
		"ai_use": "",
		"skill_group_id": 22145,
		"gear_GearGear": 15007,
		"gear_rank": 10,
		"proficiency_UnitProficiency": 5,
		"level": 91,
		"hp": 121,
		"strength": 126,
		"vitality": 71,
		"intelligence": 12,
		"mind": 43,
		"agility": 97,
		"dexterity": 118,
		"lucky": 24,
		"parameter_table_BattleEnemyParameterTable": 0,
		"parameter_deviation_table_BattleEnemyParameterDeviationTable": 0,
		"acquire_skill_group_id": 0,
		"level_correction": 0,
		"group_id": 0,
		"ai_script_id_BattleAIScript": 0
	},
	{
		"ID": 98427,
		"stage_BattleStage": 331050257,
		"unit_UnitUnit": 820007,
		"money": 455,
		"initial_coordinate_x": 10,
		"initial_coordinate_y": 7,
		"reinforcement_BattleReinforcement": 0,
		"initial_direction": 270.0,
		"ai_move_group": 0,
		"ai_target_move_x": -1,
		"ai_target_move_y": -1,
		"ai_skill_function": "",
		"ai_attack": "",
		"ai_move": "",
		"ai_heal": "",
		"ai_skill": "",
		"ai_use": "",
		"skill_group_id": 22146,
		"gear_GearGear": 26007,
		"gear_rank": 10,
		"proficiency_UnitProficiency": 6,
		"level": 91,
		"hp": 134,
		"strength": 141,
		"vitality": 99,
		"intelligence": 13,
		"mind": 36,
		"agility": 64,
		"dexterity": 100,
		"lucky": 26,
		"parameter_table_BattleEnemyParameterTable": 0,
		"parameter_deviation_table_BattleEnemyParameterDeviationTable": 0,
		"acquire_skill_group_id": 0,
		"level_correction": 0,
		"group_id": 0,
		"ai_script_id_BattleAIScript": 0
	},
	{
		"ID": 98428,
		"stage_BattleStage": 331050257,
		"unit_UnitUnit": 820007,
		"money": 455,
		"initial_coordinate_x": 2,
		"initial_coordinate_y": 8,
		"reinforcement_BattleReinforcement": 0,
		"initial_direction": 180.0,
		"ai_move_group": 0,
		"ai_target_move_x": -1,
		"ai_target_move_y": -1,
		"ai_skill_function": "",
		"ai_attack": "",
		"ai_move": "",
		"ai_heal": "",
		"ai_skill": "",
		"ai_use": "",
		"skill_group_id": 22146,
		"gear_GearGear": 26007,
		"gear_rank": 10,
		"proficiency_UnitProficiency": 6,
		"level": 91,
		"hp": 134,
		"strength": 140,
		"vitality": 97,
		"intelligence": 13,
		"mind": 35,
		"agility": 66,
		"dexterity": 98,
		"lucky": 25,
		"parameter_table_BattleEnemyParameterTable": 0,
		"parameter_deviation_table_BattleEnemyParameterDeviationTable": 0,
		"acquire_skill_group_id": 0,
		"level_correction": 0,
		"group_id": 0,
		"ai_script_id_BattleAIScript": 0
	},
	{
		"ID": 98429,
		"stage_BattleStage": 331050257,
		"unit_UnitUnit": 820007,
		"money": 455,
		"initial_coordinate_x": 3,
		"initial_coordinate_y": 7,
		"reinforcement_BattleReinforcement": 0,
		"initial_direction": 180.0,
		"ai_move_group": 0,
		"ai_target_move_x": -1,
		"ai_target_move_y": -1,
		"ai_skill_function": "",
		"ai_attack": "",
		"ai_move": "",
		"ai_heal": "",
		"ai_skill": "",
		"ai_use": "",
		"skill_group_id": 22146,
		"gear_GearGear": 26007,
		"gear_rank": 10,
		"proficiency_UnitProficiency": 6,
		"level": 91,
		"hp": 134,
		"strength": 141,
		"vitality": 97,
		"intelligence": 14,
		"mind": 36,
		"agility": 66,
		"dexterity": 98,
		"lucky": 25,
		"parameter_table_BattleEnemyParameterTable": 0,
		"parameter_deviation_table_BattleEnemyParameterDeviationTable": 0,
		"acquire_skill_group_id": 0,
		"level_correction": 0,
		"group_id": 0,
		"ai_script_id_BattleAIScript": 0
	},
	{
		"ID": 98430,
		"stage_BattleStage": 331050257,
		"unit_UnitUnit": 820007,
		"money": 460,
		"initial_coordinate_x": 4,
		"initial_coordinate_y": 8,
		"reinforcement_BattleReinforcement": 0,
		"initial_direction": 180.0,
		"ai_move_group": 0,
		"ai_target_move_x": -1,
		"ai_target_move_y": -1,
		"ai_skill_function": "",
		"ai_attack": "",
		"ai_move": "",
		"ai_heal": "",
		"ai_skill": "",
		"ai_use": "",
		"skill_group_id": 22146,
		"gear_GearGear": 26007,
		"gear_rank": 10,
		"proficiency_UnitProficiency": 6,
		"level": 92,
		"hp": 135,
		"strength": 142,
		"vitality": 98,
		"intelligence": 12,
		"mind": 34,
		"agility": 67,
		"dexterity": 100,
		"lucky": 24,
		"parameter_table_BattleEnemyParameterTable": 0,
		"parameter_deviation_table_BattleEnemyParameterDeviationTable": 0,
		"acquire_skill_group_id": 0,
		"level_correction": 0,
		"group_id": 0,
		"ai_script_id_BattleAIScript": 0
	},
	{
		"ID": 98431,
		"stage_BattleStage": 331050257,
		"unit_UnitUnit": 820007,
		"money": 455,
		"initial_coordinate_x": 5,
		"initial_coordinate_y": 7,
		"reinforcement_BattleReinforcement": 0,
		"initial_direction": 180.0,
		"ai_move_group": 0,
		"ai_target_move_x": -1,
		"ai_target_move_y": -1,
		"ai_skill_function": "",
		"ai_attack": "",
		"ai_move": "",
		"ai_heal": "",
		"ai_skill": "",
		"ai_use": "",
		"skill_group_id": 22146,
		"gear_GearGear": 26007,
		"gear_rank": 10,
		"proficiency_UnitProficiency": 6,
		"level": 91,
		"hp": 133,
		"strength": 140,
		"vitality": 99,
		"intelligence": 14,
		"mind": 35,
		"agility": 66,
		"dexterity": 100,
		"lucky": 25,
		"parameter_table_BattleEnemyParameterTable": 0,
		"parameter_deviation_table_BattleEnemyParameterDeviationTable": 0,
		"acquire_skill_group_id": 0,
		"level_correction": 0,
		"group_id": 0,
		"ai_script_id_BattleAIScript": 0
	},
	{
		"ID": 98432,
		"stage_BattleStage": 331050257,
		"unit_UnitUnit": 820007,
		"money": 460,
		"initial_coordinate_x": 6,
		"initial_coordinate_y": 6,
		"reinforcement_BattleReinforcement": 0,
		"initial_direction": 180.0,
		"ai_move_group": 0,
		"ai_target_move_x": -1,
		"ai_target_move_y": -1,
		"ai_skill_function": "",
		"ai_attack": "",
		"ai_move": "",
		"ai_heal": "",
		"ai_skill": "",
		"ai_use": "",
		"skill_group_id": 22146,
		"gear_GearGear": 26007,
		"gear_rank": 10,
		"proficiency_UnitProficiency": 6,
		"level": 92,
		"hp": 134,
		"strength": 142,
		"vitality": 99,
		"intelligence": 12,
		"mind": 34,
		"agility": 65,
		"dexterity": 99,
		"lucky": 25,
		"parameter_table_BattleEnemyParameterTable": 0,
		"parameter_deviation_table_BattleEnemyParameterDeviationTable": 0,
		"acquire_skill_group_id": 0,
		"level_correction": 0,
		"group_id": 0,
		"ai_script_id_BattleAIScript": 0
	},
	{
		"ID": 98433,
		"stage_BattleStage": 331050257,
		"unit_UnitUnit": 820007,
		"money": 460,
		"initial_coordinate_x": 8,
		"initial_coordinate_y": 7,
		"reinforcement_BattleReinforcement": 0,
		"initial_direction": 270.0,
		"ai_move_group": 0,
		"ai_target_move_x": -1,
		"ai_target_move_y": -1,
		"ai_skill_function": "",
		"ai_attack": "",
		"ai_move": "",
		"ai_heal": "",
		"ai_skill": "",
		"ai_use": "",
		"skill_group_id": 22146,
		"gear_GearGear": 26007,
		"gear_rank": 10,
		"proficiency_UnitProficiency": 6,
		"level": 92,
		"hp": 133,
		"strength": 143,
		"vitality": 99,
		"intelligence": 13,
		"mind": 35,
		"agility": 65,
		"dexterity": 100,
		"lucky": 24,
		"parameter_table_BattleEnemyParameterTable": 0,
		"parameter_deviation_table_BattleEnemyParameterDeviationTable": 0,
		"acquire_skill_group_id": 0,
		"level_correction": 0,
		"group_id": 0,
		"ai_script_id_BattleAIScript": 0
	},
	{
		"ID": 98434,
		"stage_BattleStage": 331050257,
		"unit_UnitUnit": 820007,
		"money": 455,
		"initial_coordinate_x": 12,
		"initial_coordinate_y": 10,
		"reinforcement_BattleReinforcement": 0,
		"initial_direction": 270.0,
		"ai_move_group": 0,
		"ai_target_move_x": -1,
		"ai_target_move_y": -1,
		"ai_skill_function": "",
		"ai_attack": "",
		"ai_move": "",
		"ai_heal": "",
		"ai_skill": "",
		"ai_use": "",
		"skill_group_id": 22146,
		"gear_GearGear": 26007,
		"gear_rank": 10,
		"proficiency_UnitProficiency": 6,
		"level": 91,
		"hp": 132,
		"strength": 142,
		"vitality": 99,
		"intelligence": 13,
		"mind": 34,
		"agility": 64,
		"dexterity": 98,
		"lucky": 25,
		"parameter_table_BattleEnemyParameterTable": 0,
		"parameter_deviation_table_BattleEnemyParameterDeviationTable": 0,
		"acquire_skill_group_id": 0,
		"level_correction": 0,
		"group_id": 0,
		"ai_script_id_BattleAIScript": 0
	}
]