[
	{
		"ID": 74443,
		"stage_BattleStage": 331050711,
		"unit_UnitUnit": 830003,
		"money": 450,
		"initial_coordinate_x": 1,
		"initial_coordinate_y": 4,
		"reinforcement_BattleReinforcement": 0,
		"initial_direction": 90.0,
		"ai_move_group": 0,
		"ai_target_move_x": -1,
		"ai_target_move_y": -1,
		"ai_skill_function": "",
		"ai_attack": "IF( turn <=4 ,IF(panel_move_distance <= 2, 1, 0),1)",
		"ai_move": "IF(turn <=4,0,1)",
		"ai_heal": "",
		"ai_skill": "",
		"ai_use": "",
		"skill_group_id": 18545,
		"gear_GearGear": 34006,
		"gear_rank": 1,
		"proficiency_UnitProficiency": 4,
		"level": 90,
		"hp": 145,
		"strength": 100,
		"vitality": 124,
		"intelligence": 13,
		"mind": 72,
		"agility": 87,
		"dexterity": 94,
		"lucky": 55,
		"parameter_table_BattleEnemyParameterTable": 0,
		"parameter_deviation_table_BattleEnemyParameterDeviationTable": 0,
		"acquire_skill_group_id": 0,
		"level_correction": 0,
		"group_id": 0,
		"ai_script_id_BattleAIScript": 0
	},
	{
		"ID": 74444,
		"stage_BattleStage": 331050711,
		"unit_UnitUnit": 830003,
		"money": 450,
		"initial_coordinate_x": 14,
		"initial_coordinate_y": 6,
		"reinforcement_BattleReinforcement": 0,
		"initial_direction": 270.0,
		"ai_move_group": 0,
		"ai_target_move_x": -1,
		"ai_target_move_y": -1,
		"ai_skill_function": "",
		"ai_attack": "IF( turn <=4 ,IF(panel_move_distance <= 2, 1, 0),1)",
		"ai_move": "IF(turn <=4,0,1)",
		"ai_heal": "",
		"ai_skill": "",
		"ai_use": "",
		"skill_group_id": 18545,
		"gear_GearGear": 34006,
		"gear_rank": 1,
		"proficiency_UnitProficiency": 4,
		"level": 90,
		"hp": 147,
		"strength": 101,
		"vitality": 124,
		"intelligence": 13,
		"mind": 72,
		"agility": 91,
		"dexterity": 93,
		"lucky": 55,
		"parameter_table_BattleEnemyParameterTable": 0,
		"parameter_deviation_table_BattleEnemyParameterDeviationTable": 0,
		"acquire_skill_group_id": 0,
		"level_correction": 0,
		"group_id": 0,
		"ai_script_id_BattleAIScript": 0
	},
	{
		"ID": 74445,
		"stage_BattleStage": 331050711,
		"unit_UnitUnit": 860010,
		"money": 450,
		"initial_coordinate_x": 1,
		"initial_coordinate_y": 6,
		"reinforcement_BattleReinforcement": 0,
		"initial_direction": 180.0,
		"ai_move_group": 0,
		"ai_target_move_x": -1,
		"ai_target_move_y": -1,
		"ai_skill_function": "",
		"ai_attack": "IF( turn <=4 ,IF(panel_move_distance <= 2, 1, 0),1)",
		"ai_move": "IF(turn <=4,0,1)",
		"ai_heal": "",
		"ai_skill": "",
		"ai_use": "",
		"skill_group_id": 1806,
		"gear_GearGear": 65006,
		"gear_rank": 1,
		"proficiency_UnitProficiency": 5,
		"level": 90,
		"hp": 99,
		"strength": 10,
		"vitality": 85,
		"intelligence": 90,
		"mind": 101,
		"agility": 88,
		"dexterity": 93,
		"lucky": 56,
		"parameter_table_BattleEnemyParameterTable": 0,
		"parameter_deviation_table_BattleEnemyParameterDeviationTable": 0,
		"acquire_skill_group_id": 0,
		"level_correction": 0,
		"group_id": 0,
		"ai_script_id_BattleAIScript": 0
	},
	{
		"ID": 74446,
		"stage_BattleStage": 331050711,
		"unit_UnitUnit": 860010,
		"money": 450,
		"initial_coordinate_x": 15,
		"initial_coordinate_y": 7,
		"reinforcement_BattleReinforcement": 0,
		"initial_direction": 270.0,
		"ai_move_group": 0,
		"ai_target_move_x": -1,
		"ai_target_move_y": -1,
		"ai_skill_function": "",
		"ai_attack": "IF( turn <=4 ,IF(panel_move_distance <= 2, 1, 0),1)",
		"ai_move": "IF(turn <=4,0,1)",
		"ai_heal": "",
		"ai_skill": "",
		"ai_use": "",
		"skill_group_id": 1806,
		"gear_GearGear": 65006,
		"gear_rank": 1,
		"proficiency_UnitProficiency": 5,
		"level": 90,
		"hp": 100,
		"strength": 11,
		"vitality": 84,
		"intelligence": 87,
		"mind": 103,
		"agility": 90,
		"dexterity": 93,
		"lucky": 51,
		"parameter_table_BattleEnemyParameterTable": 0,
		"parameter_deviation_table_BattleEnemyParameterDeviationTable": 0,
		"acquire_skill_group_id": 0,
		"level_correction": 0,
		"group_id": 0,
		"ai_script_id_BattleAIScript": 0
	},
	{
		"ID": 74447,
		"stage_BattleStage": 331050711,
		"unit_UnitUnit": 840008,
		"money": 450,
		"initial_coordinate_x": 3,
		"initial_coordinate_y": 7,
		"reinforcement_BattleReinforcement": 0,
		"initial_direction": 180.0,
		"ai_move_group": 0,
		"ai_target_move_x": -1,
		"ai_target_move_y": -1,
		"ai_skill_function": "",
		"ai_attack": "IF( turn <=4 ,IF(panel_move_distance <= 4, 1, 0),1)",
		"ai_move": "IF(turn <=4,0,1)",
		"ai_heal": "",
		"ai_skill": "",
		"ai_use": "",
		"skill_group_id": 18549,
		"gear_GearGear": 45007,
		"gear_rank": 1,
		"proficiency_UnitProficiency": 5,
		"level": 90,
		"hp": 132,
		"strength": 103,
		"vitality": 90,
		"intelligence": 14,
		"mind": 83,
		"agility": 92,
		"dexterity": 104,
		"lucky": 49,
		"parameter_table_BattleEnemyParameterTable": 0,
		"parameter_deviation_table_BattleEnemyParameterDeviationTable": 0,
		"acquire_skill_group_id": 0,
		"level_correction": 0,
		"group_id": 0,
		"ai_script_id_BattleAIScript": 0
	},
	{
		"ID": 74448,
		"stage_BattleStage": 331050711,
		"unit_UnitUnit": 840008,
		"money": 450,
		"initial_coordinate_x": 12,
		"initial_coordinate_y": 9,
		"reinforcement_BattleReinforcement": 0,
		"initial_direction": 180.0,
		"ai_move_group": 0,
		"ai_target_move_x": -1,
		"ai_target_move_y": -1,
		"ai_skill_function": "",
		"ai_attack": "IF( turn <=4 ,IF(panel_move_distance <= 4, 1, 0),1)",
		"ai_move": "IF(turn <=4,0,1)",
		"ai_heal": "",
		"ai_skill": "",
		"ai_use": "",
		"skill_group_id": 18549,
		"gear_GearGear": 45007,
		"gear_rank": 1,
		"proficiency_UnitProficiency": 5,
		"level": 90,
		"hp": 132,
		"strength": 102,
		"vitality": 89,
		"intelligence": 13,
		"mind": 80,
		"agility": 92,
		"dexterity": 99,
		"lucky": 53,
		"parameter_table_BattleEnemyParameterTable": 0,
		"parameter_deviation_table_BattleEnemyParameterDeviationTable": 0,
		"acquire_skill_group_id": 0,
		"level_correction": 0,
		"group_id": 0,
		"ai_script_id_BattleAIScript": 0
	},
	{
		"ID": 74449,
		"stage_BattleStage": 331050711,
		"unit_UnitUnit": 840008,
		"money": 450,
		"initial_coordinate_x": 4,
		"initial_coordinate_y": 10,
		"reinforcement_BattleReinforcement": 0,
		"initial_direction": 180.0,
		"ai_move_group": 0,
		"ai_target_move_x": -1,
		"ai_target_move_y": -1,
		"ai_skill_function": "",
		"ai_attack": "IF( turn <=4 ,IF(panel_move_distance <= 4, 1, 0),1)",
		"ai_move": "IF(turn <=4,0,1)",
		"ai_heal": "",
		"ai_skill": "",
		"ai_use": "",
		"skill_group_id": 18549,
		"gear_GearGear": 45007,
		"gear_rank": 1,
		"proficiency_UnitProficiency": 5,
		"level": 90,
		"hp": 134,
		"strength": 100,
		"vitality": 87,
		"intelligence": 13,
		"mind": 82,
		"agility": 94,
		"dexterity": 103,
		"lucky": 51,
		"parameter_table_BattleEnemyParameterTable": 0,
		"parameter_deviation_table_BattleEnemyParameterDeviationTable": 0,
		"acquire_skill_group_id": 0,
		"level_correction": 0,
		"group_id": 0,
		"ai_script_id_BattleAIScript": 0
	},
	{
		"ID": 74450,
		"stage_BattleStage": 331050711,
		"unit_UnitUnit": 830002,
		"money": 450,
		"initial_coordinate_x": 2,
		"initial_coordinate_y": 7,
		"reinforcement_BattleReinforcement": 0,
		"initial_direction": 180.0,
		"ai_move_group": 0,
		"ai_target_move_x": -1,
		"ai_target_move_y": -1,
		"ai_skill_function": "",
		"ai_attack": "1.0",
		"ai_move": "1.0",
		"ai_heal": "",
		"ai_skill": "",
		"ai_use": "",
		"skill_group_id": 18544,
		"gear_GearGear": 35004,
		"gear_rank": 1,
		"proficiency_UnitProficiency": 5,
		"level": 90,
		"hp": 131,
		"strength": 100,
		"vitality": 106,
		"intelligence": 11,
		"mind": 83,
		"agility": 100,
		"dexterity": 93,
		"lucky": 51,
		"parameter_table_BattleEnemyParameterTable": 0,
		"parameter_deviation_table_BattleEnemyParameterDeviationTable": 0,
		"acquire_skill_group_id": 0,
		"level_correction": 0,
		"group_id": 0,
		"ai_script_id_BattleAIScript": 0
	},
	{
		"ID": 74451,
		"stage_BattleStage": 331050711,
		"unit_UnitUnit": 830002,
		"money": 450,
		"initial_coordinate_x": 1,
		"initial_coordinate_y": 8,
		"reinforcement_BattleReinforcement": 0,
		"initial_direction": 180.0,
		"ai_move_group": 0,
		"ai_target_move_x": -1,
		"ai_target_move_y": -1,
		"ai_skill_function": "",
		"ai_attack": "1.0",
		"ai_move": "1.0",
		"ai_heal": "",
		"ai_skill": "",
		"ai_use": "",
		"skill_group_id": 18544,
		"gear_GearGear": 35004,
		"gear_rank": 1,
		"proficiency_UnitProficiency": 5,
		"level": 90,
		"hp": 130,
		"strength": 95,
		"vitality": 105,
		"intelligence": 13,
		"mind": 82,
		"agility": 96,
		"dexterity": 94,
		"lucky": 56,
		"parameter_table_BattleEnemyParameterTable": 0,
		"parameter_deviation_table_BattleEnemyParameterDeviationTable": 0,
		"acquire_skill_group_id": 0,
		"level_correction": 0,
		"group_id": 0,
		"ai_script_id_BattleAIScript": 0
	},
	{
		"ID": 74452,
		"stage_BattleStage": 331050711,
		"unit_UnitUnit": 830002,
		"money": 450,
		"initial_coordinate_x": 15,
		"initial_coordinate_y": 9,
		"reinforcement_BattleReinforcement": 0,
		"initial_direction": 180.0,
		"ai_move_group": 0,
		"ai_target_move_x": -1,
		"ai_target_move_y": -1,
		"ai_skill_function": "",
		"ai_attack": "1.0",
		"ai_move": "1.0",
		"ai_heal": "",
		"ai_skill": "",
		"ai_use": "",
		"skill_group_id": 18544,
		"gear_GearGear": 35004,
		"gear_rank": 1,
		"proficiency_UnitProficiency": 5,
		"level": 90,
		"hp": 128,
		"strength": 100,
		"vitality": 107,
		"intelligence": 12,
		"mind": 81,
		"agility": 99,
		"dexterity": 94,
		"lucky": 56,
		"parameter_table_BattleEnemyParameterTable": 0,
		"parameter_deviation_table_BattleEnemyParameterDeviationTable": 0,
		"acquire_skill_group_id": 0,
		"level_correction": 0,
		"group_id": 0,
		"ai_script_id_BattleAIScript": 0
	},
	{
		"ID": 74453,
		"stage_BattleStage": 331050711,
		"unit_UnitUnit": 830002,
		"money": 450,
		"initial_coordinate_x": 15,
		"initial_coordinate_y": 10,
		"reinforcement_BattleReinforcement": 0,
		"initial_direction": 180.0,
		"ai_move_group": 0,
		"ai_target_move_x": -1,
		"ai_target_move_y": -1,
		"ai_skill_function": "",
		"ai_attack": "1.0",
		"ai_move": "1.0",
		"ai_heal": "",
		"ai_skill": "",
		"ai_use": "",
		"skill_group_id": 18544,
		"gear_GearGear": 35004,
		"gear_rank": 1,
		"proficiency_UnitProficiency": 5,
		"level": 90,
		"hp": 127,
		"strength": 96,
		"vitality": 108,
		"intelligence": 10,
		"mind": 85,
		"agility": 97,
		"dexterity": 93,
		"lucky": 54,
		"parameter_table_BattleEnemyParameterTable": 0,
		"parameter_deviation_table_BattleEnemyParameterDeviationTable": 0,
		"acquire_skill_group_id": 0,
		"level_correction": 0,
		"group_id": 0,
		"ai_script_id_BattleAIScript": 0
	},
	{
		"ID": 74454,
		"stage_BattleStage": 331050711,
		"unit_UnitUnit": 830002,
		"money": 450,
		"initial_coordinate_x": 14,
		"initial_coordinate_y": 10,
		"reinforcement_BattleReinforcement": 0,
		"initial_direction": 180.0,
		"ai_move_group": 0,
		"ai_target_move_x": -1,
		"ai_target_move_y": -1,
		"ai_skill_function": "",
		"ai_attack": "1.0",
		"ai_move": "1.0",
		"ai_heal": "",
		"ai_skill": "",
		"ai_use": "",
		"skill_group_id": 18544,
		"gear_GearGear": 35004,
		"gear_rank": 1,
		"proficiency_UnitProficiency": 5,
		"level": 90,
		"hp": 132,
		"strength": 97,
		"vitality": 105,
		"intelligence": 11,
		"mind": 86,
		"agility": 99,
		"dexterity": 90,
		"lucky": 52,
		"parameter_table_BattleEnemyParameterTable": 0,
		"parameter_deviation_table_BattleEnemyParameterDeviationTable": 0,
		"acquire_skill_group_id": 0,
		"level_correction": 0,
		"group_id": 0,
		"ai_script_id_BattleAIScript": 0
	},
	{
		"ID": 74455,
		"stage_BattleStage": 331050711,
		"unit_UnitUnit": 830001,
		"money": 450,
		"initial_coordinate_x": 5,
		"initial_coordinate_y": 9,
		"reinforcement_BattleReinforcement": 0,
		"initial_direction": 180.0,
		"ai_move_group": 0,
		"ai_target_move_x": -1,
		"ai_target_move_y": -1,
		"ai_skill_function": "",
		"ai_attack": "IF( turn <=4 ,IF(panel_move_distance <= 4, 1, 0),1)",
		"ai_move": "IF(turn <=4,0,1)",
		"ai_heal": "",
		"ai_skill": "",
		"ai_use": "",
		"skill_group_id": 18548,
		"gear_GearGear": 35004,
		"gear_rank": 1,
		"proficiency_UnitProficiency": 5,
		"level": 90,
		"hp": 103,
		"strength": 101,
		"vitality": 95,
		"intelligence": 13,
		"mind": 80,
		"agility": 100,
		"dexterity": 99,
		"lucky": 52,
		"parameter_table_BattleEnemyParameterTable": 0,
		"parameter_deviation_table_BattleEnemyParameterDeviationTable": 0,
		"acquire_skill_group_id": 0,
		"level_correction": 0,
		"group_id": 0,
		"ai_script_id_BattleAIScript": 0
	},
	{
		"ID": 74456,
		"stage_BattleStage": 331050711,
		"unit_UnitUnit": 830001,
		"money": 450,
		"initial_coordinate_x": 5,
		"initial_coordinate_y": 10,
		"reinforcement_BattleReinforcement": 0,
		"initial_direction": 180.0,
		"ai_move_group": 0,
		"ai_target_move_x": -1,
		"ai_target_move_y": -1,
		"ai_skill_function": "",
		"ai_attack": "IF( turn <=4 ,IF(panel_move_distance <= 4, 1, 0),1)",
		"ai_move": "IF(turn <=4,0,1)",
		"ai_heal": "",
		"ai_skill": "",
		"ai_use": "",
		"skill_group_id": 18548,
		"gear_GearGear": 35004,
		"gear_rank": 1,
		"proficiency_UnitProficiency": 5,
		"level": 90,
		"hp": 103,
		"strength": 101,
		"vitality": 95,
		"intelligence": 13,
		"mind": 80,
		"agility": 100,
		"dexterity": 99,
		"lucky": 52,
		"parameter_table_BattleEnemyParameterTable": 0,
		"parameter_deviation_table_BattleEnemyParameterDeviationTable": 0,
		"acquire_skill_group_id": 0,
		"level_correction": 0,
		"group_id": 0,
		"ai_script_id_BattleAIScript": 0
	},
	{
		"ID": 74457,
		"stage_BattleStage": 331050711,
		"unit_UnitUnit": 830001,
		"money": 450,
		"initial_coordinate_x": 8,
		"initial_coordinate_y": 12,
		"reinforcement_BattleReinforcement": 0,
		"initial_direction": 180.0,
		"ai_move_group": 0,
		"ai_target_move_x": -1,
		"ai_target_move_y": -1,
		"ai_skill_function": "",
		"ai_attack": "IF( turn <=4 ,IF(panel_move_distance <= 4, 1, 0),1)",
		"ai_move": "IF(turn <=4,0,1)",
		"ai_heal": "",
		"ai_skill": "",
		"ai_use": "",
		"skill_group_id": 18548,
		"gear_GearGear": 35004,
		"gear_rank": 1,
		"proficiency_UnitProficiency": 5,
		"level": 90,
		"hp": 103,
		"strength": 101,
		"vitality": 95,
		"intelligence": 13,
		"mind": 80,
		"agility": 100,
		"dexterity": 99,
		"lucky": 52,
		"parameter_table_BattleEnemyParameterTable": 0,
		"parameter_deviation_table_BattleEnemyParameterDeviationTable": 0,
		"acquire_skill_group_id": 0,
		"level_correction": 0,
		"group_id": 0,
		"ai_script_id_BattleAIScript": 0
	},
	{
		"ID": 74458,
		"stage_BattleStage": 331050711,
		"unit_UnitUnit": 830001,
		"money": 450,
		"initial_coordinate_x": 10,
		"initial_coordinate_y": 10,
		"reinforcement_BattleReinforcement": 0,
		"initial_direction": 180.0,
		"ai_move_group": 0,
		"ai_target_move_x": -1,
		"ai_target_move_y": -1,
		"ai_skill_function": "",
		"ai_attack": "IF( turn <=4 ,IF(panel_move_distance <= 4, 1, 0),1)",
		"ai_move": "IF(turn <=4,0,1)",
		"ai_heal": "",
		"ai_skill": "",
		"ai_use": "",
		"skill_group_id": 18548,
		"gear_GearGear": 35004,
		"gear_rank": 1,
		"proficiency_UnitProficiency": 5,
		"level": 90,
		"hp": 103,
		"strength": 101,
		"vitality": 95,
		"intelligence": 13,
		"mind": 80,
		"agility": 100,
		"dexterity": 99,
		"lucky": 52,
		"parameter_table_BattleEnemyParameterTable": 0,
		"parameter_deviation_table_BattleEnemyParameterDeviationTable": 0,
		"acquire_skill_group_id": 0,
		"level_correction": 0,
		"group_id": 0,
		"ai_script_id_BattleAIScript": 0
	},
	{
		"ID": 74459,
		"stage_BattleStage": 331050711,
		"unit_UnitUnit": 830001,
		"money": 450,
		"initial_coordinate_x": 11,
		"initial_coordinate_y": 9,
		"reinforcement_BattleReinforcement": 0,
		"initial_direction": 180.0,
		"ai_move_group": 0,
		"ai_target_move_x": -1,
		"ai_target_move_y": -1,
		"ai_skill_function": "",
		"ai_attack": "IF( turn <=4 ,IF(panel_move_distance <= 4, 1, 0),1)",
		"ai_move": "IF(turn <=4,0,1)",
		"ai_heal": "",
		"ai_skill": "",
		"ai_use": "",
		"skill_group_id": 18548,
		"gear_GearGear": 35004,
		"gear_rank": 1,
		"proficiency_UnitProficiency": 5,
		"level": 90,
		"hp": 103,
		"strength": 101,
		"vitality": 95,
		"intelligence": 13,
		"mind": 80,
		"agility": 100,
		"dexterity": 99,
		"lucky": 52,
		"parameter_table_BattleEnemyParameterTable": 0,
		"parameter_deviation_table_BattleEnemyParameterDeviationTable": 0,
		"acquire_skill_group_id": 0,
		"level_correction": 0,
		"group_id": 0,
		"ai_script_id_BattleAIScript": 0
	},
	{
		"ID": 74460,
		"stage_BattleStage": 331050711,
		"unit_UnitUnit": 300844,
		"money": 500,
		"initial_coordinate_x": 8,
		"initial_coordinate_y": 14,
		"reinforcement_BattleReinforcement": 0,
		"initial_direction": 180.0,
		"ai_move_group": 0,
		"ai_target_move_x": -1,
		"ai_target_move_y": -1,
		"ai_skill_function": "",
		"ai_attack": "IF( turn <=4 ,IF(panel_move_distance <= 7, 1, 0),1)",
		"ai_move": "IF(turn <=4,0,1)",
		"ai_heal": "",
		"ai_skill": "",
		"ai_use": "",
		"skill_group_id": 18547,
		"gear_GearGear": 36020,
		"gear_rank": 1,
		"proficiency_UnitProficiency": 6,
		"level": 100,
		"hp": 342,
		"strength": 104,
		"vitality": 105,
		"intelligence": 23,
		"mind": 38,
		"agility": 102,
		"dexterity": 107,
		"lucky": 64,
		"parameter_table_BattleEnemyParameterTable": 0,
		"parameter_deviation_table_BattleEnemyParameterDeviationTable": 0,
		"acquire_skill_group_id": 0,
		"level_correction": 0,
		"group_id": 0,
		"ai_script_id_BattleAIScript": 0
	}
]