[
	{
		"ID": 91952,
		"stage_BattleStage": 331050252,
		"unit_UnitUnit": 301714,
		"money": 500,
		"initial_coordinate_x": 5,
		"initial_coordinate_y": 5,
		"reinforcement_BattleReinforcement": 0,
		"initial_direction": 0.0,
		"ai_move_group": 0,
		"ai_target_move_x": -1,
		"ai_target_move_y": -1,
		"ai_skill_function": "",
		"ai_attack": "",
		"ai_move": "",
		"ai_heal": "",
		"ai_skill": "",
		"ai_use": "",
		"skill_group_id": 21410,
		"gear_GearGear": 37013,
		"gear_rank": 10,
		"proficiency_UnitProficiency": 6,
		"level": 100,
		"hp": 346,
		"strength": 73,
		"vitality": 65,
		"intelligence": 23,
		"mind": 42,
		"agility": 79,
		"dexterity": 76,
		"lucky": 23,
		"parameter_table_BattleEnemyParameterTable": 0,
		"parameter_deviation_table_BattleEnemyParameterDeviationTable": 0,
		"acquire_skill_group_id": 0,
		"level_correction": 0,
		"group_id": 0,
		"ai_script_id_BattleAIScript": 0
	},
	{
		"ID": 91953,
		"stage_BattleStage": 331050252,
		"unit_UnitUnit": 860010,
		"money": 460,
		"initial_coordinate_x": 3,
		"initial_coordinate_y": 2,
		"reinforcement_BattleReinforcement": 2,
		"initial_direction": 0.0,
		"ai_move_group": 0,
		"ai_target_move_x": -1,
		"ai_target_move_y": -1,
		"ai_skill_function": "",
		"ai_attack": "IF(panel_move_distance <= 7, 1, 0)",
		"ai_move": "0.0",
		"ai_heal": "",
		"ai_skill": "",
		"ai_use": "",
		"skill_group_id": 21424,
		"gear_GearGear": 65006,
		"gear_rank": 6,
		"proficiency_UnitProficiency": 5,
		"level": 92,
		"hp": 103,
		"strength": 15,
		"vitality": 52,
		"intelligence": 99,
		"mind": 83,
		"agility": 70,
		"dexterity": 89,
		"lucky": 23,
		"parameter_table_BattleEnemyParameterTable": 0,
		"parameter_deviation_table_BattleEnemyParameterDeviationTable": 0,
		"acquire_skill_group_id": 0,
		"level_correction": 0,
		"group_id": 0,
		"ai_script_id_BattleAIScript": 0
	},
	{
		"ID": 91954,
		"stage_BattleStage": 331050252,
		"unit_UnitUnit": 860010,
		"money": 460,
		"initial_coordinate_x": 5,
		"initial_coordinate_y": 3,
		"reinforcement_BattleReinforcement": 2,
		"initial_direction": 0.0,
		"ai_move_group": 0,
		"ai_target_move_x": -1,
		"ai_target_move_y": -1,
		"ai_skill_function": "",
		"ai_attack": "IF(panel_move_distance <= 7, 1, 0)",
		"ai_move": "0.0",
		"ai_heal": "",
		"ai_skill": "",
		"ai_use": "",
		"skill_group_id": 21424,
		"gear_GearGear": 65006,
		"gear_rank": 6,
		"proficiency_UnitProficiency": 5,
		"level": 92,
		"hp": 105,
		"strength": 17,
		"vitality": 52,
		"intelligence": 97,
		"mind": 83,
		"agility": 75,
		"dexterity": 87,
		"lucky": 25,
		"parameter_table_BattleEnemyParameterTable": 0,
		"parameter_deviation_table_BattleEnemyParameterDeviationTable": 0,
		"acquire_skill_group_id": 0,
		"level_correction": 0,
		"group_id": 0,
		"ai_script_id_BattleAIScript": 0
	},
	{
		"ID": 91955,
		"stage_BattleStage": 331050252,
		"unit_UnitUnit": 860010,
		"money": 460,
		"initial_coordinate_x": 6,
		"initial_coordinate_y": 3,
		"reinforcement_BattleReinforcement": 2,
		"initial_direction": 0.0,
		"ai_move_group": 0,
		"ai_target_move_x": -1,
		"ai_target_move_y": -1,
		"ai_skill_function": "",
		"ai_attack": "IF( turn <=2 ,IF(panel_move_distance <= 4, 1, 0),1)",
		"ai_move": "IF(turn <=4,0,1)",
		"ai_heal": "",
		"ai_skill": "",
		"ai_use": "",
		"skill_group_id": 21424,
		"gear_GearGear": 65006,
		"gear_rank": 6,
		"proficiency_UnitProficiency": 5,
		"level": 92,
		"hp": 102,
		"strength": 18,
		"vitality": 52,
		"intelligence": 98,
		"mind": 81,
		"agility": 75,
		"dexterity": 88,
		"lucky": 25,
		"parameter_table_BattleEnemyParameterTable": 0,
		"parameter_deviation_table_BattleEnemyParameterDeviationTable": 0,
		"acquire_skill_group_id": 0,
		"level_correction": 0,
		"group_id": 0,
		"ai_script_id_BattleAIScript": 0
	},
	{
		"ID": 91956,
		"stage_BattleStage": 331050252,
		"unit_UnitUnit": 860010,
		"money": 460,
		"initial_coordinate_x": 7,
		"initial_coordinate_y": 2,
		"reinforcement_BattleReinforcement": 2,
		"initial_direction": 0.0,
		"ai_move_group": 0,
		"ai_target_move_x": -1,
		"ai_target_move_y": -1,
		"ai_skill_function": "",
		"ai_attack": "IF( turn <=2 ,IF(panel_move_distance <= 4, 1, 0),1)",
		"ai_move": "IF(turn <=4,0,1)",
		"ai_heal": "",
		"ai_skill": "",
		"ai_use": "",
		"skill_group_id": 21424,
		"gear_GearGear": 65006,
		"gear_rank": 6,
		"proficiency_UnitProficiency": 5,
		"level": 92,
		"hp": 106,
		"strength": 14,
		"vitality": 56,
		"intelligence": 98,
		"mind": 84,
		"agility": 74,
		"dexterity": 91,
		"lucky": 23,
		"parameter_table_BattleEnemyParameterTable": 0,
		"parameter_deviation_table_BattleEnemyParameterDeviationTable": 0,
		"acquire_skill_group_id": 0,
		"level_correction": 0,
		"group_id": 0,
		"ai_script_id_BattleAIScript": 0
	},
	{
		"ID": 91957,
		"stage_BattleStage": 331050252,
		"unit_UnitUnit": 840008,
		"money": 460,
		"initial_coordinate_x": 4,
		"initial_coordinate_y": 1,
		"reinforcement_BattleReinforcement": 2,
		"initial_direction": 0.0,
		"ai_move_group": 0,
		"ai_target_move_x": -1,
		"ai_target_move_y": -1,
		"ai_skill_function": "",
		"ai_attack": "IF(panel_move_distance <= 7, 1, 0)",
		"ai_move": "0.0",
		"ai_heal": "",
		"ai_skill": "",
		"ai_use": "",
		"skill_group_id": 21425,
		"gear_GearGear": 45007,
		"gear_rank": 6,
		"proficiency_UnitProficiency": 5,
		"level": 92,
		"hp": 151,
		"strength": 112,
		"vitality": 86,
		"intelligence": 10,
		"mind": 49,
		"agility": 73,
		"dexterity": 104,
		"lucky": 11,
		"parameter_table_BattleEnemyParameterTable": 0,
		"parameter_deviation_table_BattleEnemyParameterDeviationTable": 0,
		"acquire_skill_group_id": 0,
		"level_correction": 0,
		"group_id": 0,
		"ai_script_id_BattleAIScript": 0
	},
	{
		"ID": 91958,
		"stage_BattleStage": 331050252,
		"unit_UnitUnit": 840008,
		"money": 460,
		"initial_coordinate_x": 7,
		"initial_coordinate_y": 4,
		"reinforcement_BattleReinforcement": 2,
		"initial_direction": 0.0,
		"ai_move_group": 0,
		"ai_target_move_x": -1,
		"ai_target_move_y": -1,
		"ai_skill_function": "",
		"ai_attack": "IF(panel_move_distance <= 7, 1, 0)",
		"ai_move": "0.0",
		"ai_heal": "",
		"ai_skill": "",
		"ai_use": "",
		"skill_group_id": 21425,
		"gear_GearGear": 45007,
		"gear_rank": 6,
		"proficiency_UnitProficiency": 5,
		"level": 92,
		"hp": 152,
		"strength": 112,
		"vitality": 87,
		"intelligence": 6,
		"mind": 51,
		"agility": 76,
		"dexterity": 108,
		"lucky": 8,
		"parameter_table_BattleEnemyParameterTable": 0,
		"parameter_deviation_table_BattleEnemyParameterDeviationTable": 0,
		"acquire_skill_group_id": 0,
		"level_correction": 0,
		"group_id": 0,
		"ai_script_id_BattleAIScript": 0
	},
	{
		"ID": 91959,
		"stage_BattleStage": 331050252,
		"unit_UnitUnit": 840008,
		"money": 450,
		"initial_coordinate_x": 3,
		"initial_coordinate_y": 3,
		"reinforcement_BattleReinforcement": 0,
		"initial_direction": 0.0,
		"ai_move_group": 0,
		"ai_target_move_x": -1,
		"ai_target_move_y": -1,
		"ai_skill_function": "",
		"ai_attack": "IF(panel_move_distance <= 7, 1, 0)",
		"ai_move": "0.0",
		"ai_heal": "",
		"ai_skill": "",
		"ai_use": "",
		"skill_group_id": 21425,
		"gear_GearGear": 45007,
		"gear_rank": 6,
		"proficiency_UnitProficiency": 5,
		"level": 90,
		"hp": 152,
		"strength": 109,
		"vitality": 91,
		"intelligence": 6,
		"mind": 48,
		"agility": 73,
		"dexterity": 106,
		"lucky": 9,
		"parameter_table_BattleEnemyParameterTable": 0,
		"parameter_deviation_table_BattleEnemyParameterDeviationTable": 0,
		"acquire_skill_group_id": 0,
		"level_correction": 0,
		"group_id": 0,
		"ai_script_id_BattleAIScript": 0
	},
	{
		"ID": 91960,
		"stage_BattleStage": 331050252,
		"unit_UnitUnit": 830002,
		"money": 450,
		"initial_coordinate_x": 6,
		"initial_coordinate_y": 7,
		"reinforcement_BattleReinforcement": 0,
		"initial_direction": 0.0,
		"ai_move_group": 0,
		"ai_target_move_x": -1,
		"ai_target_move_y": -1,
		"ai_skill_function": "",
		"ai_attack": "",
		"ai_move": "",
		"ai_heal": "",
		"ai_skill": "",
		"ai_use": "",
		"skill_group_id": 21426,
		"gear_GearGear": 35004,
		"gear_rank": 6,
		"proficiency_UnitProficiency": 5,
		"level": 90,
		"hp": 127,
		"strength": 106,
		"vitality": 63,
		"intelligence": 14,
		"mind": 48,
		"agility": 78,
		"dexterity": 86,
		"lucky": 21,
		"parameter_table_BattleEnemyParameterTable": 0,
		"parameter_deviation_table_BattleEnemyParameterDeviationTable": 0,
		"acquire_skill_group_id": 0,
		"level_correction": 0,
		"group_id": 0,
		"ai_script_id_BattleAIScript": 0
	},
	{
		"ID": 91961,
		"stage_BattleStage": 331050252,
		"unit_UnitUnit": 830002,
		"money": 450,
		"initial_coordinate_x": 8,
		"initial_coordinate_y": 7,
		"reinforcement_BattleReinforcement": 0,
		"initial_direction": 0.0,
		"ai_move_group": 0,
		"ai_target_move_x": -1,
		"ai_target_move_y": -1,
		"ai_skill_function": "",
		"ai_attack": "",
		"ai_move": "",
		"ai_heal": "",
		"ai_skill": "",
		"ai_use": "",
		"skill_group_id": 21426,
		"gear_GearGear": 35004,
		"gear_rank": 6,
		"proficiency_UnitProficiency": 5,
		"level": 90,
		"hp": 131,
		"strength": 108,
		"vitality": 68,
		"intelligence": 11,
		"mind": 45,
		"agility": 84,
		"dexterity": 87,
		"lucky": 22,
		"parameter_table_BattleEnemyParameterTable": 0,
		"parameter_deviation_table_BattleEnemyParameterDeviationTable": 0,
		"acquire_skill_group_id": 0,
		"level_correction": 0,
		"group_id": 0,
		"ai_script_id_BattleAIScript": 0
	},
	{
		"ID": 91962,
		"stage_BattleStage": 331050252,
		"unit_UnitUnit": 830002,
		"money": 450,
		"initial_coordinate_x": 4,
		"initial_coordinate_y": 7,
		"reinforcement_BattleReinforcement": 0,
		"initial_direction": 0.0,
		"ai_move_group": 0,
		"ai_target_move_x": -1,
		"ai_target_move_y": -1,
		"ai_skill_function": "",
		"ai_attack": "",
		"ai_move": "",
		"ai_heal": "",
		"ai_skill": "",
		"ai_use": "",
		"skill_group_id": 21426,
		"gear_GearGear": 35004,
		"gear_rank": 6,
		"proficiency_UnitProficiency": 5,
		"level": 90,
		"hp": 127,
		"strength": 106,
		"vitality": 64,
		"intelligence": 10,
		"mind": 43,
		"agility": 83,
		"dexterity": 86,
		"lucky": 25,
		"parameter_table_BattleEnemyParameterTable": 0,
		"parameter_deviation_table_BattleEnemyParameterDeviationTable": 0,
		"acquire_skill_group_id": 0,
		"level_correction": 0,
		"group_id": 0,
		"ai_script_id_BattleAIScript": 0
	},
	{
		"ID": 91963,
		"stage_BattleStage": 331050252,
		"unit_UnitUnit": 830001,
		"money": 450,
		"initial_coordinate_x": 4,
		"initial_coordinate_y": 6,
		"reinforcement_BattleReinforcement": 0,
		"initial_direction": 0.0,
		"ai_move_group": 0,
		"ai_target_move_x": -1,
		"ai_target_move_y": -1,
		"ai_skill_function": "",
		"ai_attack": "IF( turn <=2 ,IF(panel_move_distance <= 4, 1, 0),1)",
		"ai_move": "IF(turn <=4,0,1)",
		"ai_heal": "",
		"ai_skill": "",
		"ai_use": "",
		"skill_group_id": 21427,
		"gear_GearGear": 35004,
		"gear_rank": 6,
		"proficiency_UnitProficiency": 5,
		"level": 90,
		"hp": 112,
		"strength": 95,
		"vitality": 69,
		"intelligence": 27,
		"mind": 53,
		"agility": 85,
		"dexterity": 93,
		"lucky": 24,
		"parameter_table_BattleEnemyParameterTable": 0,
		"parameter_deviation_table_BattleEnemyParameterDeviationTable": 0,
		"acquire_skill_group_id": 0,
		"level_correction": 0,
		"group_id": 0,
		"ai_script_id_BattleAIScript": 0
	},
	{
		"ID": 91964,
		"stage_BattleStage": 331050252,
		"unit_UnitUnit": 830001,
		"money": 450,
		"initial_coordinate_x": 7,
		"initial_coordinate_y": 6,
		"reinforcement_BattleReinforcement": 0,
		"initial_direction": 0.0,
		"ai_move_group": 0,
		"ai_target_move_x": -1,
		"ai_target_move_y": -1,
		"ai_skill_function": "",
		"ai_attack": "IF( turn <=2 ,IF(panel_move_distance <= 4, 1, 0),1)",
		"ai_move": "IF(turn <=4,0,1)",
		"ai_heal": "",
		"ai_skill": "",
		"ai_use": "",
		"skill_group_id": 21427,
		"gear_GearGear": 35004,
		"gear_rank": 6,
		"proficiency_UnitProficiency": 5,
		"level": 90,
		"hp": 111,
		"strength": 90,
		"vitality": 66,
		"intelligence": 26,
		"mind": 51,
		"agility": 87,
		"dexterity": 95,
		"lucky": 26,
		"parameter_table_BattleEnemyParameterTable": 0,
		"parameter_deviation_table_BattleEnemyParameterDeviationTable": 0,
		"acquire_skill_group_id": 0,
		"level_correction": 0,
		"group_id": 0,
		"ai_script_id_BattleAIScript": 0
	},
	{
		"ID": 91965,
		"stage_BattleStage": 331050252,
		"unit_UnitUnit": 830001,
		"money": 455,
		"initial_coordinate_x": 6,
		"initial_coordinate_y": 8,
		"reinforcement_BattleReinforcement": 0,
		"initial_direction": 0.0,
		"ai_move_group": 0,
		"ai_target_move_x": -1,
		"ai_target_move_y": -1,
		"ai_skill_function": "",
		"ai_attack": "IF( turn <=2 ,IF(panel_move_distance <= 4, 1, 0),1)",
		"ai_move": "IF(turn <=4,0,1)",
		"ai_heal": "",
		"ai_skill": "",
		"ai_use": "",
		"skill_group_id": 21427,
		"gear_GearGear": 35004,
		"gear_rank": 6,
		"proficiency_UnitProficiency": 5,
		"level": 91,
		"hp": 113,
		"strength": 88,
		"vitality": 68,
		"intelligence": 26,
		"mind": 54,
		"agility": 83,
		"dexterity": 91,
		"lucky": 26,
		"parameter_table_BattleEnemyParameterTable": 0,
		"parameter_deviation_table_BattleEnemyParameterDeviationTable": 0,
		"acquire_skill_group_id": 0,
		"level_correction": 0,
		"group_id": 0,
		"ai_script_id_BattleAIScript": 0
	},
	{
		"ID": 91966,
		"stage_BattleStage": 331050252,
		"unit_UnitUnit": 830001,
		"money": 455,
		"initial_coordinate_x": 8,
		"initial_coordinate_y": 11,
		"reinforcement_BattleReinforcement": 3,
		"initial_direction": 0.0,
		"ai_move_group": 0,
		"ai_target_move_x": -1,
		"ai_target_move_y": -1,
		"ai_skill_function": "",
		"ai_attack": "",
		"ai_move": "",
		"ai_heal": "",
		"ai_skill": "",
		"ai_use": "",
		"skill_group_id": 21427,
		"gear_GearGear": 35004,
		"gear_rank": 6,
		"proficiency_UnitProficiency": 5,
		"level": 91,
		"hp": 109,
		"strength": 91,
		"vitality": 67,
		"intelligence": 26,
		"mind": 50,
		"agility": 84,
		"dexterity": 89,
		"lucky": 26,
		"parameter_table_BattleEnemyParameterTable": 0,
		"parameter_deviation_table_BattleEnemyParameterDeviationTable": 0,
		"acquire_skill_group_id": 0,
		"level_correction": 0,
		"group_id": 0,
		"ai_script_id_BattleAIScript": 0
	},
	{
		"ID": 91967,
		"stage_BattleStage": 331050252,
		"unit_UnitUnit": 830001,
		"money": 455,
		"initial_coordinate_x": 7,
		"initial_coordinate_y": 11,
		"reinforcement_BattleReinforcement": 3,
		"initial_direction": 0.0,
		"ai_move_group": 0,
		"ai_target_move_x": -1,
		"ai_target_move_y": -1,
		"ai_skill_function": "",
		"ai_attack": "",
		"ai_move": "",
		"ai_heal": "",
		"ai_skill": "",
		"ai_use": "",
		"skill_group_id": 21427,
		"gear_GearGear": 35004,
		"gear_rank": 6,
		"proficiency_UnitProficiency": 5,
		"level": 91,
		"hp": 114,
		"strength": 88,
		"vitality": 67,
		"intelligence": 22,
		"mind": 55,
		"agility": 84,
		"dexterity": 90,
		"lucky": 23,
		"parameter_table_BattleEnemyParameterTable": 0,
		"parameter_deviation_table_BattleEnemyParameterDeviationTable": 0,
		"acquire_skill_group_id": 0,
		"level_correction": 0,
		"group_id": 0,
		"ai_script_id_BattleAIScript": 0
	},
	{
		"ID": 91968,
		"stage_BattleStage": 331050252,
		"unit_UnitUnit": 830001,
		"money": 455,
		"initial_coordinate_x": 3,
		"initial_coordinate_y": 9,
		"reinforcement_BattleReinforcement": 3,
		"initial_direction": 0.0,
		"ai_move_group": 0,
		"ai_target_move_x": -1,
		"ai_target_move_y": -1,
		"ai_skill_function": "",
		"ai_attack": "",
		"ai_move": "",
		"ai_heal": "",
		"ai_skill": "",
		"ai_use": "",
		"skill_group_id": 21427,
		"gear_GearGear": 35004,
		"gear_rank": 6,
		"proficiency_UnitProficiency": 5,
		"level": 91,
		"hp": 109,
		"strength": 91,
		"vitality": 66,
		"intelligence": 22,
		"mind": 51,
		"agility": 85,
		"dexterity": 88,
		"lucky": 22,
		"parameter_table_BattleEnemyParameterTable": 0,
		"parameter_deviation_table_BattleEnemyParameterDeviationTable": 0,
		"acquire_skill_group_id": 0,
		"level_correction": 0,
		"group_id": 0,
		"ai_script_id_BattleAIScript": 0
	},
	{
		"ID": 91969,
		"stage_BattleStage": 331050252,
		"unit_UnitUnit": 830001,
		"money": 455,
		"initial_coordinate_x": 4,
		"initial_coordinate_y": 9,
		"reinforcement_BattleReinforcement": 3,
		"initial_direction": 0.0,
		"ai_move_group": 0,
		"ai_target_move_x": -1,
		"ai_target_move_y": -1,
		"ai_skill_function": "",
		"ai_attack": "IF(panel_move_distance <= 7, 1, 0)",
		"ai_move": "0.0",
		"ai_heal": "",
		"ai_skill": "",
		"ai_use": "",
		"skill_group_id": 21427,
		"gear_GearGear": 35004,
		"gear_rank": 6,
		"proficiency_UnitProficiency": 5,
		"level": 91,
		"hp": 112,
		"strength": 89,
		"vitality": 66,
		"intelligence": 27,
		"mind": 56,
		"agility": 89,
		"dexterity": 92,
		"lucky": 27,
		"parameter_table_BattleEnemyParameterTable": 0,
		"parameter_deviation_table_BattleEnemyParameterDeviationTable": 0,
		"acquire_skill_group_id": 0,
		"level_correction": 0,
		"group_id": 0,
		"ai_script_id_BattleAIScript": 0
	}
]