[
	{
		"ID": 14760,
		"stage_BattleStage": 340082301,
		"unit_UnitUnit": 840004,
		"money": 95,
		"initial_coordinate_x": 9,
		"initial_coordinate_y": 7,
		"reinforcement_BattleReinforcement": 0,
		"initial_direction": 270.0,
		"ai_move_group": 0,
		"ai_target_move_x": -1,
		"ai_target_move_y": -1,
		"ai_skill_function": "",
		"ai_attack": "",
		"ai_move": "",
		"ai_heal": "",
		"ai_skill": "",
		"ai_use": "",
		"skill_group_id": 0,
		"gear_GearGear": 41002,
		"gear_rank": 1,
		"proficiency_UnitProficiency": 1,
		"level": 19,
		"hp": 31,
		"strength": 19,
		"vitality": 12,
		"intelligence": 0,
		"mind": 4,
		"agility": 15,
		"dexterity": 17,
		"lucky": 3,
		"parameter_table_BattleEnemyParameterTable": 0,
		"parameter_deviation_table_BattleEnemyParameterDeviationTable": 0,
		"acquire_skill_group_id": 0,
		"level_correction": 0,
		"group_id": 0,
		"ai_script_id_BattleAIScript": 0
	},
	{
		"ID": 14761,
		"stage_BattleStage": 340082301,
		"unit_UnitUnit": 840004,
		"money": 100,
		"initial_coordinate_x": 13,
		"initial_coordinate_y": 7,
		"reinforcement_BattleReinforcement": 0,
		"initial_direction": 270.0,
		"ai_move_group": 0,
		"ai_target_move_x": -1,
		"ai_target_move_y": -1,
		"ai_skill_function": "",
		"ai_attack": "",
		"ai_move": "",
		"ai_heal": "",
		"ai_skill": "",
		"ai_use": "",
		"skill_group_id": 0,
		"gear_GearGear": 41002,
		"gear_rank": 1,
		"proficiency_UnitProficiency": 1,
		"level": 20,
		"hp": 31,
		"strength": 20,
		"vitality": 13,
		"intelligence": 0,
		"mind": 4,
		"agility": 15,
		"dexterity": 18,
		"lucky": 3,
		"parameter_table_BattleEnemyParameterTable": 0,
		"parameter_deviation_table_BattleEnemyParameterDeviationTable": 0,
		"acquire_skill_group_id": 0,
		"level_correction": 0,
		"group_id": 0,
		"ai_script_id_BattleAIScript": 0
	},
	{
		"ID": 14762,
		"stage_BattleStage": 340082301,
		"unit_UnitUnit": 840004,
		"money": 105,
		"initial_coordinate_x": 12,
		"initial_coordinate_y": 2,
		"reinforcement_BattleReinforcement": 0,
		"initial_direction": 270.0,
		"ai_move_group": 0,
		"ai_target_move_x": -1,
		"ai_target_move_y": -1,
		"ai_skill_function": "",
		"ai_attack": "",
		"ai_move": "",
		"ai_heal": "",
		"ai_skill": "",
		"ai_use": "",
		"skill_group_id": 0,
		"gear_GearGear": 41002,
		"gear_rank": 1,
		"proficiency_UnitProficiency": 1,
		"level": 21,
		"hp": 32,
		"strength": 21,
		"vitality": 13,
		"intelligence": 0,
		"mind": 4,
		"agility": 16,
		"dexterity": 19,
		"lucky": 4,
		"parameter_table_BattleEnemyParameterTable": 0,
		"parameter_deviation_table_BattleEnemyParameterDeviationTable": 0,
		"acquire_skill_group_id": 0,
		"level_correction": 0,
		"group_id": 0,
		"ai_script_id_BattleAIScript": 0
	},
	{
		"ID": 14763,
		"stage_BattleStage": 340082301,
		"unit_UnitUnit": 840004,
		"money": 110,
		"initial_coordinate_x": 15,
		"initial_coordinate_y": 3,
		"reinforcement_BattleReinforcement": 0,
		"initial_direction": 270.0,
		"ai_move_group": 0,
		"ai_target_move_x": -1,
		"ai_target_move_y": -1,
		"ai_skill_function": "",
		"ai_attack": "",
		"ai_move": "",
		"ai_heal": "",
		"ai_skill": "",
		"ai_use": "",
		"skill_group_id": 0,
		"gear_GearGear": 41002,
		"gear_rank": 1,
		"proficiency_UnitProficiency": 1,
		"level": 22,
		"hp": 33,
		"strength": 22,
		"vitality": 14,
		"intelligence": 0,
		"mind": 4,
		"agility": 16,
		"dexterity": 19,
		"lucky": 4,
		"parameter_table_BattleEnemyParameterTable": 0,
		"parameter_deviation_table_BattleEnemyParameterDeviationTable": 0,
		"acquire_skill_group_id": 0,
		"level_correction": 0,
		"group_id": 0,
		"ai_script_id_BattleAIScript": 0
	},
	{
		"ID": 14764,
		"stage_BattleStage": 340082301,
		"unit_UnitUnit": 820003,
		"money": 105,
		"initial_coordinate_x": 8,
		"initial_coordinate_y": 2,
		"reinforcement_BattleReinforcement": 0,
		"initial_direction": 270.0,
		"ai_move_group": 0,
		"ai_target_move_x": -1,
		"ai_target_move_y": -1,
		"ai_skill_function": "",
		"ai_attack": "",
		"ai_move": "",
		"ai_heal": "",
		"ai_skill": "",
		"ai_use": "",
		"skill_group_id": 0,
		"gear_GearGear": 21002,
		"gear_rank": 1,
		"proficiency_UnitProficiency": 1,
		"level": 21,
		"hp": 40,
		"strength": 23,
		"vitality": 21,
		"intelligence": 0,
		"mind": 1,
		"agility": 7,
		"dexterity": 14,
		"lucky": 4,
		"parameter_table_BattleEnemyParameterTable": 0,
		"parameter_deviation_table_BattleEnemyParameterDeviationTable": 0,
		"acquire_skill_group_id": 0,
		"level_correction": 0,
		"group_id": 0,
		"ai_script_id_BattleAIScript": 0
	},
	{
		"ID": 14765,
		"stage_BattleStage": 340082301,
		"unit_UnitUnit": 820003,
		"money": 100,
		"initial_coordinate_x": 9,
		"initial_coordinate_y": 3,
		"reinforcement_BattleReinforcement": 0,
		"initial_direction": 270.0,
		"ai_move_group": 0,
		"ai_target_move_x": -1,
		"ai_target_move_y": -1,
		"ai_skill_function": "",
		"ai_attack": "",
		"ai_move": "",
		"ai_heal": "",
		"ai_skill": "",
		"ai_use": "",
		"skill_group_id": 0,
		"gear_GearGear": 21002,
		"gear_rank": 1,
		"proficiency_UnitProficiency": 1,
		"level": 20,
		"hp": 39,
		"strength": 22,
		"vitality": 21,
		"intelligence": 0,
		"mind": 1,
		"agility": 6,
		"dexterity": 13,
		"lucky": 3,
		"parameter_table_BattleEnemyParameterTable": 0,
		"parameter_deviation_table_BattleEnemyParameterDeviationTable": 0,
		"acquire_skill_group_id": 0,
		"level_correction": 0,
		"group_id": 0,
		"ai_script_id_BattleAIScript": 0
	},
	{
		"ID": 14766,
		"stage_BattleStage": 340082301,
		"unit_UnitUnit": 820003,
		"money": 95,
		"initial_coordinate_x": 10,
		"initial_coordinate_y": 4,
		"reinforcement_BattleReinforcement": 0,
		"initial_direction": 270.0,
		"ai_move_group": 0,
		"ai_target_move_x": -1,
		"ai_target_move_y": -1,
		"ai_skill_function": "",
		"ai_attack": "",
		"ai_move": "",
		"ai_heal": "",
		"ai_skill": "",
		"ai_use": "",
		"skill_group_id": 0,
		"gear_GearGear": 21002,
		"gear_rank": 1,
		"proficiency_UnitProficiency": 1,
		"level": 19,
		"hp": 38,
		"strength": 21,
		"vitality": 20,
		"intelligence": 0,
		"mind": 1,
		"agility": 6,
		"dexterity": 13,
		"lucky": 3,
		"parameter_table_BattleEnemyParameterTable": 0,
		"parameter_deviation_table_BattleEnemyParameterDeviationTable": 0,
		"acquire_skill_group_id": 0,
		"level_correction": 0,
		"group_id": 0,
		"ai_script_id_BattleAIScript": 0
	},
	{
		"ID": 14767,
		"stage_BattleStage": 340082301,
		"unit_UnitUnit": 820003,
		"money": 90,
		"initial_coordinate_x": 11,
		"initial_coordinate_y": 5,
		"reinforcement_BattleReinforcement": 0,
		"initial_direction": 270.0,
		"ai_move_group": 0,
		"ai_target_move_x": -1,
		"ai_target_move_y": -1,
		"ai_skill_function": "",
		"ai_attack": "",
		"ai_move": "",
		"ai_heal": "",
		"ai_skill": "",
		"ai_use": "",
		"skill_group_id": 0,
		"gear_GearGear": 21002,
		"gear_rank": 1,
		"proficiency_UnitProficiency": 1,
		"level": 18,
		"hp": 37,
		"strength": 20,
		"vitality": 19,
		"intelligence": 0,
		"mind": 1,
		"agility": 6,
		"dexterity": 12,
		"lucky": 3,
		"parameter_table_BattleEnemyParameterTable": 0,
		"parameter_deviation_table_BattleEnemyParameterDeviationTable": 0,
		"acquire_skill_group_id": 0,
		"level_correction": 0,
		"group_id": 0,
		"ai_script_id_BattleAIScript": 0
	},
	{
		"ID": 14768,
		"stage_BattleStage": 340082301,
		"unit_UnitUnit": 820003,
		"money": 95,
		"initial_coordinate_x": 8,
		"initial_coordinate_y": 6,
		"reinforcement_BattleReinforcement": 0,
		"initial_direction": 270.0,
		"ai_move_group": 0,
		"ai_target_move_x": -1,
		"ai_target_move_y": -1,
		"ai_skill_function": "",
		"ai_attack": "",
		"ai_move": "",
		"ai_heal": "",
		"ai_skill": "",
		"ai_use": "",
		"skill_group_id": 0,
		"gear_GearGear": 21002,
		"gear_rank": 1,
		"proficiency_UnitProficiency": 1,
		"level": 19,
		"hp": 38,
		"strength": 21,
		"vitality": 20,
		"intelligence": 0,
		"mind": 1,
		"agility": 6,
		"dexterity": 13,
		"lucky": 3,
		"parameter_table_BattleEnemyParameterTable": 0,
		"parameter_deviation_table_BattleEnemyParameterDeviationTable": 0,
		"acquire_skill_group_id": 0,
		"level_correction": 0,
		"group_id": 0,
		"ai_script_id_BattleAIScript": 0
	},
	{
		"ID": 14769,
		"stage_BattleStage": 340082301,
		"unit_UnitUnit": 820003,
		"money": 100,
		"initial_coordinate_x": 7,
		"initial_coordinate_y": 7,
		"reinforcement_BattleReinforcement": 0,
		"initial_direction": 270.0,
		"ai_move_group": 0,
		"ai_target_move_x": -1,
		"ai_target_move_y": -1,
		"ai_skill_function": "",
		"ai_attack": "",
		"ai_move": "",
		"ai_heal": "",
		"ai_skill": "",
		"ai_use": "",
		"skill_group_id": 0,
		"gear_GearGear": 21002,
		"gear_rank": 1,
		"proficiency_UnitProficiency": 1,
		"level": 20,
		"hp": 39,
		"strength": 22,
		"vitality": 21,
		"intelligence": 0,
		"mind": 1,
		"agility": 6,
		"dexterity": 13,
		"lucky": 3,
		"parameter_table_BattleEnemyParameterTable": 0,
		"parameter_deviation_table_BattleEnemyParameterDeviationTable": 0,
		"acquire_skill_group_id": 0,
		"level_correction": 0,
		"group_id": 0,
		"ai_script_id_BattleAIScript": 0
	}
]