[
	{
		"ID": 32456,
		"stage_BattleStage": 340045301,
		"unit_UnitUnit": 840008,
		"money": 275,
		"initial_coordinate_x": 14,
		"initial_coordinate_y": 1,
		"reinforcement_BattleReinforcement": 0,
		"initial_direction": 270.0,
		"ai_move_group": 0,
		"ai_target_move_x": -1,
		"ai_target_move_y": -1,
		"ai_skill_function": "",
		"ai_attack": "",
		"ai_move": "",
		"ai_heal": "",
		"ai_skill": "",
		"ai_use": "",
		"skill_group_id": 560,
		"gear_GearGear": 42002,
		"gear_rank": 1,
		"proficiency_UnitProficiency": 2,
		"level": 55,
		"hp": 111,
		"strength": 70,
		"vitality": 59,
		"intelligence": 3,
		"mind": 28,
		"agility": 44,
		"dexterity": 80,
		"lucky": 6,
		"parameter_table_BattleEnemyParameterTable": 0,
		"parameter_deviation_table_BattleEnemyParameterDeviationTable": 0,
		"acquire_skill_group_id": 0,
		"level_correction": 0,
		"group_id": 0,
		"ai_script_id_BattleAIScript": 0
	},
	{
		"ID": 32457,
		"stage_BattleStage": 340045301,
		"unit_UnitUnit": 840008,
		"money": 280,
		"initial_coordinate_x": 15,
		"initial_coordinate_y": 2,
		"reinforcement_BattleReinforcement": 0,
		"initial_direction": 270.0,
		"ai_move_group": 0,
		"ai_target_move_x": -1,
		"ai_target_move_y": -1,
		"ai_skill_function": "",
		"ai_attack": "",
		"ai_move": "",
		"ai_heal": "",
		"ai_skill": "",
		"ai_use": "",
		"skill_group_id": 560,
		"gear_GearGear": 42002,
		"gear_rank": 1,
		"proficiency_UnitProficiency": 2,
		"level": 56,
		"hp": 112,
		"strength": 71,
		"vitality": 59,
		"intelligence": 3,
		"mind": 28,
		"agility": 44,
		"dexterity": 82,
		"lucky": 6,
		"parameter_table_BattleEnemyParameterTable": 0,
		"parameter_deviation_table_BattleEnemyParameterDeviationTable": 0,
		"acquire_skill_group_id": 0,
		"level_correction": 0,
		"group_id": 0,
		"ai_script_id_BattleAIScript": 0
	},
	{
		"ID": 32458,
		"stage_BattleStage": 340045301,
		"unit_UnitUnit": 840008,
		"money": 285,
		"initial_coordinate_x": 15,
		"initial_coordinate_y": 1,
		"reinforcement_BattleReinforcement": 0,
		"initial_direction": 270.0,
		"ai_move_group": 0,
		"ai_target_move_x": -1,
		"ai_target_move_y": -1,
		"ai_skill_function": "",
		"ai_attack": "",
		"ai_move": "",
		"ai_heal": "",
		"ai_skill": "",
		"ai_use": "",
		"skill_group_id": 560,
		"gear_GearGear": 42002,
		"gear_rank": 1,
		"proficiency_UnitProficiency": 2,
		"level": 57,
		"hp": 113,
		"strength": 72,
		"vitality": 60,
		"intelligence": 3,
		"mind": 29,
		"agility": 45,
		"dexterity": 83,
		"lucky": 6,
		"parameter_table_BattleEnemyParameterTable": 0,
		"parameter_deviation_table_BattleEnemyParameterDeviationTable": 0,
		"acquire_skill_group_id": 0,
		"level_correction": 0,
		"group_id": 0,
		"ai_script_id_BattleAIScript": 0
	},
	{
		"ID": 32459,
		"stage_BattleStage": 340045301,
		"unit_UnitUnit": 840008,
		"money": 290,
		"initial_coordinate_x": 12,
		"initial_coordinate_y": 12,
		"reinforcement_BattleReinforcement": 0,
		"initial_direction": 180.0,
		"ai_move_group": 0,
		"ai_target_move_x": -1,
		"ai_target_move_y": -1,
		"ai_skill_function": "",
		"ai_attack": "",
		"ai_move": "",
		"ai_heal": "",
		"ai_skill": "",
		"ai_use": "",
		"skill_group_id": 560,
		"gear_GearGear": 43004,
		"gear_rank": 1,
		"proficiency_UnitProficiency": 3,
		"level": 58,
		"hp": 114,
		"strength": 73,
		"vitality": 61,
		"intelligence": 3,
		"mind": 29,
		"agility": 46,
		"dexterity": 84,
		"lucky": 6,
		"parameter_table_BattleEnemyParameterTable": 0,
		"parameter_deviation_table_BattleEnemyParameterDeviationTable": 0,
		"acquire_skill_group_id": 0,
		"level_correction": 0,
		"group_id": 0,
		"ai_script_id_BattleAIScript": 0
	},
	{
		"ID": 32460,
		"stage_BattleStage": 340045301,
		"unit_UnitUnit": 840008,
		"money": 295,
		"initial_coordinate_x": 12,
		"initial_coordinate_y": 11,
		"reinforcement_BattleReinforcement": 0,
		"initial_direction": 180.0,
		"ai_move_group": 0,
		"ai_target_move_x": -1,
		"ai_target_move_y": -1,
		"ai_skill_function": "",
		"ai_attack": "",
		"ai_move": "",
		"ai_heal": "",
		"ai_skill": "",
		"ai_use": "",
		"skill_group_id": 560,
		"gear_GearGear": 43004,
		"gear_rank": 1,
		"proficiency_UnitProficiency": 3,
		"level": 59,
		"hp": 115,
		"strength": 74,
		"vitality": 62,
		"intelligence": 3,
		"mind": 30,
		"agility": 46,
		"dexterity": 85,
		"lucky": 6,
		"parameter_table_BattleEnemyParameterTable": 0,
		"parameter_deviation_table_BattleEnemyParameterDeviationTable": 0,
		"acquire_skill_group_id": 0,
		"level_correction": 0,
		"group_id": 0,
		"ai_script_id_BattleAIScript": 0
	},
	{
		"ID": 32461,
		"stage_BattleStage": 340045301,
		"unit_UnitUnit": 840008,
		"money": 300,
		"initial_coordinate_x": 12,
		"initial_coordinate_y": 10,
		"reinforcement_BattleReinforcement": 0,
		"initial_direction": 180.0,
		"ai_move_group": 0,
		"ai_target_move_x": -1,
		"ai_target_move_y": -1,
		"ai_skill_function": "",
		"ai_attack": "",
		"ai_move": "",
		"ai_heal": "",
		"ai_skill": "",
		"ai_use": "",
		"skill_group_id": 560,
		"gear_GearGear": 43004,
		"gear_rank": 1,
		"proficiency_UnitProficiency": 3,
		"level": 60,
		"hp": 116,
		"strength": 75,
		"vitality": 62,
		"intelligence": 3,
		"mind": 30,
		"agility": 47,
		"dexterity": 87,
		"lucky": 6,
		"parameter_table_BattleEnemyParameterTable": 0,
		"parameter_deviation_table_BattleEnemyParameterDeviationTable": 0,
		"acquire_skill_group_id": 0,
		"level_correction": 0,
		"group_id": 0,
		"ai_script_id_BattleAIScript": 0
	},
	{
		"ID": 32462,
		"stage_BattleStage": 340045301,
		"unit_UnitUnit": 820008,
		"money": 295,
		"initial_coordinate_x": 9,
		"initial_coordinate_y": 11,
		"reinforcement_BattleReinforcement": 0,
		"initial_direction": 180.0,
		"ai_move_group": 0,
		"ai_target_move_x": -1,
		"ai_target_move_y": -1,
		"ai_skill_function": "",
		"ai_attack": "IF( turn <=2 ,IF(panel_move_distance <= 2, 1, 0),1)",
		"ai_move": "IF(turn <=2,0,1)",
		"ai_heal": "",
		"ai_skill": "",
		"ai_use": "",
		"skill_group_id": 560,
		"gear_GearGear": 23001,
		"gear_rank": 1,
		"proficiency_UnitProficiency": 3,
		"level": 59,
		"hp": 119,
		"strength": 80,
		"vitality": 62,
		"intelligence": 3,
		"mind": 28,
		"agility": 39,
		"dexterity": 81,
		"lucky": 6,
		"parameter_table_BattleEnemyParameterTable": 0,
		"parameter_deviation_table_BattleEnemyParameterDeviationTable": 0,
		"acquire_skill_group_id": 0,
		"level_correction": 0,
		"group_id": 0,
		"ai_script_id_BattleAIScript": 0
	},
	{
		"ID": 32463,
		"stage_BattleStage": 340045301,
		"unit_UnitUnit": 820008,
		"money": 290,
		"initial_coordinate_x": 9,
		"initial_coordinate_y": 10,
		"reinforcement_BattleReinforcement": 0,
		"initial_direction": 180.0,
		"ai_move_group": 0,
		"ai_target_move_x": -1,
		"ai_target_move_y": -1,
		"ai_skill_function": "",
		"ai_attack": "IF( turn <=2 ,IF(panel_move_distance <= 2, 1, 0),1)",
		"ai_move": "IF(turn <=2,0,1)",
		"ai_heal": "",
		"ai_skill": "",
		"ai_use": "",
		"skill_group_id": 560,
		"gear_GearGear": 23001,
		"gear_rank": 1,
		"proficiency_UnitProficiency": 3,
		"level": 58,
		"hp": 118,
		"strength": 79,
		"vitality": 62,
		"intelligence": 3,
		"mind": 27,
		"agility": 38,
		"dexterity": 80,
		"lucky": 6,
		"parameter_table_BattleEnemyParameterTable": 0,
		"parameter_deviation_table_BattleEnemyParameterDeviationTable": 0,
		"acquire_skill_group_id": 0,
		"level_correction": 0,
		"group_id": 0,
		"ai_script_id_BattleAIScript": 0
	},
	{
		"ID": 32464,
		"stage_BattleStage": 340045301,
		"unit_UnitUnit": 820008,
		"money": 285,
		"initial_coordinate_x": 9,
		"initial_coordinate_y": 9,
		"reinforcement_BattleReinforcement": 0,
		"initial_direction": 180.0,
		"ai_move_group": 0,
		"ai_target_move_x": -1,
		"ai_target_move_y": -1,
		"ai_skill_function": "",
		"ai_attack": "IF( turn <=2 ,IF(panel_move_distance <= 2, 1, 0),1)",
		"ai_move": "IF(turn <=2,0,1)",
		"ai_heal": "",
		"ai_skill": "",
		"ai_use": "",
		"skill_group_id": 560,
		"gear_GearGear": 23001,
		"gear_rank": 1,
		"proficiency_UnitProficiency": 3,
		"level": 57,
		"hp": 117,
		"strength": 78,
		"vitality": 61,
		"intelligence": 3,
		"mind": 27,
		"agility": 38,
		"dexterity": 79,
		"lucky": 6,
		"parameter_table_BattleEnemyParameterTable": 0,
		"parameter_deviation_table_BattleEnemyParameterDeviationTable": 0,
		"acquire_skill_group_id": 0,
		"level_correction": 0,
		"group_id": 0,
		"ai_script_id_BattleAIScript": 0
	},
	{
		"ID": 32465,
		"stage_BattleStage": 340045301,
		"unit_UnitUnit": 820008,
		"money": 280,
		"initial_coordinate_x": 5,
		"initial_coordinate_y": 11,
		"reinforcement_BattleReinforcement": 0,
		"initial_direction": 180.0,
		"ai_move_group": 0,
		"ai_target_move_x": -1,
		"ai_target_move_y": -1,
		"ai_skill_function": "",
		"ai_attack": "IF( turn <=3 ,IF(panel_move_distance <= 2, 1, 0),1)",
		"ai_move": "IF(turn <=3,0,1)",
		"ai_heal": "",
		"ai_skill": "",
		"ai_use": "",
		"skill_group_id": 560,
		"gear_GearGear": 23001,
		"gear_rank": 1,
		"proficiency_UnitProficiency": 3,
		"level": 56,
		"hp": 116,
		"strength": 77,
		"vitality": 60,
		"intelligence": 3,
		"mind": 27,
		"agility": 37,
		"dexterity": 77,
		"lucky": 6,
		"parameter_table_BattleEnemyParameterTable": 0,
		"parameter_deviation_table_BattleEnemyParameterDeviationTable": 0,
		"acquire_skill_group_id": 0,
		"level_correction": 0,
		"group_id": 0,
		"ai_script_id_BattleAIScript": 0
	},
	{
		"ID": 32466,
		"stage_BattleStage": 340045301,
		"unit_UnitUnit": 820008,
		"money": 275,
		"initial_coordinate_x": 5,
		"initial_coordinate_y": 10,
		"reinforcement_BattleReinforcement": 0,
		"initial_direction": 180.0,
		"ai_move_group": 0,
		"ai_target_move_x": -1,
		"ai_target_move_y": -1,
		"ai_skill_function": "",
		"ai_attack": "IF( turn <=3 ,IF(panel_move_distance <= 2, 1, 0),1)",
		"ai_move": "IF(turn <=3,0,1)",
		"ai_heal": "",
		"ai_skill": "",
		"ai_use": "",
		"skill_group_id": 560,
		"gear_GearGear": 23001,
		"gear_rank": 1,
		"proficiency_UnitProficiency": 3,
		"level": 55,
		"hp": 115,
		"strength": 76,
		"vitality": 59,
		"intelligence": 3,
		"mind": 26,
		"agility": 36,
		"dexterity": 76,
		"lucky": 6,
		"parameter_table_BattleEnemyParameterTable": 0,
		"parameter_deviation_table_BattleEnemyParameterDeviationTable": 0,
		"acquire_skill_group_id": 0,
		"level_correction": 0,
		"group_id": 0,
		"ai_script_id_BattleAIScript": 0
	},
	{
		"ID": 32467,
		"stage_BattleStage": 340045301,
		"unit_UnitUnit": 820008,
		"money": 280,
		"initial_coordinate_x": 5,
		"initial_coordinate_y": 9,
		"reinforcement_BattleReinforcement": 0,
		"initial_direction": 180.0,
		"ai_move_group": 0,
		"ai_target_move_x": -1,
		"ai_target_move_y": -1,
		"ai_skill_function": "",
		"ai_attack": "IF( turn <=3 ,IF(panel_move_distance <= 2, 1, 0),1)",
		"ai_move": "IF(turn <=3,0,1)",
		"ai_heal": "",
		"ai_skill": "",
		"ai_use": "",
		"skill_group_id": 560,
		"gear_GearGear": 23001,
		"gear_rank": 1,
		"proficiency_UnitProficiency": 3,
		"level": 56,
		"hp": 116,
		"strength": 77,
		"vitality": 60,
		"intelligence": 3,
		"mind": 27,
		"agility": 37,
		"dexterity": 77,
		"lucky": 6,
		"parameter_table_BattleEnemyParameterTable": 0,
		"parameter_deviation_table_BattleEnemyParameterDeviationTable": 0,
		"acquire_skill_group_id": 0,
		"level_correction": 0,
		"group_id": 0,
		"ai_script_id_BattleAIScript": 0
	},
	{
		"ID": 32468,
		"stage_BattleStage": 340045301,
		"unit_UnitUnit": 830008,
		"money": 285,
		"initial_coordinate_x": 13,
		"initial_coordinate_y": 6,
		"reinforcement_BattleReinforcement": 0,
		"initial_direction": 270.0,
		"ai_move_group": 0,
		"ai_target_move_x": -1,
		"ai_target_move_y": -1,
		"ai_skill_function": "",
		"ai_attack": "",
		"ai_move": "",
		"ai_heal": "",
		"ai_skill": "",
		"ai_use": "",
		"skill_group_id": 560,
		"gear_GearGear": 33001,
		"gear_rank": 1,
		"proficiency_UnitProficiency": 3,
		"level": 57,
		"hp": 115,
		"strength": 74,
		"vitality": 62,
		"intelligence": 3,
		"mind": 28,
		"agility": 44,
		"dexterity": 80,
		"lucky": 6,
		"parameter_table_BattleEnemyParameterTable": 0,
		"parameter_deviation_table_BattleEnemyParameterDeviationTable": 0,
		"acquire_skill_group_id": 0,
		"level_correction": 0,
		"group_id": 0,
		"ai_script_id_BattleAIScript": 0
	},
	{
		"ID": 32469,
		"stage_BattleStage": 340045301,
		"unit_UnitUnit": 830008,
		"money": 290,
		"initial_coordinate_x": 13,
		"initial_coordinate_y": 5,
		"reinforcement_BattleReinforcement": 0,
		"initial_direction": 270.0,
		"ai_move_group": 0,
		"ai_target_move_x": -1,
		"ai_target_move_y": -1,
		"ai_skill_function": "",
		"ai_attack": "",
		"ai_move": "",
		"ai_heal": "",
		"ai_skill": "",
		"ai_use": "",
		"skill_group_id": 560,
		"gear_GearGear": 33001,
		"gear_rank": 1,
		"proficiency_UnitProficiency": 3,
		"level": 58,
		"hp": 116,
		"strength": 75,
		"vitality": 63,
		"intelligence": 3,
		"mind": 28,
		"agility": 44,
		"dexterity": 81,
		"lucky": 6,
		"parameter_table_BattleEnemyParameterTable": 0,
		"parameter_deviation_table_BattleEnemyParameterDeviationTable": 0,
		"acquire_skill_group_id": 0,
		"level_correction": 0,
		"group_id": 0,
		"ai_script_id_BattleAIScript": 0
	},
	{
		"ID": 32470,
		"stage_BattleStage": 340045301,
		"unit_UnitUnit": 830008,
		"money": 295,
		"initial_coordinate_x": 13,
		"initial_coordinate_y": 4,
		"reinforcement_BattleReinforcement": 0,
		"initial_direction": 270.0,
		"ai_move_group": 0,
		"ai_target_move_x": -1,
		"ai_target_move_y": -1,
		"ai_skill_function": "",
		"ai_attack": "",
		"ai_move": "",
		"ai_heal": "",
		"ai_skill": "",
		"ai_use": "",
		"skill_group_id": 560,
		"gear_GearGear": 33001,
		"gear_rank": 1,
		"proficiency_UnitProficiency": 3,
		"level": 59,
		"hp": 118,
		"strength": 76,
		"vitality": 63,
		"intelligence": 3,
		"mind": 28,
		"agility": 45,
		"dexterity": 83,
		"lucky": 6,
		"parameter_table_BattleEnemyParameterTable": 0,
		"parameter_deviation_table_BattleEnemyParameterDeviationTable": 0,
		"acquire_skill_group_id": 0,
		"level_correction": 0,
		"group_id": 0,
		"ai_script_id_BattleAIScript": 0
	},
	{
		"ID": 32471,
		"stage_BattleStage": 340045301,
		"unit_UnitUnit": 830008,
		"money": 300,
		"initial_coordinate_x": 13,
		"initial_coordinate_y": 3,
		"reinforcement_BattleReinforcement": 0,
		"initial_direction": 270.0,
		"ai_move_group": 0,
		"ai_target_move_x": -1,
		"ai_target_move_y": -1,
		"ai_skill_function": "",
		"ai_attack": "",
		"ai_move": "",
		"ai_heal": "",
		"ai_skill": "",
		"ai_use": "",
		"skill_group_id": 560,
		"gear_GearGear": 33001,
		"gear_rank": 1,
		"proficiency_UnitProficiency": 3,
		"level": 60,
		"hp": 119,
		"strength": 77,
		"vitality": 64,
		"intelligence": 3,
		"mind": 29,
		"agility": 46,
		"dexterity": 84,
		"lucky": 6,
		"parameter_table_BattleEnemyParameterTable": 0,
		"parameter_deviation_table_BattleEnemyParameterDeviationTable": 0,
		"acquire_skill_group_id": 0,
		"level_correction": 0,
		"group_id": 0,
		"ai_script_id_BattleAIScript": 0
	},
	{
		"ID": 32472,
		"stage_BattleStage": 340045301,
		"unit_UnitUnit": 830008,
		"money": 305,
		"initial_coordinate_x": 9,
		"initial_coordinate_y": 4,
		"reinforcement_BattleReinforcement": 0,
		"initial_direction": 270.0,
		"ai_move_group": 0,
		"ai_target_move_x": -1,
		"ai_target_move_y": -1,
		"ai_skill_function": "",
		"ai_attack": "IF( turn <=3 ,IF(panel_move_distance <= 2, 1, 0),1)",
		"ai_move": "IF(turn <=3,0,1)",
		"ai_heal": "",
		"ai_skill": "",
		"ai_use": "",
		"skill_group_id": 560,
		"gear_GearGear": 33001,
		"gear_rank": 1,
		"proficiency_UnitProficiency": 3,
		"level": 61,
		"hp": 120,
		"strength": 78,
		"vitality": 65,
		"intelligence": 3,
		"mind": 29,
		"agility": 46,
		"dexterity": 85,
		"lucky": 6,
		"parameter_table_BattleEnemyParameterTable": 0,
		"parameter_deviation_table_BattleEnemyParameterDeviationTable": 0,
		"acquire_skill_group_id": 0,
		"level_correction": 0,
		"group_id": 0,
		"ai_script_id_BattleAIScript": 0
	},
	{
		"ID": 32473,
		"stage_BattleStage": 340045301,
		"unit_UnitUnit": 400451,
		"money": 350,
		"initial_coordinate_x": 10,
		"initial_coordinate_y": 12,
		"reinforcement_BattleReinforcement": 0,
		"initial_direction": 180.0,
		"ai_move_group": 0,
		"ai_target_move_x": -1,
		"ai_target_move_y": -1,
		"ai_skill_function": "",
		"ai_attack": "",
		"ai_move": "",
		"ai_heal": "",
		"ai_skill": "",
		"ai_use": "",
		"skill_group_id": 560,
		"gear_GearGear": 43002,
		"gear_rank": 1,
		"proficiency_UnitProficiency": 3,
		"level": 70,
		"hp": 80,
		"strength": 75,
		"vitality": 61,
		"intelligence": 9,
		"mind": 40,
		"agility": 66,
		"dexterity": 70,
		"lucky": 18,
		"parameter_table_BattleEnemyParameterTable": 0,
		"parameter_deviation_table_BattleEnemyParameterDeviationTable": 0,
		"acquire_skill_group_id": 0,
		"level_correction": 0,
		"group_id": 0,
		"ai_script_id_BattleAIScript": 0
	},
	{
		"ID": 32474,
		"stage_BattleStage": 340045301,
		"unit_UnitUnit": 400452,
		"money": 375,
		"initial_coordinate_x": 10,
		"initial_coordinate_y": 12,
		"reinforcement_BattleReinforcement": 4,
		"initial_direction": 180.0,
		"ai_move_group": 0,
		"ai_target_move_x": -1,
		"ai_target_move_y": -1,
		"ai_skill_function": "",
		"ai_attack": "",
		"ai_move": "",
		"ai_heal": "",
		"ai_skill": "",
		"ai_use": "",
		"skill_group_id": 560,
		"gear_GearGear": 44002,
		"gear_rank": 1,
		"proficiency_UnitProficiency": 4,
		"level": 75,
		"hp": 86,
		"strength": 85,
		"vitality": 65,
		"intelligence": 10,
		"mind": 45,
		"agility": 77,
		"dexterity": 79,
		"lucky": 22,
		"parameter_table_BattleEnemyParameterTable": 0,
		"parameter_deviation_table_BattleEnemyParameterDeviationTable": 0,
		"acquire_skill_group_id": 0,
		"level_correction": 0,
		"group_id": 0,
		"ai_script_id_BattleAIScript": 0
	},
	{
		"ID": 32475,
		"stage_BattleStage": 340045301,
		"unit_UnitUnit": 400453,
		"money": 400,
		"initial_coordinate_x": 10,
		"initial_coordinate_y": 12,
		"reinforcement_BattleReinforcement": 6,
		"initial_direction": 180.0,
		"ai_move_group": 0,
		"ai_target_move_x": -1,
		"ai_target_move_y": -1,
		"ai_skill_function": "",
		"ai_attack": "",
		"ai_move": "",
		"ai_heal": "",
		"ai_skill": "",
		"ai_use": "",
		"skill_group_id": 560,
		"gear_GearGear": 45001,
		"gear_rank": 1,
		"proficiency_UnitProficiency": 5,
		"level": 80,
		"hp": 93,
		"strength": 95,
		"vitality": 69,
		"intelligence": 12,
		"mind": 52,
		"agility": 89,
		"dexterity": 92,
		"lucky": 30,
		"parameter_table_BattleEnemyParameterTable": 0,
		"parameter_deviation_table_BattleEnemyParameterDeviationTable": 0,
		"acquire_skill_group_id": 0,
		"level_correction": 0,
		"group_id": 0,
		"ai_script_id_BattleAIScript": 0
	}
]