[
	{
		"ID": 44244,
		"stage_BattleStage": 610090105,
		"unit_UnitUnit": 500421,
		"money": 200,
		"initial_coordinate_x": 7,
		"initial_coordinate_y": 10,
		"reinforcement_BattleReinforcement": 0,
		"initial_direction": 270.0,
		"ai_move_group": 0,
		"ai_target_move_x": -1,
		"ai_target_move_y": -1,
		"ai_skill_function": "",
		"ai_attack": "IF( turn <=1 ,IF(panel_move_distance <= 4, 1, 0),1)",
		"ai_move": "IF(turn <1,0,1)",
		"ai_heal": "",
		"ai_skill": "",
		"ai_use": "",
		"skill_group_id": 12486,
		"gear_GearGear": 54002,
		"gear_rank": 1,
		"proficiency_UnitProficiency": 4,
		"level": 40,
		"hp": 62,
		"strength": 8,
		"vitality": 25,
		"intelligence": 46,
		"mind": 25,
		"agility": 36,
		"dexterity": 41,
		"lucky": 12,
		"parameter_table_BattleEnemyParameterTable": 0,
		"parameter_deviation_table_BattleEnemyParameterDeviationTable": 0,
		"acquire_skill_group_id": 0,
		"level_correction": 0,
		"group_id": 0,
		"ai_script_id_BattleAIScript": 0
	},
	{
		"ID": 44245,
		"stage_BattleStage": 610090105,
		"unit_UnitUnit": 820007,
		"money": 190,
		"initial_coordinate_x": 8,
		"initial_coordinate_y": 9,
		"reinforcement_BattleReinforcement": 0,
		"initial_direction": 270.0,
		"ai_move_group": 0,
		"ai_target_move_x": -1,
		"ai_target_move_y": -1,
		"ai_skill_function": "",
		"ai_attack": "IF( turn <=1 ,IF(panel_move_distance <= 4, 1, 0),1)",
		"ai_move": "IF(turn <1,0,1)",
		"ai_heal": "",
		"ai_skill": "",
		"ai_use": "",
		"skill_group_id": 11712,
		"gear_GearGear": 23001,
		"gear_rank": 1,
		"proficiency_UnitProficiency": 3,
		"level": 38,
		"hp": 52,
		"strength": 46,
		"vitality": 39,
		"intelligence": 3,
		"mind": 12,
		"agility": 16,
		"dexterity": 24,
		"lucky": 13,
		"parameter_table_BattleEnemyParameterTable": 0,
		"parameter_deviation_table_BattleEnemyParameterDeviationTable": 0,
		"acquire_skill_group_id": 0,
		"level_correction": 0,
		"group_id": 0,
		"ai_script_id_BattleAIScript": 0
	},
	{
		"ID": 44246,
		"stage_BattleStage": 610090105,
		"unit_UnitUnit": 820007,
		"money": 190,
		"initial_coordinate_x": 8,
		"initial_coordinate_y": 11,
		"reinforcement_BattleReinforcement": 0,
		"initial_direction": 270.0,
		"ai_move_group": 0,
		"ai_target_move_x": -1,
		"ai_target_move_y": -1,
		"ai_skill_function": "",
		"ai_attack": "IF( turn <=1 ,IF(panel_move_distance <= 4, 1, 0),1)",
		"ai_move": "IF(turn <1,0,1)",
		"ai_heal": "",
		"ai_skill": "",
		"ai_use": "",
		"skill_group_id": 11712,
		"gear_GearGear": 23001,
		"gear_rank": 1,
		"proficiency_UnitProficiency": 3,
		"level": 38,
		"hp": 54,
		"strength": 45,
		"vitality": 40,
		"intelligence": 4,
		"mind": 13,
		"agility": 16,
		"dexterity": 22,
		"lucky": 13,
		"parameter_table_BattleEnemyParameterTable": 0,
		"parameter_deviation_table_BattleEnemyParameterDeviationTable": 0,
		"acquire_skill_group_id": 0,
		"level_correction": 0,
		"group_id": 0,
		"ai_script_id_BattleAIScript": 0
	},
	{
		"ID": 44247,
		"stage_BattleStage": 610090105,
		"unit_UnitUnit": 100821,
		"money": 195,
		"initial_coordinate_x": 4,
		"initial_coordinate_y": 10,
		"reinforcement_BattleReinforcement": 0,
		"initial_direction": 90.0,
		"ai_move_group": 0,
		"ai_target_move_x": -1,
		"ai_target_move_y": -1,
		"ai_skill_function": "",
		"ai_attack": "IF( turn <=1 ,IF(panel_move_distance <= 4, 1, 0),1)",
		"ai_move": "IF(turn <1,0,1)",
		"ai_heal": "",
		"ai_skill": "",
		"ai_use": "",
		"skill_group_id": 12471,
		"gear_GearGear": 13002,
		"gear_rank": 1,
		"proficiency_UnitProficiency": 3,
		"level": 39,
		"hp": 55,
		"strength": 40,
		"vitality": 22,
		"intelligence": 6,
		"mind": 11,
		"agility": 35,
		"dexterity": 38,
		"lucky": 12,
		"parameter_table_BattleEnemyParameterTable": 0,
		"parameter_deviation_table_BattleEnemyParameterDeviationTable": 0,
		"acquire_skill_group_id": 0,
		"level_correction": 0,
		"group_id": 0,
		"ai_script_id_BattleAIScript": 0
	},
	{
		"ID": 44248,
		"stage_BattleStage": 610090105,
		"unit_UnitUnit": 820004,
		"money": 185,
		"initial_coordinate_x": 3,
		"initial_coordinate_y": 11,
		"reinforcement_BattleReinforcement": 0,
		"initial_direction": 90.0,
		"ai_move_group": 0,
		"ai_target_move_x": -1,
		"ai_target_move_y": -1,
		"ai_skill_function": "",
		"ai_attack": "IF( turn <=1 ,IF(panel_move_distance <= 4, 1, 0),1)",
		"ai_move": "IF(turn <1,0,1)",
		"ai_heal": "",
		"ai_skill": "",
		"ai_use": "",
		"skill_group_id": 11702,
		"gear_GearGear": 23001,
		"gear_rank": 1,
		"proficiency_UnitProficiency": 3,
		"level": 37,
		"hp": 45,
		"strength": 42,
		"vitality": 27,
		"intelligence": 5,
		"mind": 15,
		"agility": 21,
		"dexterity": 27,
		"lucky": 14,
		"parameter_table_BattleEnemyParameterTable": 0,
		"parameter_deviation_table_BattleEnemyParameterDeviationTable": 0,
		"acquire_skill_group_id": 0,
		"level_correction": 0,
		"group_id": 0,
		"ai_script_id_BattleAIScript": 0
	},
	{
		"ID": 44249,
		"stage_BattleStage": 610090105,
		"unit_UnitUnit": 820004,
		"money": 185,
		"initial_coordinate_x": 3,
		"initial_coordinate_y": 9,
		"reinforcement_BattleReinforcement": 0,
		"initial_direction": 90.0,
		"ai_move_group": 0,
		"ai_target_move_x": -1,
		"ai_target_move_y": -1,
		"ai_skill_function": "",
		"ai_attack": "IF( turn <=1 ,IF(panel_move_distance <= 4, 1, 0),1)",
		"ai_move": "IF(turn <1,0,1)",
		"ai_heal": "",
		"ai_skill": "",
		"ai_use": "",
		"skill_group_id": 11702,
		"gear_GearGear": 23001,
		"gear_rank": 1,
		"proficiency_UnitProficiency": 3,
		"level": 37,
		"hp": 45,
		"strength": 41,
		"vitality": 25,
		"intelligence": 5,
		"mind": 15,
		"agility": 22,
		"dexterity": 27,
		"lucky": 12,
		"parameter_table_BattleEnemyParameterTable": 0,
		"parameter_deviation_table_BattleEnemyParameterDeviationTable": 0,
		"acquire_skill_group_id": 0,
		"level_correction": 0,
		"group_id": 0,
		"ai_script_id_BattleAIScript": 0
	},
	{
		"ID": 44250,
		"stage_BattleStage": 610090105,
		"unit_UnitUnit": 820003,
		"money": 175,
		"initial_coordinate_x": 4,
		"initial_coordinate_y": 7,
		"reinforcement_BattleReinforcement": 0,
		"initial_direction": 180.0,
		"ai_move_group": 0,
		"ai_target_move_x": -1,
		"ai_target_move_y": -1,
		"ai_skill_function": "",
		"ai_attack": "",
		"ai_move": "",
		"ai_heal": "",
		"ai_skill": "",
		"ai_use": "",
		"skill_group_id": 11712,
		"gear_GearGear": 22005,
		"gear_rank": 1,
		"proficiency_UnitProficiency": 2,
		"level": 35,
		"hp": 54,
		"strength": 40,
		"vitality": 41,
		"intelligence": 4,
		"mind": 8,
		"agility": 12,
		"dexterity": 22,
		"lucky": 13,
		"parameter_table_BattleEnemyParameterTable": 0,
		"parameter_deviation_table_BattleEnemyParameterDeviationTable": 0,
		"acquire_skill_group_id": 0,
		"level_correction": 0,
		"group_id": 0,
		"ai_script_id_BattleAIScript": 0
	},
	{
		"ID": 44251,
		"stage_BattleStage": 610090105,
		"unit_UnitUnit": 820003,
		"money": 175,
		"initial_coordinate_x": 7,
		"initial_coordinate_y": 7,
		"reinforcement_BattleReinforcement": 0,
		"initial_direction": 180.0,
		"ai_move_group": 0,
		"ai_target_move_x": -1,
		"ai_target_move_y": -1,
		"ai_skill_function": "",
		"ai_attack": "",
		"ai_move": "",
		"ai_heal": "",
		"ai_skill": "",
		"ai_use": "",
		"skill_group_id": 11712,
		"gear_GearGear": 22005,
		"gear_rank": 1,
		"proficiency_UnitProficiency": 2,
		"level": 35,
		"hp": 55,
		"strength": 40,
		"vitality": 41,
		"intelligence": 5,
		"mind": 10,
		"agility": 13,
		"dexterity": 21,
		"lucky": 14,
		"parameter_table_BattleEnemyParameterTable": 0,
		"parameter_deviation_table_BattleEnemyParameterDeviationTable": 0,
		"acquire_skill_group_id": 0,
		"level_correction": 0,
		"group_id": 0,
		"ai_script_id_BattleAIScript": 0
	}
]