[
	{
		"ID": 54852,
		"stage_BattleStage": 810001061,
		"unit_UnitUnit": 802009,
		"money": 0,
		"initial_coordinate_x": 4,
		"initial_coordinate_y": 7,
		"reinforcement_BattleReinforcement": 0,
		"initial_direction": 180.0,
		"ai_move_group": 0,
		"ai_target_move_x": -1,
		"ai_target_move_y": -1,
		"ai_skill_function": "",
		"ai_attack": "",
		"ai_move": "",
		"ai_heal": "",
		"ai_skill": "",
		"ai_use": "",
		"skill_group_id": 16427,
		"gear_GearGear": 80001,
		"gear_rank": 1,
		"proficiency_UnitProficiency": 1,
		"level": 90,
		"hp": 8,
		"strength": 9,
		"vitality": 250,
		"intelligence": 83,
		"mind": 250,
		"agility": 84,
		"dexterity": 89,
		"lucky": 47,
		"parameter_table_BattleEnemyParameterTable": 0,
		"parameter_deviation_table_BattleEnemyParameterDeviationTable": 0,
		"acquire_skill_group_id": 0,
		"level_correction": 0,
		"group_id": 0,
		"ai_script_id_BattleAIScript": 0
	},
	{
		"ID": 54853,
		"stage_BattleStage": 810001061,
		"unit_UnitUnit": 810026,
		"money": 0,
		"initial_coordinate_x": 3,
		"initial_coordinate_y": 7,
		"reinforcement_BattleReinforcement": 0,
		"initial_direction": 180.0,
		"ai_move_group": 0,
		"ai_target_move_x": -1,
		"ai_target_move_y": -1,
		"ai_skill_function": "",
		"ai_attack": "IF( turn <=2 ,IF(panel_move_distance <= 2, 1, 0),1)",
		"ai_move": "IF(turn <=2,0,1)",
		"ai_heal": "",
		"ai_skill": "",
		"ai_use": "",
		"skill_group_id": 14472,
		"gear_GearGear": 16001,
		"gear_rank": 5,
		"proficiency_UnitProficiency": 6,
		"level": 90,
		"hp": 97,
		"strength": 86,
		"vitality": 67,
		"intelligence": 10,
		"mind": 58,
		"agility": 104,
		"dexterity": 103,
		"lucky": 46,
		"parameter_table_BattleEnemyParameterTable": 0,
		"parameter_deviation_table_BattleEnemyParameterDeviationTable": 0,
		"acquire_skill_group_id": 0,
		"level_correction": 0,
		"group_id": 0,
		"ai_script_id_BattleAIScript": 0
	},
	{
		"ID": 54854,
		"stage_BattleStage": 810001061,
		"unit_UnitUnit": 820026,
		"money": 0,
		"initial_coordinate_x": 4,
		"initial_coordinate_y": 8,
		"reinforcement_BattleReinforcement": 0,
		"initial_direction": 180.0,
		"ai_move_group": 0,
		"ai_target_move_x": -1,
		"ai_target_move_y": -1,
		"ai_skill_function": "",
		"ai_attack": "IF( turn <=2 ,IF(panel_move_distance <= 2, 1, 0),1)",
		"ai_move": "IF(turn <=2,0,1)",
		"ai_heal": "",
		"ai_skill": "",
		"ai_use": "",
		"skill_group_id": 14632,
		"gear_GearGear": 25007,
		"gear_rank": 5,
		"proficiency_UnitProficiency": 5,
		"level": 90,
		"hp": 99,
		"strength": 86,
		"vitality": 63,
		"intelligence": 8,
		"mind": 61,
		"agility": 104,
		"dexterity": 105,
		"lucky": 50,
		"parameter_table_BattleEnemyParameterTable": 0,
		"parameter_deviation_table_BattleEnemyParameterDeviationTable": 0,
		"acquire_skill_group_id": 0,
		"level_correction": 0,
		"group_id": 0,
		"ai_script_id_BattleAIScript": 0
	},
	{
		"ID": 54855,
		"stage_BattleStage": 810001061,
		"unit_UnitUnit": 830026,
		"money": 0,
		"initial_coordinate_x": 5,
		"initial_coordinate_y": 9,
		"reinforcement_BattleReinforcement": 0,
		"initial_direction": 180.0,
		"ai_move_group": 0,
		"ai_target_move_x": -1,
		"ai_target_move_y": -1,
		"ai_skill_function": "",
		"ai_attack": "IF( turn <=2 ,IF(panel_move_distance <= 2, 1, 0),1)",
		"ai_move": "IF(turn <=2,0,1)",
		"ai_heal": "",
		"ai_skill": "",
		"ai_use": "",
		"skill_group_id": 14622,
		"gear_GearGear": 35003,
		"gear_rank": 5,
		"proficiency_UnitProficiency": 5,
		"level": 90,
		"hp": 99,
		"strength": 86,
		"vitality": 64,
		"intelligence": 9,
		"mind": 57,
		"agility": 103,
		"dexterity": 104,
		"lucky": 49,
		"parameter_table_BattleEnemyParameterTable": 0,
		"parameter_deviation_table_BattleEnemyParameterDeviationTable": 0,
		"acquire_skill_group_id": 0,
		"level_correction": 0,
		"group_id": 0,
		"ai_script_id_BattleAIScript": 0
	},
	{
		"ID": 54856,
		"stage_BattleStage": 810001061,
		"unit_UnitUnit": 810026,
		"money": 0,
		"initial_coordinate_x": 17,
		"initial_coordinate_y": 5,
		"reinforcement_BattleReinforcement": 0,
		"initial_direction": 270.0,
		"ai_move_group": 0,
		"ai_target_move_x": -1,
		"ai_target_move_y": -1,
		"ai_skill_function": "",
		"ai_attack": "IF( turn <=2 ,IF(panel_move_distance <= 2, 1, 0),1)",
		"ai_move": "IF(turn <=2,0,1)",
		"ai_heal": "",
		"ai_skill": "",
		"ai_use": "",
		"skill_group_id": 14642,
		"gear_GearGear": 16001,
		"gear_rank": 5,
		"proficiency_UnitProficiency": 6,
		"level": 90,
		"hp": 94,
		"strength": 85,
		"vitality": 65,
		"intelligence": 12,
		"mind": 62,
		"agility": 103,
		"dexterity": 106,
		"lucky": 46,
		"parameter_table_BattleEnemyParameterTable": 0,
		"parameter_deviation_table_BattleEnemyParameterDeviationTable": 0,
		"acquire_skill_group_id": 0,
		"level_correction": 0,
		"group_id": 0,
		"ai_script_id_BattleAIScript": 0
	},
	{
		"ID": 54857,
		"stage_BattleStage": 810001061,
		"unit_UnitUnit": 840026,
		"money": 0,
		"initial_coordinate_x": 18,
		"initial_coordinate_y": 5,
		"reinforcement_BattleReinforcement": 0,
		"initial_direction": 270.0,
		"ai_move_group": 0,
		"ai_target_move_x": -1,
		"ai_target_move_y": -1,
		"ai_skill_function": "",
		"ai_attack": "IF( turn <=2 ,IF(panel_move_distance <= 2, 1, 0),1)",
		"ai_move": "IF(turn <=2,0,1)",
		"ai_heal": "",
		"ai_skill": "",
		"ai_use": "",
		"skill_group_id": 13772,
		"gear_GearGear": 44003,
		"gear_rank": 5,
		"proficiency_UnitProficiency": 4,
		"level": 90,
		"hp": 94,
		"strength": 82,
		"vitality": 67,
		"intelligence": 12,
		"mind": 61,
		"agility": 104,
		"dexterity": 104,
		"lucky": 47,
		"parameter_table_BattleEnemyParameterTable": 0,
		"parameter_deviation_table_BattleEnemyParameterDeviationTable": 0,
		"acquire_skill_group_id": 0,
		"level_correction": 0,
		"group_id": 0,
		"ai_script_id_BattleAIScript": 0
	},
	{
		"ID": 54858,
		"stage_BattleStage": 810001061,
		"unit_UnitUnit": 820026,
		"money": 0,
		"initial_coordinate_x": 17,
		"initial_coordinate_y": 6,
		"reinforcement_BattleReinforcement": 0,
		"initial_direction": 270.0,
		"ai_move_group": 0,
		"ai_target_move_x": -1,
		"ai_target_move_y": -1,
		"ai_skill_function": "",
		"ai_attack": "IF( turn <=2 ,IF(panel_move_distance <= 2, 1, 0),1)",
		"ai_move": "IF(turn <=2,0,1)",
		"ai_heal": "",
		"ai_skill": "",
		"ai_use": "",
		"skill_group_id": 14632,
		"gear_GearGear": 25007,
		"gear_rank": 5,
		"proficiency_UnitProficiency": 5,
		"level": 90,
		"hp": 96,
		"strength": 83,
		"vitality": 66,
		"intelligence": 10,
		"mind": 59,
		"agility": 102,
		"dexterity": 107,
		"lucky": 48,
		"parameter_table_BattleEnemyParameterTable": 0,
		"parameter_deviation_table_BattleEnemyParameterDeviationTable": 0,
		"acquire_skill_group_id": 0,
		"level_correction": 0,
		"group_id": 0,
		"ai_script_id_BattleAIScript": 0
	},
	{
		"ID": 54859,
		"stage_BattleStage": 810001061,
		"unit_UnitUnit": 830026,
		"money": 0,
		"initial_coordinate_x": 20,
		"initial_coordinate_y": 14,
		"reinforcement_BattleReinforcement": 0,
		"initial_direction": 180.0,
		"ai_move_group": 0,
		"ai_target_move_x": -1,
		"ai_target_move_y": -1,
		"ai_skill_function": "",
		"ai_attack": "IF( turn <=3 ,IF(panel_move_distance <= 6, 1, 0),1)",
		"ai_move": "IF(turn <=3,0,1)",
		"ai_heal": "",
		"ai_skill": "",
		"ai_use": "",
		"skill_group_id": 14685,
		"gear_GearGear": 35003,
		"gear_rank": 5,
		"proficiency_UnitProficiency": 5,
		"level": 90,
		"hp": 93,
		"strength": 84,
		"vitality": 64,
		"intelligence": 12,
		"mind": 60,
		"agility": 103,
		"dexterity": 107,
		"lucky": 49,
		"parameter_table_BattleEnemyParameterTable": 0,
		"parameter_deviation_table_BattleEnemyParameterDeviationTable": 0,
		"acquire_skill_group_id": 0,
		"level_correction": 0,
		"group_id": 0,
		"ai_script_id_BattleAIScript": 0
	},
	{
		"ID": 54860,
		"stage_BattleStage": 810001061,
		"unit_UnitUnit": 830026,
		"money": 0,
		"initial_coordinate_x": 18,
		"initial_coordinate_y": 14,
		"reinforcement_BattleReinforcement": 0,
		"initial_direction": 180.0,
		"ai_move_group": 0,
		"ai_target_move_x": -1,
		"ai_target_move_y": -1,
		"ai_skill_function": "",
		"ai_attack": "IF( turn <=3 ,IF(panel_move_distance <= 6, 1, 0),1)",
		"ai_move": "IF(turn <=3,0,1)",
		"ai_heal": "",
		"ai_skill": "",
		"ai_use": "",
		"skill_group_id": 14685,
		"gear_GearGear": 35003,
		"gear_rank": 5,
		"proficiency_UnitProficiency": 5,
		"level": 90,
		"hp": 95,
		"strength": 83,
		"vitality": 66,
		"intelligence": 11,
		"mind": 58,
		"agility": 105,
		"dexterity": 107,
		"lucky": 46,
		"parameter_table_BattleEnemyParameterTable": 0,
		"parameter_deviation_table_BattleEnemyParameterDeviationTable": 0,
		"acquire_skill_group_id": 0,
		"level_correction": 0,
		"group_id": 0,
		"ai_script_id_BattleAIScript": 0
	},
	{
		"ID": 54861,
		"stage_BattleStage": 810001061,
		"unit_UnitUnit": 830026,
		"money": 0,
		"initial_coordinate_x": 18,
		"initial_coordinate_y": 15,
		"reinforcement_BattleReinforcement": 0,
		"initial_direction": 180.0,
		"ai_move_group": 0,
		"ai_target_move_x": -1,
		"ai_target_move_y": -1,
		"ai_skill_function": "",
		"ai_attack": "IF( turn <=3 ,IF(panel_move_distance <= 6, 1, 0),1)",
		"ai_move": "IF(turn <=3,0,1)",
		"ai_heal": "",
		"ai_skill": "",
		"ai_use": "",
		"skill_group_id": 14685,
		"gear_GearGear": 35003,
		"gear_rank": 5,
		"proficiency_UnitProficiency": 5,
		"level": 90,
		"hp": 98,
		"strength": 85,
		"vitality": 67,
		"intelligence": 9,
		"mind": 58,
		"agility": 104,
		"dexterity": 105,
		"lucky": 50,
		"parameter_table_BattleEnemyParameterTable": 0,
		"parameter_deviation_table_BattleEnemyParameterDeviationTable": 0,
		"acquire_skill_group_id": 0,
		"level_correction": 0,
		"group_id": 0,
		"ai_script_id_BattleAIScript": 0
	},
	{
		"ID": 54862,
		"stage_BattleStage": 810001061,
		"unit_UnitUnit": 820026,
		"money": 0,
		"initial_coordinate_x": 10,
		"initial_coordinate_y": 13,
		"reinforcement_BattleReinforcement": 0,
		"initial_direction": 180.0,
		"ai_move_group": 0,
		"ai_target_move_x": -1,
		"ai_target_move_y": -1,
		"ai_skill_function": "",
		"ai_attack": "IF( turn <=4 ,IF(panel_move_distance <= 6, 1, 0),1)",
		"ai_move": "IF(turn <=4,0,1)",
		"ai_heal": "",
		"ai_skill": "",
		"ai_use": "",
		"skill_group_id": 14674,
		"gear_GearGear": 25007,
		"gear_rank": 5,
		"proficiency_UnitProficiency": 5,
		"level": 90,
		"hp": 97,
		"strength": 84,
		"vitality": 64,
		"intelligence": 8,
		"mind": 59,
		"agility": 105,
		"dexterity": 106,
		"lucky": 48,
		"parameter_table_BattleEnemyParameterTable": 0,
		"parameter_deviation_table_BattleEnemyParameterDeviationTable": 0,
		"acquire_skill_group_id": 0,
		"level_correction": 0,
		"group_id": 0,
		"ai_script_id_BattleAIScript": 0
	},
	{
		"ID": 54863,
		"stage_BattleStage": 810001061,
		"unit_UnitUnit": 820026,
		"money": 0,
		"initial_coordinate_x": 8,
		"initial_coordinate_y": 13,
		"reinforcement_BattleReinforcement": 0,
		"initial_direction": 180.0,
		"ai_move_group": 0,
		"ai_target_move_x": -1,
		"ai_target_move_y": -1,
		"ai_skill_function": "",
		"ai_attack": "IF( turn <=4 ,IF(panel_move_distance <= 6, 1, 0),1)",
		"ai_move": "IF(turn <=4,0,1)",
		"ai_heal": "",
		"ai_skill": "",
		"ai_use": "",
		"skill_group_id": 14674,
		"gear_GearGear": 25007,
		"gear_rank": 5,
		"proficiency_UnitProficiency": 5,
		"level": 90,
		"hp": 98,
		"strength": 84,
		"vitality": 67,
		"intelligence": 8,
		"mind": 58,
		"agility": 105,
		"dexterity": 108,
		"lucky": 50,
		"parameter_table_BattleEnemyParameterTable": 0,
		"parameter_deviation_table_BattleEnemyParameterDeviationTable": 0,
		"acquire_skill_group_id": 0,
		"level_correction": 0,
		"group_id": 0,
		"ai_script_id_BattleAIScript": 0
	},
	{
		"ID": 54864,
		"stage_BattleStage": 810001061,
		"unit_UnitUnit": 820026,
		"money": 0,
		"initial_coordinate_x": 10,
		"initial_coordinate_y": 15,
		"reinforcement_BattleReinforcement": 0,
		"initial_direction": 180.0,
		"ai_move_group": 0,
		"ai_target_move_x": -1,
		"ai_target_move_y": -1,
		"ai_skill_function": "",
		"ai_attack": "IF( turn <=4 ,IF(panel_move_distance <= 6, 1, 0),1)",
		"ai_move": "IF(turn <=4,0,1)",
		"ai_heal": "",
		"ai_skill": "",
		"ai_use": "",
		"skill_group_id": 14674,
		"gear_GearGear": 25007,
		"gear_rank": 5,
		"proficiency_UnitProficiency": 5,
		"level": 90,
		"hp": 97,
		"strength": 84,
		"vitality": 64,
		"intelligence": 12,
		"mind": 58,
		"agility": 105,
		"dexterity": 106,
		"lucky": 49,
		"parameter_table_BattleEnemyParameterTable": 0,
		"parameter_deviation_table_BattleEnemyParameterDeviationTable": 0,
		"acquire_skill_group_id": 0,
		"level_correction": 0,
		"group_id": 0,
		"ai_script_id_BattleAIScript": 0
	},
	{
		"ID": 54865,
		"stage_BattleStage": 810001061,
		"unit_UnitUnit": 820026,
		"money": 0,
		"initial_coordinate_x": 9,
		"initial_coordinate_y": 15,
		"reinforcement_BattleReinforcement": 0,
		"initial_direction": 180.0,
		"ai_move_group": 0,
		"ai_target_move_x": -1,
		"ai_target_move_y": -1,
		"ai_skill_function": "",
		"ai_attack": "IF( turn <=4 ,IF(panel_move_distance <= 6, 1, 0),1)",
		"ai_move": "IF(turn <=4,0,1)",
		"ai_heal": "",
		"ai_skill": "",
		"ai_use": "",
		"skill_group_id": 14674,
		"gear_GearGear": 25007,
		"gear_rank": 5,
		"proficiency_UnitProficiency": 5,
		"level": 90,
		"hp": 99,
		"strength": 87,
		"vitality": 65,
		"intelligence": 12,
		"mind": 60,
		"agility": 104,
		"dexterity": 104,
		"lucky": 50,
		"parameter_table_BattleEnemyParameterTable": 0,
		"parameter_deviation_table_BattleEnemyParameterDeviationTable": 0,
		"acquire_skill_group_id": 0,
		"level_correction": 0,
		"group_id": 0,
		"ai_script_id_BattleAIScript": 0
	},
	{
		"ID": 54866,
		"stage_BattleStage": 810001061,
		"unit_UnitUnit": 810026,
		"money": 0,
		"initial_coordinate_x": 4,
		"initial_coordinate_y": 14,
		"reinforcement_BattleReinforcement": 0,
		"initial_direction": 180.0,
		"ai_move_group": 0,
		"ai_target_move_x": -1,
		"ai_target_move_y": -1,
		"ai_skill_function": "",
		"ai_attack": "IF( turn <=4 ,IF(panel_move_distance <= 6, 1, 0),1)",
		"ai_move": "IF(turn <=4,0,1)",
		"ai_heal": "",
		"ai_skill": "",
		"ai_use": "",
		"skill_group_id": 14664,
		"gear_GearGear": 16001,
		"gear_rank": 5,
		"proficiency_UnitProficiency": 6,
		"level": 90,
		"hp": 94,
		"strength": 82,
		"vitality": 67,
		"intelligence": 9,
		"mind": 61,
		"agility": 104,
		"dexterity": 105,
		"lucky": 47,
		"parameter_table_BattleEnemyParameterTable": 0,
		"parameter_deviation_table_BattleEnemyParameterDeviationTable": 0,
		"acquire_skill_group_id": 0,
		"level_correction": 0,
		"group_id": 0,
		"ai_script_id_BattleAIScript": 0
	},
	{
		"ID": 54867,
		"stage_BattleStage": 810001061,
		"unit_UnitUnit": 810026,
		"money": 0,
		"initial_coordinate_x": 3,
		"initial_coordinate_y": 15,
		"reinforcement_BattleReinforcement": 0,
		"initial_direction": 180.0,
		"ai_move_group": 0,
		"ai_target_move_x": -1,
		"ai_target_move_y": -1,
		"ai_skill_function": "",
		"ai_attack": "IF( turn <=4 ,IF(panel_move_distance <= 6, 1, 0),1)",
		"ai_move": "IF(turn <=4,0,1)",
		"ai_heal": "",
		"ai_skill": "",
		"ai_use": "",
		"skill_group_id": 14664,
		"gear_GearGear": 16001,
		"gear_rank": 5,
		"proficiency_UnitProficiency": 6,
		"level": 90,
		"hp": 94,
		"strength": 82,
		"vitality": 67,
		"intelligence": 10,
		"mind": 60,
		"agility": 102,
		"dexterity": 108,
		"lucky": 50,
		"parameter_table_BattleEnemyParameterTable": 0,
		"parameter_deviation_table_BattleEnemyParameterDeviationTable": 0,
		"acquire_skill_group_id": 0,
		"level_correction": 0,
		"group_id": 0,
		"ai_script_id_BattleAIScript": 0
	},
	{
		"ID": 54868,
		"stage_BattleStage": 810001061,
		"unit_UnitUnit": 810026,
		"money": 0,
		"initial_coordinate_x": 2,
		"initial_coordinate_y": 14,
		"reinforcement_BattleReinforcement": 0,
		"initial_direction": 180.0,
		"ai_move_group": 0,
		"ai_target_move_x": -1,
		"ai_target_move_y": -1,
		"ai_skill_function": "",
		"ai_attack": "IF( turn <=4 ,IF(panel_move_distance <= 6, 1, 0),1)",
		"ai_move": "IF(turn <=4,0,1)",
		"ai_heal": "",
		"ai_skill": "",
		"ai_use": "",
		"skill_group_id": 14664,
		"gear_GearGear": 16001,
		"gear_rank": 5,
		"proficiency_UnitProficiency": 6,
		"level": 90,
		"hp": 96,
		"strength": 82,
		"vitality": 65,
		"intelligence": 8,
		"mind": 58,
		"agility": 104,
		"dexterity": 107,
		"lucky": 50,
		"parameter_table_BattleEnemyParameterTable": 0,
		"parameter_deviation_table_BattleEnemyParameterDeviationTable": 0,
		"acquire_skill_group_id": 0,
		"level_correction": 0,
		"group_id": 0,
		"ai_script_id_BattleAIScript": 0
	},
	{
		"ID": 54869,
		"stage_BattleStage": 810001061,
		"unit_UnitUnit": 200154,
		"money": 0,
		"initial_coordinate_x": 2,
		"initial_coordinate_y": 17,
		"reinforcement_BattleReinforcement": 0,
		"initial_direction": 180.0,
		"ai_move_group": 0,
		"ai_target_move_x": -1,
		"ai_target_move_y": -1,
		"ai_skill_function": "",
		"ai_attack": "IF( turn <=5 ,IF(panel_move_distance <= 6, 1, 0),1)",
		"ai_move": "IF(turn <=5,0,1)",
		"ai_heal": "",
		"ai_skill": "",
		"ai_use": "",
		"skill_group_id": 16428,
		"gear_GearGear": 25007,
		"gear_rank": 5,
		"proficiency_UnitProficiency": 5,
		"level": 90,
		"hp": 109,
		"strength": 90,
		"vitality": 69,
		"intelligence": 9,
		"mind": 61,
		"agility": 106,
		"dexterity": 110,
		"lucky": 49,
		"parameter_table_BattleEnemyParameterTable": 0,
		"parameter_deviation_table_BattleEnemyParameterDeviationTable": 0,
		"acquire_skill_group_id": 0,
		"level_correction": 0,
		"group_id": 0,
		"ai_script_id_BattleAIScript": 0
	},
	{
		"ID": 54870,
		"stage_BattleStage": 810001061,
		"unit_UnitUnit": 201953,
		"money": 0,
		"initial_coordinate_x": 9,
		"initial_coordinate_y": 17,
		"reinforcement_BattleReinforcement": 0,
		"initial_direction": 180.0,
		"ai_move_group": 0,
		"ai_target_move_x": -1,
		"ai_target_move_y": -1,
		"ai_skill_function": "",
		"ai_attack": "IF( turn <=5 ,IF(panel_move_distance <= 6, 1, 0),1)",
		"ai_move": "IF(turn <=5,0,1)",
		"ai_heal": "",
		"ai_skill": "",
		"ai_use": "",
		"skill_group_id": 16429,
		"gear_GearGear": 25007,
		"gear_rank": 5,
		"proficiency_UnitProficiency": 5,
		"level": 90,
		"hp": 111,
		"strength": 91,
		"vitality": 70,
		"intelligence": 9,
		"mind": 60,
		"agility": 105,
		"dexterity": 111,
		"lucky": 47,
		"parameter_table_BattleEnemyParameterTable": 0,
		"parameter_deviation_table_BattleEnemyParameterDeviationTable": 0,
		"acquire_skill_group_id": 0,
		"level_correction": 0,
		"group_id": 0,
		"ai_script_id_BattleAIScript": 0
	},
	{
		"ID": 54871,
		"stage_BattleStage": 810001061,
		"unit_UnitUnit": 301413,
		"money": 0,
		"initial_coordinate_x": 19,
		"initial_coordinate_y": 17,
		"reinforcement_BattleReinforcement": 0,
		"initial_direction": 180.0,
		"ai_move_group": 0,
		"ai_target_move_x": -1,
		"ai_target_move_y": -1,
		"ai_skill_function": "",
		"ai_attack": "IF( turn <=3 ,IF(panel_move_distance <= 6, 1, 0),1)",
		"ai_move": "IF(turn <=3,0,1)",
		"ai_heal": "",
		"ai_skill": "",
		"ai_use": "",
		"skill_group_id": 16430,
		"gear_GearGear": 35003,
		"gear_rank": 5,
		"proficiency_UnitProficiency": 5,
		"level": 90,
		"hp": 112,
		"strength": 92,
		"vitality": 68,
		"intelligence": 10,
		"mind": 62,
		"agility": 109,
		"dexterity": 113,
		"lucky": 46,
		"parameter_table_BattleEnemyParameterTable": 0,
		"parameter_deviation_table_BattleEnemyParameterDeviationTable": 0,
		"acquire_skill_group_id": 0,
		"level_correction": 0,
		"group_id": 0,
		"ai_script_id_BattleAIScript": 0
	}
]