[
	{
		"ID": 49259,
		"stage_BattleStage": 810002018,
		"unit_UnitUnit": 820007,
		"money": 0,
		"initial_coordinate_x": 1,
		"initial_coordinate_y": 12,
		"reinforcement_BattleReinforcement": 0,
		"initial_direction": 90.0,
		"ai_move_group": 0,
		"ai_target_move_x": -1,
		"ai_target_move_y": -1,
		"ai_skill_function": "",
		"ai_attack": "IF( turn <=7 ,IF(panel_move_distance <= 3, 1, 0),1)",
		"ai_move": "IF(turn <=7,0,1)",
		"ai_heal": "",
		"ai_skill": "",
		"ai_use": "",
		"skill_group_id": 12825,
		"gear_GearGear": 22003,
		"gear_rank": 1,
		"proficiency_UnitProficiency": 2,
		"level": 55,
		"hp": 94,
		"strength": 91,
		"vitality": 55,
		"intelligence": 6,
		"mind": 24,
		"agility": 39,
		"dexterity": 63,
		"lucky": 45,
		"parameter_table_BattleEnemyParameterTable": 0,
		"parameter_deviation_table_BattleEnemyParameterDeviationTable": 0,
		"acquire_skill_group_id": 0,
		"level_correction": 0,
		"group_id": 0,
		"ai_script_id_BattleAIScript": 0
	},
	{
		"ID": 49260,
		"stage_BattleStage": 810002018,
		"unit_UnitUnit": 820007,
		"money": 0,
		"initial_coordinate_x": 2,
		"initial_coordinate_y": 11,
		"reinforcement_BattleReinforcement": 0,
		"initial_direction": 90.0,
		"ai_move_group": 0,
		"ai_target_move_x": -1,
		"ai_target_move_y": -1,
		"ai_skill_function": "",
		"ai_attack": "IF( turn <=7 ,IF(panel_move_distance <= 3, 1, 0),1)",
		"ai_move": "IF(turn <=7,0,1)",
		"ai_heal": "",
		"ai_skill": "",
		"ai_use": "",
		"skill_group_id": 12826,
		"gear_GearGear": 22003,
		"gear_rank": 1,
		"proficiency_UnitProficiency": 2,
		"level": 55,
		"hp": 93,
		"strength": 92,
		"vitality": 55,
		"intelligence": 6,
		"mind": 23,
		"agility": 39,
		"dexterity": 63,
		"lucky": 42,
		"parameter_table_BattleEnemyParameterTable": 0,
		"parameter_deviation_table_BattleEnemyParameterDeviationTable": 0,
		"acquire_skill_group_id": 0,
		"level_correction": 0,
		"group_id": 0,
		"ai_script_id_BattleAIScript": 0
	},
	{
		"ID": 49261,
		"stage_BattleStage": 810002018,
		"unit_UnitUnit": 820007,
		"money": 0,
		"initial_coordinate_x": 1,
		"initial_coordinate_y": 10,
		"reinforcement_BattleReinforcement": 0,
		"initial_direction": 90.0,
		"ai_move_group": 0,
		"ai_target_move_x": -1,
		"ai_target_move_y": -1,
		"ai_skill_function": "",
		"ai_attack": "IF( turn <=7 ,IF(panel_move_distance <= 3, 1, 0),1)",
		"ai_move": "IF(turn <=7,0,1)",
		"ai_heal": "",
		"ai_skill": "",
		"ai_use": "",
		"skill_group_id": 12824,
		"gear_GearGear": 22003,
		"gear_rank": 1,
		"proficiency_UnitProficiency": 2,
		"level": 55,
		"hp": 94,
		"strength": 91,
		"vitality": 57,
		"intelligence": 7,
		"mind": 24,
		"agility": 40,
		"dexterity": 63,
		"lucky": 41,
		"parameter_table_BattleEnemyParameterTable": 0,
		"parameter_deviation_table_BattleEnemyParameterDeviationTable": 0,
		"acquire_skill_group_id": 0,
		"level_correction": 0,
		"group_id": 0,
		"ai_script_id_BattleAIScript": 0
	},
	{
		"ID": 49262,
		"stage_BattleStage": 810002018,
		"unit_UnitUnit": 830002,
		"money": 0,
		"initial_coordinate_x": 2,
		"initial_coordinate_y": 9,
		"reinforcement_BattleReinforcement": 0,
		"initial_direction": 90.0,
		"ai_move_group": 0,
		"ai_target_move_x": -1,
		"ai_target_move_y": -1,
		"ai_skill_function": "",
		"ai_attack": "IF( turn <=7 ,IF(panel_move_distance <= 3, 1, 0),1)",
		"ai_move": "IF(turn <=7,0,1)",
		"ai_heal": "",
		"ai_skill": "",
		"ai_use": "",
		"skill_group_id": 10231,
		"gear_GearGear": 32003,
		"gear_rank": 1,
		"proficiency_UnitProficiency": 2,
		"level": 55,
		"hp": 89,
		"strength": 81,
		"vitality": 43,
		"intelligence": 6,
		"mind": 33,
		"agility": 57,
		"dexterity": 67,
		"lucky": 41,
		"parameter_table_BattleEnemyParameterTable": 0,
		"parameter_deviation_table_BattleEnemyParameterDeviationTable": 0,
		"acquire_skill_group_id": 0,
		"level_correction": 0,
		"group_id": 0,
		"ai_script_id_BattleAIScript": 0
	},
	{
		"ID": 49263,
		"stage_BattleStage": 810002018,
		"unit_UnitUnit": 830002,
		"money": 0,
		"initial_coordinate_x": 5,
		"initial_coordinate_y": 11,
		"reinforcement_BattleReinforcement": 0,
		"initial_direction": 90.0,
		"ai_move_group": 0,
		"ai_target_move_x": -1,
		"ai_target_move_y": -1,
		"ai_skill_function": "",
		"ai_attack": "IF( turn <=7 ,IF(panel_move_distance <= 3, 1, 0),1)",
		"ai_move": "IF(turn <=7,0,1)",
		"ai_heal": "",
		"ai_skill": "",
		"ai_use": "",
		"skill_group_id": 10232,
		"gear_GearGear": 32003,
		"gear_rank": 1,
		"proficiency_UnitProficiency": 2,
		"level": 55,
		"hp": 89,
		"strength": 80,
		"vitality": 41,
		"intelligence": 7,
		"mind": 34,
		"agility": 57,
		"dexterity": 65,
		"lucky": 42,
		"parameter_table_BattleEnemyParameterTable": 0,
		"parameter_deviation_table_BattleEnemyParameterDeviationTable": 0,
		"acquire_skill_group_id": 0,
		"level_correction": 0,
		"group_id": 0,
		"ai_script_id_BattleAIScript": 0
	},
	{
		"ID": 49264,
		"stage_BattleStage": 810002018,
		"unit_UnitUnit": 830002,
		"money": 0,
		"initial_coordinate_x": 7,
		"initial_coordinate_y": 12,
		"reinforcement_BattleReinforcement": 0,
		"initial_direction": 180.0,
		"ai_move_group": 0,
		"ai_target_move_x": -1,
		"ai_target_move_y": -1,
		"ai_skill_function": "",
		"ai_attack": "IF( turn <=7 ,IF(panel_move_distance <= 3, 1, 0),1)",
		"ai_move": "IF(turn <=7,0,1)",
		"ai_heal": "",
		"ai_skill": "",
		"ai_use": "",
		"skill_group_id": 10233,
		"gear_GearGear": 32003,
		"gear_rank": 1,
		"proficiency_UnitProficiency": 2,
		"level": 55,
		"hp": 89,
		"strength": 80,
		"vitality": 41,
		"intelligence": 6,
		"mind": 32,
		"agility": 57,
		"dexterity": 65,
		"lucky": 42,
		"parameter_table_BattleEnemyParameterTable": 0,
		"parameter_deviation_table_BattleEnemyParameterDeviationTable": 0,
		"acquire_skill_group_id": 0,
		"level_correction": 0,
		"group_id": 0,
		"ai_script_id_BattleAIScript": 0
	},
	{
		"ID": 49265,
		"stage_BattleStage": 810002018,
		"unit_UnitUnit": 900011,
		"money": 0,
		"initial_coordinate_x": 8,
		"initial_coordinate_y": 13,
		"reinforcement_BattleReinforcement": 0,
		"initial_direction": 180.0,
		"ai_move_group": 0,
		"ai_target_move_x": -1,
		"ai_target_move_y": -1,
		"ai_skill_function": "",
		"ai_attack": "IF( turn <=7 ,IF(panel_move_distance <= 3, 1, 0),1)",
		"ai_move": "IF(turn <=7,0,1)",
		"ai_heal": "",
		"ai_skill": "",
		"ai_use": "",
		"skill_group_id": 10234,
		"gear_GearGear": 80003,
		"gear_rank": 1,
		"proficiency_UnitProficiency": 1,
		"level": 55,
		"hp": 85,
		"strength": 39,
		"vitality": 37,
		"intelligence": 17,
		"mind": 46,
		"agility": 52,
		"dexterity": 53,
		"lucky": 48,
		"parameter_table_BattleEnemyParameterTable": 0,
		"parameter_deviation_table_BattleEnemyParameterDeviationTable": 0,
		"acquire_skill_group_id": 0,
		"level_correction": 0,
		"group_id": 0,
		"ai_script_id_BattleAIScript": 0
	},
	{
		"ID": 49266,
		"stage_BattleStage": 810002018,
		"unit_UnitUnit": 900011,
		"money": 0,
		"initial_coordinate_x": 10,
		"initial_coordinate_y": 11,
		"reinforcement_BattleReinforcement": 0,
		"initial_direction": 180.0,
		"ai_move_group": 0,
		"ai_target_move_x": -1,
		"ai_target_move_y": -1,
		"ai_skill_function": "",
		"ai_attack": "IF( turn <=7 ,IF(panel_move_distance <= 3, 1, 0),1)",
		"ai_move": "IF(turn <=7,0,1)",
		"ai_heal": "",
		"ai_skill": "",
		"ai_use": "",
		"skill_group_id": 10235,
		"gear_GearGear": 80003,
		"gear_rank": 1,
		"proficiency_UnitProficiency": 1,
		"level": 55,
		"hp": 84,
		"strength": 37,
		"vitality": 37,
		"intelligence": 17,
		"mind": 46,
		"agility": 53,
		"dexterity": 53,
		"lucky": 51,
		"parameter_table_BattleEnemyParameterTable": 0,
		"parameter_deviation_table_BattleEnemyParameterDeviationTable": 0,
		"acquire_skill_group_id": 0,
		"level_correction": 0,
		"group_id": 0,
		"ai_script_id_BattleAIScript": 0
	},
	{
		"ID": 49267,
		"stage_BattleStage": 810002018,
		"unit_UnitUnit": 900011,
		"money": 0,
		"initial_coordinate_x": 11,
		"initial_coordinate_y": 12,
		"reinforcement_BattleReinforcement": 0,
		"initial_direction": 180.0,
		"ai_move_group": 0,
		"ai_target_move_x": -1,
		"ai_target_move_y": -1,
		"ai_skill_function": "",
		"ai_attack": "IF( turn <=7 ,IF(panel_move_distance <= 3, 1, 0),1)",
		"ai_move": "IF(turn <=7,0,1)",
		"ai_heal": "",
		"ai_skill": "",
		"ai_use": "",
		"skill_group_id": 10236,
		"gear_GearGear": 80003,
		"gear_rank": 1,
		"proficiency_UnitProficiency": 1,
		"level": 55,
		"hp": 83,
		"strength": 38,
		"vitality": 35,
		"intelligence": 16,
		"mind": 46,
		"agility": 52,
		"dexterity": 53,
		"lucky": 53,
		"parameter_table_BattleEnemyParameterTable": 0,
		"parameter_deviation_table_BattleEnemyParameterDeviationTable": 0,
		"acquire_skill_group_id": 0,
		"level_correction": 0,
		"group_id": 0,
		"ai_script_id_BattleAIScript": 0
	},
	{
		"ID": 49268,
		"stage_BattleStage": 810002018,
		"unit_UnitUnit": 900011,
		"money": 0,
		"initial_coordinate_x": 12,
		"initial_coordinate_y": 11,
		"reinforcement_BattleReinforcement": 0,
		"initial_direction": 180.0,
		"ai_move_group": 0,
		"ai_target_move_x": -1,
		"ai_target_move_y": -1,
		"ai_skill_function": "",
		"ai_attack": "IF( turn <=7 ,IF(panel_move_distance <= 3, 1, 0),1)",
		"ai_move": "IF(turn <=7,0,1)",
		"ai_heal": "",
		"ai_skill": "",
		"ai_use": "",
		"skill_group_id": 10231,
		"gear_GearGear": 80003,
		"gear_rank": 1,
		"proficiency_UnitProficiency": 1,
		"level": 55,
		"hp": 83,
		"strength": 38,
		"vitality": 37,
		"intelligence": 18,
		"mind": 47,
		"agility": 54,
		"dexterity": 53,
		"lucky": 53,
		"parameter_table_BattleEnemyParameterTable": 0,
		"parameter_deviation_table_BattleEnemyParameterDeviationTable": 0,
		"acquire_skill_group_id": 0,
		"level_correction": 0,
		"group_id": 0,
		"ai_script_id_BattleAIScript": 0
	},
	{
		"ID": 49269,
		"stage_BattleStage": 810002018,
		"unit_UnitUnit": 830001,
		"money": 0,
		"initial_coordinate_x": 4,
		"initial_coordinate_y": 5,
		"reinforcement_BattleReinforcement": 0,
		"initial_direction": 90.0,
		"ai_move_group": 0,
		"ai_target_move_x": -1,
		"ai_target_move_y": -1,
		"ai_skill_function": "",
		"ai_attack": "",
		"ai_move": "10.0",
		"ai_heal": "",
		"ai_skill": "",
		"ai_use": "",
		"skill_group_id": 2171,
		"gear_GearGear": 32003,
		"gear_rank": 1,
		"proficiency_UnitProficiency": 2,
		"level": 55,
		"hp": 75,
		"strength": 65,
		"vitality": 42,
		"intelligence": 16,
		"mind": 43,
		"agility": 60,
		"dexterity": 68,
		"lucky": 41,
		"parameter_table_BattleEnemyParameterTable": 0,
		"parameter_deviation_table_BattleEnemyParameterDeviationTable": 0,
		"acquire_skill_group_id": 0,
		"level_correction": 0,
		"group_id": 0,
		"ai_script_id_BattleAIScript": 0
	},
	{
		"ID": 49270,
		"stage_BattleStage": 810002018,
		"unit_UnitUnit": 830001,
		"money": 0,
		"initial_coordinate_x": 3,
		"initial_coordinate_y": 4,
		"reinforcement_BattleReinforcement": 0,
		"initial_direction": 90.0,
		"ai_move_group": 0,
		"ai_target_move_x": -1,
		"ai_target_move_y": -1,
		"ai_skill_function": "",
		"ai_attack": "",
		"ai_move": "10.0",
		"ai_heal": "",
		"ai_skill": "",
		"ai_use": "",
		"skill_group_id": 2172,
		"gear_GearGear": 32003,
		"gear_rank": 1,
		"proficiency_UnitProficiency": 2,
		"level": 55,
		"hp": 77,
		"strength": 63,
		"vitality": 44,
		"intelligence": 16,
		"mind": 44,
		"agility": 62,
		"dexterity": 68,
		"lucky": 41,
		"parameter_table_BattleEnemyParameterTable": 0,
		"parameter_deviation_table_BattleEnemyParameterDeviationTable": 0,
		"acquire_skill_group_id": 0,
		"level_correction": 0,
		"group_id": 0,
		"ai_script_id_BattleAIScript": 0
	},
	{
		"ID": 49271,
		"stage_BattleStage": 810002018,
		"unit_UnitUnit": 830001,
		"money": 0,
		"initial_coordinate_x": 4,
		"initial_coordinate_y": 2,
		"reinforcement_BattleReinforcement": 0,
		"initial_direction": 90.0,
		"ai_move_group": 0,
		"ai_target_move_x": -1,
		"ai_target_move_y": -1,
		"ai_skill_function": "",
		"ai_attack": "",
		"ai_move": "10.0",
		"ai_heal": "",
		"ai_skill": "",
		"ai_use": "",
		"skill_group_id": 2173,
		"gear_GearGear": 32003,
		"gear_rank": 1,
		"proficiency_UnitProficiency": 2,
		"level": 55,
		"hp": 77,
		"strength": 65,
		"vitality": 44,
		"intelligence": 15,
		"mind": 44,
		"agility": 61,
		"dexterity": 69,
		"lucky": 41,
		"parameter_table_BattleEnemyParameterTable": 0,
		"parameter_deviation_table_BattleEnemyParameterDeviationTable": 0,
		"acquire_skill_group_id": 0,
		"level_correction": 0,
		"group_id": 0,
		"ai_script_id_BattleAIScript": 0
	},
	{
		"ID": 49272,
		"stage_BattleStage": 810002018,
		"unit_UnitUnit": 920014,
		"money": 0,
		"initial_coordinate_x": 10,
		"initial_coordinate_y": 6,
		"reinforcement_BattleReinforcement": 0,
		"initial_direction": 180.0,
		"ai_move_group": 0,
		"ai_target_move_x": -1,
		"ai_target_move_y": -1,
		"ai_skill_function": "",
		"ai_attack": "",
		"ai_move": "10.0",
		"ai_heal": "",
		"ai_skill": "",
		"ai_use": "",
		"skill_group_id": 2174,
		"gear_GearGear": 22003,
		"gear_rank": 1,
		"proficiency_UnitProficiency": 2,
		"level": 55,
		"hp": 71,
		"strength": 70,
		"vitality": 37,
		"intelligence": 14,
		"mind": 48,
		"agility": 57,
		"dexterity": 71,
		"lucky": 42,
		"parameter_table_BattleEnemyParameterTable": 0,
		"parameter_deviation_table_BattleEnemyParameterDeviationTable": 0,
		"acquire_skill_group_id": 0,
		"level_correction": 0,
		"group_id": 0,
		"ai_script_id_BattleAIScript": 0
	},
	{
		"ID": 49273,
		"stage_BattleStage": 810002018,
		"unit_UnitUnit": 920014,
		"money": 0,
		"initial_coordinate_x": 9,
		"initial_coordinate_y": 4,
		"reinforcement_BattleReinforcement": 0,
		"initial_direction": 180.0,
		"ai_move_group": 0,
		"ai_target_move_x": -1,
		"ai_target_move_y": -1,
		"ai_skill_function": "",
		"ai_attack": "",
		"ai_move": "10.0",
		"ai_heal": "",
		"ai_skill": "",
		"ai_use": "",
		"skill_group_id": 2175,
		"gear_GearGear": 22003,
		"gear_rank": 1,
		"proficiency_UnitProficiency": 2,
		"level": 55,
		"hp": 72,
		"strength": 71,
		"vitality": 39,
		"intelligence": 15,
		"mind": 47,
		"agility": 56,
		"dexterity": 72,
		"lucky": 41,
		"parameter_table_BattleEnemyParameterTable": 0,
		"parameter_deviation_table_BattleEnemyParameterDeviationTable": 0,
		"acquire_skill_group_id": 0,
		"level_correction": 0,
		"group_id": 0,
		"ai_script_id_BattleAIScript": 0
	}
]