[
	{
		"ID": 73043,
		"stage_BattleStage": 810005083,
		"unit_UnitUnit": 910019,
		"money": 0,
		"initial_coordinate_x": 3,
		"initial_coordinate_y": 17,
		"reinforcement_BattleReinforcement": 0,
		"initial_direction": 90.0,
		"ai_move_group": 0,
		"ai_target_move_x": -1,
		"ai_target_move_y": -1,
		"ai_skill_function": "",
		"ai_attack": "1.0",
		"ai_move": "IF(turn <2,0,1)",
		"ai_heal": "",
		"ai_skill": "",
		"ai_use": "",
		"skill_group_id": 17081,
		"gear_GearGear": 15007,
		"gear_rank": 8,
		"proficiency_UnitProficiency": 5,
		"level": 90,
		"hp": 26,
		"strength": 125,
		"vitality": 79,
		"intelligence": 10,
		"mind": 66,
		"agility": 115,
		"dexterity": 121,
		"lucky": 56,
		"parameter_table_BattleEnemyParameterTable": 0,
		"parameter_deviation_table_BattleEnemyParameterDeviationTable": 0,
		"acquire_skill_group_id": 0,
		"level_correction": 0,
		"group_id": 0,
		"ai_script_id_BattleAIScript": 0
	},
	{
		"ID": 73044,
		"stage_BattleStage": 810005083,
		"unit_UnitUnit": 910019,
		"money": 0,
		"initial_coordinate_x": 3,
		"initial_coordinate_y": 16,
		"reinforcement_BattleReinforcement": 0,
		"initial_direction": 90.0,
		"ai_move_group": 0,
		"ai_target_move_x": -1,
		"ai_target_move_y": -1,
		"ai_skill_function": "",
		"ai_attack": "1.0",
		"ai_move": "IF(turn <2,0,1)",
		"ai_heal": "",
		"ai_skill": "",
		"ai_use": "",
		"skill_group_id": 17081,
		"gear_GearGear": 15007,
		"gear_rank": 8,
		"proficiency_UnitProficiency": 5,
		"level": 90,
		"hp": 25,
		"strength": 126,
		"vitality": 77,
		"intelligence": 11,
		"mind": 65,
		"agility": 117,
		"dexterity": 122,
		"lucky": 51,
		"parameter_table_BattleEnemyParameterTable": 0,
		"parameter_deviation_table_BattleEnemyParameterDeviationTable": 0,
		"acquire_skill_group_id": 0,
		"level_correction": 0,
		"group_id": 0,
		"ai_script_id_BattleAIScript": 0
	},
	{
		"ID": 73045,
		"stage_BattleStage": 810005083,
		"unit_UnitUnit": 910019,
		"money": 0,
		"initial_coordinate_x": 2,
		"initial_coordinate_y": 17,
		"reinforcement_BattleReinforcement": 0,
		"initial_direction": 90.0,
		"ai_move_group": 0,
		"ai_target_move_x": -1,
		"ai_target_move_y": -1,
		"ai_skill_function": "",
		"ai_attack": "1.0",
		"ai_move": "IF(turn <2,0,1)",
		"ai_heal": "",
		"ai_skill": "",
		"ai_use": "",
		"skill_group_id": 17081,
		"gear_GearGear": 15007,
		"gear_rank": 8,
		"proficiency_UnitProficiency": 5,
		"level": 90,
		"hp": 26,
		"strength": 126,
		"vitality": 79,
		"intelligence": 10,
		"mind": 62,
		"agility": 115,
		"dexterity": 119,
		"lucky": 55,
		"parameter_table_BattleEnemyParameterTable": 0,
		"parameter_deviation_table_BattleEnemyParameterDeviationTable": 0,
		"acquire_skill_group_id": 0,
		"level_correction": 0,
		"group_id": 0,
		"ai_script_id_BattleAIScript": 0
	},
	{
		"ID": 73046,
		"stage_BattleStage": 810005083,
		"unit_UnitUnit": 910019,
		"money": 0,
		"initial_coordinate_x": 2,
		"initial_coordinate_y": 16,
		"reinforcement_BattleReinforcement": 0,
		"initial_direction": 90.0,
		"ai_move_group": 0,
		"ai_target_move_x": -1,
		"ai_target_move_y": -1,
		"ai_skill_function": "",
		"ai_attack": "1.0",
		"ai_move": "IF(turn <2,0,1)",
		"ai_heal": "",
		"ai_skill": "",
		"ai_use": "",
		"skill_group_id": 17081,
		"gear_GearGear": 15007,
		"gear_rank": 8,
		"proficiency_UnitProficiency": 5,
		"level": 90,
		"hp": 26,
		"strength": 127,
		"vitality": 77,
		"intelligence": 11,
		"mind": 62,
		"agility": 117,
		"dexterity": 120,
		"lucky": 55,
		"parameter_table_BattleEnemyParameterTable": 0,
		"parameter_deviation_table_BattleEnemyParameterDeviationTable": 0,
		"acquire_skill_group_id": 0,
		"level_correction": 0,
		"group_id": 0,
		"ai_script_id_BattleAIScript": 0
	},
	{
		"ID": 73047,
		"stage_BattleStage": 810005083,
		"unit_UnitUnit": 910019,
		"money": 0,
		"initial_coordinate_x": 1,
		"initial_coordinate_y": 17,
		"reinforcement_BattleReinforcement": 0,
		"initial_direction": 90.0,
		"ai_move_group": 0,
		"ai_target_move_x": -1,
		"ai_target_move_y": -1,
		"ai_skill_function": "",
		"ai_attack": "1.0",
		"ai_move": "IF(turn <2,0,1)",
		"ai_heal": "",
		"ai_skill": "",
		"ai_use": "",
		"skill_group_id": 17081,
		"gear_GearGear": 15007,
		"gear_rank": 8,
		"proficiency_UnitProficiency": 5,
		"level": 90,
		"hp": 27,
		"strength": 126,
		"vitality": 79,
		"intelligence": 11,
		"mind": 62,
		"agility": 119,
		"dexterity": 119,
		"lucky": 56,
		"parameter_table_BattleEnemyParameterTable": 0,
		"parameter_deviation_table_BattleEnemyParameterDeviationTable": 0,
		"acquire_skill_group_id": 0,
		"level_correction": 0,
		"group_id": 0,
		"ai_script_id_BattleAIScript": 0
	},
	{
		"ID": 73048,
		"stage_BattleStage": 810005083,
		"unit_UnitUnit": 910019,
		"money": 0,
		"initial_coordinate_x": 1,
		"initial_coordinate_y": 16,
		"reinforcement_BattleReinforcement": 0,
		"initial_direction": 90.0,
		"ai_move_group": 0,
		"ai_target_move_x": -1,
		"ai_target_move_y": -1,
		"ai_skill_function": "",
		"ai_attack": "1.0",
		"ai_move": "IF(turn <2,0,1)",
		"ai_heal": "",
		"ai_skill": "",
		"ai_use": "",
		"skill_group_id": 17081,
		"gear_GearGear": 15007,
		"gear_rank": 8,
		"proficiency_UnitProficiency": 5,
		"level": 90,
		"hp": 26,
		"strength": 126,
		"vitality": 76,
		"intelligence": 13,
		"mind": 67,
		"agility": 119,
		"dexterity": 120,
		"lucky": 56,
		"parameter_table_BattleEnemyParameterTable": 0,
		"parameter_deviation_table_BattleEnemyParameterDeviationTable": 0,
		"acquire_skill_group_id": 0,
		"level_correction": 0,
		"group_id": 0,
		"ai_script_id_BattleAIScript": 0
	},
	{
		"ID": 73049,
		"stage_BattleStage": 810005083,
		"unit_UnitUnit": 840004,
		"money": 0,
		"initial_coordinate_x": 20,
		"initial_coordinate_y": 12,
		"reinforcement_BattleReinforcement": 0,
		"initial_direction": 180.0,
		"ai_move_group": 0,
		"ai_target_move_x": -1,
		"ai_target_move_y": -1,
		"ai_skill_function": "",
		"ai_attack": "",
		"ai_move": "",
		"ai_heal": "",
		"ai_skill": "",
		"ai_use": "",
		"skill_group_id": 15114,
		"gear_GearGear": 45008,
		"gear_rank": 8,
		"proficiency_UnitProficiency": 5,
		"level": 90,
		"hp": 111,
		"strength": 15,
		"vitality": 82,
		"intelligence": 13,
		"mind": 75,
		"agility": 106,
		"dexterity": 108,
		"lucky": 56,
		"parameter_table_BattleEnemyParameterTable": 0,
		"parameter_deviation_table_BattleEnemyParameterDeviationTable": 0,
		"acquire_skill_group_id": 0,
		"level_correction": 0,
		"group_id": 0,
		"ai_script_id_BattleAIScript": 0
	},
	{
		"ID": 73050,
		"stage_BattleStage": 810005083,
		"unit_UnitUnit": 840004,
		"money": 0,
		"initial_coordinate_x": 21,
		"initial_coordinate_y": 11,
		"reinforcement_BattleReinforcement": 0,
		"initial_direction": 180.0,
		"ai_move_group": 0,
		"ai_target_move_x": -1,
		"ai_target_move_y": -1,
		"ai_skill_function": "",
		"ai_attack": "",
		"ai_move": "",
		"ai_heal": "",
		"ai_skill": "",
		"ai_use": "",
		"skill_group_id": 15114,
		"gear_GearGear": 45008,
		"gear_rank": 8,
		"proficiency_UnitProficiency": 5,
		"level": 90,
		"hp": 108,
		"strength": 15,
		"vitality": 81,
		"intelligence": 12,
		"mind": 74,
		"agility": 108,
		"dexterity": 108,
		"lucky": 55,
		"parameter_table_BattleEnemyParameterTable": 0,
		"parameter_deviation_table_BattleEnemyParameterDeviationTable": 0,
		"acquire_skill_group_id": 0,
		"level_correction": 0,
		"group_id": 0,
		"ai_script_id_BattleAIScript": 0
	},
	{
		"ID": 73051,
		"stage_BattleStage": 810005083,
		"unit_UnitUnit": 840004,
		"money": 0,
		"initial_coordinate_x": 14,
		"initial_coordinate_y": 9,
		"reinforcement_BattleReinforcement": 0,
		"initial_direction": 90.0,
		"ai_move_group": 0,
		"ai_target_move_x": -1,
		"ai_target_move_y": -1,
		"ai_skill_function": "",
		"ai_attack": "",
		"ai_move": "",
		"ai_heal": "",
		"ai_skill": "",
		"ai_use": "",
		"skill_group_id": 15113,
		"gear_GearGear": 45007,
		"gear_rank": 8,
		"proficiency_UnitProficiency": 5,
		"level": 90,
		"hp": 109,
		"strength": 15,
		"vitality": 80,
		"intelligence": 12,
		"mind": 79,
		"agility": 108,
		"dexterity": 113,
		"lucky": 55,
		"parameter_table_BattleEnemyParameterTable": 0,
		"parameter_deviation_table_BattleEnemyParameterDeviationTable": 0,
		"acquire_skill_group_id": 0,
		"level_correction": 0,
		"group_id": 0,
		"ai_script_id_BattleAIScript": 0
	},
	{
		"ID": 73052,
		"stage_BattleStage": 810005083,
		"unit_UnitUnit": 840004,
		"money": 0,
		"initial_coordinate_x": 14,
		"initial_coordinate_y": 8,
		"reinforcement_BattleReinforcement": 0,
		"initial_direction": 90.0,
		"ai_move_group": 0,
		"ai_target_move_x": -1,
		"ai_target_move_y": -1,
		"ai_skill_function": "",
		"ai_attack": "",
		"ai_move": "",
		"ai_heal": "",
		"ai_skill": "",
		"ai_use": "",
		"skill_group_id": 15113,
		"gear_GearGear": 45007,
		"gear_rank": 8,
		"proficiency_UnitProficiency": 5,
		"level": 90,
		"hp": 111,
		"strength": 15,
		"vitality": 80,
		"intelligence": 14,
		"mind": 77,
		"agility": 105,
		"dexterity": 112,
		"lucky": 55,
		"parameter_table_BattleEnemyParameterTable": 0,
		"parameter_deviation_table_BattleEnemyParameterDeviationTable": 0,
		"acquire_skill_group_id": 0,
		"level_correction": 0,
		"group_id": 0,
		"ai_script_id_BattleAIScript": 0
	},
	{
		"ID": 73053,
		"stage_BattleStage": 810005083,
		"unit_UnitUnit": 840004,
		"money": 0,
		"initial_coordinate_x": 14,
		"initial_coordinate_y": 11,
		"reinforcement_BattleReinforcement": 0,
		"initial_direction": 90.0,
		"ai_move_group": 0,
		"ai_target_move_x": -1,
		"ai_target_move_y": -1,
		"ai_skill_function": "",
		"ai_attack": "",
		"ai_move": "",
		"ai_heal": "",
		"ai_skill": "",
		"ai_use": "",
		"skill_group_id": 15114,
		"gear_GearGear": 45007,
		"gear_rank": 8,
		"proficiency_UnitProficiency": 5,
		"level": 90,
		"hp": 111,
		"strength": 15,
		"vitality": 80,
		"intelligence": 13,
		"mind": 75,
		"agility": 104,
		"dexterity": 109,
		"lucky": 55,
		"parameter_table_BattleEnemyParameterTable": 0,
		"parameter_deviation_table_BattleEnemyParameterDeviationTable": 0,
		"acquire_skill_group_id": 0,
		"level_correction": 0,
		"group_id": 0,
		"ai_script_id_BattleAIScript": 0
	},
	{
		"ID": 73054,
		"stage_BattleStage": 810005083,
		"unit_UnitUnit": 840004,
		"money": 0,
		"initial_coordinate_x": 13,
		"initial_coordinate_y": 11,
		"reinforcement_BattleReinforcement": 0,
		"initial_direction": 90.0,
		"ai_move_group": 0,
		"ai_target_move_x": -1,
		"ai_target_move_y": -1,
		"ai_skill_function": "",
		"ai_attack": "",
		"ai_move": "",
		"ai_heal": "",
		"ai_skill": "",
		"ai_use": "",
		"skill_group_id": 15114,
		"gear_GearGear": 45007,
		"gear_rank": 8,
		"proficiency_UnitProficiency": 5,
		"level": 90,
		"hp": 111,
		"strength": 15,
		"vitality": 82,
		"intelligence": 13,
		"mind": 75,
		"agility": 106,
		"dexterity": 108,
		"lucky": 56,
		"parameter_table_BattleEnemyParameterTable": 0,
		"parameter_deviation_table_BattleEnemyParameterDeviationTable": 0,
		"acquire_skill_group_id": 0,
		"level_correction": 0,
		"group_id": 0,
		"ai_script_id_BattleAIScript": 0
	},
	{
		"ID": 73055,
		"stage_BattleStage": 810005083,
		"unit_UnitUnit": 900012,
		"money": 0,
		"initial_coordinate_x": 20,
		"initial_coordinate_y": 10,
		"reinforcement_BattleReinforcement": 0,
		"initial_direction": 180.0,
		"ai_move_group": 0,
		"ai_target_move_x": -1,
		"ai_target_move_y": -1,
		"ai_skill_function": "",
		"ai_attack": "0.0",
		"ai_move": "IF(turn <8,0,1)",
		"ai_heal": "",
		"ai_skill": "",
		"ai_use": "",
		"skill_group_id": 17072,
		"gear_GearGear": 80005,
		"gear_rank": 8,
		"proficiency_UnitProficiency": 1,
		"level": 90,
		"hp": 566,
		"strength": 50,
		"vitality": 134,
		"intelligence": 13,
		"mind": 52,
		"agility": 82,
		"dexterity": 90,
		"lucky": 52,
		"parameter_table_BattleEnemyParameterTable": 0,
		"parameter_deviation_table_BattleEnemyParameterDeviationTable": 0,
		"acquire_skill_group_id": 0,
		"level_correction": 0,
		"group_id": 0,
		"ai_script_id_BattleAIScript": 0
	},
	{
		"ID": 73056,
		"stage_BattleStage": 810005083,
		"unit_UnitUnit": 900012,
		"money": 0,
		"initial_coordinate_x": 20,
		"initial_coordinate_y": 13,
		"reinforcement_BattleReinforcement": 0,
		"initial_direction": 180.0,
		"ai_move_group": 0,
		"ai_target_move_x": -1,
		"ai_target_move_y": -1,
		"ai_skill_function": "",
		"ai_attack": "0.0",
		"ai_move": "IF(turn <8,0,1)",
		"ai_heal": "",
		"ai_skill": "",
		"ai_use": "",
		"skill_group_id": 17072,
		"gear_GearGear": 80005,
		"gear_rank": 8,
		"proficiency_UnitProficiency": 1,
		"level": 90,
		"hp": 564,
		"strength": 50,
		"vitality": 130,
		"intelligence": 10,
		"mind": 51,
		"agility": 83,
		"dexterity": 86,
		"lucky": 53,
		"parameter_table_BattleEnemyParameterTable": 0,
		"parameter_deviation_table_BattleEnemyParameterDeviationTable": 0,
		"acquire_skill_group_id": 0,
		"level_correction": 0,
		"group_id": 0,
		"ai_script_id_BattleAIScript": 0
	},
	{
		"ID": 73057,
		"stage_BattleStage": 810005083,
		"unit_UnitUnit": 900012,
		"money": 0,
		"initial_coordinate_x": 20,
		"initial_coordinate_y": 16,
		"reinforcement_BattleReinforcement": 0,
		"initial_direction": 180.0,
		"ai_move_group": 0,
		"ai_target_move_x": -1,
		"ai_target_move_y": -1,
		"ai_skill_function": "",
		"ai_attack": "0.0",
		"ai_move": "IF(turn <8,0,1)",
		"ai_heal": "",
		"ai_skill": "",
		"ai_use": "",
		"skill_group_id": 17072,
		"gear_GearGear": 80005,
		"gear_rank": 8,
		"proficiency_UnitProficiency": 1,
		"level": 90,
		"hp": 566,
		"strength": 50,
		"vitality": 133,
		"intelligence": 9,
		"mind": 54,
		"agility": 82,
		"dexterity": 88,
		"lucky": 54,
		"parameter_table_BattleEnemyParameterTable": 0,
		"parameter_deviation_table_BattleEnemyParameterDeviationTable": 0,
		"acquire_skill_group_id": 0,
		"level_correction": 0,
		"group_id": 0,
		"ai_script_id_BattleAIScript": 0
	},
	{
		"ID": 73058,
		"stage_BattleStage": 810005083,
		"unit_UnitUnit": 900012,
		"money": 0,
		"initial_coordinate_x": 18,
		"initial_coordinate_y": 17,
		"reinforcement_BattleReinforcement": 0,
		"initial_direction": 180.0,
		"ai_move_group": 0,
		"ai_target_move_x": -1,
		"ai_target_move_y": -1,
		"ai_skill_function": "",
		"ai_attack": "0.0",
		"ai_move": "IF(turn <8,0,1)",
		"ai_heal": "",
		"ai_skill": "",
		"ai_use": "",
		"skill_group_id": 17072,
		"gear_GearGear": 80005,
		"gear_rank": 8,
		"proficiency_UnitProficiency": 1,
		"level": 90,
		"hp": 567,
		"strength": 50,
		"vitality": 130,
		"intelligence": 11,
		"mind": 52,
		"agility": 81,
		"dexterity": 91,
		"lucky": 55,
		"parameter_table_BattleEnemyParameterTable": 0,
		"parameter_deviation_table_BattleEnemyParameterDeviationTable": 0,
		"acquire_skill_group_id": 0,
		"level_correction": 0,
		"group_id": 0,
		"ai_script_id_BattleAIScript": 0
	},
	{
		"ID": 73059,
		"stage_BattleStage": 810005083,
		"unit_UnitUnit": 900012,
		"money": 0,
		"initial_coordinate_x": 15,
		"initial_coordinate_y": 17,
		"reinforcement_BattleReinforcement": 0,
		"initial_direction": 180.0,
		"ai_move_group": 0,
		"ai_target_move_x": -1,
		"ai_target_move_y": -1,
		"ai_skill_function": "",
		"ai_attack": "0.0",
		"ai_move": "IF(turn <8,0,1)",
		"ai_heal": "",
		"ai_skill": "",
		"ai_use": "",
		"skill_group_id": 17072,
		"gear_GearGear": 80005,
		"gear_rank": 8,
		"proficiency_UnitProficiency": 1,
		"level": 90,
		"hp": 566,
		"strength": 50,
		"vitality": 131,
		"intelligence": 11,
		"mind": 54,
		"agility": 85,
		"dexterity": 91,
		"lucky": 51,
		"parameter_table_BattleEnemyParameterTable": 0,
		"parameter_deviation_table_BattleEnemyParameterDeviationTable": 0,
		"acquire_skill_group_id": 0,
		"level_correction": 0,
		"group_id": 0,
		"ai_script_id_BattleAIScript": 0
	},
	{
		"ID": 73060,
		"stage_BattleStage": 810005083,
		"unit_UnitUnit": 102313,
		"money": 0,
		"initial_coordinate_x": 4,
		"initial_coordinate_y": 3,
		"reinforcement_BattleReinforcement": 0,
		"initial_direction": 90.0,
		"ai_move_group": 0,
		"ai_target_move_x": -1,
		"ai_target_move_y": -1,
		"ai_skill_function": "",
		"ai_attack": "IF( turn <=8 ,IF(panel_move_distance <= 9, 1, 0),1)",
		"ai_move": "IF(turn <=8,0,1)",
		"ai_heal": "",
		"ai_skill": "",
		"ai_use": "",
		"skill_group_id": 16382,
		"gear_GearGear": 16035,
		"gear_rank": 8,
		"proficiency_UnitProficiency": 6,
		"level": 90,
		"hp": 426,
		"strength": 105,
		"vitality": 86,
		"intelligence": 34,
		"mind": 74,
		"agility": 114,
		"dexterity": 121,
		"lucky": 55,
		"parameter_table_BattleEnemyParameterTable": 0,
		"parameter_deviation_table_BattleEnemyParameterDeviationTable": 0,
		"acquire_skill_group_id": 0,
		"level_correction": 0,
		"group_id": 0,
		"ai_script_id_BattleAIScript": 0
	},
	{
		"ID": 73061,
		"stage_BattleStage": 810005083,
		"unit_UnitUnit": 201113,
		"money": 0,
		"initial_coordinate_x": 5,
		"initial_coordinate_y": 2,
		"reinforcement_BattleReinforcement": 0,
		"initial_direction": 90.0,
		"ai_move_group": 0,
		"ai_target_move_x": -1,
		"ai_target_move_y": -1,
		"ai_skill_function": "",
		"ai_attack": "IF( turn <=8 ,IF(panel_move_distance <= 9, 1, 0),1)",
		"ai_move": "IF(turn <=8,0,1)",
		"ai_heal": "",
		"ai_skill": "",
		"ai_use": "",
		"skill_group_id": 16931,
		"gear_GearGear": 26007,
		"gear_rank": 8,
		"proficiency_UnitProficiency": 6,
		"level": 90,
		"hp": 445,
		"strength": 104,
		"vitality": 70,
		"intelligence": 31,
		"mind": 35,
		"agility": 81,
		"dexterity": 83,
		"lucky": 64,
		"parameter_table_BattleEnemyParameterTable": 0,
		"parameter_deviation_table_BattleEnemyParameterDeviationTable": 0,
		"acquire_skill_group_id": 0,
		"level_correction": 0,
		"group_id": 0,
		"ai_script_id_BattleAIScript": 0
	},
	{
		"ID": 73062,
		"stage_BattleStage": 810005083,
		"unit_UnitUnit": 201713,
		"money": 0,
		"initial_coordinate_x": 5,
		"initial_coordinate_y": 1,
		"reinforcement_BattleReinforcement": 0,
		"initial_direction": 90.0,
		"ai_move_group": 0,
		"ai_target_move_x": -1,
		"ai_target_move_y": -1,
		"ai_skill_function": "",
		"ai_attack": "IF( turn <=8 ,IF(panel_move_distance <= 9, 1, 0),1)",
		"ai_move": "IF(turn <=8,0,1)",
		"ai_heal": "",
		"ai_skill": "",
		"ai_use": "",
		"skill_group_id": 13550,
		"gear_GearGear": 26007,
		"gear_rank": 8,
		"proficiency_UnitProficiency": 6,
		"level": 90,
		"hp": 448,
		"strength": 106,
		"vitality": 65,
		"intelligence": 35,
		"mind": 36,
		"agility": 85,
		"dexterity": 86,
		"lucky": 61,
		"parameter_table_BattleEnemyParameterTable": 0,
		"parameter_deviation_table_BattleEnemyParameterDeviationTable": 0,
		"acquire_skill_group_id": 0,
		"level_correction": 0,
		"group_id": 0,
		"ai_script_id_BattleAIScript": 0
	},
	{
		"ID": 73063,
		"stage_BattleStage": 810005083,
		"unit_UnitUnit": 102613,
		"money": 0,
		"initial_coordinate_x": 4,
		"initial_coordinate_y": 2,
		"reinforcement_BattleReinforcement": 0,
		"initial_direction": 90.0,
		"ai_move_group": 0,
		"ai_target_move_x": -1,
		"ai_target_move_y": -1,
		"ai_skill_function": "",
		"ai_attack": "IF( turn <=8 ,IF(panel_move_distance <= 9, 1, 0),1)",
		"ai_move": "IF(turn <=8,0,1)",
		"ai_heal": "",
		"ai_skill": "",
		"ai_use": "",
		"skill_group_id": 13903,
		"gear_GearGear": 16035,
		"gear_rank": 8,
		"proficiency_UnitProficiency": 6,
		"level": 90,
		"hp": 438,
		"strength": 92,
		"vitality": 64,
		"intelligence": 35,
		"mind": 47,
		"agility": 98,
		"dexterity": 102,
		"lucky": 69,
		"parameter_table_BattleEnemyParameterTable": 0,
		"parameter_deviation_table_BattleEnemyParameterDeviationTable": 0,
		"acquire_skill_group_id": 0,
		"level_correction": 0,
		"group_id": 0,
		"ai_script_id_BattleAIScript": 0
	},
	{
		"ID": 73064,
		"stage_BattleStage": 810005083,
		"unit_UnitUnit": 201913,
		"money": 0,
		"initial_coordinate_x": 3,
		"initial_coordinate_y": 3,
		"reinforcement_BattleReinforcement": 0,
		"initial_direction": 90.0,
		"ai_move_group": 0,
		"ai_target_move_x": -1,
		"ai_target_move_y": -1,
		"ai_skill_function": "",
		"ai_attack": "IF( turn <=8 ,IF(panel_move_distance <= 9, 1, 0),1)",
		"ai_move": "IF(turn <=8,0,1)",
		"ai_heal": "",
		"ai_skill": "",
		"ai_use": "",
		"skill_group_id": 16969,
		"gear_GearGear": 26007,
		"gear_rank": 8,
		"proficiency_UnitProficiency": 6,
		"level": 90,
		"hp": 443,
		"strength": 103,
		"vitality": 69,
		"intelligence": 46,
		"mind": 33,
		"agility": 87,
		"dexterity": 85,
		"lucky": 62,
		"parameter_table_BattleEnemyParameterTable": 0,
		"parameter_deviation_table_BattleEnemyParameterDeviationTable": 0,
		"acquire_skill_group_id": 0,
		"level_correction": 0,
		"group_id": 0,
		"ai_script_id_BattleAIScript": 0
	},
	{
		"ID": 73065,
		"stage_BattleStage": 810005083,
		"unit_UnitUnit": 900012,
		"money": 0,
		"initial_coordinate_x": 6,
		"initial_coordinate_y": 12,
		"reinforcement_BattleReinforcement": 0,
		"initial_direction": 90.0,
		"ai_move_group": 0,
		"ai_target_move_x": -1,
		"ai_target_move_y": -1,
		"ai_skill_function": "",
		"ai_attack": "0.0",
		"ai_move": "IF(turn <8,0,1)",
		"ai_heal": "",
		"ai_skill": "",
		"ai_use": "",
		"skill_group_id": 17073,
		"gear_GearGear": 80005,
		"gear_rank": 8,
		"proficiency_UnitProficiency": 1,
		"level": 90,
		"hp": 365,
		"strength": 50,
		"vitality": 130,
		"intelligence": 11,
		"mind": 52,
		"agility": 82,
		"dexterity": 88,
		"lucky": 53,
		"parameter_table_BattleEnemyParameterTable": 0,
		"parameter_deviation_table_BattleEnemyParameterDeviationTable": 0,
		"acquire_skill_group_id": 0,
		"level_correction": 0,
		"group_id": 0,
		"ai_script_id_BattleAIScript": 0
	},
	{
		"ID": 73066,
		"stage_BattleStage": 810005083,
		"unit_UnitUnit": 900012,
		"money": 0,
		"initial_coordinate_x": 5,
		"initial_coordinate_y": 9,
		"reinforcement_BattleReinforcement": 0,
		"initial_direction": 90.0,
		"ai_move_group": 0,
		"ai_target_move_x": -1,
		"ai_target_move_y": -1,
		"ai_skill_function": "",
		"ai_attack": "0.0",
		"ai_move": "IF(turn <8,0,1)",
		"ai_heal": "",
		"ai_skill": "",
		"ai_use": "",
		"skill_group_id": 17073,
		"gear_GearGear": 80005,
		"gear_rank": 8,
		"proficiency_UnitProficiency": 1,
		"level": 90,
		"hp": 366,
		"strength": 50,
		"vitality": 131,
		"intelligence": 8,
		"mind": 54,
		"agility": 84,
		"dexterity": 86,
		"lucky": 52,
		"parameter_table_BattleEnemyParameterTable": 0,
		"parameter_deviation_table_BattleEnemyParameterDeviationTable": 0,
		"acquire_skill_group_id": 0,
		"level_correction": 0,
		"group_id": 0,
		"ai_script_id_BattleAIScript": 0
	},
	{
		"ID": 73067,
		"stage_BattleStage": 810005083,
		"unit_UnitUnit": 900012,
		"money": 0,
		"initial_coordinate_x": 4,
		"initial_coordinate_y": 11,
		"reinforcement_BattleReinforcement": 0,
		"initial_direction": 90.0,
		"ai_move_group": 0,
		"ai_target_move_x": -1,
		"ai_target_move_y": -1,
		"ai_skill_function": "",
		"ai_attack": "0.0",
		"ai_move": "IF(turn <8,0,1)",
		"ai_heal": "",
		"ai_skill": "",
		"ai_use": "",
		"skill_group_id": 17073,
		"gear_GearGear": 80005,
		"gear_rank": 8,
		"proficiency_UnitProficiency": 1,
		"level": 90,
		"hp": 362,
		"strength": 50,
		"vitality": 132,
		"intelligence": 12,
		"mind": 53,
		"agility": 82,
		"dexterity": 87,
		"lucky": 53,
		"parameter_table_BattleEnemyParameterTable": 0,
		"parameter_deviation_table_BattleEnemyParameterDeviationTable": 0,
		"acquire_skill_group_id": 0,
		"level_correction": 0,
		"group_id": 0,
		"ai_script_id_BattleAIScript": 0
	},
	{
		"ID": 73068,
		"stage_BattleStage": 810005083,
		"unit_UnitUnit": 900012,
		"money": 0,
		"initial_coordinate_x": 12,
		"initial_coordinate_y": 17,
		"reinforcement_BattleReinforcement": 0,
		"initial_direction": 90.0,
		"ai_move_group": 0,
		"ai_target_move_x": -1,
		"ai_target_move_y": -1,
		"ai_skill_function": "",
		"ai_attack": "0.0",
		"ai_move": "IF(turn <8,0,1)",
		"ai_heal": "",
		"ai_skill": "",
		"ai_use": "",
		"skill_group_id": 17073,
		"gear_GearGear": 80005,
		"gear_rank": 8,
		"proficiency_UnitProficiency": 1,
		"level": 90,
		"hp": 366,
		"strength": 50,
		"vitality": 130,
		"intelligence": 11,
		"mind": 55,
		"agility": 86,
		"dexterity": 89,
		"lucky": 53,
		"parameter_table_BattleEnemyParameterTable": 0,
		"parameter_deviation_table_BattleEnemyParameterDeviationTable": 0,
		"acquire_skill_group_id": 0,
		"level_correction": 0,
		"group_id": 0,
		"ai_script_id_BattleAIScript": 0
	},
	{
		"ID": 73069,
		"stage_BattleStage": 810005083,
		"unit_UnitUnit": 900012,
		"money": 0,
		"initial_coordinate_x": 9,
		"initial_coordinate_y": 17,
		"reinforcement_BattleReinforcement": 0,
		"initial_direction": 90.0,
		"ai_move_group": 0,
		"ai_target_move_x": -1,
		"ai_target_move_y": -1,
		"ai_skill_function": "",
		"ai_attack": "0.0",
		"ai_move": "IF(turn <8,0,1)",
		"ai_heal": "",
		"ai_skill": "",
		"ai_use": "",
		"skill_group_id": 17074,
		"gear_GearGear": 80005,
		"gear_rank": 8,
		"proficiency_UnitProficiency": 1,
		"level": 90,
		"hp": 366,
		"strength": 50,
		"vitality": 133,
		"intelligence": 13,
		"mind": 52,
		"agility": 83,
		"dexterity": 89,
		"lucky": 51,
		"parameter_table_BattleEnemyParameterTable": 0,
		"parameter_deviation_table_BattleEnemyParameterDeviationTable": 0,
		"acquire_skill_group_id": 0,
		"level_correction": 0,
		"group_id": 0,
		"ai_script_id_BattleAIScript": 0
	},
	{
		"ID": 73070,
		"stage_BattleStage": 810005083,
		"unit_UnitUnit": 900012,
		"money": 0,
		"initial_coordinate_x": 13,
		"initial_coordinate_y": 15,
		"reinforcement_BattleReinforcement": 0,
		"initial_direction": 90.0,
		"ai_move_group": 0,
		"ai_target_move_x": -1,
		"ai_target_move_y": -1,
		"ai_skill_function": "",
		"ai_attack": "0.0",
		"ai_move": "IF(turn <8,0,1)",
		"ai_heal": "",
		"ai_skill": "",
		"ai_use": "",
		"skill_group_id": 17074,
		"gear_GearGear": 80005,
		"gear_rank": 8,
		"proficiency_UnitProficiency": 1,
		"level": 90,
		"hp": 368,
		"strength": 50,
		"vitality": 130,
		"intelligence": 10,
		"mind": 54,
		"agility": 83,
		"dexterity": 90,
		"lucky": 53,
		"parameter_table_BattleEnemyParameterTable": 0,
		"parameter_deviation_table_BattleEnemyParameterDeviationTable": 0,
		"acquire_skill_group_id": 0,
		"level_correction": 0,
		"group_id": 0,
		"ai_script_id_BattleAIScript": 0
	},
	{
		"ID": 73071,
		"stage_BattleStage": 810005083,
		"unit_UnitUnit": 900012,
		"money": 0,
		"initial_coordinate_x": 14,
		"initial_coordinate_y": 14,
		"reinforcement_BattleReinforcement": 0,
		"initial_direction": 180.0,
		"ai_move_group": 0,
		"ai_target_move_x": -1,
		"ai_target_move_y": -1,
		"ai_skill_function": "",
		"ai_attack": "0.0",
		"ai_move": "IF(turn <8,0,1)",
		"ai_heal": "",
		"ai_skill": "",
		"ai_use": "",
		"skill_group_id": 17074,
		"gear_GearGear": 80005,
		"gear_rank": 8,
		"proficiency_UnitProficiency": 1,
		"level": 90,
		"hp": 566,
		"strength": 50,
		"vitality": 133,
		"intelligence": 10,
		"mind": 55,
		"agility": 84,
		"dexterity": 88,
		"lucky": 54,
		"parameter_table_BattleEnemyParameterTable": 0,
		"parameter_deviation_table_BattleEnemyParameterDeviationTable": 0,
		"acquire_skill_group_id": 0,
		"level_correction": 0,
		"group_id": 0,
		"ai_script_id_BattleAIScript": 0
	},
	{
		"ID": 73072,
		"stage_BattleStage": 810005083,
		"unit_UnitUnit": 900012,
		"money": 0,
		"initial_coordinate_x": 15,
		"initial_coordinate_y": 12,
		"reinforcement_BattleReinforcement": 0,
		"initial_direction": 180.0,
		"ai_move_group": 0,
		"ai_target_move_x": -1,
		"ai_target_move_y": -1,
		"ai_skill_function": "",
		"ai_attack": "0.0",
		"ai_move": "IF(turn <8,0,1)",
		"ai_heal": "",
		"ai_skill": "",
		"ai_use": "",
		"skill_group_id": 17074,
		"gear_GearGear": 80005,
		"gear_rank": 8,
		"proficiency_UnitProficiency": 1,
		"level": 90,
		"hp": 569,
		"strength": 50,
		"vitality": 134,
		"intelligence": 11,
		"mind": 55,
		"agility": 81,
		"dexterity": 89,
		"lucky": 53,
		"parameter_table_BattleEnemyParameterTable": 0,
		"parameter_deviation_table_BattleEnemyParameterDeviationTable": 0,
		"acquire_skill_group_id": 0,
		"level_correction": 0,
		"group_id": 0,
		"ai_script_id_BattleAIScript": 0
	},
	{
		"ID": 73073,
		"stage_BattleStage": 810005083,
		"unit_UnitUnit": 900012,
		"money": 0,
		"initial_coordinate_x": 15,
		"initial_coordinate_y": 9,
		"reinforcement_BattleReinforcement": 0,
		"initial_direction": 180.0,
		"ai_move_group": 0,
		"ai_target_move_x": -1,
		"ai_target_move_y": -1,
		"ai_skill_function": "",
		"ai_attack": "0.0",
		"ai_move": "IF(turn <8,0,1)",
		"ai_heal": "",
		"ai_skill": "",
		"ai_use": "",
		"skill_group_id": 17075,
		"gear_GearGear": 80005,
		"gear_rank": 8,
		"proficiency_UnitProficiency": 1,
		"level": 90,
		"hp": 566,
		"strength": 50,
		"vitality": 132,
		"intelligence": 11,
		"mind": 52,
		"agility": 86,
		"dexterity": 86,
		"lucky": 51,
		"parameter_table_BattleEnemyParameterTable": 0,
		"parameter_deviation_table_BattleEnemyParameterDeviationTable": 0,
		"acquire_skill_group_id": 0,
		"level_correction": 0,
		"group_id": 0,
		"ai_script_id_BattleAIScript": 0
	},
	{
		"ID": 73074,
		"stage_BattleStage": 810005083,
		"unit_UnitUnit": 900012,
		"money": 0,
		"initial_coordinate_x": 18,
		"initial_coordinate_y": 9,
		"reinforcement_BattleReinforcement": 0,
		"initial_direction": 180.0,
		"ai_move_group": 0,
		"ai_target_move_x": -1,
		"ai_target_move_y": -1,
		"ai_skill_function": "",
		"ai_attack": "0.0",
		"ai_move": "IF(turn <8,0,1)",
		"ai_heal": "",
		"ai_skill": "",
		"ai_use": "",
		"skill_group_id": 17075,
		"gear_GearGear": 80005,
		"gear_rank": 8,
		"proficiency_UnitProficiency": 1,
		"level": 90,
		"hp": 563,
		"strength": 50,
		"vitality": 132,
		"intelligence": 10,
		"mind": 55,
		"agility": 82,
		"dexterity": 90,
		"lucky": 54,
		"parameter_table_BattleEnemyParameterTable": 0,
		"parameter_deviation_table_BattleEnemyParameterDeviationTable": 0,
		"acquire_skill_group_id": 0,
		"level_correction": 0,
		"group_id": 0,
		"ai_script_id_BattleAIScript": 0
	},
	{
		"ID": 73075,
		"stage_BattleStage": 810005083,
		"unit_UnitUnit": 900012,
		"money": 0,
		"initial_coordinate_x": 12,
		"initial_coordinate_y": 9,
		"reinforcement_BattleReinforcement": 0,
		"initial_direction": 90.0,
		"ai_move_group": 0,
		"ai_target_move_x": -1,
		"ai_target_move_y": -1,
		"ai_skill_function": "",
		"ai_attack": "0.0",
		"ai_move": "IF(turn <8,0,1)",
		"ai_heal": "",
		"ai_skill": "",
		"ai_use": "",
		"skill_group_id": 17075,
		"gear_GearGear": 80005,
		"gear_rank": 8,
		"proficiency_UnitProficiency": 1,
		"level": 90,
		"hp": 366,
		"strength": 50,
		"vitality": 130,
		"intelligence": 12,
		"mind": 54,
		"agility": 81,
		"dexterity": 86,
		"lucky": 56,
		"parameter_table_BattleEnemyParameterTable": 0,
		"parameter_deviation_table_BattleEnemyParameterDeviationTable": 0,
		"acquire_skill_group_id": 0,
		"level_correction": 0,
		"group_id": 0,
		"ai_script_id_BattleAIScript": 0
	},
	{
		"ID": 73076,
		"stage_BattleStage": 810005083,
		"unit_UnitUnit": 900012,
		"money": 0,
		"initial_coordinate_x": 9,
		"initial_coordinate_y": 9,
		"reinforcement_BattleReinforcement": 0,
		"initial_direction": 90.0,
		"ai_move_group": 0,
		"ai_target_move_x": -1,
		"ai_target_move_y": -1,
		"ai_skill_function": "",
		"ai_attack": "0.0",
		"ai_move": "IF(turn <8,0,1)",
		"ai_heal": "",
		"ai_skill": "",
		"ai_use": "",
		"skill_group_id": 17075,
		"gear_GearGear": 80005,
		"gear_rank": 8,
		"proficiency_UnitProficiency": 1,
		"level": 90,
		"hp": 361,
		"strength": 50,
		"vitality": 134,
		"intelligence": 12,
		"mind": 51,
		"agility": 84,
		"dexterity": 91,
		"lucky": 51,
		"parameter_table_BattleEnemyParameterTable": 0,
		"parameter_deviation_table_BattleEnemyParameterDeviationTable": 0,
		"acquire_skill_group_id": 0,
		"level_correction": 0,
		"group_id": 0,
		"ai_script_id_BattleAIScript": 0
	},
	{
		"ID": 73077,
		"stage_BattleStage": 810005083,
		"unit_UnitUnit": 900012,
		"money": 0,
		"initial_coordinate_x": 7,
		"initial_coordinate_y": 10,
		"reinforcement_BattleReinforcement": 0,
		"initial_direction": 90.0,
		"ai_move_group": 0,
		"ai_target_move_x": -1,
		"ai_target_move_y": -1,
		"ai_skill_function": "",
		"ai_attack": "0.0",
		"ai_move": "IF(turn <8,0,1)",
		"ai_heal": "",
		"ai_skill": "",
		"ai_use": "",
		"skill_group_id": 17072,
		"gear_GearGear": 80005,
		"gear_rank": 8,
		"proficiency_UnitProficiency": 1,
		"level": 90,
		"hp": 366,
		"strength": 50,
		"vitality": 134,
		"intelligence": 12,
		"mind": 52,
		"agility": 82,
		"dexterity": 90,
		"lucky": 56,
		"parameter_table_BattleEnemyParameterTable": 0,
		"parameter_deviation_table_BattleEnemyParameterDeviationTable": 0,
		"acquire_skill_group_id": 0,
		"level_correction": 0,
		"group_id": 0,
		"ai_script_id_BattleAIScript": 0
	}
]