[
	{
		"ID": 62903,
		"stage_BattleStage": 810003040,
		"unit_UnitUnit": 100254,
		"money": 0,
		"initial_coordinate_x": 12,
		"initial_coordinate_y": 21,
		"reinforcement_BattleReinforcement": 0,
		"initial_direction": 180.0,
		"ai_move_group": 0,
		"ai_target_move_x": -1,
		"ai_target_move_y": -1,
		"ai_skill_function": "",
		"ai_attack": "IF( turn <=6 ,IF(panel_move_distance <= 3, 1, 0),1)",
		"ai_move": "IF(turn <6,0,1)",
		"ai_heal": "",
		"ai_skill": "",
		"ai_use": "",
		"skill_group_id": 13918,
		"gear_GearGear": 15006,
		"gear_rank": 5,
		"proficiency_UnitProficiency": 5,
		"level": 80,
		"hp": 624,
		"strength": 93,
		"vitality": 99,
		"intelligence": 31,
		"mind": 54,
		"agility": 108,
		"dexterity": 110,
		"lucky": 66,
		"parameter_table_BattleEnemyParameterTable": 0,
		"parameter_deviation_table_BattleEnemyParameterDeviationTable": 0,
		"acquire_skill_group_id": 0,
		"level_correction": 0,
		"group_id": 0,
		"ai_script_id_BattleAIScript": 0
	},
	{
		"ID": 62904,
		"stage_BattleStage": 810003040,
		"unit_UnitUnit": 300173,
		"money": 0,
		"initial_coordinate_x": 11,
		"initial_coordinate_y": 21,
		"reinforcement_BattleReinforcement": 0,
		"initial_direction": 180.0,
		"ai_move_group": 0,
		"ai_target_move_x": -1,
		"ai_target_move_y": -1,
		"ai_skill_function": "",
		"ai_attack": "IF( turn <=6 ,IF(panel_move_distance <= 3, 1, 0),1)",
		"ai_move": "IF(turn <6,0,1)",
		"ai_heal": "",
		"ai_skill": "",
		"ai_use": "",
		"skill_group_id": 13921,
		"gear_GearGear": 35003,
		"gear_rank": 5,
		"proficiency_UnitProficiency": 5,
		"level": 80,
		"hp": 668,
		"strength": 117,
		"vitality": 129,
		"intelligence": 12,
		"mind": 54,
		"agility": 109,
		"dexterity": 118,
		"lucky": 70,
		"parameter_table_BattleEnemyParameterTable": 0,
		"parameter_deviation_table_BattleEnemyParameterDeviationTable": 0,
		"acquire_skill_group_id": 0,
		"level_correction": 0,
		"group_id": 0,
		"ai_script_id_BattleAIScript": 0
	},
	{
		"ID": 62905,
		"stage_BattleStage": 810003040,
		"unit_UnitUnit": 500233,
		"money": 0,
		"initial_coordinate_x": 20,
		"initial_coordinate_y": 21,
		"reinforcement_BattleReinforcement": 0,
		"initial_direction": 180.0,
		"ai_move_group": 0,
		"ai_target_move_x": -1,
		"ai_target_move_y": -1,
		"ai_skill_function": "",
		"ai_attack": "IF( turn <=6 ,IF(panel_move_distance <= 3, 1, 0),1)",
		"ai_move": "IF(turn <6,0,1)",
		"ai_heal": "",
		"ai_skill": "",
		"ai_use": "",
		"skill_group_id": 13924,
		"gear_GearGear": 55003,
		"gear_rank": 5,
		"proficiency_UnitProficiency": 5,
		"level": 80,
		"hp": 140,
		"strength": 19,
		"vitality": 71,
		"intelligence": 133,
		"mind": 136,
		"agility": 101,
		"dexterity": 100,
		"lucky": 56,
		"parameter_table_BattleEnemyParameterTable": 0,
		"parameter_deviation_table_BattleEnemyParameterDeviationTable": 0,
		"acquire_skill_group_id": 0,
		"level_correction": 0,
		"group_id": 0,
		"ai_script_id_BattleAIScript": 0
	},
	{
		"ID": 62906,
		"stage_BattleStage": 810003040,
		"unit_UnitUnit": 500733,
		"money": 0,
		"initial_coordinate_x": 3,
		"initial_coordinate_y": 21,
		"reinforcement_BattleReinforcement": 0,
		"initial_direction": 180.0,
		"ai_move_group": 0,
		"ai_target_move_x": -1,
		"ai_target_move_y": -1,
		"ai_skill_function": "",
		"ai_attack": "IF( turn <=6 ,IF(panel_move_distance <= 3, 1, 0),1)",
		"ai_move": "IF(turn <6,0,1)",
		"ai_heal": "",
		"ai_skill": "",
		"ai_use": "",
		"skill_group_id": 13925,
		"gear_GearGear": 55003,
		"gear_rank": 5,
		"proficiency_UnitProficiency": 5,
		"level": 80,
		"hp": 160,
		"strength": 19,
		"vitality": 68,
		"intelligence": 136,
		"mind": 106,
		"agility": 108,
		"dexterity": 110,
		"lucky": 62,
		"parameter_table_BattleEnemyParameterTable": 0,
		"parameter_deviation_table_BattleEnemyParameterDeviationTable": 0,
		"acquire_skill_group_id": 0,
		"level_correction": 0,
		"group_id": 0,
		"ai_script_id_BattleAIScript": 0
	},
	{
		"ID": 62907,
		"stage_BattleStage": 810003040,
		"unit_UnitUnit": 940019,
		"money": 0,
		"initial_coordinate_x": 2,
		"initial_coordinate_y": 18,
		"reinforcement_BattleReinforcement": 0,
		"initial_direction": 180.0,
		"ai_move_group": 0,
		"ai_target_move_x": -1,
		"ai_target_move_y": -1,
		"ai_skill_function": "",
		"ai_attack": "IF( turn <=5 ,IF(panel_move_distance <= 2, 1, 0),1)",
		"ai_move": "IF(turn <5,0,1)",
		"ai_heal": "",
		"ai_skill": "",
		"ai_use": "",
		"skill_group_id": 12465,
		"gear_GearGear": 45008,
		"gear_rank": 5,
		"proficiency_UnitProficiency": 5,
		"level": 80,
		"hp": 124,
		"strength": 93,
		"vitality": 86,
		"intelligence": 11,
		"mind": 41,
		"agility": 78,
		"dexterity": 98,
		"lucky": 44,
		"parameter_table_BattleEnemyParameterTable": 0,
		"parameter_deviation_table_BattleEnemyParameterDeviationTable": 0,
		"acquire_skill_group_id": 0,
		"level_correction": 0,
		"group_id": 0,
		"ai_script_id_BattleAIScript": 0
	},
	{
		"ID": 62908,
		"stage_BattleStage": 810003040,
		"unit_UnitUnit": 930019,
		"money": 0,
		"initial_coordinate_x": 3,
		"initial_coordinate_y": 19,
		"reinforcement_BattleReinforcement": 0,
		"initial_direction": 180.0,
		"ai_move_group": 0,
		"ai_target_move_x": -1,
		"ai_target_move_y": -1,
		"ai_skill_function": "",
		"ai_attack": "IF( turn <=5 ,IF(panel_move_distance <= 2, 1, 0),1)",
		"ai_move": "IF(turn <5,0,1)",
		"ai_heal": "",
		"ai_skill": "",
		"ai_use": "",
		"skill_group_id": 13365,
		"gear_GearGear": 35001,
		"gear_rank": 5,
		"proficiency_UnitProficiency": 5,
		"level": 80,
		"hp": 144,
		"strength": 102,
		"vitality": 122,
		"intelligence": 7,
		"mind": 42,
		"agility": 80,
		"dexterity": 95,
		"lucky": 44,
		"parameter_table_BattleEnemyParameterTable": 0,
		"parameter_deviation_table_BattleEnemyParameterDeviationTable": 0,
		"acquire_skill_group_id": 0,
		"level_correction": 0,
		"group_id": 0,
		"ai_script_id_BattleAIScript": 0
	},
	{
		"ID": 62909,
		"stage_BattleStage": 810003040,
		"unit_UnitUnit": 940019,
		"money": 0,
		"initial_coordinate_x": 4,
		"initial_coordinate_y": 18,
		"reinforcement_BattleReinforcement": 0,
		"initial_direction": 180.0,
		"ai_move_group": 0,
		"ai_target_move_x": -1,
		"ai_target_move_y": -1,
		"ai_skill_function": "",
		"ai_attack": "IF( turn <=5 ,IF(panel_move_distance <= 2, 1, 0),1)",
		"ai_move": "IF(turn <5,0,1)",
		"ai_heal": "",
		"ai_skill": "",
		"ai_use": "",
		"skill_group_id": 12465,
		"gear_GearGear": 45008,
		"gear_rank": 5,
		"proficiency_UnitProficiency": 5,
		"level": 80,
		"hp": 125,
		"strength": 92,
		"vitality": 86,
		"intelligence": 11,
		"mind": 41,
		"agility": 77,
		"dexterity": 100,
		"lucky": 44,
		"parameter_table_BattleEnemyParameterTable": 0,
		"parameter_deviation_table_BattleEnemyParameterDeviationTable": 0,
		"acquire_skill_group_id": 0,
		"level_correction": 0,
		"group_id": 0,
		"ai_script_id_BattleAIScript": 0
	},
	{
		"ID": 62910,
		"stage_BattleStage": 810003040,
		"unit_UnitUnit": 860001,
		"money": 0,
		"initial_coordinate_x": 11,
		"initial_coordinate_y": 18,
		"reinforcement_BattleReinforcement": 0,
		"initial_direction": 180.0,
		"ai_move_group": 0,
		"ai_target_move_x": -1,
		"ai_target_move_y": -1,
		"ai_skill_function": "",
		"ai_attack": "IF( turn <=4 ,IF(panel_move_distance <= 4, 1, 0),1)",
		"ai_move": "IF(turn <4,0,1)",
		"ai_heal": "",
		"ai_skill": "",
		"ai_use": "",
		"skill_group_id": 13383,
		"gear_GearGear": 65006,
		"gear_rank": 5,
		"proficiency_UnitProficiency": 5,
		"level": 80,
		"hp": 104,
		"strength": 16,
		"vitality": 81,
		"intelligence": 86,
		"mind": 88,
		"agility": 79,
		"dexterity": 88,
		"lucky": 42,
		"parameter_table_BattleEnemyParameterTable": 0,
		"parameter_deviation_table_BattleEnemyParameterDeviationTable": 0,
		"acquire_skill_group_id": 0,
		"level_correction": 0,
		"group_id": 0,
		"ai_script_id_BattleAIScript": 0
	},
	{
		"ID": 62911,
		"stage_BattleStage": 810003040,
		"unit_UnitUnit": 830001,
		"money": 0,
		"initial_coordinate_x": 12,
		"initial_coordinate_y": 19,
		"reinforcement_BattleReinforcement": 0,
		"initial_direction": 180.0,
		"ai_move_group": 0,
		"ai_target_move_x": -1,
		"ai_target_move_y": -1,
		"ai_skill_function": "",
		"ai_attack": "IF( turn <=4 ,IF(panel_move_distance <= 4, 1, 0),1)",
		"ai_move": "IF(turn <4,0,1)",
		"ai_heal": "",
		"ai_skill": "",
		"ai_use": "",
		"skill_group_id": 13392,
		"gear_GearGear": 35003,
		"gear_rank": 5,
		"proficiency_UnitProficiency": 5,
		"level": 80,
		"hp": 148,
		"strength": 105,
		"vitality": 112,
		"intelligence": 11,
		"mind": 63,
		"agility": 82,
		"dexterity": 96,
		"lucky": 40,
		"parameter_table_BattleEnemyParameterTable": 0,
		"parameter_deviation_table_BattleEnemyParameterDeviationTable": 0,
		"acquire_skill_group_id": 0,
		"level_correction": 0,
		"group_id": 0,
		"ai_script_id_BattleAIScript": 0
	},
	{
		"ID": 62912,
		"stage_BattleStage": 810003040,
		"unit_UnitUnit": 860001,
		"money": 0,
		"initial_coordinate_x": 19,
		"initial_coordinate_y": 18,
		"reinforcement_BattleReinforcement": 0,
		"initial_direction": 180.0,
		"ai_move_group": 0,
		"ai_target_move_x": -1,
		"ai_target_move_y": -1,
		"ai_skill_function": "",
		"ai_attack": "IF( turn <=4 ,IF(panel_move_distance <= 4, 1, 0),1)",
		"ai_move": "IF(turn <4,0,1)",
		"ai_heal": "",
		"ai_skill": "",
		"ai_use": "",
		"skill_group_id": 13386,
		"gear_GearGear": 65004,
		"gear_rank": 5,
		"proficiency_UnitProficiency": 5,
		"level": 80,
		"hp": 104,
		"strength": 14,
		"vitality": 81,
		"intelligence": 86,
		"mind": 87,
		"agility": 77,
		"dexterity": 92,
		"lucky": 41,
		"parameter_table_BattleEnemyParameterTable": 0,
		"parameter_deviation_table_BattleEnemyParameterDeviationTable": 0,
		"acquire_skill_group_id": 0,
		"level_correction": 0,
		"group_id": 0,
		"ai_script_id_BattleAIScript": 0
	},
	{
		"ID": 62913,
		"stage_BattleStage": 810003040,
		"unit_UnitUnit": 860001,
		"money": 0,
		"initial_coordinate_x": 20,
		"initial_coordinate_y": 19,
		"reinforcement_BattleReinforcement": 0,
		"initial_direction": 180.0,
		"ai_move_group": 0,
		"ai_target_move_x": -1,
		"ai_target_move_y": -1,
		"ai_skill_function": "",
		"ai_attack": "IF( turn <=4 ,IF(panel_move_distance <= 4, 1, 0),1)",
		"ai_move": "IF(turn <4,0,1)",
		"ai_heal": "",
		"ai_skill": "",
		"ai_use": "",
		"skill_group_id": 13386,
		"gear_GearGear": 65004,
		"gear_rank": 5,
		"proficiency_UnitProficiency": 5,
		"level": 80,
		"hp": 104,
		"strength": 14,
		"vitality": 78,
		"intelligence": 85,
		"mind": 88,
		"agility": 78,
		"dexterity": 94,
		"lucky": 41,
		"parameter_table_BattleEnemyParameterTable": 0,
		"parameter_deviation_table_BattleEnemyParameterDeviationTable": 0,
		"acquire_skill_group_id": 0,
		"level_correction": 0,
		"group_id": 0,
		"ai_script_id_BattleAIScript": 0
	},
	{
		"ID": 62914,
		"stage_BattleStage": 810003040,
		"unit_UnitUnit": 820007,
		"money": 0,
		"initial_coordinate_x": 21,
		"initial_coordinate_y": 18,
		"reinforcement_BattleReinforcement": 0,
		"initial_direction": 180.0,
		"ai_move_group": 0,
		"ai_target_move_x": -1,
		"ai_target_move_y": -1,
		"ai_skill_function": "",
		"ai_attack": "IF( turn <=4 ,IF(panel_move_distance <= 4, 1, 0),1)",
		"ai_move": "IF(turn <4,0,1)",
		"ai_heal": "",
		"ai_skill": "",
		"ai_use": "",
		"skill_group_id": 13306,
		"gear_GearGear": 25003,
		"gear_rank": 5,
		"proficiency_UnitProficiency": 5,
		"level": 80,
		"hp": 132,
		"strength": 116,
		"vitality": 96,
		"intelligence": 10,
		"mind": 48,
		"agility": 80,
		"dexterity": 93,
		"lucky": 42,
		"parameter_table_BattleEnemyParameterTable": 0,
		"parameter_deviation_table_BattleEnemyParameterDeviationTable": 0,
		"acquire_skill_group_id": 0,
		"level_correction": 0,
		"group_id": 0,
		"ai_script_id_BattleAIScript": 0
	},
	{
		"ID": 62915,
		"stage_BattleStage": 810003040,
		"unit_UnitUnit": 860001,
		"money": 0,
		"initial_coordinate_x": 17,
		"initial_coordinate_y": 16,
		"reinforcement_BattleReinforcement": 0,
		"initial_direction": 180.0,
		"ai_move_group": 0,
		"ai_target_move_x": -1,
		"ai_target_move_y": -1,
		"ai_skill_function": "",
		"ai_attack": "IF( turn <=3 ,IF(panel_move_distance <= 4, 1, 0),1)",
		"ai_move": "IF(turn <3,0,1)",
		"ai_heal": "",
		"ai_skill": "",
		"ai_use": "",
		"skill_group_id": 13383,
		"gear_GearGear": 65001,
		"gear_rank": 5,
		"proficiency_UnitProficiency": 5,
		"level": 80,
		"hp": 105,
		"strength": 16,
		"vitality": 81,
		"intelligence": 94,
		"mind": 98,
		"agility": 83,
		"dexterity": 89,
		"lucky": 45,
		"parameter_table_BattleEnemyParameterTable": 0,
		"parameter_deviation_table_BattleEnemyParameterDeviationTable": 0,
		"acquire_skill_group_id": 0,
		"level_correction": 0,
		"group_id": 0,
		"ai_script_id_BattleAIScript": 0
	},
	{
		"ID": 62916,
		"stage_BattleStage": 810003040,
		"unit_UnitUnit": 100843,
		"money": 0,
		"initial_coordinate_x": 16,
		"initial_coordinate_y": 17,
		"reinforcement_BattleReinforcement": 0,
		"initial_direction": 180.0,
		"ai_move_group": 0,
		"ai_target_move_x": -1,
		"ai_target_move_y": -1,
		"ai_skill_function": "",
		"ai_attack": "IF( turn <=3 ,IF(panel_move_distance <= 3, 1, 0),1)",
		"ai_move": "IF(turn <3,0,1)",
		"ai_heal": "",
		"ai_skill": "",
		"ai_use": "",
		"skill_group_id": 13919,
		"gear_GearGear": 15005,
		"gear_rank": 5,
		"proficiency_UnitProficiency": 5,
		"level": 80,
		"hp": 167,
		"strength": 100,
		"vitality": 84,
		"intelligence": 30,
		"mind": 85,
		"agility": 115,
		"dexterity": 108,
		"lucky": 72,
		"parameter_table_BattleEnemyParameterTable": 0,
		"parameter_deviation_table_BattleEnemyParameterDeviationTable": 0,
		"acquire_skill_group_id": 0,
		"level_correction": 0,
		"group_id": 0,
		"ai_script_id_BattleAIScript": 0
	},
	{
		"ID": 62917,
		"stage_BattleStage": 810003040,
		"unit_UnitUnit": 830008,
		"money": 0,
		"initial_coordinate_x": 15,
		"initial_coordinate_y": 16,
		"reinforcement_BattleReinforcement": 0,
		"initial_direction": 180.0,
		"ai_move_group": 0,
		"ai_target_move_x": -1,
		"ai_target_move_y": -1,
		"ai_skill_function": "",
		"ai_attack": "IF( turn <=3 ,IF(panel_move_distance <= 2, 1, 0),1)",
		"ai_move": "IF(turn <3,0,1)",
		"ai_heal": "",
		"ai_skill": "",
		"ai_use": "",
		"skill_group_id": 12923,
		"gear_GearGear": 35001,
		"gear_rank": 5,
		"proficiency_UnitProficiency": 5,
		"level": 80,
		"hp": 154,
		"strength": 114,
		"vitality": 127,
		"intelligence": 6,
		"mind": 51,
		"agility": 67,
		"dexterity": 102,
		"lucky": 45,
		"parameter_table_BattleEnemyParameterTable": 0,
		"parameter_deviation_table_BattleEnemyParameterDeviationTable": 0,
		"acquire_skill_group_id": 0,
		"level_correction": 0,
		"group_id": 0,
		"ai_script_id_BattleAIScript": 0
	},
	{
		"ID": 62918,
		"stage_BattleStage": 810003040,
		"unit_UnitUnit": 840018,
		"money": 0,
		"initial_coordinate_x": 8,
		"initial_coordinate_y": 16,
		"reinforcement_BattleReinforcement": 0,
		"initial_direction": 180.0,
		"ai_move_group": 0,
		"ai_target_move_x": -1,
		"ai_target_move_y": -1,
		"ai_skill_function": "",
		"ai_attack": "IF( turn <=3 ,IF(panel_move_distance <= 2, 1, 0),1)",
		"ai_move": "IF(turn <3,0,1)",
		"ai_heal": "",
		"ai_skill": "",
		"ai_use": "",
		"skill_group_id": 12464,
		"gear_GearGear": 45008,
		"gear_rank": 5,
		"proficiency_UnitProficiency": 5,
		"level": 80,
		"hp": 125,
		"strength": 91,
		"vitality": 90,
		"intelligence": 10,
		"mind": 43,
		"agility": 79,
		"dexterity": 100,
		"lucky": 47,
		"parameter_table_BattleEnemyParameterTable": 0,
		"parameter_deviation_table_BattleEnemyParameterDeviationTable": 0,
		"acquire_skill_group_id": 0,
		"level_correction": 0,
		"group_id": 0,
		"ai_script_id_BattleAIScript": 0
	},
	{
		"ID": 62919,
		"stage_BattleStage": 810003040,
		"unit_UnitUnit": 200253,
		"money": 0,
		"initial_coordinate_x": 7,
		"initial_coordinate_y": 17,
		"reinforcement_BattleReinforcement": 0,
		"initial_direction": 180.0,
		"ai_move_group": 0,
		"ai_target_move_x": -1,
		"ai_target_move_y": -1,
		"ai_skill_function": "",
		"ai_attack": "IF( turn <=3 ,IF(panel_move_distance <= 3, 1, 0),1)",
		"ai_move": "IF(turn <3,0,1)",
		"ai_heal": "",
		"ai_skill": "",
		"ai_use": "",
		"skill_group_id": 13920,
		"gear_GearGear": 25003,
		"gear_rank": 5,
		"proficiency_UnitProficiency": 5,
		"level": 80,
		"hp": 181,
		"strength": 124,
		"vitality": 82,
		"intelligence": 37,
		"mind": 54,
		"agility": 100,
		"dexterity": 102,
		"lucky": 65,
		"parameter_table_BattleEnemyParameterTable": 0,
		"parameter_deviation_table_BattleEnemyParameterDeviationTable": 0,
		"acquire_skill_group_id": 0,
		"level_correction": 0,
		"group_id": 0,
		"ai_script_id_BattleAIScript": 0
	},
	{
		"ID": 62920,
		"stage_BattleStage": 810003040,
		"unit_UnitUnit": 830003,
		"money": 0,
		"initial_coordinate_x": 6,
		"initial_coordinate_y": 16,
		"reinforcement_BattleReinforcement": 0,
		"initial_direction": 180.0,
		"ai_move_group": 0,
		"ai_target_move_x": -1,
		"ai_target_move_y": -1,
		"ai_skill_function": "",
		"ai_attack": "IF( turn <=3 ,IF(panel_move_distance <= 2, 1, 0),1)",
		"ai_move": "IF(turn <3,0,1)",
		"ai_heal": "",
		"ai_skill": "",
		"ai_use": "",
		"skill_group_id": 12924,
		"gear_GearGear": 35001,
		"gear_rank": 5,
		"proficiency_UnitProficiency": 5,
		"level": 80,
		"hp": 146,
		"strength": 104,
		"vitality": 140,
		"intelligence": 10,
		"mind": 57,
		"agility": 57,
		"dexterity": 90,
		"lucky": 45,
		"parameter_table_BattleEnemyParameterTable": 0,
		"parameter_deviation_table_BattleEnemyParameterDeviationTable": 0,
		"acquire_skill_group_id": 0,
		"level_correction": 0,
		"group_id": 0,
		"ai_script_id_BattleAIScript": 0
	},
	{
		"ID": 62921,
		"stage_BattleStage": 810003040,
		"unit_UnitUnit": 910013,
		"money": 0,
		"initial_coordinate_x": 3,
		"initial_coordinate_y": 14,
		"reinforcement_BattleReinforcement": 0,
		"initial_direction": 180.0,
		"ai_move_group": 0,
		"ai_target_move_x": -1,
		"ai_target_move_y": -1,
		"ai_skill_function": "",
		"ai_attack": "IF( turn <=2 ,IF(panel_move_distance <= 2, 1, 0),1)",
		"ai_move": "IF(turn <2,0,1)",
		"ai_heal": "",
		"ai_skill": "",
		"ai_use": "",
		"skill_group_id": 13255,
		"gear_GearGear": 15007,
		"gear_rank": 5,
		"proficiency_UnitProficiency": 5,
		"level": 80,
		"hp": 117,
		"strength": 97,
		"vitality": 93,
		"intelligence": 10,
		"mind": 26,
		"agility": 87,
		"dexterity": 104,
		"lucky": 44,
		"parameter_table_BattleEnemyParameterTable": 0,
		"parameter_deviation_table_BattleEnemyParameterDeviationTable": 0,
		"acquire_skill_group_id": 0,
		"level_correction": 0,
		"group_id": 0,
		"ai_script_id_BattleAIScript": 0
	},
	{
		"ID": 62922,
		"stage_BattleStage": 810003040,
		"unit_UnitUnit": 401333,
		"money": 0,
		"initial_coordinate_x": 3,
		"initial_coordinate_y": 11,
		"reinforcement_BattleReinforcement": 0,
		"initial_direction": 180.0,
		"ai_move_group": 0,
		"ai_target_move_x": -1,
		"ai_target_move_y": -1,
		"ai_skill_function": "",
		"ai_attack": "IF( turn <=2 ,IF(panel_move_distance <= 4, 1, 0),1)",
		"ai_move": "IF(turn <2,0,1)",
		"ai_heal": "",
		"ai_skill": "",
		"ai_use": "",
		"skill_group_id": 13922,
		"gear_GearGear": 45001,
		"gear_rank": 5,
		"proficiency_UnitProficiency": 5,
		"level": 80,
		"hp": 156,
		"strength": 118,
		"vitality": 80,
		"intelligence": 22,
		"mind": 77,
		"agility": 105,
		"dexterity": 118,
		"lucky": 71,
		"parameter_table_BattleEnemyParameterTable": 0,
		"parameter_deviation_table_BattleEnemyParameterDeviationTable": 0,
		"acquire_skill_group_id": 0,
		"level_correction": 0,
		"group_id": 0,
		"ai_script_id_BattleAIScript": 0
	},
	{
		"ID": 62923,
		"stage_BattleStage": 810003040,
		"unit_UnitUnit": 930013,
		"money": 0,
		"initial_coordinate_x": 10,
		"initial_coordinate_y": 14,
		"reinforcement_BattleReinforcement": 0,
		"initial_direction": 180.0,
		"ai_move_group": 0,
		"ai_target_move_x": -1,
		"ai_target_move_y": -1,
		"ai_skill_function": "",
		"ai_attack": "IF( turn <=2 ,IF(panel_move_distance <= 2, 1, 0),1)",
		"ai_move": "IF(turn <2,0,1)",
		"ai_heal": "",
		"ai_skill": "",
		"ai_use": "",
		"skill_group_id": 13281,
		"gear_GearGear": 35003,
		"gear_rank": 5,
		"proficiency_UnitProficiency": 5,
		"level": 80,
		"hp": 121,
		"strength": 104,
		"vitality": 110,
		"intelligence": 9,
		"mind": 29,
		"agility": 81,
		"dexterity": 101,
		"lucky": 44,
		"parameter_table_BattleEnemyParameterTable": 0,
		"parameter_deviation_table_BattleEnemyParameterDeviationTable": 0,
		"acquire_skill_group_id": 0,
		"level_correction": 0,
		"group_id": 0,
		"ai_script_id_BattleAIScript": 0
	},
	{
		"ID": 62924,
		"stage_BattleStage": 810003040,
		"unit_UnitUnit": 810004,
		"money": 0,
		"initial_coordinate_x": 12,
		"initial_coordinate_y": 12,
		"reinforcement_BattleReinforcement": 0,
		"initial_direction": 180.0,
		"ai_move_group": 0,
		"ai_target_move_x": -1,
		"ai_target_move_y": -1,
		"ai_skill_function": "",
		"ai_attack": "IF( turn <=2 ,IF(panel_move_distance <= 2, 1, 0),1)",
		"ai_move": "IF(turn <2,0,1)",
		"ai_heal": "",
		"ai_skill": "",
		"ai_use": "",
		"skill_group_id": 13261,
		"gear_GearGear": 15007,
		"gear_rank": 5,
		"proficiency_UnitProficiency": 5,
		"level": 80,
		"hp": 118,
		"strength": 104,
		"vitality": 81,
		"intelligence": 9,
		"mind": 36,
		"agility": 89,
		"dexterity": 102,
		"lucky": 45,
		"parameter_table_BattleEnemyParameterTable": 0,
		"parameter_deviation_table_BattleEnemyParameterDeviationTable": 0,
		"acquire_skill_group_id": 0,
		"level_correction": 0,
		"group_id": 0,
		"ai_script_id_BattleAIScript": 0
	},
	{
		"ID": 62925,
		"stage_BattleStage": 810003040,
		"unit_UnitUnit": 820003,
		"money": 0,
		"initial_coordinate_x": 20,
		"initial_coordinate_y": 14,
		"reinforcement_BattleReinforcement": 0,
		"initial_direction": 180.0,
		"ai_move_group": 0,
		"ai_target_move_x": -1,
		"ai_target_move_y": -1,
		"ai_skill_function": "",
		"ai_attack": "IF( turn <=2 ,IF(panel_move_distance <= 2, 1, 0),1)",
		"ai_move": "IF(turn <2,0,1)",
		"ai_heal": "",
		"ai_skill": "",
		"ai_use": "",
		"skill_group_id": 13366,
		"gear_GearGear": 25001,
		"gear_rank": 5,
		"proficiency_UnitProficiency": 5,
		"level": 80,
		"hp": 153,
		"strength": 111,
		"vitality": 138,
		"intelligence": 9,
		"mind": 47,
		"agility": 49,
		"dexterity": 84,
		"lucky": 41,
		"parameter_table_BattleEnemyParameterTable": 0,
		"parameter_deviation_table_BattleEnemyParameterDeviationTable": 0,
		"acquire_skill_group_id": 0,
		"level_correction": 0,
		"group_id": 0,
		"ai_script_id_BattleAIScript": 0
	},
	{
		"ID": 62926,
		"stage_BattleStage": 810003040,
		"unit_UnitUnit": 400553,
		"money": 0,
		"initial_coordinate_x": 20,
		"initial_coordinate_y": 11,
		"reinforcement_BattleReinforcement": 0,
		"initial_direction": 180.0,
		"ai_move_group": 0,
		"ai_target_move_x": -1,
		"ai_target_move_y": -1,
		"ai_skill_function": "",
		"ai_attack": "IF( turn <=2 ,IF(panel_move_distance <= 4, 1, 0),1)",
		"ai_move": "IF(turn <2,0,1)",
		"ai_heal": "",
		"ai_skill": "",
		"ai_use": "",
		"skill_group_id": 13923,
		"gear_GearGear": 45001,
		"gear_rank": 5,
		"proficiency_UnitProficiency": 5,
		"level": 80,
		"hp": 151,
		"strength": 88,
		"vitality": 96,
		"intelligence": 40,
		"mind": 68,
		"agility": 94,
		"dexterity": 103,
		"lucky": 66,
		"parameter_table_BattleEnemyParameterTable": 0,
		"parameter_deviation_table_BattleEnemyParameterDeviationTable": 0,
		"acquire_skill_group_id": 0,
		"level_correction": 0,
		"group_id": 0,
		"ai_script_id_BattleAIScript": 0
	}
]