[
	{
		"ID": 82289,
		"stage_BattleStage": 810006030,
		"unit_UnitUnit": 3810008,
		"money": 0,
		"initial_coordinate_x": 10,
		"initial_coordinate_y": 16,
		"reinforcement_BattleReinforcement": 0,
		"initial_direction": 180.0,
		"ai_move_group": 0,
		"ai_target_move_x": -1,
		"ai_target_move_y": -1,
		"ai_skill_function": "",
		"ai_attack": "IF( turn < 10 ,IF(panel_move_distance <= 4, 1, 0),1)",
		"ai_move": "IF(turn < 10,0,1)",
		"ai_heal": "",
		"ai_skill": "",
		"ai_use": "IF(turn % 5 == 1, IF(1 == 1, USESKILL(100000330), 0), IF(turn % 5 == 3, IF(1 == 1,USESKILL(100000322), 0), IF(turn % 5 == 0, USESKILL(100000322), 0)))",
		"skill_group_id": 19490,
		"gear_GearGear": 80027,
		"gear_rank": 1,
		"proficiency_UnitProficiency": 1,
		"level": 100,
		"hp": 9354,
		"strength": 31,
		"vitality": 111,
		"intelligence": 265,
		"mind": 142,
		"agility": 137,
		"dexterity": 157,
		"lucky": 60,
		"parameter_table_BattleEnemyParameterTable": 0,
		"parameter_deviation_table_BattleEnemyParameterDeviationTable": 0,
		"acquire_skill_group_id": 0,
		"level_correction": 0,
		"group_id": 0,
		"ai_script_id_BattleAIScript": 0
	},
	{
		"ID": 82290,
		"stage_BattleStage": 810006030,
		"unit_UnitUnit": 3860001,
		"money": 0,
		"initial_coordinate_x": 7,
		"initial_coordinate_y": 15,
		"reinforcement_BattleReinforcement": 0,
		"initial_direction": 180.0,
		"ai_move_group": 0,
		"ai_target_move_x": -1,
		"ai_target_move_y": -1,
		"ai_skill_function": "",
		"ai_attack": "",
		"ai_move": "IF(turn < 9,0,1)",
		"ai_heal": "",
		"ai_skill": "",
		"ai_use": "",
		"skill_group_id": 19491,
		"gear_GearGear": 80005,
		"gear_rank": 1,
		"proficiency_UnitProficiency": 1,
		"level": 90,
		"hp": 1730,
		"strength": 248,
		"vitality": 149,
		"intelligence": 18,
		"mind": 87,
		"agility": 133,
		"dexterity": 140,
		"lucky": 54,
		"parameter_table_BattleEnemyParameterTable": 0,
		"parameter_deviation_table_BattleEnemyParameterDeviationTable": 0,
		"acquire_skill_group_id": 0,
		"level_correction": 0,
		"group_id": 0,
		"ai_script_id_BattleAIScript": 0
	},
	{
		"ID": 82291,
		"stage_BattleStage": 810006030,
		"unit_UnitUnit": 3860001,
		"money": 0,
		"initial_coordinate_x": 8,
		"initial_coordinate_y": 12,
		"reinforcement_BattleReinforcement": 0,
		"initial_direction": 180.0,
		"ai_move_group": 0,
		"ai_target_move_x": -1,
		"ai_target_move_y": -1,
		"ai_skill_function": "",
		"ai_attack": "",
		"ai_move": "IF(turn < 9,0,1)",
		"ai_heal": "",
		"ai_skill": "",
		"ai_use": "",
		"skill_group_id": 19491,
		"gear_GearGear": 80005,
		"gear_rank": 1,
		"proficiency_UnitProficiency": 1,
		"level": 90,
		"hp": 1730,
		"strength": 254,
		"vitality": 152,
		"intelligence": 18,
		"mind": 87,
		"agility": 136,
		"dexterity": 139,
		"lucky": 53,
		"parameter_table_BattleEnemyParameterTable": 0,
		"parameter_deviation_table_BattleEnemyParameterDeviationTable": 0,
		"acquire_skill_group_id": 0,
		"level_correction": 0,
		"group_id": 0,
		"ai_script_id_BattleAIScript": 0
	},
	{
		"ID": 82292,
		"stage_BattleStage": 810006030,
		"unit_UnitUnit": 3860001,
		"money": 0,
		"initial_coordinate_x": 12,
		"initial_coordinate_y": 12,
		"reinforcement_BattleReinforcement": 0,
		"initial_direction": 180.0,
		"ai_move_group": 0,
		"ai_target_move_x": -1,
		"ai_target_move_y": -1,
		"ai_skill_function": "",
		"ai_attack": "",
		"ai_move": "IF(turn < 9,0,1)",
		"ai_heal": "",
		"ai_skill": "",
		"ai_use": "",
		"skill_group_id": 19491,
		"gear_GearGear": 80005,
		"gear_rank": 1,
		"proficiency_UnitProficiency": 1,
		"level": 90,
		"hp": 1734,
		"strength": 254,
		"vitality": 150,
		"intelligence": 22,
		"mind": 90,
		"agility": 134,
		"dexterity": 141,
		"lucky": 53,
		"parameter_table_BattleEnemyParameterTable": 0,
		"parameter_deviation_table_BattleEnemyParameterDeviationTable": 0,
		"acquire_skill_group_id": 0,
		"level_correction": 0,
		"group_id": 0,
		"ai_script_id_BattleAIScript": 0
	},
	{
		"ID": 82293,
		"stage_BattleStage": 810006030,
		"unit_UnitUnit": 3860001,
		"money": 0,
		"initial_coordinate_x": 14,
		"initial_coordinate_y": 15,
		"reinforcement_BattleReinforcement": 0,
		"initial_direction": 180.0,
		"ai_move_group": 0,
		"ai_target_move_x": -1,
		"ai_target_move_y": -1,
		"ai_skill_function": "",
		"ai_attack": "",
		"ai_move": "IF(turn < 9,0,1)",
		"ai_heal": "",
		"ai_skill": "",
		"ai_use": "",
		"skill_group_id": 19491,
		"gear_GearGear": 80005,
		"gear_rank": 1,
		"proficiency_UnitProficiency": 1,
		"level": 90,
		"hp": 1733,
		"strength": 248,
		"vitality": 149,
		"intelligence": 17,
		"mind": 88,
		"agility": 133,
		"dexterity": 142,
		"lucky": 51,
		"parameter_table_BattleEnemyParameterTable": 0,
		"parameter_deviation_table_BattleEnemyParameterDeviationTable": 0,
		"acquire_skill_group_id": 0,
		"level_correction": 0,
		"group_id": 0,
		"ai_script_id_BattleAIScript": 0
	},
	{
		"ID": 82294,
		"stage_BattleStage": 810006030,
		"unit_UnitUnit": 3870001,
		"money": 0,
		"initial_coordinate_x": 3,
		"initial_coordinate_y": 16,
		"reinforcement_BattleReinforcement": 0,
		"initial_direction": 180.0,
		"ai_move_group": 0,
		"ai_target_move_x": -1,
		"ai_target_move_y": -1,
		"ai_skill_function": "",
		"ai_attack": "",
		"ai_move": "IF(turn < 7,0,1)",
		"ai_heal": "",
		"ai_skill": "",
		"ai_use": "",
		"skill_group_id": 19492,
		"gear_GearGear": 25019,
		"gear_rank": 1,
		"proficiency_UnitProficiency": 5,
		"level": 90,
		"hp": 806,
		"strength": 213,
		"vitality": 141,
		"intelligence": 14,
		"mind": 64,
		"agility": 140,
		"dexterity": 141,
		"lucky": 55,
		"parameter_table_BattleEnemyParameterTable": 0,
		"parameter_deviation_table_BattleEnemyParameterDeviationTable": 0,
		"acquire_skill_group_id": 0,
		"level_correction": 0,
		"group_id": 0,
		"ai_script_id_BattleAIScript": 0
	},
	{
		"ID": 82295,
		"stage_BattleStage": 810006030,
		"unit_UnitUnit": 3870001,
		"money": 0,
		"initial_coordinate_x": 4,
		"initial_coordinate_y": 10,
		"reinforcement_BattleReinforcement": 0,
		"initial_direction": 180.0,
		"ai_move_group": 0,
		"ai_target_move_x": -1,
		"ai_target_move_y": -1,
		"ai_skill_function": "",
		"ai_attack": "",
		"ai_move": "IF(turn < 7,0,1)",
		"ai_heal": "",
		"ai_skill": "",
		"ai_use": "",
		"skill_group_id": 19492,
		"gear_GearGear": 25019,
		"gear_rank": 1,
		"proficiency_UnitProficiency": 5,
		"level": 90,
		"hp": 797,
		"strength": 216,
		"vitality": 143,
		"intelligence": 18,
		"mind": 66,
		"agility": 138,
		"dexterity": 143,
		"lucky": 51,
		"parameter_table_BattleEnemyParameterTable": 0,
		"parameter_deviation_table_BattleEnemyParameterDeviationTable": 0,
		"acquire_skill_group_id": 0,
		"level_correction": 0,
		"group_id": 0,
		"ai_script_id_BattleAIScript": 0
	},
	{
		"ID": 82296,
		"stage_BattleStage": 810006030,
		"unit_UnitUnit": 3870001,
		"money": 0,
		"initial_coordinate_x": 7,
		"initial_coordinate_y": 7,
		"reinforcement_BattleReinforcement": 0,
		"initial_direction": 180.0,
		"ai_move_group": 0,
		"ai_target_move_x": -1,
		"ai_target_move_y": -1,
		"ai_skill_function": "",
		"ai_attack": "",
		"ai_move": "IF(turn < 7,0,1)",
		"ai_heal": "",
		"ai_skill": "",
		"ai_use": "",
		"skill_group_id": 19492,
		"gear_GearGear": 25019,
		"gear_rank": 1,
		"proficiency_UnitProficiency": 5,
		"level": 90,
		"hp": 803,
		"strength": 218,
		"vitality": 143,
		"intelligence": 17,
		"mind": 64,
		"agility": 141,
		"dexterity": 142,
		"lucky": 52,
		"parameter_table_BattleEnemyParameterTable": 0,
		"parameter_deviation_table_BattleEnemyParameterDeviationTable": 0,
		"acquire_skill_group_id": 0,
		"level_correction": 0,
		"group_id": 0,
		"ai_script_id_BattleAIScript": 0
	},
	{
		"ID": 82297,
		"stage_BattleStage": 810006030,
		"unit_UnitUnit": 3870001,
		"money": 0,
		"initial_coordinate_x": 15,
		"initial_coordinate_y": 7,
		"reinforcement_BattleReinforcement": 0,
		"initial_direction": 180.0,
		"ai_move_group": 0,
		"ai_target_move_x": -1,
		"ai_target_move_y": -1,
		"ai_skill_function": "",
		"ai_attack": "",
		"ai_move": "IF(turn < 7,0,1)",
		"ai_heal": "",
		"ai_skill": "",
		"ai_use": "",
		"skill_group_id": 19492,
		"gear_GearGear": 25019,
		"gear_rank": 1,
		"proficiency_UnitProficiency": 5,
		"level": 90,
		"hp": 801,
		"strength": 216,
		"vitality": 140,
		"intelligence": 20,
		"mind": 63,
		"agility": 140,
		"dexterity": 143,
		"lucky": 53,
		"parameter_table_BattleEnemyParameterTable": 0,
		"parameter_deviation_table_BattleEnemyParameterDeviationTable": 0,
		"acquire_skill_group_id": 0,
		"level_correction": 0,
		"group_id": 0,
		"ai_script_id_BattleAIScript": 0
	},
	{
		"ID": 82298,
		"stage_BattleStage": 810006030,
		"unit_UnitUnit": 3870001,
		"money": 0,
		"initial_coordinate_x": 18,
		"initial_coordinate_y": 10,
		"reinforcement_BattleReinforcement": 0,
		"initial_direction": 180.0,
		"ai_move_group": 0,
		"ai_target_move_x": -1,
		"ai_target_move_y": -1,
		"ai_skill_function": "",
		"ai_attack": "",
		"ai_move": "IF(turn < 7,0,1)",
		"ai_heal": "",
		"ai_skill": "",
		"ai_use": "",
		"skill_group_id": 19492,
		"gear_GearGear": 25019,
		"gear_rank": 1,
		"proficiency_UnitProficiency": 5,
		"level": 90,
		"hp": 791,
		"strength": 220,
		"vitality": 141,
		"intelligence": 17,
		"mind": 64,
		"agility": 139,
		"dexterity": 141,
		"lucky": 51,
		"parameter_table_BattleEnemyParameterTable": 0,
		"parameter_deviation_table_BattleEnemyParameterDeviationTable": 0,
		"acquire_skill_group_id": 0,
		"level_correction": 0,
		"group_id": 0,
		"ai_script_id_BattleAIScript": 0
	},
	{
		"ID": 82299,
		"stage_BattleStage": 810006030,
		"unit_UnitUnit": 3870001,
		"money": 0,
		"initial_coordinate_x": 19,
		"initial_coordinate_y": 16,
		"reinforcement_BattleReinforcement": 0,
		"initial_direction": 180.0,
		"ai_move_group": 0,
		"ai_target_move_x": -1,
		"ai_target_move_y": -1,
		"ai_skill_function": "",
		"ai_attack": "",
		"ai_move": "IF(turn < 7,0,1)",
		"ai_heal": "",
		"ai_skill": "",
		"ai_use": "",
		"skill_group_id": 19492,
		"gear_GearGear": 25019,
		"gear_rank": 1,
		"proficiency_UnitProficiency": 5,
		"level": 90,
		"hp": 806,
		"strength": 215,
		"vitality": 140,
		"intelligence": 16,
		"mind": 65,
		"agility": 138,
		"dexterity": 143,
		"lucky": 54,
		"parameter_table_BattleEnemyParameterTable": 0,
		"parameter_deviation_table_BattleEnemyParameterDeviationTable": 0,
		"acquire_skill_group_id": 0,
		"level_correction": 0,
		"group_id": 0,
		"ai_script_id_BattleAIScript": 0
	},
	{
		"ID": 82300,
		"stage_BattleStage": 810006030,
		"unit_UnitUnit": 3810006,
		"money": 0,
		"initial_coordinate_x": 10,
		"initial_coordinate_y": 13,
		"reinforcement_BattleReinforcement": 0,
		"initial_direction": 180.0,
		"ai_move_group": 0,
		"ai_target_move_x": -1,
		"ai_target_move_y": -1,
		"ai_skill_function": "",
		"ai_attack": "",
		"ai_move": "IF(turn < 9,0,1)",
		"ai_heal": "",
		"ai_skill": "",
		"ai_use": "",
		"skill_group_id": 19495,
		"gear_GearGear": 65019,
		"gear_rank": 1,
		"proficiency_UnitProficiency": 5,
		"level": 90,
		"hp": 683,
		"strength": 20,
		"vitality": 102,
		"intelligence": 156,
		"mind": 119,
		"agility": 102,
		"dexterity": 127,
		"lucky": 53,
		"parameter_table_BattleEnemyParameterTable": 0,
		"parameter_deviation_table_BattleEnemyParameterDeviationTable": 0,
		"acquire_skill_group_id": 0,
		"level_correction": 0,
		"group_id": 0,
		"ai_script_id_BattleAIScript": 0
	},
	{
		"ID": 82301,
		"stage_BattleStage": 810006030,
		"unit_UnitUnit": 3810006,
		"money": 0,
		"initial_coordinate_x": 9,
		"initial_coordinate_y": 14,
		"reinforcement_BattleReinforcement": 0,
		"initial_direction": 180.0,
		"ai_move_group": 0,
		"ai_target_move_x": -1,
		"ai_target_move_y": -1,
		"ai_skill_function": "",
		"ai_attack": "",
		"ai_move": "IF(turn < 9,0,1)",
		"ai_heal": "",
		"ai_skill": "",
		"ai_use": "",
		"skill_group_id": 19495,
		"gear_GearGear": 65019,
		"gear_rank": 1,
		"proficiency_UnitProficiency": 5,
		"level": 90,
		"hp": 686,
		"strength": 21,
		"vitality": 102,
		"intelligence": 152,
		"mind": 119,
		"agility": 103,
		"dexterity": 127,
		"lucky": 54,
		"parameter_table_BattleEnemyParameterTable": 0,
		"parameter_deviation_table_BattleEnemyParameterDeviationTable": 0,
		"acquire_skill_group_id": 0,
		"level_correction": 0,
		"group_id": 0,
		"ai_script_id_BattleAIScript": 0
	},
	{
		"ID": 82302,
		"stage_BattleStage": 810006030,
		"unit_UnitUnit": 3810006,
		"money": 0,
		"initial_coordinate_x": 11,
		"initial_coordinate_y": 14,
		"reinforcement_BattleReinforcement": 0,
		"initial_direction": 180.0,
		"ai_move_group": 0,
		"ai_target_move_x": -1,
		"ai_target_move_y": -1,
		"ai_skill_function": "",
		"ai_attack": "",
		"ai_move": "IF(turn < 9,0,1)",
		"ai_heal": "",
		"ai_skill": "",
		"ai_use": "",
		"skill_group_id": 19495,
		"gear_GearGear": 65019,
		"gear_rank": 1,
		"proficiency_UnitProficiency": 5,
		"level": 90,
		"hp": 693,
		"strength": 22,
		"vitality": 104,
		"intelligence": 155,
		"mind": 118,
		"agility": 104,
		"dexterity": 128,
		"lucky": 53,
		"parameter_table_BattleEnemyParameterTable": 0,
		"parameter_deviation_table_BattleEnemyParameterDeviationTable": 0,
		"acquire_skill_group_id": 0,
		"level_correction": 0,
		"group_id": 0,
		"ai_script_id_BattleAIScript": 0
	},
	{
		"ID": 82303,
		"stage_BattleStage": 810006030,
		"unit_UnitUnit": 3810005,
		"money": 0,
		"initial_coordinate_x": 6,
		"initial_coordinate_y": 14,
		"reinforcement_BattleReinforcement": 0,
		"initial_direction": 180.0,
		"ai_move_group": 0,
		"ai_target_move_x": -1,
		"ai_target_move_y": -1,
		"ai_skill_function": "",
		"ai_attack": "",
		"ai_move": "IF(turn < 8,0,1)",
		"ai_heal": "",
		"ai_skill": "",
		"ai_use": "",
		"skill_group_id": 19493,
		"gear_GearGear": 55020,
		"gear_rank": 1,
		"proficiency_UnitProficiency": 5,
		"level": 90,
		"hp": 596,
		"strength": 22,
		"vitality": 77,
		"intelligence": 165,
		"mind": 106,
		"agility": 104,
		"dexterity": 148,
		"lucky": 55,
		"parameter_table_BattleEnemyParameterTable": 0,
		"parameter_deviation_table_BattleEnemyParameterDeviationTable": 0,
		"acquire_skill_group_id": 0,
		"level_correction": 0,
		"group_id": 0,
		"ai_script_id_BattleAIScript": 0
	},
	{
		"ID": 82304,
		"stage_BattleStage": 810006030,
		"unit_UnitUnit": 3810005,
		"money": 0,
		"initial_coordinate_x": 7,
		"initial_coordinate_y": 13,
		"reinforcement_BattleReinforcement": 0,
		"initial_direction": 180.0,
		"ai_move_group": 0,
		"ai_target_move_x": -1,
		"ai_target_move_y": -1,
		"ai_skill_function": "",
		"ai_attack": "",
		"ai_move": "IF(turn < 8,0,1)",
		"ai_heal": "",
		"ai_skill": "",
		"ai_use": "",
		"skill_group_id": 19493,
		"gear_GearGear": 55020,
		"gear_rank": 1,
		"proficiency_UnitProficiency": 5,
		"level": 90,
		"hp": 591,
		"strength": 17,
		"vitality": 75,
		"intelligence": 159,
		"mind": 107,
		"agility": 102,
		"dexterity": 148,
		"lucky": 54,
		"parameter_table_BattleEnemyParameterTable": 0,
		"parameter_deviation_table_BattleEnemyParameterDeviationTable": 0,
		"acquire_skill_group_id": 0,
		"level_correction": 0,
		"group_id": 0,
		"ai_script_id_BattleAIScript": 0
	},
	{
		"ID": 82305,
		"stage_BattleStage": 810006030,
		"unit_UnitUnit": 3810005,
		"money": 0,
		"initial_coordinate_x": 10,
		"initial_coordinate_y": 11,
		"reinforcement_BattleReinforcement": 0,
		"initial_direction": 180.0,
		"ai_move_group": 0,
		"ai_target_move_x": -1,
		"ai_target_move_y": -1,
		"ai_skill_function": "",
		"ai_attack": "",
		"ai_move": "IF(turn < 8,0,1)",
		"ai_heal": "",
		"ai_skill": "",
		"ai_use": "",
		"skill_group_id": 19493,
		"gear_GearGear": 55020,
		"gear_rank": 1,
		"proficiency_UnitProficiency": 5,
		"level": 90,
		"hp": 590,
		"strength": 18,
		"vitality": 77,
		"intelligence": 163,
		"mind": 108,
		"agility": 104,
		"dexterity": 149,
		"lucky": 57,
		"parameter_table_BattleEnemyParameterTable": 0,
		"parameter_deviation_table_BattleEnemyParameterDeviationTable": 0,
		"acquire_skill_group_id": 0,
		"level_correction": 0,
		"group_id": 0,
		"ai_script_id_BattleAIScript": 0
	},
	{
		"ID": 82306,
		"stage_BattleStage": 810006030,
		"unit_UnitUnit": 3810005,
		"money": 0,
		"initial_coordinate_x": 11,
		"initial_coordinate_y": 11,
		"reinforcement_BattleReinforcement": 0,
		"initial_direction": 180.0,
		"ai_move_group": 0,
		"ai_target_move_x": -1,
		"ai_target_move_y": -1,
		"ai_skill_function": "",
		"ai_attack": "",
		"ai_move": "IF(turn < 8,0,1)",
		"ai_heal": "",
		"ai_skill": "",
		"ai_use": "",
		"skill_group_id": 19493,
		"gear_GearGear": 55020,
		"gear_rank": 1,
		"proficiency_UnitProficiency": 5,
		"level": 90,
		"hp": 588,
		"strength": 20,
		"vitality": 76,
		"intelligence": 161,
		"mind": 107,
		"agility": 105,
		"dexterity": 149,
		"lucky": 54,
		"parameter_table_BattleEnemyParameterTable": 0,
		"parameter_deviation_table_BattleEnemyParameterDeviationTable": 0,
		"acquire_skill_group_id": 0,
		"level_correction": 0,
		"group_id": 0,
		"ai_script_id_BattleAIScript": 0
	},
	{
		"ID": 82307,
		"stage_BattleStage": 810006030,
		"unit_UnitUnit": 3810005,
		"money": 0,
		"initial_coordinate_x": 14,
		"initial_coordinate_y": 13,
		"reinforcement_BattleReinforcement": 0,
		"initial_direction": 180.0,
		"ai_move_group": 0,
		"ai_target_move_x": -1,
		"ai_target_move_y": -1,
		"ai_skill_function": "",
		"ai_attack": "",
		"ai_move": "IF(turn < 8,0,1)",
		"ai_heal": "",
		"ai_skill": "",
		"ai_use": "",
		"skill_group_id": 19493,
		"gear_GearGear": 55020,
		"gear_rank": 1,
		"proficiency_UnitProficiency": 5,
		"level": 90,
		"hp": 594,
		"strength": 18,
		"vitality": 74,
		"intelligence": 160,
		"mind": 105,
		"agility": 103,
		"dexterity": 147,
		"lucky": 55,
		"parameter_table_BattleEnemyParameterTable": 0,
		"parameter_deviation_table_BattleEnemyParameterDeviationTable": 0,
		"acquire_skill_group_id": 0,
		"level_correction": 0,
		"group_id": 0,
		"ai_script_id_BattleAIScript": 0
	},
	{
		"ID": 82308,
		"stage_BattleStage": 810006030,
		"unit_UnitUnit": 3810005,
		"money": 0,
		"initial_coordinate_x": 14,
		"initial_coordinate_y": 12,
		"reinforcement_BattleReinforcement": 0,
		"initial_direction": 180.0,
		"ai_move_group": 0,
		"ai_target_move_x": -1,
		"ai_target_move_y": -1,
		"ai_skill_function": "",
		"ai_attack": "",
		"ai_move": "IF(turn < 8,0,1)",
		"ai_heal": "",
		"ai_skill": "",
		"ai_use": "",
		"skill_group_id": 19493,
		"gear_GearGear": 55020,
		"gear_rank": 1,
		"proficiency_UnitProficiency": 5,
		"level": 90,
		"hp": 590,
		"strength": 21,
		"vitality": 74,
		"intelligence": 163,
		"mind": 107,
		"agility": 103,
		"dexterity": 147,
		"lucky": 55,
		"parameter_table_BattleEnemyParameterTable": 0,
		"parameter_deviation_table_BattleEnemyParameterDeviationTable": 0,
		"acquire_skill_group_id": 0,
		"level_correction": 0,
		"group_id": 0,
		"ai_script_id_BattleAIScript": 0
	},
	{
		"ID": 82309,
		"stage_BattleStage": 810006030,
		"unit_UnitUnit": 3810004,
		"money": 0,
		"initial_coordinate_x": 6,
		"initial_coordinate_y": 10,
		"reinforcement_BattleReinforcement": 0,
		"initial_direction": 180.0,
		"ai_move_group": 0,
		"ai_target_move_x": -1,
		"ai_target_move_y": -1,
		"ai_skill_function": "",
		"ai_attack": "",
		"ai_move": "IF(turn < 7,0,1)",
		"ai_heal": "",
		"ai_skill": "",
		"ai_use": "",
		"skill_group_id": 19494,
		"gear_GearGear": 45018,
		"gear_rank": 1,
		"proficiency_UnitProficiency": 5,
		"level": 90,
		"hp": 647,
		"strength": 166,
		"vitality": 88,
		"intelligence": 23,
		"mind": 78,
		"agility": 133,
		"dexterity": 141,
		"lucky": 55,
		"parameter_table_BattleEnemyParameterTable": 0,
		"parameter_deviation_table_BattleEnemyParameterDeviationTable": 0,
		"acquire_skill_group_id": 0,
		"level_correction": 0,
		"group_id": 0,
		"ai_script_id_BattleAIScript": 0
	},
	{
		"ID": 82310,
		"stage_BattleStage": 810006030,
		"unit_UnitUnit": 3810004,
		"money": 0,
		"initial_coordinate_x": 12,
		"initial_coordinate_y": 10,
		"reinforcement_BattleReinforcement": 0,
		"initial_direction": 180.0,
		"ai_move_group": 0,
		"ai_target_move_x": -1,
		"ai_target_move_y": -1,
		"ai_skill_function": "",
		"ai_attack": "",
		"ai_move": "IF(turn < 7,0,1)",
		"ai_heal": "",
		"ai_skill": "",
		"ai_use": "",
		"skill_group_id": 19494,
		"gear_GearGear": 45018,
		"gear_rank": 1,
		"proficiency_UnitProficiency": 5,
		"level": 90,
		"hp": 641,
		"strength": 169,
		"vitality": 92,
		"intelligence": 23,
		"mind": 77,
		"agility": 132,
		"dexterity": 142,
		"lucky": 52,
		"parameter_table_BattleEnemyParameterTable": 0,
		"parameter_deviation_table_BattleEnemyParameterDeviationTable": 0,
		"acquire_skill_group_id": 0,
		"level_correction": 0,
		"group_id": 0,
		"ai_script_id_BattleAIScript": 0
	},
	{
		"ID": 82311,
		"stage_BattleStage": 810006030,
		"unit_UnitUnit": 3810004,
		"money": 0,
		"initial_coordinate_x": 17,
		"initial_coordinate_y": 11,
		"reinforcement_BattleReinforcement": 0,
		"initial_direction": 180.0,
		"ai_move_group": 0,
		"ai_target_move_x": -1,
		"ai_target_move_y": -1,
		"ai_skill_function": "",
		"ai_attack": "",
		"ai_move": "IF(turn < 7,0,1)",
		"ai_heal": "",
		"ai_skill": "",
		"ai_use": "",
		"skill_group_id": 19494,
		"gear_GearGear": 45018,
		"gear_rank": 1,
		"proficiency_UnitProficiency": 5,
		"level": 90,
		"hp": 651,
		"strength": 168,
		"vitality": 88,
		"intelligence": 18,
		"mind": 79,
		"agility": 132,
		"dexterity": 143,
		"lucky": 55,
		"parameter_table_BattleEnemyParameterTable": 0,
		"parameter_deviation_table_BattleEnemyParameterDeviationTable": 0,
		"acquire_skill_group_id": 0,
		"level_correction": 0,
		"group_id": 0,
		"ai_script_id_BattleAIScript": 0
	},
	{
		"ID": 82312,
		"stage_BattleStage": 810006030,
		"unit_UnitUnit": 3810004,
		"money": 0,
		"initial_coordinate_x": 12,
		"initial_coordinate_y": 16,
		"reinforcement_BattleReinforcement": 0,
		"initial_direction": 180.0,
		"ai_move_group": 0,
		"ai_target_move_x": -1,
		"ai_target_move_y": -1,
		"ai_skill_function": "",
		"ai_attack": "",
		"ai_move": "IF(turn < 7,0,1)",
		"ai_heal": "",
		"ai_skill": "",
		"ai_use": "",
		"skill_group_id": 19494,
		"gear_GearGear": 45018,
		"gear_rank": 1,
		"proficiency_UnitProficiency": 5,
		"level": 90,
		"hp": 642,
		"strength": 170,
		"vitality": 93,
		"intelligence": 17,
		"mind": 76,
		"agility": 131,
		"dexterity": 141,
		"lucky": 54,
		"parameter_table_BattleEnemyParameterTable": 0,
		"parameter_deviation_table_BattleEnemyParameterDeviationTable": 0,
		"acquire_skill_group_id": 0,
		"level_correction": 0,
		"group_id": 0,
		"ai_script_id_BattleAIScript": 0
	},
	{
		"ID": 82313,
		"stage_BattleStage": 810006030,
		"unit_UnitUnit": 3810003,
		"money": 0,
		"initial_coordinate_x": 1,
		"initial_coordinate_y": 8,
		"reinforcement_BattleReinforcement": 0,
		"initial_direction": 180.0,
		"ai_move_group": 0,
		"ai_target_move_x": -1,
		"ai_target_move_y": -1,
		"ai_skill_function": "",
		"ai_attack": "",
		"ai_move": "IF(turn < 3,0,1)",
		"ai_heal": "",
		"ai_skill": "",
		"ai_use": "",
		"skill_group_id": 19486,
		"gear_GearGear": 35023,
		"gear_rank": 1,
		"proficiency_UnitProficiency": 5,
		"level": 90,
		"hp": 824,
		"strength": 185,
		"vitality": 135,
		"intelligence": 14,
		"mind": 85,
		"agility": 136,
		"dexterity": 150,
		"lucky": 55,
		"parameter_table_BattleEnemyParameterTable": 0,
		"parameter_deviation_table_BattleEnemyParameterDeviationTable": 0,
		"acquire_skill_group_id": 0,
		"level_correction": 0,
		"group_id": 0,
		"ai_script_id_BattleAIScript": 0
	},
	{
		"ID": 82314,
		"stage_BattleStage": 810006030,
		"unit_UnitUnit": 3810003,
		"money": 0,
		"initial_coordinate_x": 2,
		"initial_coordinate_y": 8,
		"reinforcement_BattleReinforcement": 0,
		"initial_direction": 180.0,
		"ai_move_group": 0,
		"ai_target_move_x": -1,
		"ai_target_move_y": -1,
		"ai_skill_function": "",
		"ai_attack": "",
		"ai_move": "IF(turn < 3,0,1)",
		"ai_heal": "",
		"ai_skill": "",
		"ai_use": "",
		"skill_group_id": 19486,
		"gear_GearGear": 35023,
		"gear_rank": 1,
		"proficiency_UnitProficiency": 5,
		"level": 90,
		"hp": 821,
		"strength": 187,
		"vitality": 133,
		"intelligence": 18,
		"mind": 86,
		"agility": 136,
		"dexterity": 150,
		"lucky": 56,
		"parameter_table_BattleEnemyParameterTable": 0,
		"parameter_deviation_table_BattleEnemyParameterDeviationTable": 0,
		"acquire_skill_group_id": 0,
		"level_correction": 0,
		"group_id": 0,
		"ai_script_id_BattleAIScript": 0
	},
	{
		"ID": 82315,
		"stage_BattleStage": 810006030,
		"unit_UnitUnit": 3810003,
		"money": 0,
		"initial_coordinate_x": 3,
		"initial_coordinate_y": 8,
		"reinforcement_BattleReinforcement": 0,
		"initial_direction": 180.0,
		"ai_move_group": 0,
		"ai_target_move_x": -1,
		"ai_target_move_y": -1,
		"ai_skill_function": "",
		"ai_attack": "",
		"ai_move": "IF(turn < 3,0,1)",
		"ai_heal": "",
		"ai_skill": "",
		"ai_use": "",
		"skill_group_id": 19486,
		"gear_GearGear": 35023,
		"gear_rank": 1,
		"proficiency_UnitProficiency": 5,
		"level": 90,
		"hp": 816,
		"strength": 183,
		"vitality": 136,
		"intelligence": 17,
		"mind": 87,
		"agility": 136,
		"dexterity": 148,
		"lucky": 53,
		"parameter_table_BattleEnemyParameterTable": 0,
		"parameter_deviation_table_BattleEnemyParameterDeviationTable": 0,
		"acquire_skill_group_id": 0,
		"level_correction": 0,
		"group_id": 0,
		"ai_script_id_BattleAIScript": 0
	},
	{
		"ID": 82316,
		"stage_BattleStage": 810006030,
		"unit_UnitUnit": 3810001,
		"money": 0,
		"initial_coordinate_x": 11,
		"initial_coordinate_y": 6,
		"reinforcement_BattleReinforcement": 0,
		"initial_direction": 180.0,
		"ai_move_group": 0,
		"ai_target_move_x": -1,
		"ai_target_move_y": -1,
		"ai_skill_function": "",
		"ai_attack": "",
		"ai_move": "IF(turn < 3,0,1)",
		"ai_heal": "",
		"ai_skill": "",
		"ai_use": "",
		"skill_group_id": 19486,
		"gear_GearGear": 15039,
		"gear_rank": 1,
		"proficiency_UnitProficiency": 5,
		"level": 90,
		"hp": 791,
		"strength": 181,
		"vitality": 133,
		"intelligence": 21,
		"mind": 74,
		"agility": 143,
		"dexterity": 148,
		"lucky": 55,
		"parameter_table_BattleEnemyParameterTable": 0,
		"parameter_deviation_table_BattleEnemyParameterDeviationTable": 0,
		"acquire_skill_group_id": 0,
		"level_correction": 0,
		"group_id": 0,
		"ai_script_id_BattleAIScript": 0
	},
	{
		"ID": 82317,
		"stage_BattleStage": 810006030,
		"unit_UnitUnit": 3810001,
		"money": 0,
		"initial_coordinate_x": 12,
		"initial_coordinate_y": 7,
		"reinforcement_BattleReinforcement": 0,
		"initial_direction": 180.0,
		"ai_move_group": 0,
		"ai_target_move_x": -1,
		"ai_target_move_y": -1,
		"ai_skill_function": "",
		"ai_attack": "",
		"ai_move": "IF(turn < 3,0,1)",
		"ai_heal": "",
		"ai_skill": "",
		"ai_use": "",
		"skill_group_id": 19486,
		"gear_GearGear": 15039,
		"gear_rank": 1,
		"proficiency_UnitProficiency": 5,
		"level": 90,
		"hp": 801,
		"strength": 177,
		"vitality": 134,
		"intelligence": 18,
		"mind": 74,
		"agility": 143,
		"dexterity": 147,
		"lucky": 55,
		"parameter_table_BattleEnemyParameterTable": 0,
		"parameter_deviation_table_BattleEnemyParameterDeviationTable": 0,
		"acquire_skill_group_id": 0,
		"level_correction": 0,
		"group_id": 0,
		"ai_script_id_BattleAIScript": 0
	},
	{
		"ID": 82318,
		"stage_BattleStage": 810006030,
		"unit_UnitUnit": 3810001,
		"money": 0,
		"initial_coordinate_x": 13,
		"initial_coordinate_y": 6,
		"reinforcement_BattleReinforcement": 0,
		"initial_direction": 180.0,
		"ai_move_group": 0,
		"ai_target_move_x": -1,
		"ai_target_move_y": -1,
		"ai_skill_function": "",
		"ai_attack": "",
		"ai_move": "IF(turn < 3,0,1)",
		"ai_heal": "",
		"ai_skill": "",
		"ai_use": "",
		"skill_group_id": 19486,
		"gear_GearGear": 15039,
		"gear_rank": 1,
		"proficiency_UnitProficiency": 5,
		"level": 90,
		"hp": 795,
		"strength": 177,
		"vitality": 134,
		"intelligence": 23,
		"mind": 75,
		"agility": 144,
		"dexterity": 147,
		"lucky": 55,
		"parameter_table_BattleEnemyParameterTable": 0,
		"parameter_deviation_table_BattleEnemyParameterDeviationTable": 0,
		"acquire_skill_group_id": 0,
		"level_correction": 0,
		"group_id": 0,
		"ai_script_id_BattleAIScript": 0
	},
	{
		"ID": 82319,
		"stage_BattleStage": 810006030,
		"unit_UnitUnit": 3810002,
		"money": 0,
		"initial_coordinate_x": 20,
		"initial_coordinate_y": 11,
		"reinforcement_BattleReinforcement": 0,
		"initial_direction": 180.0,
		"ai_move_group": 0,
		"ai_target_move_x": -1,
		"ai_target_move_y": -1,
		"ai_skill_function": "",
		"ai_attack": "",
		"ai_move": "IF(turn < 3,0,1)",
		"ai_heal": "",
		"ai_skill": "",
		"ai_use": "",
		"skill_group_id": 19486,
		"gear_GearGear": 25019,
		"gear_rank": 1,
		"proficiency_UnitProficiency": 5,
		"level": 90,
		"hp": 888,
		"strength": 208,
		"vitality": 132,
		"intelligence": 20,
		"mind": 68,
		"agility": 131,
		"dexterity": 146,
		"lucky": 53,
		"parameter_table_BattleEnemyParameterTable": 0,
		"parameter_deviation_table_BattleEnemyParameterDeviationTable": 0,
		"acquire_skill_group_id": 0,
		"level_correction": 0,
		"group_id": 0,
		"ai_script_id_BattleAIScript": 0
	},
	{
		"ID": 82320,
		"stage_BattleStage": 810006030,
		"unit_UnitUnit": 3810002,
		"money": 0,
		"initial_coordinate_x": 21,
		"initial_coordinate_y": 12,
		"reinforcement_BattleReinforcement": 0,
		"initial_direction": 180.0,
		"ai_move_group": 0,
		"ai_target_move_x": -1,
		"ai_target_move_y": -1,
		"ai_skill_function": "",
		"ai_attack": "",
		"ai_move": "IF(turn < 3,0,1)",
		"ai_heal": "",
		"ai_skill": "",
		"ai_use": "",
		"skill_group_id": 19486,
		"gear_GearGear": 25019,
		"gear_rank": 1,
		"proficiency_UnitProficiency": 5,
		"level": 90,
		"hp": 888,
		"strength": 205,
		"vitality": 134,
		"intelligence": 18,
		"mind": 68,
		"agility": 129,
		"dexterity": 145,
		"lucky": 52,
		"parameter_table_BattleEnemyParameterTable": 0,
		"parameter_deviation_table_BattleEnemyParameterDeviationTable": 0,
		"acquire_skill_group_id": 0,
		"level_correction": 0,
		"group_id": 0,
		"ai_script_id_BattleAIScript": 0
	},
	{
		"ID": 82321,
		"stage_BattleStage": 810006030,
		"unit_UnitUnit": 3810002,
		"money": 0,
		"initial_coordinate_x": 22,
		"initial_coordinate_y": 13,
		"reinforcement_BattleReinforcement": 0,
		"initial_direction": 180.0,
		"ai_move_group": 0,
		"ai_target_move_x": -1,
		"ai_target_move_y": -1,
		"ai_skill_function": "",
		"ai_attack": "",
		"ai_move": "IF(turn < 3,0,1)",
		"ai_heal": "",
		"ai_skill": "",
		"ai_use": "",
		"skill_group_id": 19486,
		"gear_GearGear": 25019,
		"gear_rank": 1,
		"proficiency_UnitProficiency": 5,
		"level": 90,
		"hp": 897,
		"strength": 209,
		"vitality": 134,
		"intelligence": 20,
		"mind": 64,
		"agility": 129,
		"dexterity": 146,
		"lucky": 52,
		"parameter_table_BattleEnemyParameterTable": 0,
		"parameter_deviation_table_BattleEnemyParameterDeviationTable": 0,
		"acquire_skill_group_id": 0,
		"level_correction": 0,
		"group_id": 0,
		"ai_script_id_BattleAIScript": 0
	},
	{
		"ID": 82322,
		"stage_BattleStage": 810006030,
		"unit_UnitUnit": 3810001,
		"money": 0,
		"initial_coordinate_x": 3,
		"initial_coordinate_y": 13,
		"reinforcement_BattleReinforcement": 0,
		"initial_direction": 180.0,
		"ai_move_group": 0,
		"ai_target_move_x": -1,
		"ai_target_move_y": -1,
		"ai_skill_function": "",
		"ai_attack": "",
		"ai_move": "IF(turn < 6,0,1)",
		"ai_heal": "",
		"ai_skill": "",
		"ai_use": "",
		"skill_group_id": 19486,
		"gear_GearGear": 15039,
		"gear_rank": 1,
		"proficiency_UnitProficiency": 5,
		"level": 90,
		"hp": 791,
		"strength": 178,
		"vitality": 136,
		"intelligence": 21,
		"mind": 77,
		"agility": 143,
		"dexterity": 149,
		"lucky": 54,
		"parameter_table_BattleEnemyParameterTable": 0,
		"parameter_deviation_table_BattleEnemyParameterDeviationTable": 0,
		"acquire_skill_group_id": 0,
		"level_correction": 0,
		"group_id": 0,
		"ai_script_id_BattleAIScript": 0
	},
	{
		"ID": 82323,
		"stage_BattleStage": 810006030,
		"unit_UnitUnit": 3810001,
		"money": 0,
		"initial_coordinate_x": 18,
		"initial_coordinate_y": 13,
		"reinforcement_BattleReinforcement": 0,
		"initial_direction": 180.0,
		"ai_move_group": 0,
		"ai_target_move_x": -1,
		"ai_target_move_y": -1,
		"ai_skill_function": "",
		"ai_attack": "",
		"ai_move": "IF(turn < 6,0,1)",
		"ai_heal": "",
		"ai_skill": "",
		"ai_use": "",
		"skill_group_id": 19486,
		"gear_GearGear": 15039,
		"gear_rank": 1,
		"proficiency_UnitProficiency": 5,
		"level": 90,
		"hp": 803,
		"strength": 178,
		"vitality": 137,
		"intelligence": 21,
		"mind": 74,
		"agility": 142,
		"dexterity": 150,
		"lucky": 55,
		"parameter_table_BattleEnemyParameterTable": 0,
		"parameter_deviation_table_BattleEnemyParameterDeviationTable": 0,
		"acquire_skill_group_id": 0,
		"level_correction": 0,
		"group_id": 0,
		"ai_script_id_BattleAIScript": 0
	},
	{
		"ID": 82324,
		"stage_BattleStage": 810006030,
		"unit_UnitUnit": 3810001,
		"money": 0,
		"initial_coordinate_x": 18,
		"initial_coordinate_y": 7,
		"reinforcement_BattleReinforcement": 0,
		"initial_direction": 180.0,
		"ai_move_group": 0,
		"ai_target_move_x": -1,
		"ai_target_move_y": -1,
		"ai_skill_function": "",
		"ai_attack": "",
		"ai_move": "IF(turn < 2,0,1)",
		"ai_heal": "",
		"ai_skill": "",
		"ai_use": "",
		"skill_group_id": 19486,
		"gear_GearGear": 15039,
		"gear_rank": 1,
		"proficiency_UnitProficiency": 5,
		"level": 90,
		"hp": 788,
		"strength": 178,
		"vitality": 134,
		"intelligence": 21,
		"mind": 72,
		"agility": 142,
		"dexterity": 149,
		"lucky": 52,
		"parameter_table_BattleEnemyParameterTable": 0,
		"parameter_deviation_table_BattleEnemyParameterDeviationTable": 0,
		"acquire_skill_group_id": 0,
		"level_correction": 0,
		"group_id": 0,
		"ai_script_id_BattleAIScript": 0
	},
	{
		"ID": 82325,
		"stage_BattleStage": 810006030,
		"unit_UnitUnit": 3810001,
		"money": 0,
		"initial_coordinate_x": 19,
		"initial_coordinate_y": 8,
		"reinforcement_BattleReinforcement": 0,
		"initial_direction": 180.0,
		"ai_move_group": 0,
		"ai_target_move_x": -1,
		"ai_target_move_y": -1,
		"ai_skill_function": "",
		"ai_attack": "",
		"ai_move": "IF(turn < 2,0,1)",
		"ai_heal": "",
		"ai_skill": "",
		"ai_use": "",
		"skill_group_id": 19486,
		"gear_GearGear": 15039,
		"gear_rank": 1,
		"proficiency_UnitProficiency": 5,
		"level": 90,
		"hp": 794,
		"strength": 174,
		"vitality": 134,
		"intelligence": 23,
		"mind": 74,
		"agility": 144,
		"dexterity": 148,
		"lucky": 56,
		"parameter_table_BattleEnemyParameterTable": 0,
		"parameter_deviation_table_BattleEnemyParameterDeviationTable": 0,
		"acquire_skill_group_id": 0,
		"level_correction": 0,
		"group_id": 0,
		"ai_script_id_BattleAIScript": 0
	}
]