[
	{
		"ID": 51801,
		"stage_BattleStage": 810002059,
		"unit_UnitUnit": 2301813,
		"money": 0,
		"initial_coordinate_x": 4,
		"initial_coordinate_y": 20,
		"reinforcement_BattleReinforcement": 0,
		"initial_direction": 180.0,
		"ai_move_group": 0,
		"ai_target_move_x": -1,
		"ai_target_move_y": -1,
		"ai_skill_function": "",
		"ai_attack": "IF( turn <=4 ,IF(panel_move_distance <= 5, 1, 0),1)",
		"ai_move": "IF(turn <=4,0,1)",
		"ai_heal": "",
		"ai_skill": "",
		"ai_use": "",
		"skill_group_id": 14599,
		"gear_GearGear": 36013,
		"gear_rank": 10,
		"proficiency_UnitProficiency": 6,
		"level": 90,
		"hp": 310,
		"strength": 105,
		"vitality": 114,
		"intelligence": 12,
		"mind": 64,
		"agility": 108,
		"dexterity": 112,
		"lucky": 57,
		"parameter_table_BattleEnemyParameterTable": 0,
		"parameter_deviation_table_BattleEnemyParameterDeviationTable": 0,
		"acquire_skill_group_id": 0,
		"level_correction": 0,
		"group_id": 0,
		"ai_script_id_BattleAIScript": 0
	},
	{
		"ID": 51802,
		"stage_BattleStage": 810002059,
		"unit_UnitUnit": 2200413,
		"money": 0,
		"initial_coordinate_x": 5,
		"initial_coordinate_y": 19,
		"reinforcement_BattleReinforcement": 0,
		"initial_direction": 180.0,
		"ai_move_group": 0,
		"ai_target_move_x": -1,
		"ai_target_move_y": -1,
		"ai_skill_function": "",
		"ai_attack": "IF( turn <=4 ,IF(panel_move_distance <= 5, 1, 0),1)",
		"ai_move": "IF(turn <=4,0,1)",
		"ai_heal": "",
		"ai_skill": "",
		"ai_use": "",
		"skill_group_id": 14761,
		"gear_GearGear": 26013,
		"gear_rank": 10,
		"proficiency_UnitProficiency": 6,
		"level": 90,
		"hp": 328,
		"strength": 128,
		"vitality": 99,
		"intelligence": 13,
		"mind": 48,
		"agility": 101,
		"dexterity": 102,
		"lucky": 57,
		"parameter_table_BattleEnemyParameterTable": 0,
		"parameter_deviation_table_BattleEnemyParameterDeviationTable": 0,
		"acquire_skill_group_id": 0,
		"level_correction": 0,
		"group_id": 0,
		"ai_script_id_BattleAIScript": 0
	},
	{
		"ID": 51803,
		"stage_BattleStage": 810002059,
		"unit_UnitUnit": 2102813,
		"money": 0,
		"initial_coordinate_x": 3,
		"initial_coordinate_y": 19,
		"reinforcement_BattleReinforcement": 0,
		"initial_direction": 180.0,
		"ai_move_group": 0,
		"ai_target_move_x": -1,
		"ai_target_move_y": -1,
		"ai_skill_function": "",
		"ai_attack": "IF( turn <=4 ,IF(panel_move_distance <= 5, 1, 0),1)",
		"ai_move": "IF(turn <=4,0,1)",
		"ai_heal": "",
		"ai_skill": "",
		"ai_use": "",
		"skill_group_id": 14600,
		"gear_GearGear": 16034,
		"gear_rank": 10,
		"proficiency_UnitProficiency": 6,
		"level": 90,
		"hp": 324,
		"strength": 110,
		"vitality": 108,
		"intelligence": 25,
		"mind": 71,
		"agility": 126,
		"dexterity": 128,
		"lucky": 43,
		"parameter_table_BattleEnemyParameterTable": 0,
		"parameter_deviation_table_BattleEnemyParameterDeviationTable": 0,
		"acquire_skill_group_id": 0,
		"level_correction": 0,
		"group_id": 0,
		"ai_script_id_BattleAIScript": 0
	},
	{
		"ID": 51804,
		"stage_BattleStage": 810002059,
		"unit_UnitUnit": 830001,
		"money": 0,
		"initial_coordinate_x": 1,
		"initial_coordinate_y": 12,
		"reinforcement_BattleReinforcement": 0,
		"initial_direction": 180.0,
		"ai_move_group": 0,
		"ai_target_move_x": -1,
		"ai_target_move_y": -1,
		"ai_skill_function": "",
		"ai_attack": "IF( turn <=4 ,IF(panel_move_distance <= 6, 1, 0),1)",
		"ai_move": "IF(turn <=4,0,10)",
		"ai_heal": "",
		"ai_skill": "",
		"ai_use": "",
		"skill_group_id": 14816,
		"gear_GearGear": 35019,
		"gear_rank": 9,
		"proficiency_UnitProficiency": 6,
		"level": 90,
		"hp": 136,
		"strength": 115,
		"vitality": 110,
		"intelligence": 9,
		"mind": 89,
		"agility": 114,
		"dexterity": 115,
		"lucky": 62,
		"parameter_table_BattleEnemyParameterTable": 0,
		"parameter_deviation_table_BattleEnemyParameterDeviationTable": 0,
		"acquire_skill_group_id": 0,
		"level_correction": 0,
		"group_id": 0,
		"ai_script_id_BattleAIScript": 0
	},
	{
		"ID": 51805,
		"stage_BattleStage": 810002059,
		"unit_UnitUnit": 2302113,
		"money": 0,
		"initial_coordinate_x": 2,
		"initial_coordinate_y": 13,
		"reinforcement_BattleReinforcement": 0,
		"initial_direction": 180.0,
		"ai_move_group": 0,
		"ai_target_move_x": -1,
		"ai_target_move_y": -1,
		"ai_skill_function": "",
		"ai_attack": "IF( turn <=4 ,IF(panel_move_distance <= 4, 1, 0),1)",
		"ai_move": "IF(turn <=4,0,10)",
		"ai_heal": "",
		"ai_skill": "",
		"ai_use": "",
		"skill_group_id": 14572,
		"gear_GearGear": 36013,
		"gear_rank": 10,
		"proficiency_UnitProficiency": 6,
		"level": 90,
		"hp": 308,
		"strength": 90,
		"vitality": 81,
		"intelligence": 12,
		"mind": 34,
		"agility": 103,
		"dexterity": 105,
		"lucky": 57,
		"parameter_table_BattleEnemyParameterTable": 0,
		"parameter_deviation_table_BattleEnemyParameterDeviationTable": 0,
		"acquire_skill_group_id": 0,
		"level_correction": 0,
		"group_id": 0,
		"ai_script_id_BattleAIScript": 0
	},
	{
		"ID": 51806,
		"stage_BattleStage": 810002059,
		"unit_UnitUnit": 830001,
		"money": 0,
		"initial_coordinate_x": 3,
		"initial_coordinate_y": 14,
		"reinforcement_BattleReinforcement": 0,
		"initial_direction": 180.0,
		"ai_move_group": 0,
		"ai_target_move_x": -1,
		"ai_target_move_y": -1,
		"ai_skill_function": "",
		"ai_attack": "IF( turn <=4 ,IF(panel_move_distance <= 6, 1, 0),1)",
		"ai_move": "IF(turn <=4,0,10)",
		"ai_heal": "",
		"ai_skill": "",
		"ai_use": "",
		"skill_group_id": 14816,
		"gear_GearGear": 35019,
		"gear_rank": 9,
		"proficiency_UnitProficiency": 6,
		"level": 90,
		"hp": 136,
		"strength": 116,
		"vitality": 108,
		"intelligence": 11,
		"mind": 90,
		"agility": 118,
		"dexterity": 119,
		"lucky": 63,
		"parameter_table_BattleEnemyParameterTable": 0,
		"parameter_deviation_table_BattleEnemyParameterDeviationTable": 0,
		"acquire_skill_group_id": 0,
		"level_correction": 0,
		"group_id": 0,
		"ai_script_id_BattleAIScript": 0
	},
	{
		"ID": 51807,
		"stage_BattleStage": 810002059,
		"unit_UnitUnit": 2811004,
		"money": 0,
		"initial_coordinate_x": 6,
		"initial_coordinate_y": 15,
		"reinforcement_BattleReinforcement": 0,
		"initial_direction": 180.0,
		"ai_move_group": 0,
		"ai_target_move_x": -1,
		"ai_target_move_y": -1,
		"ai_skill_function": "",
		"ai_attack": "IF( turn <=3 ,IF(panel_move_distance <= 4, 1, 0),1)",
		"ai_move": "IF(turn <=3,0,10)",
		"ai_heal": "",
		"ai_skill": "",
		"ai_use": "",
		"skill_group_id": 14665,
		"gear_GearGear": 15007,
		"gear_rank": 9,
		"proficiency_UnitProficiency": 5,
		"level": 90,
		"hp": 147,
		"strength": 109,
		"vitality": 94,
		"intelligence": 13,
		"mind": 79,
		"agility": 120,
		"dexterity": 120,
		"lucky": 63,
		"parameter_table_BattleEnemyParameterTable": 0,
		"parameter_deviation_table_BattleEnemyParameterDeviationTable": 0,
		"acquire_skill_group_id": 0,
		"level_correction": 0,
		"group_id": 0,
		"ai_script_id_BattleAIScript": 0
	},
	{
		"ID": 51808,
		"stage_BattleStage": 810002059,
		"unit_UnitUnit": 2811004,
		"money": 0,
		"initial_coordinate_x": 7,
		"initial_coordinate_y": 15,
		"reinforcement_BattleReinforcement": 0,
		"initial_direction": 180.0,
		"ai_move_group": 0,
		"ai_target_move_x": -1,
		"ai_target_move_y": -1,
		"ai_skill_function": "",
		"ai_attack": "IF( turn <=3 ,IF(panel_move_distance <= 4, 1, 0),1)",
		"ai_move": "IF(turn <=3,0,10)",
		"ai_heal": "",
		"ai_skill": "",
		"ai_use": "",
		"skill_group_id": 14665,
		"gear_GearGear": 15007,
		"gear_rank": 9,
		"proficiency_UnitProficiency": 5,
		"level": 90,
		"hp": 147,
		"strength": 110,
		"vitality": 91,
		"intelligence": 10,
		"mind": 83,
		"agility": 123,
		"dexterity": 124,
		"lucky": 63,
		"parameter_table_BattleEnemyParameterTable": 0,
		"parameter_deviation_table_BattleEnemyParameterDeviationTable": 0,
		"acquire_skill_group_id": 0,
		"level_correction": 0,
		"group_id": 0,
		"ai_script_id_BattleAIScript": 0
	},
	{
		"ID": 51809,
		"stage_BattleStage": 810002059,
		"unit_UnitUnit": 2811004,
		"money": 0,
		"initial_coordinate_x": 6,
		"initial_coordinate_y": 14,
		"reinforcement_BattleReinforcement": 0,
		"initial_direction": 180.0,
		"ai_move_group": 0,
		"ai_target_move_x": -1,
		"ai_target_move_y": -1,
		"ai_skill_function": "",
		"ai_attack": "IF( turn <=3 ,IF(panel_move_distance <= 4, 1, 0),1)",
		"ai_move": "IF(turn <=3,0,10)",
		"ai_heal": "",
		"ai_skill": "",
		"ai_use": "",
		"skill_group_id": 14665,
		"gear_GearGear": 15007,
		"gear_rank": 9,
		"proficiency_UnitProficiency": 5,
		"level": 90,
		"hp": 147,
		"strength": 110,
		"vitality": 91,
		"intelligence": 10,
		"mind": 80,
		"agility": 123,
		"dexterity": 121,
		"lucky": 60,
		"parameter_table_BattleEnemyParameterTable": 0,
		"parameter_deviation_table_BattleEnemyParameterDeviationTable": 0,
		"acquire_skill_group_id": 0,
		"level_correction": 0,
		"group_id": 0,
		"ai_script_id_BattleAIScript": 0
	},
	{
		"ID": 51810,
		"stage_BattleStage": 810002059,
		"unit_UnitUnit": 2831004,
		"money": 0,
		"initial_coordinate_x": 11,
		"initial_coordinate_y": 15,
		"reinforcement_BattleReinforcement": 0,
		"initial_direction": 180.0,
		"ai_move_group": 0,
		"ai_target_move_x": -1,
		"ai_target_move_y": -1,
		"ai_skill_function": "",
		"ai_attack": "IF( turn <=3 ,IF(panel_move_distance <= 4, 1, 0),1)",
		"ai_move": "IF(turn <=3,0,10)",
		"ai_heal": "",
		"ai_skill": "",
		"ai_use": "",
		"skill_group_id": 14684,
		"gear_GearGear": 35003,
		"gear_rank": 9,
		"proficiency_UnitProficiency": 5,
		"level": 90,
		"hp": 159,
		"strength": 118,
		"vitality": 127,
		"intelligence": 13,
		"mind": 93,
		"agility": 111,
		"dexterity": 114,
		"lucky": 64,
		"parameter_table_BattleEnemyParameterTable": 0,
		"parameter_deviation_table_BattleEnemyParameterDeviationTable": 0,
		"acquire_skill_group_id": 0,
		"level_correction": 0,
		"group_id": 0,
		"ai_script_id_BattleAIScript": 0
	},
	{
		"ID": 51811,
		"stage_BattleStage": 810002059,
		"unit_UnitUnit": 2831004,
		"money": 0,
		"initial_coordinate_x": 10,
		"initial_coordinate_y": 15,
		"reinforcement_BattleReinforcement": 0,
		"initial_direction": 180.0,
		"ai_move_group": 0,
		"ai_target_move_x": -1,
		"ai_target_move_y": -1,
		"ai_skill_function": "",
		"ai_attack": "IF( turn <=3 ,IF(panel_move_distance <= 4, 1, 0),1)",
		"ai_move": "IF(turn <=3,0,10)",
		"ai_heal": "",
		"ai_skill": "",
		"ai_use": "",
		"skill_group_id": 14684,
		"gear_GearGear": 35003,
		"gear_rank": 9,
		"proficiency_UnitProficiency": 5,
		"level": 90,
		"hp": 155,
		"strength": 116,
		"vitality": 125,
		"intelligence": 13,
		"mind": 90,
		"agility": 113,
		"dexterity": 113,
		"lucky": 62,
		"parameter_table_BattleEnemyParameterTable": 0,
		"parameter_deviation_table_BattleEnemyParameterDeviationTable": 0,
		"acquire_skill_group_id": 0,
		"level_correction": 0,
		"group_id": 0,
		"ai_script_id_BattleAIScript": 0
	},
	{
		"ID": 51812,
		"stage_BattleStage": 810002059,
		"unit_UnitUnit": 2831004,
		"money": 0,
		"initial_coordinate_x": 11,
		"initial_coordinate_y": 14,
		"reinforcement_BattleReinforcement": 0,
		"initial_direction": 180.0,
		"ai_move_group": 0,
		"ai_target_move_x": -1,
		"ai_target_move_y": -1,
		"ai_skill_function": "",
		"ai_attack": "IF( turn <=3 ,IF(panel_move_distance <= 4, 1, 0),1)",
		"ai_move": "IF(turn <=3,0,10)",
		"ai_heal": "",
		"ai_skill": "",
		"ai_use": "",
		"skill_group_id": 14684,
		"gear_GearGear": 35003,
		"gear_rank": 9,
		"proficiency_UnitProficiency": 5,
		"level": 90,
		"hp": 158,
		"strength": 119,
		"vitality": 129,
		"intelligence": 9,
		"mind": 91,
		"agility": 111,
		"dexterity": 113,
		"lucky": 63,
		"parameter_table_BattleEnemyParameterTable": 0,
		"parameter_deviation_table_BattleEnemyParameterDeviationTable": 0,
		"acquire_skill_group_id": 0,
		"level_correction": 0,
		"group_id": 0,
		"ai_script_id_BattleAIScript": 0
	},
	{
		"ID": 51813,
		"stage_BattleStage": 810002059,
		"unit_UnitUnit": 2821004,
		"money": 0,
		"initial_coordinate_x": 9,
		"initial_coordinate_y": 11,
		"reinforcement_BattleReinforcement": 0,
		"initial_direction": 180.0,
		"ai_move_group": 0,
		"ai_target_move_x": -1,
		"ai_target_move_y": -1,
		"ai_skill_function": "",
		"ai_attack": "IF( turn <=4 ,IF(panel_move_distance <= 1, 1, 0),1)",
		"ai_move": "IF(turn <=4,0,10)",
		"ai_heal": "",
		"ai_skill": "",
		"ai_use": "",
		"skill_group_id": 14673,
		"gear_GearGear": 25007,
		"gear_rank": 9,
		"proficiency_UnitProficiency": 5,
		"level": 90,
		"hp": 168,
		"strength": 132,
		"vitality": 111,
		"intelligence": 10,
		"mind": 72,
		"agility": 101,
		"dexterity": 105,
		"lucky": 61,
		"parameter_table_BattleEnemyParameterTable": 0,
		"parameter_deviation_table_BattleEnemyParameterDeviationTable": 0,
		"acquire_skill_group_id": 0,
		"level_correction": 0,
		"group_id": 0,
		"ai_script_id_BattleAIScript": 0
	},
	{
		"ID": 51814,
		"stage_BattleStage": 810002059,
		"unit_UnitUnit": 2821004,
		"money": 0,
		"initial_coordinate_x": 8,
		"initial_coordinate_y": 10,
		"reinforcement_BattleReinforcement": 0,
		"initial_direction": 180.0,
		"ai_move_group": 0,
		"ai_target_move_x": -1,
		"ai_target_move_y": -1,
		"ai_skill_function": "",
		"ai_attack": "IF( turn <=4 ,IF(panel_move_distance <= 1, 1, 0),1)",
		"ai_move": "IF(turn <=4,0,10)",
		"ai_heal": "",
		"ai_skill": "",
		"ai_use": "",
		"skill_group_id": 14673,
		"gear_GearGear": 25007,
		"gear_rank": 9,
		"proficiency_UnitProficiency": 5,
		"level": 90,
		"hp": 170,
		"strength": 133,
		"vitality": 108,
		"intelligence": 9,
		"mind": 70,
		"agility": 103,
		"dexterity": 107,
		"lucky": 63,
		"parameter_table_BattleEnemyParameterTable": 0,
		"parameter_deviation_table_BattleEnemyParameterDeviationTable": 0,
		"acquire_skill_group_id": 0,
		"level_correction": 0,
		"group_id": 0,
		"ai_script_id_BattleAIScript": 0
	},
	{
		"ID": 51815,
		"stage_BattleStage": 810002059,
		"unit_UnitUnit": 2821004,
		"money": 0,
		"initial_coordinate_x": 10,
		"initial_coordinate_y": 9,
		"reinforcement_BattleReinforcement": 0,
		"initial_direction": 180.0,
		"ai_move_group": 0,
		"ai_target_move_x": -1,
		"ai_target_move_y": -1,
		"ai_skill_function": "",
		"ai_attack": "IF( turn <=4 ,IF(panel_move_distance <= 1, 1, 0),1)",
		"ai_move": "IF(turn <=4,0,10)",
		"ai_heal": "",
		"ai_skill": "",
		"ai_use": "",
		"skill_group_id": 14673,
		"gear_GearGear": 25007,
		"gear_rank": 9,
		"proficiency_UnitProficiency": 5,
		"level": 90,
		"hp": 167,
		"strength": 130,
		"vitality": 112,
		"intelligence": 10,
		"mind": 72,
		"agility": 100,
		"dexterity": 105,
		"lucky": 64,
		"parameter_table_BattleEnemyParameterTable": 0,
		"parameter_deviation_table_BattleEnemyParameterDeviationTable": 0,
		"acquire_skill_group_id": 0,
		"level_correction": 0,
		"group_id": 0,
		"ai_script_id_BattleAIScript": 0
	},
	{
		"ID": 51816,
		"stage_BattleStage": 810002059,
		"unit_UnitUnit": 2201713,
		"money": 0,
		"initial_coordinate_x": 13,
		"initial_coordinate_y": 10,
		"reinforcement_BattleReinforcement": 0,
		"initial_direction": 270.0,
		"ai_move_group": 0,
		"ai_target_move_x": -1,
		"ai_target_move_y": -1,
		"ai_skill_function": "",
		"ai_attack": "IF( turn <=4 ,IF(panel_move_distance <= 4, 1, 0),1)",
		"ai_move": "IF(turn <=4,0,10)",
		"ai_heal": "",
		"ai_skill": "",
		"ai_use": "",
		"skill_group_id": 14597,
		"gear_GearGear": 26013,
		"gear_rank": 10,
		"proficiency_UnitProficiency": 6,
		"level": 90,
		"hp": 334,
		"strength": 135,
		"vitality": 90,
		"intelligence": 13,
		"mind": 60,
		"agility": 109,
		"dexterity": 108,
		"lucky": 57,
		"parameter_table_BattleEnemyParameterTable": 0,
		"parameter_deviation_table_BattleEnemyParameterDeviationTable": 0,
		"acquire_skill_group_id": 0,
		"level_correction": 0,
		"group_id": 0,
		"ai_script_id_BattleAIScript": 0
	},
	{
		"ID": 51817,
		"stage_BattleStage": 810002059,
		"unit_UnitUnit": 2200313,
		"money": 0,
		"initial_coordinate_x": 13,
		"initial_coordinate_y": 9,
		"reinforcement_BattleReinforcement": 0,
		"initial_direction": 270.0,
		"ai_move_group": 0,
		"ai_target_move_x": -1,
		"ai_target_move_y": -1,
		"ai_skill_function": "",
		"ai_attack": "IF( turn <=4 ,IF(panel_move_distance <= 4, 1, 0),1)",
		"ai_move": "IF(turn <=4,0,10)",
		"ai_heal": "",
		"ai_skill": "",
		"ai_use": "",
		"skill_group_id": 14588,
		"gear_GearGear": 26013,
		"gear_rank": 10,
		"proficiency_UnitProficiency": 6,
		"level": 90,
		"hp": 332,
		"strength": 118,
		"vitality": 109,
		"intelligence": 13,
		"mind": 56,
		"agility": 105,
		"dexterity": 111,
		"lucky": 57,
		"parameter_table_BattleEnemyParameterTable": 0,
		"parameter_deviation_table_BattleEnemyParameterDeviationTable": 0,
		"acquire_skill_group_id": 0,
		"level_correction": 0,
		"group_id": 0,
		"ai_script_id_BattleAIScript": 0
	},
	{
		"ID": 51818,
		"stage_BattleStage": 810002059,
		"unit_UnitUnit": 2831004,
		"money": 0,
		"initial_coordinate_x": 11,
		"initial_coordinate_y": 2,
		"reinforcement_BattleReinforcement": 0,
		"initial_direction": 270.0,
		"ai_move_group": 0,
		"ai_target_move_x": -1,
		"ai_target_move_y": -1,
		"ai_skill_function": "",
		"ai_attack": "IF( turn <=2 ,IF(panel_move_distance <= 4, 1, 0),1)",
		"ai_move": "IF(turn <=2,0,10)",
		"ai_heal": "",
		"ai_skill": "",
		"ai_use": "",
		"skill_group_id": 14516,
		"gear_GearGear": 35003,
		"gear_rank": 9,
		"proficiency_UnitProficiency": 5,
		"level": 90,
		"hp": 156,
		"strength": 116,
		"vitality": 128,
		"intelligence": 11,
		"mind": 93,
		"agility": 110,
		"dexterity": 112,
		"lucky": 61,
		"parameter_table_BattleEnemyParameterTable": 0,
		"parameter_deviation_table_BattleEnemyParameterDeviationTable": 0,
		"acquire_skill_group_id": 0,
		"level_correction": 0,
		"group_id": 0,
		"ai_script_id_BattleAIScript": 0
	},
	{
		"ID": 51819,
		"stage_BattleStage": 810002059,
		"unit_UnitUnit": 2831004,
		"money": 0,
		"initial_coordinate_x": 10,
		"initial_coordinate_y": 1,
		"reinforcement_BattleReinforcement": 0,
		"initial_direction": 270.0,
		"ai_move_group": 0,
		"ai_target_move_x": -1,
		"ai_target_move_y": -1,
		"ai_skill_function": "",
		"ai_attack": "IF( turn <=2 ,IF(panel_move_distance <= 4, 1, 0),1)",
		"ai_move": "IF(turn <=2,0,10)",
		"ai_heal": "",
		"ai_skill": "",
		"ai_use": "",
		"skill_group_id": 14516,
		"gear_GearGear": 35003,
		"gear_rank": 9,
		"proficiency_UnitProficiency": 5,
		"level": 90,
		"hp": 159,
		"strength": 118,
		"vitality": 125,
		"intelligence": 11,
		"mind": 90,
		"agility": 114,
		"dexterity": 112,
		"lucky": 60,
		"parameter_table_BattleEnemyParameterTable": 0,
		"parameter_deviation_table_BattleEnemyParameterDeviationTable": 0,
		"acquire_skill_group_id": 0,
		"level_correction": 0,
		"group_id": 0,
		"ai_script_id_BattleAIScript": 0
	},
	{
		"ID": 51820,
		"stage_BattleStage": 810002059,
		"unit_UnitUnit": 2831004,
		"money": 0,
		"initial_coordinate_x": 11,
		"initial_coordinate_y": 7,
		"reinforcement_BattleReinforcement": 0,
		"initial_direction": 270.0,
		"ai_move_group": 0,
		"ai_target_move_x": -1,
		"ai_target_move_y": -1,
		"ai_skill_function": "",
		"ai_attack": "IF( turn <=2 ,IF(panel_move_distance <= 4, 1, 0),1)",
		"ai_move": "IF(turn <=2,0,10)",
		"ai_heal": "",
		"ai_skill": "",
		"ai_use": "",
		"skill_group_id": 13802,
		"gear_GearGear": 35001,
		"gear_rank": 9,
		"proficiency_UnitProficiency": 5,
		"level": 90,
		"hp": 155,
		"strength": 118,
		"vitality": 375,
		"intelligence": 11,
		"mind": 340,
		"agility": 112,
		"dexterity": 114,
		"lucky": 63,
		"parameter_table_BattleEnemyParameterTable": 0,
		"parameter_deviation_table_BattleEnemyParameterDeviationTable": 0,
		"acquire_skill_group_id": 0,
		"level_correction": 0,
		"group_id": 0,
		"ai_script_id_BattleAIScript": 0
	},
	{
		"ID": 51821,
		"stage_BattleStage": 810002059,
		"unit_UnitUnit": 2831004,
		"money": 0,
		"initial_coordinate_x": 12,
		"initial_coordinate_y": 6,
		"reinforcement_BattleReinforcement": 0,
		"initial_direction": 270.0,
		"ai_move_group": 0,
		"ai_target_move_x": -1,
		"ai_target_move_y": -1,
		"ai_skill_function": "",
		"ai_attack": "IF( turn <=2 ,IF(panel_move_distance <= 4, 1, 0),1)",
		"ai_move": "IF(turn <=2,0,10)",
		"ai_heal": "",
		"ai_skill": "",
		"ai_use": "",
		"skill_group_id": 13802,
		"gear_GearGear": 35001,
		"gear_rank": 9,
		"proficiency_UnitProficiency": 5,
		"level": 90,
		"hp": 157,
		"strength": 116,
		"vitality": 375,
		"intelligence": 11,
		"mind": 340,
		"agility": 110,
		"dexterity": 110,
		"lucky": 64,
		"parameter_table_BattleEnemyParameterTable": 0,
		"parameter_deviation_table_BattleEnemyParameterDeviationTable": 0,
		"acquire_skill_group_id": 0,
		"level_correction": 0,
		"group_id": 0,
		"ai_script_id_BattleAIScript": 0
	},
	{
		"ID": 51822,
		"stage_BattleStage": 810002059,
		"unit_UnitUnit": 2100513,
		"money": 0,
		"initial_coordinate_x": 9,
		"initial_coordinate_y": 5,
		"reinforcement_BattleReinforcement": 0,
		"initial_direction": 270.0,
		"ai_move_group": 0,
		"ai_target_move_x": -1,
		"ai_target_move_y": -1,
		"ai_skill_function": "",
		"ai_attack": "IF( turn <=1 ,IF(panel_move_distance <= 4, 1, 0),1)",
		"ai_move": "IF(turn <=1,0,10)",
		"ai_heal": "",
		"ai_skill": "",
		"ai_use": "",
		"skill_group_id": 14583,
		"gear_GearGear": 16034,
		"gear_rank": 10,
		"proficiency_UnitProficiency": 6,
		"level": 90,
		"hp": 324,
		"strength": 98,
		"vitality": 90,
		"intelligence": 12,
		"mind": 71,
		"agility": 113,
		"dexterity": 112,
		"lucky": 57,
		"parameter_table_BattleEnemyParameterTable": 0,
		"parameter_deviation_table_BattleEnemyParameterDeviationTable": 0,
		"acquire_skill_group_id": 0,
		"level_correction": 0,
		"group_id": 0,
		"ai_script_id_BattleAIScript": 0
	},
	{
		"ID": 51823,
		"stage_BattleStage": 810002059,
		"unit_UnitUnit": 2811004,
		"money": 0,
		"initial_coordinate_x": 8,
		"initial_coordinate_y": 4,
		"reinforcement_BattleReinforcement": 0,
		"initial_direction": 270.0,
		"ai_move_group": 0,
		"ai_target_move_x": -1,
		"ai_target_move_y": -1,
		"ai_skill_function": "",
		"ai_attack": "IF( turn <=1 ,IF(panel_move_distance <= 4, 1, 0),1)",
		"ai_move": "IF(turn <=1,0,10)",
		"ai_heal": "",
		"ai_skill": "",
		"ai_use": "",
		"skill_group_id": 13811,
		"gear_GearGear": 15007,
		"gear_rank": 9,
		"proficiency_UnitProficiency": 5,
		"level": 90,
		"hp": 145,
		"strength": 112,
		"vitality": 340,
		"intelligence": 11,
		"mind": 330,
		"agility": 124,
		"dexterity": 126,
		"lucky": 64,
		"parameter_table_BattleEnemyParameterTable": 0,
		"parameter_deviation_table_BattleEnemyParameterDeviationTable": 0,
		"acquire_skill_group_id": 0,
		"level_correction": 0,
		"group_id": 0,
		"ai_script_id_BattleAIScript": 0
	},
	{
		"ID": 51824,
		"stage_BattleStage": 810002059,
		"unit_UnitUnit": 2811004,
		"money": 0,
		"initial_coordinate_x": 8,
		"initial_coordinate_y": 6,
		"reinforcement_BattleReinforcement": 0,
		"initial_direction": 270.0,
		"ai_move_group": 0,
		"ai_target_move_x": -1,
		"ai_target_move_y": -1,
		"ai_skill_function": "",
		"ai_attack": "IF( turn <=1 ,IF(panel_move_distance <= 4, 1, 0),1)",
		"ai_move": "IF(turn <=1,0,10)",
		"ai_heal": "",
		"ai_skill": "",
		"ai_use": "",
		"skill_group_id": 13811,
		"gear_GearGear": 15007,
		"gear_rank": 9,
		"proficiency_UnitProficiency": 5,
		"level": 90,
		"hp": 146,
		"strength": 109,
		"vitality": 340,
		"intelligence": 14,
		"mind": 330,
		"agility": 125,
		"dexterity": 124,
		"lucky": 61,
		"parameter_table_BattleEnemyParameterTable": 0,
		"parameter_deviation_table_BattleEnemyParameterDeviationTable": 0,
		"acquire_skill_group_id": 0,
		"level_correction": 0,
		"group_id": 0,
		"ai_script_id_BattleAIScript": 0
	},
	{
		"ID": 51825,
		"stage_BattleStage": 810002059,
		"unit_UnitUnit": 2821004,
		"money": 0,
		"initial_coordinate_x": 5,
		"initial_coordinate_y": 6,
		"reinforcement_BattleReinforcement": 0,
		"initial_direction": 180.0,
		"ai_move_group": 0,
		"ai_target_move_x": -1,
		"ai_target_move_y": -1,
		"ai_skill_function": "",
		"ai_attack": "",
		"ai_move": "10.0",
		"ai_heal": "",
		"ai_skill": "",
		"ai_use": "",
		"skill_group_id": 13791,
		"gear_GearGear": 25007,
		"gear_rank": 9,
		"proficiency_UnitProficiency": 5,
		"level": 90,
		"hp": 166,
		"strength": 133,
		"vitality": 360,
		"intelligence": 10,
		"mind": 320,
		"agility": 103,
		"dexterity": 103,
		"lucky": 61,
		"parameter_table_BattleEnemyParameterTable": 0,
		"parameter_deviation_table_BattleEnemyParameterDeviationTable": 0,
		"acquire_skill_group_id": 0,
		"level_correction": 0,
		"group_id": 0,
		"ai_script_id_BattleAIScript": 0
	},
	{
		"ID": 51826,
		"stage_BattleStage": 810002059,
		"unit_UnitUnit": 2821004,
		"money": 0,
		"initial_coordinate_x": 4,
		"initial_coordinate_y": 7,
		"reinforcement_BattleReinforcement": 0,
		"initial_direction": 180.0,
		"ai_move_group": 0,
		"ai_target_move_x": -1,
		"ai_target_move_y": -1,
		"ai_skill_function": "",
		"ai_attack": "",
		"ai_move": "10.0",
		"ai_heal": "",
		"ai_skill": "",
		"ai_use": "",
		"skill_group_id": 13791,
		"gear_GearGear": 25007,
		"gear_rank": 9,
		"proficiency_UnitProficiency": 5,
		"level": 90,
		"hp": 168,
		"strength": 132,
		"vitality": 360,
		"intelligence": 10,
		"mind": 320,
		"agility": 101,
		"dexterity": 107,
		"lucky": 64,
		"parameter_table_BattleEnemyParameterTable": 0,
		"parameter_deviation_table_BattleEnemyParameterDeviationTable": 0,
		"acquire_skill_group_id": 0,
		"level_correction": 0,
		"group_id": 0,
		"ai_script_id_BattleAIScript": 0
	}
]