[
	{
		"ID": 91291,
		"stage_BattleStage": 810007098,
		"unit_UnitUnit": 2100233,
		"money": 0,
		"initial_coordinate_x": 17,
		"initial_coordinate_y": 16,
		"reinforcement_BattleReinforcement": 0,
		"initial_direction": 180.0,
		"ai_move_group": 0,
		"ai_target_move_x": -1,
		"ai_target_move_y": -1,
		"ai_skill_function": "",
		"ai_attack": "",
		"ai_move": "IF(turn <=4,0,1)",
		"ai_heal": "",
		"ai_skill": "",
		"ai_use": "",
		"skill_group_id": 21020,
		"gear_GearGear": 15033,
		"gear_rank": 10,
		"proficiency_UnitProficiency": 5,
		"level": 90,
		"hp": 1079,
		"strength": 171,
		"vitality": 153,
		"intelligence": 91,
		"mind": 132,
		"agility": 144,
		"dexterity": 145,
		"lucky": 61,
		"parameter_table_BattleEnemyParameterTable": 0,
		"parameter_deviation_table_BattleEnemyParameterDeviationTable": 0,
		"acquire_skill_group_id": 0,
		"level_correction": 0,
		"group_id": 0,
		"ai_script_id_BattleAIScript": 0
	},
	{
		"ID": 91292,
		"stage_BattleStage": 810007098,
		"unit_UnitUnit": 802401,
		"money": 0,
		"initial_coordinate_x": 11,
		"initial_coordinate_y": 18,
		"reinforcement_BattleReinforcement": 0,
		"initial_direction": 180.0,
		"ai_move_group": 0,
		"ai_target_move_x": -1,
		"ai_target_move_y": -1,
		"ai_skill_function": "",
		"ai_attack": "",
		"ai_move": "IF(turn <=4,0,1)",
		"ai_heal": "",
		"ai_skill": "",
		"ai_use": "",
		"skill_group_id": 21023,
		"gear_GearGear": 80011,
		"gear_rank": 10,
		"proficiency_UnitProficiency": 1,
		"level": 90,
		"hp": 723,
		"strength": 16,
		"vitality": 97,
		"intelligence": 199,
		"mind": 155,
		"agility": 137,
		"dexterity": 148,
		"lucky": 60,
		"parameter_table_BattleEnemyParameterTable": 0,
		"parameter_deviation_table_BattleEnemyParameterDeviationTable": 0,
		"acquire_skill_group_id": 0,
		"level_correction": 0,
		"group_id": 0,
		"ai_script_id_BattleAIScript": 0
	},
	{
		"ID": 91293,
		"stage_BattleStage": 810007098,
		"unit_UnitUnit": 802401,
		"money": 0,
		"initial_coordinate_x": 16,
		"initial_coordinate_y": 15,
		"reinforcement_BattleReinforcement": 0,
		"initial_direction": 180.0,
		"ai_move_group": 0,
		"ai_target_move_x": -1,
		"ai_target_move_y": -1,
		"ai_skill_function": "",
		"ai_attack": "",
		"ai_move": "IF(turn <=4,0,1)",
		"ai_heal": "",
		"ai_skill": "",
		"ai_use": "",
		"skill_group_id": 21023,
		"gear_GearGear": 80011,
		"gear_rank": 10,
		"proficiency_UnitProficiency": 1,
		"level": 90,
		"hp": 725,
		"strength": 19,
		"vitality": 100,
		"intelligence": 203,
		"mind": 156,
		"agility": 136,
		"dexterity": 146,
		"lucky": 57,
		"parameter_table_BattleEnemyParameterTable": 0,
		"parameter_deviation_table_BattleEnemyParameterDeviationTable": 0,
		"acquire_skill_group_id": 0,
		"level_correction": 0,
		"group_id": 0,
		"ai_script_id_BattleAIScript": 0
	},
	{
		"ID": 91294,
		"stage_BattleStage": 810007098,
		"unit_UnitUnit": 802401,
		"money": 0,
		"initial_coordinate_x": 18,
		"initial_coordinate_y": 10,
		"reinforcement_BattleReinforcement": 0,
		"initial_direction": 180.0,
		"ai_move_group": 0,
		"ai_target_move_x": -1,
		"ai_target_move_y": -1,
		"ai_skill_function": "",
		"ai_attack": "",
		"ai_move": "IF(turn <=4,0,1)",
		"ai_heal": "",
		"ai_skill": "",
		"ai_use": "",
		"skill_group_id": 21023,
		"gear_GearGear": 80011,
		"gear_rank": 10,
		"proficiency_UnitProficiency": 1,
		"level": 90,
		"hp": 719,
		"strength": 17,
		"vitality": 98,
		"intelligence": 202,
		"mind": 155,
		"agility": 138,
		"dexterity": 146,
		"lucky": 57,
		"parameter_table_BattleEnemyParameterTable": 0,
		"parameter_deviation_table_BattleEnemyParameterDeviationTable": 0,
		"acquire_skill_group_id": 0,
		"level_correction": 0,
		"group_id": 0,
		"ai_script_id_BattleAIScript": 0
	},
	{
		"ID": 91295,
		"stage_BattleStage": 810007098,
		"unit_UnitUnit": 900020,
		"money": 0,
		"initial_coordinate_x": 14,
		"initial_coordinate_y": 15,
		"reinforcement_BattleReinforcement": 0,
		"initial_direction": 180.0,
		"ai_move_group": 0,
		"ai_target_move_x": -1,
		"ai_target_move_y": -1,
		"ai_skill_function": "",
		"ai_attack": "",
		"ai_move": "IF(turn <=4,0,1)",
		"ai_heal": "",
		"ai_skill": "",
		"ai_use": "",
		"skill_group_id": 21024,
		"gear_GearGear": 80025,
		"gear_rank": 10,
		"proficiency_UnitProficiency": 1,
		"level": 90,
		"hp": 575,
		"strength": 20,
		"vitality": 102,
		"intelligence": 177,
		"mind": 144,
		"agility": 135,
		"dexterity": 146,
		"lucky": 54,
		"parameter_table_BattleEnemyParameterTable": 0,
		"parameter_deviation_table_BattleEnemyParameterDeviationTable": 0,
		"acquire_skill_group_id": 0,
		"level_correction": 0,
		"group_id": 0,
		"ai_script_id_BattleAIScript": 0
	},
	{
		"ID": 91296,
		"stage_BattleStage": 810007098,
		"unit_UnitUnit": 900020,
		"money": 0,
		"initial_coordinate_x": 15,
		"initial_coordinate_y": 14,
		"reinforcement_BattleReinforcement": 0,
		"initial_direction": 180.0,
		"ai_move_group": 0,
		"ai_target_move_x": -1,
		"ai_target_move_y": -1,
		"ai_skill_function": "",
		"ai_attack": "",
		"ai_move": "IF(turn <=4,0,1)",
		"ai_heal": "",
		"ai_skill": "",
		"ai_use": "",
		"skill_group_id": 21024,
		"gear_GearGear": 80025,
		"gear_rank": 10,
		"proficiency_UnitProficiency": 1,
		"level": 90,
		"hp": 570,
		"strength": 22,
		"vitality": 102,
		"intelligence": 172,
		"mind": 144,
		"agility": 133,
		"dexterity": 147,
		"lucky": 55,
		"parameter_table_BattleEnemyParameterTable": 0,
		"parameter_deviation_table_BattleEnemyParameterDeviationTable": 0,
		"acquire_skill_group_id": 0,
		"level_correction": 0,
		"group_id": 0,
		"ai_script_id_BattleAIScript": 0
	},
	{
		"ID": 91297,
		"stage_BattleStage": 810007098,
		"unit_UnitUnit": 900020,
		"money": 0,
		"initial_coordinate_x": 16,
		"initial_coordinate_y": 13,
		"reinforcement_BattleReinforcement": 0,
		"initial_direction": 180.0,
		"ai_move_group": 0,
		"ai_target_move_x": -1,
		"ai_target_move_y": -1,
		"ai_skill_function": "",
		"ai_attack": "",
		"ai_move": "IF(turn <=4,0,1)",
		"ai_heal": "",
		"ai_skill": "",
		"ai_use": "",
		"skill_group_id": 21024,
		"gear_GearGear": 80025,
		"gear_rank": 10,
		"proficiency_UnitProficiency": 1,
		"level": 90,
		"hp": 574,
		"strength": 20,
		"vitality": 102,
		"intelligence": 175,
		"mind": 143,
		"agility": 132,
		"dexterity": 148,
		"lucky": 56,
		"parameter_table_BattleEnemyParameterTable": 0,
		"parameter_deviation_table_BattleEnemyParameterDeviationTable": 0,
		"acquire_skill_group_id": 0,
		"level_correction": 0,
		"group_id": 0,
		"ai_script_id_BattleAIScript": 0
	},
	{
		"ID": 91298,
		"stage_BattleStage": 810007098,
		"unit_UnitUnit": 900020,
		"money": 0,
		"initial_coordinate_x": 2,
		"initial_coordinate_y": 15,
		"reinforcement_BattleReinforcement": 0,
		"initial_direction": 180.0,
		"ai_move_group": 0,
		"ai_target_move_x": -1,
		"ai_target_move_y": -1,
		"ai_skill_function": "",
		"ai_attack": "",
		"ai_move": "IF(turn <=3,0,1)",
		"ai_heal": "",
		"ai_skill": "",
		"ai_use": "",
		"skill_group_id": 21024,
		"gear_GearGear": 80025,
		"gear_rank": 10,
		"proficiency_UnitProficiency": 1,
		"level": 90,
		"hp": 565,
		"strength": 22,
		"vitality": 101,
		"intelligence": 177,
		"mind": 144,
		"agility": 133,
		"dexterity": 149,
		"lucky": 57,
		"parameter_table_BattleEnemyParameterTable": 0,
		"parameter_deviation_table_BattleEnemyParameterDeviationTable": 0,
		"acquire_skill_group_id": 0,
		"level_correction": 0,
		"group_id": 0,
		"ai_script_id_BattleAIScript": 0
	},
	{
		"ID": 91299,
		"stage_BattleStage": 810007098,
		"unit_UnitUnit": 900020,
		"money": 0,
		"initial_coordinate_x": 4,
		"initial_coordinate_y": 16,
		"reinforcement_BattleReinforcement": 0,
		"initial_direction": 180.0,
		"ai_move_group": 0,
		"ai_target_move_x": -1,
		"ai_target_move_y": -1,
		"ai_skill_function": "",
		"ai_attack": "",
		"ai_move": "IF(turn <=3,0,1)",
		"ai_heal": "",
		"ai_skill": "",
		"ai_use": "",
		"skill_group_id": 21024,
		"gear_GearGear": 80025,
		"gear_rank": 10,
		"proficiency_UnitProficiency": 1,
		"level": 90,
		"hp": 570,
		"strength": 24,
		"vitality": 105,
		"intelligence": 175,
		"mind": 145,
		"agility": 134,
		"dexterity": 146,
		"lucky": 55,
		"parameter_table_BattleEnemyParameterTable": 0,
		"parameter_deviation_table_BattleEnemyParameterDeviationTable": 0,
		"acquire_skill_group_id": 0,
		"level_correction": 0,
		"group_id": 0,
		"ai_script_id_BattleAIScript": 0
	},
	{
		"ID": 91300,
		"stage_BattleStage": 810007098,
		"unit_UnitUnit": 900020,
		"money": 0,
		"initial_coordinate_x": 8,
		"initial_coordinate_y": 13,
		"reinforcement_BattleReinforcement": 0,
		"initial_direction": 180.0,
		"ai_move_group": 0,
		"ai_target_move_x": -1,
		"ai_target_move_y": -1,
		"ai_skill_function": "",
		"ai_attack": "",
		"ai_move": "IF(turn <=3,0,1)",
		"ai_heal": "",
		"ai_skill": "",
		"ai_use": "",
		"skill_group_id": 21024,
		"gear_GearGear": 80025,
		"gear_rank": 10,
		"proficiency_UnitProficiency": 1,
		"level": 90,
		"hp": 572,
		"strength": 22,
		"vitality": 103,
		"intelligence": 173,
		"mind": 143,
		"agility": 134,
		"dexterity": 146,
		"lucky": 58,
		"parameter_table_BattleEnemyParameterTable": 0,
		"parameter_deviation_table_BattleEnemyParameterDeviationTable": 0,
		"acquire_skill_group_id": 0,
		"level_correction": 0,
		"group_id": 0,
		"ai_script_id_BattleAIScript": 0
	},
	{
		"ID": 91301,
		"stage_BattleStage": 810007098,
		"unit_UnitUnit": 900020,
		"money": 0,
		"initial_coordinate_x": 10,
		"initial_coordinate_y": 11,
		"reinforcement_BattleReinforcement": 0,
		"initial_direction": 180.0,
		"ai_move_group": 0,
		"ai_target_move_x": -1,
		"ai_target_move_y": -1,
		"ai_skill_function": "",
		"ai_attack": "",
		"ai_move": "IF(turn <=3,0,1)",
		"ai_heal": "",
		"ai_skill": "",
		"ai_use": "",
		"skill_group_id": 21024,
		"gear_GearGear": 80025,
		"gear_rank": 10,
		"proficiency_UnitProficiency": 1,
		"level": 90,
		"hp": 574,
		"strength": 20,
		"vitality": 104,
		"intelligence": 172,
		"mind": 141,
		"agility": 132,
		"dexterity": 146,
		"lucky": 56,
		"parameter_table_BattleEnemyParameterTable": 0,
		"parameter_deviation_table_BattleEnemyParameterDeviationTable": 0,
		"acquire_skill_group_id": 0,
		"level_correction": 0,
		"group_id": 0,
		"ai_script_id_BattleAIScript": 0
	},
	{
		"ID": 91302,
		"stage_BattleStage": 810007098,
		"unit_UnitUnit": 900020,
		"money": 0,
		"initial_coordinate_x": 13,
		"initial_coordinate_y": 8,
		"reinforcement_BattleReinforcement": 0,
		"initial_direction": 180.0,
		"ai_move_group": 0,
		"ai_target_move_x": -1,
		"ai_target_move_y": -1,
		"ai_skill_function": "",
		"ai_attack": "",
		"ai_move": "IF(turn <=3,0,1)",
		"ai_heal": "",
		"ai_skill": "",
		"ai_use": "",
		"skill_group_id": 21024,
		"gear_GearGear": 80025,
		"gear_rank": 10,
		"proficiency_UnitProficiency": 1,
		"level": 90,
		"hp": 567,
		"strength": 23,
		"vitality": 103,
		"intelligence": 174,
		"mind": 141,
		"agility": 134,
		"dexterity": 146,
		"lucky": 58,
		"parameter_table_BattleEnemyParameterTable": 0,
		"parameter_deviation_table_BattleEnemyParameterDeviationTable": 0,
		"acquire_skill_group_id": 0,
		"level_correction": 0,
		"group_id": 0,
		"ai_script_id_BattleAIScript": 0
	},
	{
		"ID": 91303,
		"stage_BattleStage": 810007098,
		"unit_UnitUnit": 900020,
		"money": 0,
		"initial_coordinate_x": 14,
		"initial_coordinate_y": 5,
		"reinforcement_BattleReinforcement": 0,
		"initial_direction": 270.0,
		"ai_move_group": 0,
		"ai_target_move_x": -1,
		"ai_target_move_y": -1,
		"ai_skill_function": "",
		"ai_attack": "",
		"ai_move": "IF(turn <=3,0,1)",
		"ai_heal": "",
		"ai_skill": "",
		"ai_use": "",
		"skill_group_id": 21024,
		"gear_GearGear": 80025,
		"gear_rank": 10,
		"proficiency_UnitProficiency": 1,
		"level": 90,
		"hp": 572,
		"strength": 22,
		"vitality": 103,
		"intelligence": 176,
		"mind": 145,
		"agility": 133,
		"dexterity": 146,
		"lucky": 54,
		"parameter_table_BattleEnemyParameterTable": 0,
		"parameter_deviation_table_BattleEnemyParameterDeviationTable": 0,
		"acquire_skill_group_id": 0,
		"level_correction": 0,
		"group_id": 0,
		"ai_script_id_BattleAIScript": 0
	},
	{
		"ID": 91304,
		"stage_BattleStage": 810007098,
		"unit_UnitUnit": 900020,
		"money": 0,
		"initial_coordinate_x": 14,
		"initial_coordinate_y": 2,
		"reinforcement_BattleReinforcement": 0,
		"initial_direction": 270.0,
		"ai_move_group": 0,
		"ai_target_move_x": -1,
		"ai_target_move_y": -1,
		"ai_skill_function": "",
		"ai_attack": "",
		"ai_move": "IF(turn <=3,0,1)",
		"ai_heal": "",
		"ai_skill": "",
		"ai_use": "",
		"skill_group_id": 21024,
		"gear_GearGear": 80025,
		"gear_rank": 10,
		"proficiency_UnitProficiency": 1,
		"level": 90,
		"hp": 567,
		"strength": 25,
		"vitality": 100,
		"intelligence": 175,
		"mind": 143,
		"agility": 133,
		"dexterity": 149,
		"lucky": 57,
		"parameter_table_BattleEnemyParameterTable": 0,
		"parameter_deviation_table_BattleEnemyParameterDeviationTable": 0,
		"acquire_skill_group_id": 0,
		"level_correction": 0,
		"group_id": 0,
		"ai_script_id_BattleAIScript": 0
	},
	{
		"ID": 91305,
		"stage_BattleStage": 810007098,
		"unit_UnitUnit": 2821004,
		"money": 0,
		"initial_coordinate_x": 5,
		"initial_coordinate_y": 14,
		"reinforcement_BattleReinforcement": 0,
		"initial_direction": 180.0,
		"ai_move_group": 0,
		"ai_target_move_x": -1,
		"ai_target_move_y": -1,
		"ai_skill_function": "",
		"ai_attack": "",
		"ai_move": "IF(turn <=2,0,1)",
		"ai_heal": "",
		"ai_skill": "",
		"ai_use": "",
		"skill_group_id": 21021,
		"gear_GearGear": 25018,
		"gear_rank": 10,
		"proficiency_UnitProficiency": 5,
		"level": 90,
		"hp": 707,
		"strength": 191,
		"vitality": 141,
		"intelligence": 18,
		"mind": 76,
		"agility": 138,
		"dexterity": 146,
		"lucky": 57,
		"parameter_table_BattleEnemyParameterTable": 0,
		"parameter_deviation_table_BattleEnemyParameterDeviationTable": 0,
		"acquire_skill_group_id": 0,
		"level_correction": 0,
		"group_id": 0,
		"ai_script_id_BattleAIScript": 0
	},
	{
		"ID": 91306,
		"stage_BattleStage": 810007098,
		"unit_UnitUnit": 2821004,
		"money": 0,
		"initial_coordinate_x": 6,
		"initial_coordinate_y": 13,
		"reinforcement_BattleReinforcement": 0,
		"initial_direction": 180.0,
		"ai_move_group": 0,
		"ai_target_move_x": -1,
		"ai_target_move_y": -1,
		"ai_skill_function": "",
		"ai_attack": "",
		"ai_move": "IF(turn <=2,0,1)",
		"ai_heal": "",
		"ai_skill": "",
		"ai_use": "",
		"skill_group_id": 21021,
		"gear_GearGear": 25018,
		"gear_rank": 10,
		"proficiency_UnitProficiency": 5,
		"level": 90,
		"hp": 705,
		"strength": 193,
		"vitality": 143,
		"intelligence": 18,
		"mind": 75,
		"agility": 138,
		"dexterity": 143,
		"lucky": 56,
		"parameter_table_BattleEnemyParameterTable": 0,
		"parameter_deviation_table_BattleEnemyParameterDeviationTable": 0,
		"acquire_skill_group_id": 0,
		"level_correction": 0,
		"group_id": 0,
		"ai_script_id_BattleAIScript": 0
	},
	{
		"ID": 91307,
		"stage_BattleStage": 810007098,
		"unit_UnitUnit": 2821004,
		"money": 0,
		"initial_coordinate_x": 7,
		"initial_coordinate_y": 15,
		"reinforcement_BattleReinforcement": 0,
		"initial_direction": 180.0,
		"ai_move_group": 0,
		"ai_target_move_x": -1,
		"ai_target_move_y": -1,
		"ai_skill_function": "",
		"ai_attack": "",
		"ai_move": "IF(turn <=2,0,1)",
		"ai_heal": "",
		"ai_skill": "",
		"ai_use": "",
		"skill_group_id": 21021,
		"gear_GearGear": 25018,
		"gear_rank": 10,
		"proficiency_UnitProficiency": 5,
		"level": 90,
		"hp": 709,
		"strength": 193,
		"vitality": 141,
		"intelligence": 16,
		"mind": 79,
		"agility": 139,
		"dexterity": 144,
		"lucky": 59,
		"parameter_table_BattleEnemyParameterTable": 0,
		"parameter_deviation_table_BattleEnemyParameterDeviationTable": 0,
		"acquire_skill_group_id": 0,
		"level_correction": 0,
		"group_id": 0,
		"ai_script_id_BattleAIScript": 0
	},
	{
		"ID": 91308,
		"stage_BattleStage": 810007098,
		"unit_UnitUnit": 2831004,
		"money": 0,
		"initial_coordinate_x": 10,
		"initial_coordinate_y": 9,
		"reinforcement_BattleReinforcement": 0,
		"initial_direction": 180.0,
		"ai_move_group": 0,
		"ai_target_move_x": -1,
		"ai_target_move_y": -1,
		"ai_skill_function": "",
		"ai_attack": "",
		"ai_move": "IF(turn <=2,0,1)",
		"ai_heal": "",
		"ai_skill": "",
		"ai_use": "",
		"skill_group_id": 21021,
		"gear_GearGear": 35021,
		"gear_rank": 10,
		"proficiency_UnitProficiency": 5,
		"level": 90,
		"hp": 646,
		"strength": 172,
		"vitality": 152,
		"intelligence": 15,
		"mind": 99,
		"agility": 141,
		"dexterity": 147,
		"lucky": 58,
		"parameter_table_BattleEnemyParameterTable": 0,
		"parameter_deviation_table_BattleEnemyParameterDeviationTable": 0,
		"acquire_skill_group_id": 0,
		"level_correction": 0,
		"group_id": 0,
		"ai_script_id_BattleAIScript": 0
	},
	{
		"ID": 91309,
		"stage_BattleStage": 810007098,
		"unit_UnitUnit": 2831004,
		"money": 0,
		"initial_coordinate_x": 11,
		"initial_coordinate_y": 8,
		"reinforcement_BattleReinforcement": 0,
		"initial_direction": 180.0,
		"ai_move_group": 0,
		"ai_target_move_x": -1,
		"ai_target_move_y": -1,
		"ai_skill_function": "",
		"ai_attack": "",
		"ai_move": "IF(turn <=2,0,1)",
		"ai_heal": "",
		"ai_skill": "",
		"ai_use": "",
		"skill_group_id": 21021,
		"gear_GearGear": 35021,
		"gear_rank": 10,
		"proficiency_UnitProficiency": 5,
		"level": 90,
		"hp": 647,
		"strength": 174,
		"vitality": 150,
		"intelligence": 16,
		"mind": 100,
		"agility": 144,
		"dexterity": 148,
		"lucky": 59,
		"parameter_table_BattleEnemyParameterTable": 0,
		"parameter_deviation_table_BattleEnemyParameterDeviationTable": 0,
		"acquire_skill_group_id": 0,
		"level_correction": 0,
		"group_id": 0,
		"ai_script_id_BattleAIScript": 0
	},
	{
		"ID": 91310,
		"stage_BattleStage": 810007098,
		"unit_UnitUnit": 2831004,
		"money": 0,
		"initial_coordinate_x": 12,
		"initial_coordinate_y": 10,
		"reinforcement_BattleReinforcement": 0,
		"initial_direction": 180.0,
		"ai_move_group": 0,
		"ai_target_move_x": -1,
		"ai_target_move_y": -1,
		"ai_skill_function": "",
		"ai_attack": "",
		"ai_move": "IF(turn <=2,0,1)",
		"ai_heal": "",
		"ai_skill": "",
		"ai_use": "",
		"skill_group_id": 21021,
		"gear_GearGear": 35021,
		"gear_rank": 10,
		"proficiency_UnitProficiency": 5,
		"level": 90,
		"hp": 651,
		"strength": 170,
		"vitality": 153,
		"intelligence": 19,
		"mind": 104,
		"agility": 141,
		"dexterity": 146,
		"lucky": 57,
		"parameter_table_BattleEnemyParameterTable": 0,
		"parameter_deviation_table_BattleEnemyParameterDeviationTable": 0,
		"acquire_skill_group_id": 0,
		"level_correction": 0,
		"group_id": 0,
		"ai_script_id_BattleAIScript": 0
	},
	{
		"ID": 91311,
		"stage_BattleStage": 810007098,
		"unit_UnitUnit": 2841004,
		"money": 0,
		"initial_coordinate_x": 16,
		"initial_coordinate_y": 2,
		"reinforcement_BattleReinforcement": 0,
		"initial_direction": 270.0,
		"ai_move_group": 0,
		"ai_target_move_x": -1,
		"ai_target_move_y": -1,
		"ai_skill_function": "",
		"ai_attack": "",
		"ai_move": "IF(turn <=2,0,1)",
		"ai_heal": "",
		"ai_skill": "",
		"ai_use": "",
		"skill_group_id": 21022,
		"gear_GearGear": 45016,
		"gear_rank": 10,
		"proficiency_UnitProficiency": 5,
		"level": 90,
		"hp": 515,
		"strength": 141,
		"vitality": 109,
		"intelligence": 17,
		"mind": 89,
		"agility": 139,
		"dexterity": 140,
		"lucky": 58,
		"parameter_table_BattleEnemyParameterTable": 0,
		"parameter_deviation_table_BattleEnemyParameterDeviationTable": 0,
		"acquire_skill_group_id": 0,
		"level_correction": 0,
		"group_id": 0,
		"ai_script_id_BattleAIScript": 0
	},
	{
		"ID": 91312,
		"stage_BattleStage": 810007098,
		"unit_UnitUnit": 2841004,
		"money": 0,
		"initial_coordinate_x": 14,
		"initial_coordinate_y": 10,
		"reinforcement_BattleReinforcement": 0,
		"initial_direction": 180.0,
		"ai_move_group": 0,
		"ai_target_move_x": -1,
		"ai_target_move_y": -1,
		"ai_skill_function": "",
		"ai_attack": "",
		"ai_move": "IF(turn <=3,0,1)",
		"ai_heal": "",
		"ai_skill": "",
		"ai_use": "",
		"skill_group_id": 21022,
		"gear_GearGear": 45016,
		"gear_rank": 10,
		"proficiency_UnitProficiency": 5,
		"level": 90,
		"hp": 516,
		"strength": 141,
		"vitality": 108,
		"intelligence": 17,
		"mind": 93,
		"agility": 140,
		"dexterity": 142,
		"lucky": 57,
		"parameter_table_BattleEnemyParameterTable": 0,
		"parameter_deviation_table_BattleEnemyParameterDeviationTable": 0,
		"acquire_skill_group_id": 0,
		"level_correction": 0,
		"group_id": 0,
		"ai_script_id_BattleAIScript": 0
	},
	{
		"ID": 91313,
		"stage_BattleStage": 810007098,
		"unit_UnitUnit": 2841004,
		"money": 0,
		"initial_coordinate_x": 12,
		"initial_coordinate_y": 15,
		"reinforcement_BattleReinforcement": 0,
		"initial_direction": 180.0,
		"ai_move_group": 0,
		"ai_target_move_x": -1,
		"ai_target_move_y": -1,
		"ai_skill_function": "",
		"ai_attack": "",
		"ai_move": "IF(turn <=3,0,1)",
		"ai_heal": "",
		"ai_skill": "",
		"ai_use": "",
		"skill_group_id": 21022,
		"gear_GearGear": 45016,
		"gear_rank": 10,
		"proficiency_UnitProficiency": 5,
		"level": 90,
		"hp": 511,
		"strength": 139,
		"vitality": 110,
		"intelligence": 15,
		"mind": 93,
		"agility": 138,
		"dexterity": 141,
		"lucky": 56,
		"parameter_table_BattleEnemyParameterTable": 0,
		"parameter_deviation_table_BattleEnemyParameterDeviationTable": 0,
		"acquire_skill_group_id": 0,
		"level_correction": 0,
		"group_id": 0,
		"ai_script_id_BattleAIScript": 0
	},
	{
		"ID": 91314,
		"stage_BattleStage": 810007098,
		"unit_UnitUnit": 2841004,
		"money": 0,
		"initial_coordinate_x": 2,
		"initial_coordinate_y": 13,
		"reinforcement_BattleReinforcement": 0,
		"initial_direction": 180.0,
		"ai_move_group": 0,
		"ai_target_move_x": -1,
		"ai_target_move_y": -1,
		"ai_skill_function": "",
		"ai_attack": "",
		"ai_move": "IF(turn <=3,0,1)",
		"ai_heal": "",
		"ai_skill": "",
		"ai_use": "",
		"skill_group_id": 21022,
		"gear_GearGear": 45016,
		"gear_rank": 10,
		"proficiency_UnitProficiency": 5,
		"level": 90,
		"hp": 513,
		"strength": 139,
		"vitality": 109,
		"intelligence": 19,
		"mind": 89,
		"agility": 138,
		"dexterity": 143,
		"lucky": 59,
		"parameter_table_BattleEnemyParameterTable": 0,
		"parameter_deviation_table_BattleEnemyParameterDeviationTable": 0,
		"acquire_skill_group_id": 0,
		"level_correction": 0,
		"group_id": 0,
		"ai_script_id_BattleAIScript": 0
	}
]