[
	{
		"ID": 62987,
		"stage_BattleStage": 810003044,
		"unit_UnitUnit": 300933,
		"money": 0,
		"initial_coordinate_x": 2,
		"initial_coordinate_y": 11,
		"reinforcement_BattleReinforcement": 0,
		"initial_direction": 180.0,
		"ai_move_group": 0,
		"ai_target_move_x": -1,
		"ai_target_move_y": -1,
		"ai_skill_function": "",
		"ai_attack": "IF( turn <=6 ,IF(panel_move_distance <= 4, 1, 0),1)",
		"ai_move": "IF(turn <6,0,1)",
		"ai_heal": "",
		"ai_skill": "",
		"ai_use": "",
		"skill_group_id": 13934,
		"gear_GearGear": 35002,
		"gear_rank": 5,
		"proficiency_UnitProficiency": 5,
		"level": 84,
		"hp": 155,
		"strength": 102,
		"vitality": 110,
		"intelligence": 18,
		"mind": 94,
		"agility": 127,
		"dexterity": 126,
		"lucky": 57,
		"parameter_table_BattleEnemyParameterTable": 0,
		"parameter_deviation_table_BattleEnemyParameterDeviationTable": 0,
		"acquire_skill_group_id": 0,
		"level_correction": 0,
		"group_id": 0,
		"ai_script_id_BattleAIScript": 0
	},
	{
		"ID": 62988,
		"stage_BattleStage": 810003044,
		"unit_UnitUnit": 400613,
		"money": 0,
		"initial_coordinate_x": 2,
		"initial_coordinate_y": 13,
		"reinforcement_BattleReinforcement": 0,
		"initial_direction": 180.0,
		"ai_move_group": 0,
		"ai_target_move_x": -1,
		"ai_target_move_y": -1,
		"ai_skill_function": "",
		"ai_attack": "IF( turn <=6 ,IF(panel_move_distance <= 4, 1, 0),1)",
		"ai_move": "IF(turn <6,0,1)",
		"ai_heal": "",
		"ai_skill": "",
		"ai_use": "",
		"skill_group_id": 13568,
		"gear_GearGear": 45002,
		"gear_rank": 5,
		"proficiency_UnitProficiency": 5,
		"level": 84,
		"hp": 147,
		"strength": 105,
		"vitality": 85,
		"intelligence": 19,
		"mind": 129,
		"agility": 131,
		"dexterity": 114,
		"lucky": 57,
		"parameter_table_BattleEnemyParameterTable": 0,
		"parameter_deviation_table_BattleEnemyParameterDeviationTable": 0,
		"acquire_skill_group_id": 0,
		"level_correction": 0,
		"group_id": 0,
		"ai_script_id_BattleAIScript": 0
	},
	{
		"ID": 62989,
		"stage_BattleStage": 810003044,
		"unit_UnitUnit": 401323,
		"money": 0,
		"initial_coordinate_x": 10,
		"initial_coordinate_y": 14,
		"reinforcement_BattleReinforcement": 0,
		"initial_direction": 180.0,
		"ai_move_group": 0,
		"ai_target_move_x": -1,
		"ai_target_move_y": -1,
		"ai_skill_function": "",
		"ai_attack": "IF( turn <=6 ,IF(panel_move_distance <= 4, 1, 0),1)",
		"ai_move": "IF(turn <6,0,1)",
		"ai_heal": "",
		"ai_skill": "",
		"ai_use": "",
		"skill_group_id": 13935,
		"gear_GearGear": 45002,
		"gear_rank": 5,
		"proficiency_UnitProficiency": 5,
		"level": 84,
		"hp": 131,
		"strength": 120,
		"vitality": 99,
		"intelligence": 46,
		"mind": 92,
		"agility": 110,
		"dexterity": 116,
		"lucky": 49,
		"parameter_table_BattleEnemyParameterTable": 0,
		"parameter_deviation_table_BattleEnemyParameterDeviationTable": 0,
		"acquire_skill_group_id": 0,
		"level_correction": 0,
		"group_id": 0,
		"ai_script_id_BattleAIScript": 0
	},
	{
		"ID": 62990,
		"stage_BattleStage": 810003044,
		"unit_UnitUnit": 100723,
		"money": 0,
		"initial_coordinate_x": 12,
		"initial_coordinate_y": 12,
		"reinforcement_BattleReinforcement": 0,
		"initial_direction": 180.0,
		"ai_move_group": 0,
		"ai_target_move_x": -1,
		"ai_target_move_y": -1,
		"ai_skill_function": "",
		"ai_attack": "IF( turn <=6 ,IF(panel_move_distance <= 4, 1, 0),1)",
		"ai_move": "IF(turn <6,0,1)",
		"ai_heal": "",
		"ai_skill": "",
		"ai_use": "",
		"skill_group_id": 13538,
		"gear_GearGear": 15006,
		"gear_rank": 5,
		"proficiency_UnitProficiency": 5,
		"level": 84,
		"hp": 157,
		"strength": 102,
		"vitality": 98,
		"intelligence": 33,
		"mind": 89,
		"agility": 124,
		"dexterity": 120,
		"lucky": 62,
		"parameter_table_BattleEnemyParameterTable": 0,
		"parameter_deviation_table_BattleEnemyParameterDeviationTable": 0,
		"acquire_skill_group_id": 0,
		"level_correction": 0,
		"group_id": 0,
		"ai_script_id_BattleAIScript": 0
	},
	{
		"ID": 62991,
		"stage_BattleStage": 810003044,
		"unit_UnitUnit": 810008,
		"money": 0,
		"initial_coordinate_x": 13,
		"initial_coordinate_y": 11,
		"reinforcement_BattleReinforcement": 0,
		"initial_direction": 180.0,
		"ai_move_group": 0,
		"ai_target_move_x": -1,
		"ai_target_move_y": -1,
		"ai_skill_function": "",
		"ai_attack": "IF( turn <=5 ,IF(panel_move_distance <= 4, 1, 0),1)",
		"ai_move": "IF(turn <5,0,1)",
		"ai_heal": "",
		"ai_skill": "",
		"ai_use": "",
		"skill_group_id": 13412,
		"gear_GearGear": 15006,
		"gear_rank": 5,
		"proficiency_UnitProficiency": 5,
		"level": 84,
		"hp": 136,
		"strength": 106,
		"vitality": 130,
		"intelligence": 9,
		"mind": 96,
		"agility": 68,
		"dexterity": 104,
		"lucky": 59,
		"parameter_table_BattleEnemyParameterTable": 0,
		"parameter_deviation_table_BattleEnemyParameterDeviationTable": 0,
		"acquire_skill_group_id": 0,
		"level_correction": 0,
		"group_id": 0,
		"ai_script_id_BattleAIScript": 0
	},
	{
		"ID": 62992,
		"stage_BattleStage": 810003044,
		"unit_UnitUnit": 810008,
		"money": 0,
		"initial_coordinate_x": 12,
		"initial_coordinate_y": 10,
		"reinforcement_BattleReinforcement": 0,
		"initial_direction": 180.0,
		"ai_move_group": 0,
		"ai_target_move_x": -1,
		"ai_target_move_y": -1,
		"ai_skill_function": "",
		"ai_attack": "IF( turn <=5 ,IF(panel_move_distance <= 4, 1, 0),1)",
		"ai_move": "IF(turn <5,0,1)",
		"ai_heal": "",
		"ai_skill": "",
		"ai_use": "",
		"skill_group_id": 13412,
		"gear_GearGear": 15006,
		"gear_rank": 5,
		"proficiency_UnitProficiency": 5,
		"level": 84,
		"hp": 133,
		"strength": 108,
		"vitality": 127,
		"intelligence": 9,
		"mind": 93,
		"agility": 65,
		"dexterity": 105,
		"lucky": 58,
		"parameter_table_BattleEnemyParameterTable": 0,
		"parameter_deviation_table_BattleEnemyParameterDeviationTable": 0,
		"acquire_skill_group_id": 0,
		"level_correction": 0,
		"group_id": 0,
		"ai_script_id_BattleAIScript": 0
	},
	{
		"ID": 62993,
		"stage_BattleStage": 810003044,
		"unit_UnitUnit": 840004,
		"money": 0,
		"initial_coordinate_x": 11,
		"initial_coordinate_y": 11,
		"reinforcement_BattleReinforcement": 0,
		"initial_direction": 180.0,
		"ai_move_group": 0,
		"ai_target_move_x": -1,
		"ai_target_move_y": -1,
		"ai_skill_function": "",
		"ai_attack": "IF( turn <=3 ,IF(panel_move_distance <= 4, 1, 0),1)",
		"ai_move": "IF(turn <3,0,1)",
		"ai_heal": "",
		"ai_skill": "",
		"ai_use": "",
		"skill_group_id": 13432,
		"gear_GearGear": 45002,
		"gear_rank": 5,
		"proficiency_UnitProficiency": 5,
		"level": 84,
		"hp": 110,
		"strength": 102,
		"vitality": 110,
		"intelligence": 18,
		"mind": 101,
		"agility": 82,
		"dexterity": 99,
		"lucky": 58,
		"parameter_table_BattleEnemyParameterTable": 0,
		"parameter_deviation_table_BattleEnemyParameterDeviationTable": 0,
		"acquire_skill_group_id": 0,
		"level_correction": 0,
		"group_id": 0,
		"ai_script_id_BattleAIScript": 0
	},
	{
		"ID": 62994,
		"stage_BattleStage": 810003044,
		"unit_UnitUnit": 940013,
		"money": 0,
		"initial_coordinate_x": 6,
		"initial_coordinate_y": 11,
		"reinforcement_BattleReinforcement": 0,
		"initial_direction": 180.0,
		"ai_move_group": 0,
		"ai_target_move_x": -1,
		"ai_target_move_y": -1,
		"ai_skill_function": "",
		"ai_attack": "IF( turn <=10 ,IF(panel_move_distance <= 0, 1, 0),1)",
		"ai_move": "IF(turn <10,0,1)",
		"ai_heal": "",
		"ai_skill": "",
		"ai_use": "",
		"skill_group_id": 13772,
		"gear_GearGear": 45001,
		"gear_rank": 5,
		"proficiency_UnitProficiency": 5,
		"level": 84,
		"hp": 132,
		"strength": 110,
		"vitality": 115,
		"intelligence": 11,
		"mind": 63,
		"agility": 74,
		"dexterity": 99,
		"lucky": 44,
		"parameter_table_BattleEnemyParameterTable": 0,
		"parameter_deviation_table_BattleEnemyParameterDeviationTable": 0,
		"acquire_skill_group_id": 0,
		"level_correction": 0,
		"group_id": 0,
		"ai_script_id_BattleAIScript": 0
	},
	{
		"ID": 62995,
		"stage_BattleStage": 810003044,
		"unit_UnitUnit": 940013,
		"money": 0,
		"initial_coordinate_x": 4,
		"initial_coordinate_y": 11,
		"reinforcement_BattleReinforcement": 0,
		"initial_direction": 180.0,
		"ai_move_group": 0,
		"ai_target_move_x": -1,
		"ai_target_move_y": -1,
		"ai_skill_function": "",
		"ai_attack": "IF( turn <=10 ,IF(panel_move_distance <= 0, 1, 0),1)",
		"ai_move": "IF(turn <10,0,1)",
		"ai_heal": "",
		"ai_skill": "",
		"ai_use": "",
		"skill_group_id": 13772,
		"gear_GearGear": 45001,
		"gear_rank": 5,
		"proficiency_UnitProficiency": 5,
		"level": 84,
		"hp": 136,
		"strength": 108,
		"vitality": 113,
		"intelligence": 11,
		"mind": 63,
		"agility": 76,
		"dexterity": 100,
		"lucky": 44,
		"parameter_table_BattleEnemyParameterTable": 0,
		"parameter_deviation_table_BattleEnemyParameterDeviationTable": 0,
		"acquire_skill_group_id": 0,
		"level_correction": 0,
		"group_id": 0,
		"ai_script_id_BattleAIScript": 0
	},
	{
		"ID": 62996,
		"stage_BattleStage": 810003044,
		"unit_UnitUnit": 840004,
		"money": 0,
		"initial_coordinate_x": 4,
		"initial_coordinate_y": 9,
		"reinforcement_BattleReinforcement": 0,
		"initial_direction": 180.0,
		"ai_move_group": 0,
		"ai_target_move_x": -1,
		"ai_target_move_y": -1,
		"ai_skill_function": "",
		"ai_attack": "IF( turn <=2 ,IF(panel_move_distance <= 4, 1, 0),1)",
		"ai_move": "IF(turn <2,0,1)",
		"ai_heal": "",
		"ai_skill": "",
		"ai_use": "",
		"skill_group_id": 13432,
		"gear_GearGear": 44003,
		"gear_rank": 5,
		"proficiency_UnitProficiency": 4,
		"level": 84,
		"hp": 108,
		"strength": 100,
		"vitality": 105,
		"intelligence": 18,
		"mind": 97,
		"agility": 82,
		"dexterity": 98,
		"lucky": 58,
		"parameter_table_BattleEnemyParameterTable": 0,
		"parameter_deviation_table_BattleEnemyParameterDeviationTable": 0,
		"acquire_skill_group_id": 0,
		"level_correction": 0,
		"group_id": 0,
		"ai_script_id_BattleAIScript": 0
	},
	{
		"ID": 62997,
		"stage_BattleStage": 810003044,
		"unit_UnitUnit": 840004,
		"money": 0,
		"initial_coordinate_x": 6,
		"initial_coordinate_y": 9,
		"reinforcement_BattleReinforcement": 0,
		"initial_direction": 180.0,
		"ai_move_group": 0,
		"ai_target_move_x": -1,
		"ai_target_move_y": -1,
		"ai_skill_function": "",
		"ai_attack": "IF( turn <=2 ,IF(panel_move_distance <= 4, 1, 0),1)",
		"ai_move": "IF(turn <2,0,1)",
		"ai_heal": "",
		"ai_skill": "",
		"ai_use": "",
		"skill_group_id": 13432,
		"gear_GearGear": 44003,
		"gear_rank": 5,
		"proficiency_UnitProficiency": 4,
		"level": 84,
		"hp": 107,
		"strength": 104,
		"vitality": 102,
		"intelligence": 19,
		"mind": 101,
		"agility": 81,
		"dexterity": 97,
		"lucky": 59,
		"parameter_table_BattleEnemyParameterTable": 0,
		"parameter_deviation_table_BattleEnemyParameterDeviationTable": 0,
		"acquire_skill_group_id": 0,
		"level_correction": 0,
		"group_id": 0,
		"ai_script_id_BattleAIScript": 0
	},
	{
		"ID": 62998,
		"stage_BattleStage": 810003044,
		"unit_UnitUnit": 830001,
		"money": 0,
		"initial_coordinate_x": 8,
		"initial_coordinate_y": 8,
		"reinforcement_BattleReinforcement": 0,
		"initial_direction": 180.0,
		"ai_move_group": 0,
		"ai_target_move_x": -1,
		"ai_target_move_y": -1,
		"ai_skill_function": "",
		"ai_attack": "IF( turn <=2 ,IF(panel_move_distance <= 4, 1, 0),1)",
		"ai_move": "IF(turn <2,0,1)",
		"ai_heal": "",
		"ai_skill": "",
		"ai_use": "",
		"skill_group_id": 13402,
		"gear_GearGear": 35002,
		"gear_rank": 5,
		"proficiency_UnitProficiency": 5,
		"level": 84,
		"hp": 133,
		"strength": 105,
		"vitality": 116,
		"intelligence": 12,
		"mind": 104,
		"agility": 89,
		"dexterity": 93,
		"lucky": 51,
		"parameter_table_BattleEnemyParameterTable": 0,
		"parameter_deviation_table_BattleEnemyParameterDeviationTable": 0,
		"acquire_skill_group_id": 0,
		"level_correction": 0,
		"group_id": 0,
		"ai_script_id_BattleAIScript": 0
	},
	{
		"ID": 62999,
		"stage_BattleStage": 810003044,
		"unit_UnitUnit": 830001,
		"money": 0,
		"initial_coordinate_x": 10,
		"initial_coordinate_y": 8,
		"reinforcement_BattleReinforcement": 0,
		"initial_direction": 180.0,
		"ai_move_group": 0,
		"ai_target_move_x": -1,
		"ai_target_move_y": -1,
		"ai_skill_function": "",
		"ai_attack": "IF( turn <=2 ,IF(panel_move_distance <= 4, 1, 0),1)",
		"ai_move": "IF(turn <2,0,1)",
		"ai_heal": "",
		"ai_skill": "",
		"ai_use": "",
		"skill_group_id": 13402,
		"gear_GearGear": 35002,
		"gear_rank": 5,
		"proficiency_UnitProficiency": 5,
		"level": 84,
		"hp": 128,
		"strength": 106,
		"vitality": 119,
		"intelligence": 11,
		"mind": 101,
		"agility": 91,
		"dexterity": 95,
		"lucky": 50,
		"parameter_table_BattleEnemyParameterTable": 0,
		"parameter_deviation_table_BattleEnemyParameterDeviationTable": 0,
		"acquire_skill_group_id": 0,
		"level_correction": 0,
		"group_id": 0,
		"ai_script_id_BattleAIScript": 0
	},
	{
		"ID": 63000,
		"stage_BattleStage": 810003044,
		"unit_UnitUnit": 810004,
		"money": 0,
		"initial_coordinate_x": 12,
		"initial_coordinate_y": 5,
		"reinforcement_BattleReinforcement": 0,
		"initial_direction": 180.0,
		"ai_move_group": 0,
		"ai_target_move_x": -1,
		"ai_target_move_y": -1,
		"ai_skill_function": "",
		"ai_attack": "",
		"ai_move": "",
		"ai_heal": "",
		"ai_skill": "",
		"ai_use": "",
		"skill_group_id": 13262,
		"gear_GearGear": 15006,
		"gear_rank": 5,
		"proficiency_UnitProficiency": 5,
		"level": 84,
		"hp": 118,
		"strength": 101,
		"vitality": 109,
		"intelligence": 10,
		"mind": 100,
		"agility": 98,
		"dexterity": 103,
		"lucky": 56,
		"parameter_table_BattleEnemyParameterTable": 0,
		"parameter_deviation_table_BattleEnemyParameterDeviationTable": 0,
		"acquire_skill_group_id": 0,
		"level_correction": 0,
		"group_id": 0,
		"ai_script_id_BattleAIScript": 0
	},
	{
		"ID": 63001,
		"stage_BattleStage": 810003044,
		"unit_UnitUnit": 820004,
		"money": 0,
		"initial_coordinate_x": 11,
		"initial_coordinate_y": 4,
		"reinforcement_BattleReinforcement": 0,
		"initial_direction": 180.0,
		"ai_move_group": 0,
		"ai_target_move_x": -1,
		"ai_target_move_y": -1,
		"ai_skill_function": "",
		"ai_attack": "",
		"ai_move": "",
		"ai_heal": "",
		"ai_skill": "",
		"ai_use": "",
		"skill_group_id": 13292,
		"gear_GearGear": 25001,
		"gear_rank": 5,
		"proficiency_UnitProficiency": 5,
		"level": 84,
		"hp": 141,
		"strength": 115,
		"vitality": 123,
		"intelligence": 10,
		"mind": 92,
		"agility": 84,
		"dexterity": 90,
		"lucky": 53,
		"parameter_table_BattleEnemyParameterTable": 0,
		"parameter_deviation_table_BattleEnemyParameterDeviationTable": 0,
		"acquire_skill_group_id": 0,
		"level_correction": 0,
		"group_id": 0,
		"ai_script_id_BattleAIScript": 0
	},
	{
		"ID": 63002,
		"stage_BattleStage": 810003044,
		"unit_UnitUnit": 830004,
		"money": 0,
		"initial_coordinate_x": 8,
		"initial_coordinate_y": 5,
		"reinforcement_BattleReinforcement": 0,
		"initial_direction": 180.0,
		"ai_move_group": 0,
		"ai_target_move_x": -1,
		"ai_target_move_y": -1,
		"ai_skill_function": "",
		"ai_attack": "",
		"ai_move": "",
		"ai_heal": "",
		"ai_skill": "",
		"ai_use": "",
		"skill_group_id": 13392,
		"gear_GearGear": 35002,
		"gear_rank": 5,
		"proficiency_UnitProficiency": 5,
		"level": 84,
		"hp": 130,
		"strength": 108,
		"vitality": 144,
		"intelligence": 13,
		"mind": 108,
		"agility": 88,
		"dexterity": 96,
		"lucky": 63,
		"parameter_table_BattleEnemyParameterTable": 0,
		"parameter_deviation_table_BattleEnemyParameterDeviationTable": 0,
		"acquire_skill_group_id": 0,
		"level_correction": 0,
		"group_id": 0,
		"ai_script_id_BattleAIScript": 0
	},
	{
		"ID": 63003,
		"stage_BattleStage": 810003044,
		"unit_UnitUnit": 920013,
		"money": 0,
		"initial_coordinate_x": 3,
		"initial_coordinate_y": 6,
		"reinforcement_BattleReinforcement": 0,
		"initial_direction": 180.0,
		"ai_move_group": 0,
		"ai_target_move_x": -1,
		"ai_target_move_y": -1,
		"ai_skill_function": "",
		"ai_attack": "",
		"ai_move": "",
		"ai_heal": "",
		"ai_skill": "",
		"ai_use": "",
		"skill_group_id": 13292,
		"gear_GearGear": 25004,
		"gear_rank": 5,
		"proficiency_UnitProficiency": 5,
		"level": 84,
		"hp": 134,
		"strength": 116,
		"vitality": 134,
		"intelligence": 9,
		"mind": 61,
		"agility": 79,
		"dexterity": 95,
		"lucky": 42,
		"parameter_table_BattleEnemyParameterTable": 0,
		"parameter_deviation_table_BattleEnemyParameterDeviationTable": 0,
		"acquire_skill_group_id": 0,
		"level_correction": 0,
		"group_id": 0,
		"ai_script_id_BattleAIScript": 0
	},
	{
		"ID": 63004,
		"stage_BattleStage": 810003044,
		"unit_UnitUnit": 910013,
		"money": 0,
		"initial_coordinate_x": 4,
		"initial_coordinate_y": 5,
		"reinforcement_BattleReinforcement": 0,
		"initial_direction": 180.0,
		"ai_move_group": 0,
		"ai_target_move_x": -1,
		"ai_target_move_y": -1,
		"ai_skill_function": "",
		"ai_attack": "",
		"ai_move": "",
		"ai_heal": "",
		"ai_skill": "",
		"ai_use": "",
		"skill_group_id": 13252,
		"gear_GearGear": 15006,
		"gear_rank": 5,
		"proficiency_UnitProficiency": 5,
		"level": 84,
		"hp": 120,
		"strength": 103,
		"vitality": 126,
		"intelligence": 11,
		"mind": 62,
		"agility": 96,
		"dexterity": 104,
		"lucky": 42,
		"parameter_table_BattleEnemyParameterTable": 0,
		"parameter_deviation_table_BattleEnemyParameterDeviationTable": 0,
		"acquire_skill_group_id": 0,
		"level_correction": 0,
		"group_id": 0,
		"ai_script_id_BattleAIScript": 0
	},
	{
		"ID": 63005,
		"stage_BattleStage": 810003044,
		"unit_UnitUnit": 920013,
		"money": 0,
		"initial_coordinate_x": 5,
		"initial_coordinate_y": 4,
		"reinforcement_BattleReinforcement": 0,
		"initial_direction": 180.0,
		"ai_move_group": 0,
		"ai_target_move_x": -1,
		"ai_target_move_y": -1,
		"ai_skill_function": "",
		"ai_attack": "IF( turn <=3 ,IF(panel_move_distance <= 3, 1, 0),1)",
		"ai_move": "IF(turn <3,0,1)",
		"ai_heal": "",
		"ai_skill": "",
		"ai_use": "",
		"skill_group_id": 13592,
		"gear_GearGear": 25001,
		"gear_rank": 5,
		"proficiency_UnitProficiency": 5,
		"level": 84,
		"hp": 134,
		"strength": 116,
		"vitality": 134,
		"intelligence": 9,
		"mind": 61,
		"agility": 79,
		"dexterity": 95,
		"lucky": 42,
		"parameter_table_BattleEnemyParameterTable": 0,
		"parameter_deviation_table_BattleEnemyParameterDeviationTable": 0,
		"acquire_skill_group_id": 0,
		"level_correction": 0,
		"group_id": 0,
		"ai_script_id_BattleAIScript": 0
	},
	{
		"ID": 63006,
		"stage_BattleStage": 810003044,
		"unit_UnitUnit": 810004,
		"money": 0,
		"initial_coordinate_x": 4,
		"initial_coordinate_y": 2,
		"reinforcement_BattleReinforcement": 0,
		"initial_direction": 180.0,
		"ai_move_group": 0,
		"ai_target_move_x": -1,
		"ai_target_move_y": -1,
		"ai_skill_function": "",
		"ai_attack": "",
		"ai_move": "",
		"ai_heal": "",
		"ai_skill": "",
		"ai_use": "",
		"skill_group_id": 13252,
		"gear_GearGear": 15007,
		"gear_rank": 5,
		"proficiency_UnitProficiency": 5,
		"level": 84,
		"hp": 118,
		"strength": 99,
		"vitality": 109,
		"intelligence": 10,
		"mind": 100,
		"agility": 101,
		"dexterity": 107,
		"lucky": 63,
		"parameter_table_BattleEnemyParameterTable": 0,
		"parameter_deviation_table_BattleEnemyParameterDeviationTable": 0,
		"acquire_skill_group_id": 0,
		"level_correction": 0,
		"group_id": 0,
		"ai_script_id_BattleAIScript": 0
	}
]