[
	{
		"ID": 49541,
		"stage_BattleStage": 810002035,
		"unit_UnitUnit": 201313,
		"money": 0,
		"initial_coordinate_x": 4,
		"initial_coordinate_y": 14,
		"reinforcement_BattleReinforcement": 0,
		"initial_direction": 180.0,
		"ai_move_group": 0,
		"ai_target_move_x": -1,
		"ai_target_move_y": -1,
		"ai_skill_function": "",
		"ai_attack": "IF( turn <=8 ,IF(panel_move_distance <= 3, 1, 0),1)",
		"ai_move": "IF(turn <=8,0,1)",
		"ai_heal": "",
		"ai_skill": "",
		"ai_use": "",
		"skill_group_id": 13905,
		"gear_GearGear": 24003,
		"gear_rank": 5,
		"proficiency_UnitProficiency": 4,
		"level": 74,
		"hp": 139,
		"strength": 147,
		"vitality": 87,
		"intelligence": 38,
		"mind": 55,
		"agility": 88,
		"dexterity": 103,
		"lucky": 73,
		"parameter_table_BattleEnemyParameterTable": 0,
		"parameter_deviation_table_BattleEnemyParameterDeviationTable": 0,
		"acquire_skill_group_id": 0,
		"level_correction": 0,
		"group_id": 0,
		"ai_script_id_BattleAIScript": 0
	},
	{
		"ID": 49542,
		"stage_BattleStage": 810002035,
		"unit_UnitUnit": 810008,
		"money": 0,
		"initial_coordinate_x": 3,
		"initial_coordinate_y": 13,
		"reinforcement_BattleReinforcement": 0,
		"initial_direction": 180.0,
		"ai_move_group": 0,
		"ai_target_move_x": -1,
		"ai_target_move_y": -1,
		"ai_skill_function": "",
		"ai_attack": "IF( turn <=8 ,IF(panel_move_distance <= 3, 1, 0),1)",
		"ai_move": "IF(turn <=8,0,1)",
		"ai_heal": "",
		"ai_skill": "",
		"ai_use": "",
		"skill_group_id": 13311,
		"gear_GearGear": 14003,
		"gear_rank": 5,
		"proficiency_UnitProficiency": 4,
		"level": 74,
		"hp": 150,
		"strength": 114,
		"vitality": 113,
		"intelligence": 7,
		"mind": 38,
		"agility": 65,
		"dexterity": 99,
		"lucky": 44,
		"parameter_table_BattleEnemyParameterTable": 0,
		"parameter_deviation_table_BattleEnemyParameterDeviationTable": 0,
		"acquire_skill_group_id": 0,
		"level_correction": 0,
		"group_id": 0,
		"ai_script_id_BattleAIScript": 0
	},
	{
		"ID": 49543,
		"stage_BattleStage": 810002035,
		"unit_UnitUnit": 810008,
		"money": 0,
		"initial_coordinate_x": 5,
		"initial_coordinate_y": 13,
		"reinforcement_BattleReinforcement": 0,
		"initial_direction": 180.0,
		"ai_move_group": 0,
		"ai_target_move_x": -1,
		"ai_target_move_y": -1,
		"ai_skill_function": "",
		"ai_attack": "IF( turn <=8 ,IF(panel_move_distance <= 3, 1, 0),1)",
		"ai_move": "IF(turn <=8,0,1)",
		"ai_heal": "",
		"ai_skill": "",
		"ai_use": "",
		"skill_group_id": 13311,
		"gear_GearGear": 14001,
		"gear_rank": 5,
		"proficiency_UnitProficiency": 4,
		"level": 74,
		"hp": 151,
		"strength": 113,
		"vitality": 117,
		"intelligence": 5,
		"mind": 37,
		"agility": 64,
		"dexterity": 99,
		"lucky": 42,
		"parameter_table_BattleEnemyParameterTable": 0,
		"parameter_deviation_table_BattleEnemyParameterDeviationTable": 0,
		"acquire_skill_group_id": 0,
		"level_correction": 0,
		"group_id": 0,
		"ai_script_id_BattleAIScript": 0
	},
	{
		"ID": 49544,
		"stage_BattleStage": 810002035,
		"unit_UnitUnit": 810008,
		"money": 0,
		"initial_coordinate_x": 4,
		"initial_coordinate_y": 12,
		"reinforcement_BattleReinforcement": 0,
		"initial_direction": 180.0,
		"ai_move_group": 0,
		"ai_target_move_x": -1,
		"ai_target_move_y": -1,
		"ai_skill_function": "",
		"ai_attack": "IF( turn <=8 ,IF(panel_move_distance <= 3, 1, 0),1)",
		"ai_move": "IF(turn <=8,0,1)",
		"ai_heal": "",
		"ai_skill": "",
		"ai_use": "",
		"skill_group_id": 13311,
		"gear_GearGear": 14003,
		"gear_rank": 5,
		"proficiency_UnitProficiency": 4,
		"level": 74,
		"hp": 149,
		"strength": 112,
		"vitality": 114,
		"intelligence": 6,
		"mind": 37,
		"agility": 65,
		"dexterity": 101,
		"lucky": 44,
		"parameter_table_BattleEnemyParameterTable": 0,
		"parameter_deviation_table_BattleEnemyParameterDeviationTable": 0,
		"acquire_skill_group_id": 0,
		"level_correction": 0,
		"group_id": 0,
		"ai_script_id_BattleAIScript": 0
	},
	{
		"ID": 49545,
		"stage_BattleStage": 810002035,
		"unit_UnitUnit": 502413,
		"money": 0,
		"initial_coordinate_x": 10,
		"initial_coordinate_y": 13,
		"reinforcement_BattleReinforcement": 0,
		"initial_direction": 180.0,
		"ai_move_group": 0,
		"ai_target_move_x": -1,
		"ai_target_move_y": -1,
		"ai_skill_function": "",
		"ai_attack": "IF( turn <=3 ,IF(panel_move_distance <= 3, 1, 0),1)",
		"ai_move": "IF(turn <=3,0,1)",
		"ai_heal": "",
		"ai_skill": "",
		"ai_use": "",
		"skill_group_id": 13906,
		"gear_GearGear": 54003,
		"gear_rank": 5,
		"proficiency_UnitProficiency": 4,
		"level": 74,
		"hp": 130,
		"strength": 19,
		"vitality": 58,
		"intelligence": 140,
		"mind": 111,
		"agility": 107,
		"dexterity": 108,
		"lucky": 65,
		"parameter_table_BattleEnemyParameterTable": 0,
		"parameter_deviation_table_BattleEnemyParameterDeviationTable": 0,
		"acquire_skill_group_id": 0,
		"level_correction": 0,
		"group_id": 0,
		"ai_script_id_BattleAIScript": 0
	},
	{
		"ID": 49546,
		"stage_BattleStage": 810002035,
		"unit_UnitUnit": 302013,
		"money": 0,
		"initial_coordinate_x": 12,
		"initial_coordinate_y": 13,
		"reinforcement_BattleReinforcement": 0,
		"initial_direction": 180.0,
		"ai_move_group": 0,
		"ai_target_move_x": -1,
		"ai_target_move_y": -1,
		"ai_skill_function": "",
		"ai_attack": "IF( turn <=3 ,IF(panel_move_distance <= 3, 1, 0),1)",
		"ai_move": "IF(turn <=3,0,1)",
		"ai_heal": "",
		"ai_skill": "",
		"ai_use": "",
		"skill_group_id": 13907,
		"gear_GearGear": 34002,
		"gear_rank": 5,
		"proficiency_UnitProficiency": 4,
		"level": 74,
		"hp": 133,
		"strength": 112,
		"vitality": 96,
		"intelligence": 33,
		"mind": 66,
		"agility": 96,
		"dexterity": 101,
		"lucky": 68,
		"parameter_table_BattleEnemyParameterTable": 0,
		"parameter_deviation_table_BattleEnemyParameterDeviationTable": 0,
		"acquire_skill_group_id": 0,
		"level_correction": 0,
		"group_id": 0,
		"ai_script_id_BattleAIScript": 0
	},
	{
		"ID": 49547,
		"stage_BattleStage": 810002035,
		"unit_UnitUnit": 940013,
		"money": 0,
		"initial_coordinate_x": 10,
		"initial_coordinate_y": 11,
		"reinforcement_BattleReinforcement": 0,
		"initial_direction": 180.0,
		"ai_move_group": 0,
		"ai_target_move_x": -1,
		"ai_target_move_y": -1,
		"ai_skill_function": "",
		"ai_attack": "IF( turn <=3 ,IF(panel_move_distance <= 2, 1, 0),1)",
		"ai_move": "IF(turn <=3,0,1)",
		"ai_heal": "",
		"ai_skill": "",
		"ai_use": "",
		"skill_group_id": 13331,
		"gear_GearGear": 44003,
		"gear_rank": 5,
		"proficiency_UnitProficiency": 4,
		"level": 74,
		"hp": 108,
		"strength": 103,
		"vitality": 93,
		"intelligence": 10,
		"mind": 27,
		"agility": 77,
		"dexterity": 95,
		"lucky": 44,
		"parameter_table_BattleEnemyParameterTable": 0,
		"parameter_deviation_table_BattleEnemyParameterDeviationTable": 0,
		"acquire_skill_group_id": 0,
		"level_correction": 0,
		"group_id": 0,
		"ai_script_id_BattleAIScript": 0
	},
	{
		"ID": 49548,
		"stage_BattleStage": 810002035,
		"unit_UnitUnit": 940013,
		"money": 0,
		"initial_coordinate_x": 9,
		"initial_coordinate_y": 10,
		"reinforcement_BattleReinforcement": 0,
		"initial_direction": 180.0,
		"ai_move_group": 0,
		"ai_target_move_x": -1,
		"ai_target_move_y": -1,
		"ai_skill_function": "",
		"ai_attack": "IF( turn <=3 ,IF(panel_move_distance <= 2, 1, 0),1)",
		"ai_move": "IF(turn <=3,0,1)",
		"ai_heal": "",
		"ai_skill": "",
		"ai_use": "",
		"skill_group_id": 13331,
		"gear_GearGear": 44003,
		"gear_rank": 5,
		"proficiency_UnitProficiency": 4,
		"level": 74,
		"hp": 107,
		"strength": 104,
		"vitality": 92,
		"intelligence": 9,
		"mind": 28,
		"agility": 77,
		"dexterity": 94,
		"lucky": 45,
		"parameter_table_BattleEnemyParameterTable": 0,
		"parameter_deviation_table_BattleEnemyParameterDeviationTable": 0,
		"acquire_skill_group_id": 0,
		"level_correction": 0,
		"group_id": 0,
		"ai_script_id_BattleAIScript": 0
	},
	{
		"ID": 49549,
		"stage_BattleStage": 810002035,
		"unit_UnitUnit": 830003,
		"money": 0,
		"initial_coordinate_x": 9,
		"initial_coordinate_y": 8,
		"reinforcement_BattleReinforcement": 0,
		"initial_direction": 180.0,
		"ai_move_group": 0,
		"ai_target_move_x": -1,
		"ai_target_move_y": -1,
		"ai_skill_function": "",
		"ai_attack": "IF( turn <=4 ,IF(panel_move_distance <= 2, 1, 0),1)",
		"ai_move": "IF(turn <=4,0,1)",
		"ai_heal": "",
		"ai_skill": "",
		"ai_use": "",
		"skill_group_id": 13281,
		"gear_GearGear": 34002,
		"gear_rank": 5,
		"proficiency_UnitProficiency": 4,
		"level": 74,
		"hp": 141,
		"strength": 113,
		"vitality": 122,
		"intelligence": 10,
		"mind": 44,
		"agility": 53,
		"dexterity": 87,
		"lucky": 46,
		"parameter_table_BattleEnemyParameterTable": 0,
		"parameter_deviation_table_BattleEnemyParameterDeviationTable": 0,
		"acquire_skill_group_id": 0,
		"level_correction": 0,
		"group_id": 0,
		"ai_script_id_BattleAIScript": 0
	},
	{
		"ID": 49550,
		"stage_BattleStage": 810002035,
		"unit_UnitUnit": 830003,
		"money": 0,
		"initial_coordinate_x": 12,
		"initial_coordinate_y": 8,
		"reinforcement_BattleReinforcement": 0,
		"initial_direction": 180.0,
		"ai_move_group": 0,
		"ai_target_move_x": -1,
		"ai_target_move_y": -1,
		"ai_skill_function": "",
		"ai_attack": "IF( turn <=4 ,IF(panel_move_distance <= 2, 1, 0),1)",
		"ai_move": "IF(turn <=4,0,1)",
		"ai_heal": "",
		"ai_skill": "",
		"ai_use": "",
		"skill_group_id": 13281,
		"gear_GearGear": 34002,
		"gear_rank": 5,
		"proficiency_UnitProficiency": 4,
		"level": 74,
		"hp": 143,
		"strength": 115,
		"vitality": 120,
		"intelligence": 10,
		"mind": 42,
		"agility": 54,
		"dexterity": 85,
		"lucky": 47,
		"parameter_table_BattleEnemyParameterTable": 0,
		"parameter_deviation_table_BattleEnemyParameterDeviationTable": 0,
		"acquire_skill_group_id": 0,
		"level_correction": 0,
		"group_id": 0,
		"ai_script_id_BattleAIScript": 0
	},
	{
		"ID": 49551,
		"stage_BattleStage": 810002035,
		"unit_UnitUnit": 2810004,
		"money": 0,
		"initial_coordinate_x": 3,
		"initial_coordinate_y": 4,
		"reinforcement_BattleReinforcement": 0,
		"initial_direction": 90.0,
		"ai_move_group": 0,
		"ai_target_move_x": -1,
		"ai_target_move_y": -1,
		"ai_skill_function": "",
		"ai_attack": "",
		"ai_move": "10.0",
		"ai_heal": "",
		"ai_skill": "",
		"ai_use": "",
		"skill_group_id": 13261,
		"gear_GearGear": 14001,
		"gear_rank": 5,
		"proficiency_UnitProficiency": 4,
		"level": 74,
		"hp": 108,
		"strength": 106,
		"vitality": 87,
		"intelligence": 10,
		"mind": 43,
		"agility": 92,
		"dexterity": 94,
		"lucky": 47,
		"parameter_table_BattleEnemyParameterTable": 0,
		"parameter_deviation_table_BattleEnemyParameterDeviationTable": 0,
		"acquire_skill_group_id": 0,
		"level_correction": 0,
		"group_id": 0,
		"ai_script_id_BattleAIScript": 0
	},
	{
		"ID": 49552,
		"stage_BattleStage": 810002035,
		"unit_UnitUnit": 2820004,
		"money": 0,
		"initial_coordinate_x": 4,
		"initial_coordinate_y": 3,
		"reinforcement_BattleReinforcement": 0,
		"initial_direction": 90.0,
		"ai_move_group": 0,
		"ai_target_move_x": -1,
		"ai_target_move_y": -1,
		"ai_skill_function": "",
		"ai_attack": "",
		"ai_move": "10.0",
		"ai_heal": "",
		"ai_skill": "",
		"ai_use": "",
		"skill_group_id": 12791,
		"gear_GearGear": 24002,
		"gear_rank": 5,
		"proficiency_UnitProficiency": 4,
		"level": 74,
		"hp": 118,
		"strength": 118,
		"vitality": 71,
		"intelligence": 9,
		"mind": 36,
		"agility": 64,
		"dexterity": 87,
		"lucky": 48,
		"parameter_table_BattleEnemyParameterTable": 0,
		"parameter_deviation_table_BattleEnemyParameterDeviationTable": 0,
		"acquire_skill_group_id": 0,
		"level_correction": 0,
		"group_id": 0,
		"ai_script_id_BattleAIScript": 0
	},
	{
		"ID": 49553,
		"stage_BattleStage": 810002035,
		"unit_UnitUnit": 2830004,
		"money": 0,
		"initial_coordinate_x": 3,
		"initial_coordinate_y": 2,
		"reinforcement_BattleReinforcement": 0,
		"initial_direction": 90.0,
		"ai_move_group": 0,
		"ai_target_move_x": -1,
		"ai_target_move_y": -1,
		"ai_skill_function": "",
		"ai_attack": "",
		"ai_move": "10.0",
		"ai_heal": "",
		"ai_skill": "",
		"ai_use": "",
		"skill_group_id": 13351,
		"gear_GearGear": 34001,
		"gear_rank": 5,
		"proficiency_UnitProficiency": 4,
		"level": 74,
		"hp": 114,
		"strength": 112,
		"vitality": 106,
		"intelligence": 8,
		"mind": 55,
		"agility": 73,
		"dexterity": 92,
		"lucky": 46,
		"parameter_table_BattleEnemyParameterTable": 0,
		"parameter_deviation_table_BattleEnemyParameterDeviationTable": 0,
		"acquire_skill_group_id": 0,
		"level_correction": 0,
		"group_id": 0,
		"ai_script_id_BattleAIScript": 0
	},
	{
		"ID": 49554,
		"stage_BattleStage": 810002035,
		"unit_UnitUnit": 920013,
		"money": 0,
		"initial_coordinate_x": 6,
		"initial_coordinate_y": 5,
		"reinforcement_BattleReinforcement": 0,
		"initial_direction": 180.0,
		"ai_move_group": 0,
		"ai_target_move_x": -1,
		"ai_target_move_y": -1,
		"ai_skill_function": "",
		"ai_attack": "",
		"ai_move": "10.0",
		"ai_heal": "",
		"ai_skill": "",
		"ai_use": "",
		"skill_group_id": 13781,
		"gear_GearGear": 24001,
		"gear_rank": 5,
		"proficiency_UnitProficiency": 4,
		"level": 74,
		"hp": 123,
		"strength": 117,
		"vitality": 93,
		"intelligence": 8,
		"mind": 23,
		"agility": 65,
		"dexterity": 90,
		"lucky": 45,
		"parameter_table_BattleEnemyParameterTable": 0,
		"parameter_deviation_table_BattleEnemyParameterDeviationTable": 0,
		"acquire_skill_group_id": 0,
		"level_correction": 0,
		"group_id": 0,
		"ai_script_id_BattleAIScript": 0
	},
	{
		"ID": 49555,
		"stage_BattleStage": 810002035,
		"unit_UnitUnit": 910013,
		"money": 0,
		"initial_coordinate_x": 7,
		"initial_coordinate_y": 5,
		"reinforcement_BattleReinforcement": 0,
		"initial_direction": 180.0,
		"ai_move_group": 0,
		"ai_target_move_x": -1,
		"ai_target_move_y": -1,
		"ai_skill_function": "",
		"ai_attack": "",
		"ai_move": "10.0",
		"ai_heal": "",
		"ai_skill": "",
		"ai_use": "",
		"skill_group_id": 13781,
		"gear_GearGear": 14001,
		"gear_rank": 5,
		"proficiency_UnitProficiency": 4,
		"level": 74,
		"hp": 116,
		"strength": 111,
		"vitality": 85,
		"intelligence": 8,
		"mind": 20,
		"agility": 82,
		"dexterity": 95,
		"lucky": 44,
		"parameter_table_BattleEnemyParameterTable": 0,
		"parameter_deviation_table_BattleEnemyParameterDeviationTable": 0,
		"acquire_skill_group_id": 0,
		"level_correction": 0,
		"group_id": 0,
		"ai_script_id_BattleAIScript": 0
	},
	{
		"ID": 49556,
		"stage_BattleStage": 810002035,
		"unit_UnitUnit": 920013,
		"money": 0,
		"initial_coordinate_x": 10,
		"initial_coordinate_y": 5,
		"reinforcement_BattleReinforcement": 0,
		"initial_direction": 180.0,
		"ai_move_group": 0,
		"ai_target_move_x": -1,
		"ai_target_move_y": -1,
		"ai_skill_function": "",
		"ai_attack": "",
		"ai_move": "10.0",
		"ai_heal": "",
		"ai_skill": "",
		"ai_use": "",
		"skill_group_id": 13781,
		"gear_GearGear": 24003,
		"gear_rank": 5,
		"proficiency_UnitProficiency": 4,
		"level": 74,
		"hp": 123,
		"strength": 116,
		"vitality": 98,
		"intelligence": 8,
		"mind": 22,
		"agility": 66,
		"dexterity": 89,
		"lucky": 45,
		"parameter_table_BattleEnemyParameterTable": 0,
		"parameter_deviation_table_BattleEnemyParameterDeviationTable": 0,
		"acquire_skill_group_id": 0,
		"level_correction": 0,
		"group_id": 0,
		"ai_script_id_BattleAIScript": 0
	},
	{
		"ID": 49557,
		"stage_BattleStage": 810002035,
		"unit_UnitUnit": 2810004,
		"money": 0,
		"initial_coordinate_x": 11,
		"initial_coordinate_y": 6,
		"reinforcement_BattleReinforcement": 0,
		"initial_direction": 180.0,
		"ai_move_group": 0,
		"ai_target_move_x": -1,
		"ai_target_move_y": -1,
		"ai_skill_function": "",
		"ai_attack": "",
		"ai_move": "10.0",
		"ai_heal": "",
		"ai_skill": "",
		"ai_use": "",
		"skill_group_id": 13261,
		"gear_GearGear": 14003,
		"gear_rank": 5,
		"proficiency_UnitProficiency": 4,
		"level": 74,
		"hp": 108,
		"strength": 106,
		"vitality": 72,
		"intelligence": 8,
		"mind": 32,
		"agility": 85,
		"dexterity": 97,
		"lucky": 47,
		"parameter_table_BattleEnemyParameterTable": 0,
		"parameter_deviation_table_BattleEnemyParameterDeviationTable": 0,
		"acquire_skill_group_id": 0,
		"level_correction": 0,
		"group_id": 0,
		"ai_script_id_BattleAIScript": 0
	}
]