[
	{
		"ID": 60083,
		"stage_BattleStage": 991009160,
		"unit_UnitUnit": 100244,
		"money": 500,
		"initial_coordinate_x": 8,
		"initial_coordinate_y": 13,
		"reinforcement_BattleReinforcement": 0,
		"initial_direction": 180.0,
		"ai_move_group": 0,
		"ai_target_move_x": -1,
		"ai_target_move_y": -1,
		"ai_skill_function": "",
		"ai_attack": "IF(panel_move_distance <= 5, 1, 0)",
		"ai_move": "1.0",
		"ai_heal": "",
		"ai_skill": "",
		"ai_use": "",
		"skill_group_id": 17464,
		"gear_GearGear": 160231,
		"gear_rank": 10,
		"proficiency_UnitProficiency": 6,
		"level": 100,
		"hp": 109,
		"strength": 111,
		"vitality": 65,
		"intelligence": 36,
		"mind": 45,
		"agility": 136,
		"dexterity": 133,
		"lucky": 61,
		"parameter_table_BattleEnemyParameterTable": 0,
		"parameter_deviation_table_BattleEnemyParameterDeviationTable": 0,
		"acquire_skill_group_id": 0,
		"level_correction": 0,
		"group_id": 0,
		"ai_script_id_BattleAIScript": 0
	},
	{
		"ID": 60084,
		"stage_BattleStage": 991009160,
		"unit_UnitUnit": 100283,
		"money": 450,
		"initial_coordinate_x": 10,
		"initial_coordinate_y": 13,
		"reinforcement_BattleReinforcement": 0,
		"initial_direction": 180.0,
		"ai_move_group": 0,
		"ai_target_move_x": -1,
		"ai_target_move_y": -1,
		"ai_skill_function": "",
		"ai_attack": "IF(panel_move_distance <= 5, 1, 0)",
		"ai_move": "1.0",
		"ai_heal": "",
		"ai_skill": "",
		"ai_use": "",
		"skill_group_id": 17465,
		"gear_GearGear": 160228,
		"gear_rank": 10,
		"proficiency_UnitProficiency": 6,
		"level": 90,
		"hp": 129,
		"strength": 103,
		"vitality": 65,
		"intelligence": 27,
		"mind": 45,
		"agility": 134,
		"dexterity": 122,
		"lucky": 51,
		"parameter_table_BattleEnemyParameterTable": 0,
		"parameter_deviation_table_BattleEnemyParameterDeviationTable": 0,
		"acquire_skill_group_id": 0,
		"level_correction": 0,
		"group_id": 0,
		"ai_script_id_BattleAIScript": 0
	},
	{
		"ID": 60085,
		"stage_BattleStage": 991009160,
		"unit_UnitUnit": 2100213,
		"money": 450,
		"initial_coordinate_x": 8,
		"initial_coordinate_y": 14,
		"reinforcement_BattleReinforcement": 0,
		"initial_direction": 180.0,
		"ai_move_group": 0,
		"ai_target_move_x": -1,
		"ai_target_move_y": -1,
		"ai_skill_function": "",
		"ai_attack": "IF(panel_move_distance <= 5, 1, 0)",
		"ai_move": "1.0",
		"ai_heal": "",
		"ai_skill": "",
		"ai_use": "",
		"skill_group_id": 17466,
		"gear_GearGear": 160226,
		"gear_rank": 10,
		"proficiency_UnitProficiency": 6,
		"level": 90,
		"hp": 112,
		"strength": 97,
		"vitality": 72,
		"intelligence": 27,
		"mind": 40,
		"agility": 133,
		"dexterity": 116,
		"lucky": 61,
		"parameter_table_BattleEnemyParameterTable": 0,
		"parameter_deviation_table_BattleEnemyParameterDeviationTable": 0,
		"acquire_skill_group_id": 0,
		"level_correction": 0,
		"group_id": 0,
		"ai_script_id_BattleAIScript": 0
	},
	{
		"ID": 60086,
		"stage_BattleStage": 991009160,
		"unit_UnitUnit": 100273,
		"money": 450,
		"initial_coordinate_x": 9,
		"initial_coordinate_y": 14,
		"reinforcement_BattleReinforcement": 0,
		"initial_direction": 180.0,
		"ai_move_group": 0,
		"ai_target_move_x": -1,
		"ai_target_move_y": -1,
		"ai_skill_function": "",
		"ai_attack": "IF(panel_move_distance <= 5, 1, 0)",
		"ai_move": "1.0",
		"ai_heal": "",
		"ai_skill": "",
		"ai_use": "",
		"skill_group_id": 17467,
		"gear_GearGear": 160232,
		"gear_rank": 10,
		"proficiency_UnitProficiency": 6,
		"level": 90,
		"hp": 125,
		"strength": 96,
		"vitality": 63,
		"intelligence": 27,
		"mind": 30,
		"agility": 135,
		"dexterity": 134,
		"lucky": 59,
		"parameter_table_BattleEnemyParameterTable": 0,
		"parameter_deviation_table_BattleEnemyParameterDeviationTable": 0,
		"acquire_skill_group_id": 0,
		"level_correction": 0,
		"group_id": 0,
		"ai_script_id_BattleAIScript": 0
	},
	{
		"ID": 60087,
		"stage_BattleStage": 991009160,
		"unit_UnitUnit": 41002001,
		"money": 450,
		"initial_coordinate_x": 10,
		"initial_coordinate_y": 14,
		"reinforcement_BattleReinforcement": 0,
		"initial_direction": 180.0,
		"ai_move_group": 0,
		"ai_target_move_x": -1,
		"ai_target_move_y": -1,
		"ai_skill_function": "",
		"ai_attack": "IF(panel_move_distance <= 5, 1, 0)",
		"ai_move": "1.0",
		"ai_heal": "",
		"ai_skill": "",
		"ai_use": "",
		"skill_group_id": 17468,
		"gear_GearGear": 160229,
		"gear_rank": 10,
		"proficiency_UnitProficiency": 6,
		"level": 90,
		"hp": 126,
		"strength": 46,
		"vitality": 181,
		"intelligence": 17,
		"mind": 17,
		"agility": 28,
		"dexterity": 84,
		"lucky": 52,
		"parameter_table_BattleEnemyParameterTable": 0,
		"parameter_deviation_table_BattleEnemyParameterDeviationTable": 0,
		"acquire_skill_group_id": 0,
		"level_correction": 0,
		"group_id": 0,
		"ai_script_id_BattleAIScript": 0
	}
]