[
	{
		"ID": 29525,
		"stage_BattleStage": 991009117,
		"unit_UnitUnit": 500243,
		"money": 1000,
		"initial_coordinate_x": 2,
		"initial_coordinate_y": 13,
		"reinforcement_BattleReinforcement": 0,
		"initial_direction": 180.0,
		"ai_move_group": 0,
		"ai_target_move_x": -1,
		"ai_target_move_y": -1,
		"ai_skill_function": "",
		"ai_attack": "IF( turn <=2 ,IF(panel_move_distance <= 1, 1, 0),1)",
		"ai_move": "IF(turn <=2,0,1)",
		"ai_heal": "",
		"ai_skill": "",
		"ai_use": "",
		"skill_group_id": 0,
		"gear_GearGear": 56001,
		"gear_rank": 1,
		"proficiency_UnitProficiency": 5,
		"level": 1,
		"hp": 1,
		"strength": 1,
		"vitality": 1,
		"intelligence": 1,
		"mind": 1,
		"agility": 1,
		"dexterity": 1,
		"lucky": 1,
		"parameter_table_BattleEnemyParameterTable": 500243,
		"parameter_deviation_table_BattleEnemyParameterDeviationTable": 5,
		"acquire_skill_group_id": 151,
		"level_correction": 0,
		"group_id": 0,
		"ai_script_id_BattleAIScript": 0
	},
	{
		"ID": 29526,
		"stage_BattleStage": 991009117,
		"unit_UnitUnit": 601313,
		"money": 1000,
		"initial_coordinate_x": 3,
		"initial_coordinate_y": 13,
		"reinforcement_BattleReinforcement": 0,
		"initial_direction": 180.0,
		"ai_move_group": 0,
		"ai_target_move_x": -1,
		"ai_target_move_y": -1,
		"ai_skill_function": "",
		"ai_attack": "IF( turn <=2 ,IF(panel_move_distance <= 1, 1, 0),1)",
		"ai_move": "IF(turn <=2,0,1)",
		"ai_heal": "",
		"ai_skill": "",
		"ai_use": "",
		"skill_group_id": 0,
		"gear_GearGear": 76001,
		"gear_rank": 1,
		"proficiency_UnitProficiency": 5,
		"level": 1,
		"hp": 1,
		"strength": 1,
		"vitality": 1,
		"intelligence": 1,
		"mind": 1,
		"agility": 1,
		"dexterity": 1,
		"lucky": 1,
		"parameter_table_BattleEnemyParameterTable": 601313,
		"parameter_deviation_table_BattleEnemyParameterDeviationTable": 5,
		"acquire_skill_group_id": 152,
		"level_correction": 0,
		"group_id": 0,
		"ai_script_id_BattleAIScript": 0
	},
	{
		"ID": 29527,
		"stage_BattleStage": 991009117,
		"unit_UnitUnit": 102613,
		"money": 1000,
		"initial_coordinate_x": 4,
		"initial_coordinate_y": 13,
		"reinforcement_BattleReinforcement": 0,
		"initial_direction": 180.0,
		"ai_move_group": 0,
		"ai_target_move_x": -1,
		"ai_target_move_y": -1,
		"ai_skill_function": "",
		"ai_attack": "IF( turn <=2 ,IF(panel_move_distance <= 1, 1, 0),1)",
		"ai_move": "IF(turn <=2,0,1)",
		"ai_heal": "",
		"ai_skill": "",
		"ai_use": "",
		"skill_group_id": 0,
		"gear_GearGear": 16001,
		"gear_rank": 1,
		"proficiency_UnitProficiency": 5,
		"level": 1,
		"hp": 1,
		"strength": 1,
		"vitality": 1,
		"intelligence": 1,
		"mind": 1,
		"agility": 1,
		"dexterity": 1,
		"lucky": 1,
		"parameter_table_BattleEnemyParameterTable": 102613,
		"parameter_deviation_table_BattleEnemyParameterDeviationTable": 5,
		"acquire_skill_group_id": 153,
		"level_correction": 0,
		"group_id": 0,
		"ai_script_id_BattleAIScript": 0
	},
	{
		"ID": 29528,
		"stage_BattleStage": 991009117,
		"unit_UnitUnit": 201913,
		"money": 1000,
		"initial_coordinate_x": 2,
		"initial_coordinate_y": 14,
		"reinforcement_BattleReinforcement": 0,
		"initial_direction": 180.0,
		"ai_move_group": 0,
		"ai_target_move_x": -1,
		"ai_target_move_y": -1,
		"ai_skill_function": "",
		"ai_attack": "IF( turn <=2 ,IF(panel_move_distance <= 1, 1, 0),1)",
		"ai_move": "IF(turn <=2,0,1)",
		"ai_heal": "",
		"ai_skill": "",
		"ai_use": "",
		"skill_group_id": 0,
		"gear_GearGear": 25004,
		"gear_rank": 1,
		"proficiency_UnitProficiency": 5,
		"level": 1,
		"hp": 1,
		"strength": 1,
		"vitality": 1,
		"intelligence": 1,
		"mind": 1,
		"agility": 1,
		"dexterity": 1,
		"lucky": 1,
		"parameter_table_BattleEnemyParameterTable": 201913,
		"parameter_deviation_table_BattleEnemyParameterDeviationTable": 5,
		"acquire_skill_group_id": 154,
		"level_correction": 0,
		"group_id": 0,
		"ai_script_id_BattleAIScript": 0
	},
	{
		"ID": 29529,
		"stage_BattleStage": 991009117,
		"unit_UnitUnit": 400833,
		"money": 1000,
		"initial_coordinate_x": 2,
		"initial_coordinate_y": 15,
		"reinforcement_BattleReinforcement": 0,
		"initial_direction": 180.0,
		"ai_move_group": 0,
		"ai_target_move_x": -1,
		"ai_target_move_y": -1,
		"ai_skill_function": "",
		"ai_attack": "IF( turn <=2 ,IF(panel_move_distance <= 1, 1, 0),1)",
		"ai_move": "IF(turn <=2,0,1)",
		"ai_heal": "",
		"ai_skill": "",
		"ai_use": "",
		"skill_group_id": 0,
		"gear_GearGear": 43006,
		"gear_rank": 1,
		"proficiency_UnitProficiency": 5,
		"level": 1,
		"hp": 1,
		"strength": 1,
		"vitality": 1,
		"intelligence": 1,
		"mind": 1,
		"agility": 1,
		"dexterity": 1,
		"lucky": 1,
		"parameter_table_BattleEnemyParameterTable": 400833,
		"parameter_deviation_table_BattleEnemyParameterDeviationTable": 5,
		"acquire_skill_group_id": 155,
		"level_correction": 0,
		"group_id": 0,
		"ai_script_id_BattleAIScript": 0
	}
]