[
	{
		"ID": 100521,
		"script": ";;A だっていいっていったもん (中当たり)\n;;B イヤよイヤよも… (小当り)\n;;C じゃ、帰りますね (大当たり)\n# script \"lisp\"\n# fadein \"black\" 0.5\n# background \"sea_room\"\n# bgmfile \"bgm256\" \"BgmSeaDate\" 0\n# body %(unit_a)s\n# pos %(unit_a)s 3\n# mask %(unit_a)s off\n# chara %(unit_a)s\n# textflame 0 0\n# face %(unit_a)s \"usual\"\n@\nマスターは\nリットゥに招かれて\n彼女の部屋を訪れていた\n\n# face %(unit_a)s \"sad\"\n# voice 1005 \"ritto_0015\"\n# textflame 1 1\n@リットゥ\nこれは…\n領域侵犯行為だぞ…\n\n@リットゥ\n私室という…\n最後の砦に…\n乗り込んでこようとは！\n\n# select \"だっていいっていったもん\" \"select_label_01\" \"イヤよイヤよも…\" \"select_label_02\" \"じゃ、帰りますね\" \"select_label_03\"\n@リットゥ\n私室という…\n最後の砦に…\n乗り込んでこようとは！\n\n# label \"select_label_01\"\n# labeljump \"select_label_end\"\n# textwindow \"close\"\n# waitandnext 0.1\n\n# label \"select_label_02\"\n# labeljump \"select_label_end\"\n# textwindow \"close\"\n# waitandnext 0.1\n\n# label \"select_label_03\"\n# labeljump \"select_label_end\"\n# textwindow \"close\"\n# waitandnext 0.1\n\n# label \"select_label_end\"\n# waitandnext 0.1\n\n# fadeout \"black\" 1.2\n# waitandnext 2"
	}
]