[
	{
		"ID": 100721,
		"script": ";;,無防備な時こそ、守ってほしい 小\n;;,水着かわいいね！ 中\n;;,いつでも傍にいたいから 大\n# script \"lisp\"\n# fadein \"black\" 0.5\n# background \"sea_onsen\"\n# bgmfile \"bgm256\" \"BgmSeaDate\" 0\n# body %(unit_a)s\n# pos %(unit_a)s 3\n# mask %(unit_a)s off\n# chara %(unit_a)s\n# face %(unit_a)s \"angry\"\n# textflame 1 1\n@\n@アロンダイト\nむうう…\n\n# textflame 0 0\n@\n水着着用の温泉に来た、\nアロンダイトとマスター\n\n# textflame 1 1\n# voice 1007 \"Arondaito_0014\"\n@アロンダイト\n不義です…\n湖に行くと伺っていたのに…\n\n# textflame 0 0\n@\n温かい湖だよとすっとぼけると\nアロンダイトは不服そうに\n頬をふくらませる\n\n# textflame 1 1\n# voice 1007 \"Arondaito_0037\"\n@アロンダイト\n裏切り！裏切りです！\nマスターを信じる騎士の心を\n裏切られてしまいました！\n\n@アロンダイト\nしかも水着とはいえ、\n混浴の湯に招かれるだなんて…\n\n# voice 1007 \"Arondaito_0012\"\n@アロンダイト\nふしだらです！\n不義の塊です！\n\n# select \"無防備な時こそ、守ってほしい\" \"select_label_01\" \"水着かわいいね！\" \"select_label_02\" \"いつでも傍にいたいから\" \"select_label_03\"\nふしだらです！\n不義の塊です！\n\n# label \"select_label_01\"\n# labeljump \"select_label_end\"\n# textwindow \"close\"\n# waitandnext 0.1\n\n# label \"select_label_02\"\n# labeljump \"select_label_end\"\n# textwindow \"close\"\n# waitandnext 0.1\n\n# label \"select_label_03\"\n# labeljump \"select_label_end\"\n# textwindow \"close\"\n# waitandnext 0.1\n\n# label \"select_label_end\"\n# waitandnext 0.1\n\n# fadeout \"black\" 1.2\n# waitandnext 2\n"
	}
]