[
	{
		"ID": 100821,
		"script": "# script \"lisp\"\n# fadein \"black\" 0.5\n# background \"sea_room\"\n# bgmfile \"bgm256\" \"BgmSeaDate\" 0\n# body %(unit_a)s\n# pos %(unit_a)s 3\n# mask %(unit_a)s off\n# chara %(unit_a)s\n# textflame 0 0\n@\nマスターはグラムの部屋に\n招かれてやってきた\n\n# textflame 1 1\n# face %(unit_a)s \"smile\"\n@%(unitName:unit_a)s\n…私の部屋に入った人\nマスターで二人目なんだ\n\n# textflame 1 1\n@%(unitName:unit_a)s\n…………\n\n# voice 1008 \"guramu_0042\"\n# textflame 1 1\n# face %(unit_a)s \"sad\"\n@%(unitName:unit_a)s\nもう一人はバルムンクだよ\n…この意味、わかる？\n\n# textflame 0 0\n@\n彼女の潤んだ瞳が\nじっとマスターを見つめた\n\n# select \"家族認定…？\" \"select_label_01\" \"友達認定…？\" \"select_label_02\" \"恋人認定…？\" \"select_label_03\"\n彼女の潤んだ瞳が\nじっとマスターを見つめた\n\n# textwindow \"close\"\n# label \"select_label_01\"\n# labeljump \"select_label_end\"\n# waitandnext 0.1\n\n# textwindow \"close\"\n# label \"select_label_02\"\n# labeljump \"select_label_end\"\n# waitandnext 0.1\n\n# textwindow \"close\"\n# label \"select_label_03\"\n# labeljump \"select_label_end\"\n# waitandnext 0.1\n\n# label \"select_label_end\"\n# waitandnext 2\n# fadeout \"black\" 1.2"
	}
]