[
	{
		"ID": 101121,
		"script": ";;A 水とお湯は同じもの中\n;;B 泳いじゃう？小\n;;C ところで混浴ですが大\n# script \"lisp\"\n# fadein \"black\" 0.5\n# background \"sea_onsen\"\n# bgmfile \"bgm256\" \"BgmSeaDate\" 0\n# body %(unit_a)s\n# pos %(unit_a)s 3\n# mask %(unit_a)s off\n# chara %(unit_a)s\n# face %(unit_a)s \"usual\"\n# textflame 0 0\n@\nマスターはエクスカリバーを\n誘って水着着用の温泉にやってきた\n\n# textflame 1 1\n@エクスカリバー\n水浴びも水泳も好きだと\n確かにお伝えしてはいましたが…\n\n# voice 1011 \"excalibur_0042\"\n# face %(unit_a)s \"sad\"\n# textflame 1 1\n@エクスカリバー\nこれは少しばかり…\nいえ、まったく趣旨が違うかと…\n\n# select \"水とお湯は同じもの\" \"select_label_01\" \"泳いじゃう？\" \"select_label_02\" \"ところで混浴ですが\" \"select_label_03\"\nこれは少しばかり…\nいえ、まったく趣旨が違うかと…\n\n# label \"select_label_01\"\n# labeljump \"select_label_end\"\n# textwindow \"close\"\n# waitandnext 0.1\n\n# label \"select_label_02\"\n# labeljump \"select_label_end\"\n# textwindow \"close\"\n# waitandnext 0.1\n\n# label \"select_label_03\"\n# labeljump \"select_label_end\"\n# textwindow \"close\"\n# textflame 1 1\n# waitandnext 0.1\n\n# label \"select_label_end\"\n# waitandnext 2\n# fadeout \"black\" 1.2"
	}
]