[
	{
		"ID": 101113,
		"script": "# script \"lisp\"\n# fadein \"black\" 0.5\n# background \"sea_castle\"\n# bgmfile \"bgm256\" \"BgmSeaDate\" 0\n# body %(unit_a)s\n# pos %(unit_a)s 3\n# mask %(unit_a)s off\n# chara %(unit_a)s\n# textflame 1 1\n# face %(unit_a)s \"smile\"\n# voice 1011 \"excalibur_0039\"\n# textflame 1 1\n@エクスカリバー\nマスターは意外に古風なのですね\n堅実なのはよいことです\n\n# voice 1011 \"excalibur_0004\"\n# face %(unit_a)s \"usual\"\n# textflame 1 1\n@エクスカリバー\nそうなると守るのは…\n家庭ということになりますね？\n\n# textflame 0 0\n@\nマスターはまだ見ぬ\n未来の家庭に少しだけ\n思いを馳せる\n\n# voice 1011 \"excalibur_0040\"\n# textflame 1 1\n@エクスカリバー\nなるほど…\n家事の力量も\n試されるのですね…\n\n# textflame 0 0\n@\nエクスカリバーの熱い視線の\n理由に気づかないマスターだった…\n\n# fadeout \"black\" 1.2\n# waitandnext 2\n"
	}
]