[
	{
		"ID": 101223,
		"script": ";;選択肢A(中当たり)\n# script \"lisp\"\n# fadein \"black\" 0.5\n# background \"sea_room\"\n# bgmfile \"bgm256\" \"BgmSeaDate\" 0\n# body %(unit_a)s\n# pos %(unit_a)s 3\n# mask %(unit_a)s off\n# chara %(unit_a)s\n# textflame 1 1\n# face %(unit_a)s \"angry\"\n# voice 1012 \"adamasu_0025\"\n@アダマス\nは、はぁぁあ～！？\nな、なに言ってんの！？\n\n# face %(unit_a)s \"sad\"\n@アダマス\nあたしに向かってかわいいとか…\n\n;;トゲトゲフキダシ\n# serif 0\n# textwindow \"close\"\n# serif 1\n# textwindow \"toge\"\n# face %(unit_a)s \"angry\"\n@アダマス\nバカなの！？\nアホなの！？\n\n;;トゲトゲ吹き出し文字大きく\n# serif 1\n# textwindow \"toge\"\n# voice 1012 \"adamasu_0014\"\n@アダマス\nちょん切られたいの！？\n\n# serif 1\n# textwindow \"close\"\n# serif 0\n# textwindow \"nomal\"\n# textflame 0 0\n@\nそう言いながら\nますます赤くなるアダマスは\n控えめに言ってもすごくかわいい\n\n# textflame 1 1\n@アダマス\nだから！\nかわいいって！\n言うなーーー！！\n\n# textflame 0 0\n@\nマスターは\nアダマスから放たれる\n凶器の雨を必死に避け続けた…\n\n# fadeout \"black\" 1.2\n# waitandnext 2\n"
	}
]