[
	{
		"ID": 101422,
		"script": ";;A 必要ない (大)\n# script \"lisp\"\n# fadein \"black\" 0.5\n# background \"sea_onsen\"\n# bgmfile \"bgm256\" \"BgmSeaDate\" 0\n# body %(unit_a)s\n# pos %(unit_a)s 3\n# mask %(unit_a)s off\n# chara %(unit_a)s\n# textflame 1 1\n# face %(unit_a)s \"sad\"\n# voice 1014 \"tyrufing_0008\"\n@ティルフィング\nそうですか？\nそれは残念です\n\n# textflame 0 0\n@\n少し残念そうなティルフィングに\nマスターは\n一緒に湯を楽しもうと、伝える\n\n# textflame 1 1\n@ティルフィング\nそうですね…\n\n# textflame 0 0\n@\nティルフィングは頷くと\n音もなく湯に入り\n\n# textflame 1 1\n# face %(unit_a)s \"smile\"\n# voice 1014 \"tyrufing_0021\"\n@ティルフィング\nはぁ…疲労がお湯に\n溶けていくようです\n\n# textflame 0 0\n@\nほうっと息をつくティルフィング\nその吐息がマスターの予想以上に\n近くに感じ驚いてしまう\n\n# textflame 1 1\n@ティルフィング\n温泉は肉体を\n癒せるだけではないんですね\n\n# textflame 0 0\n@\nしばらく無言でお湯につかっていた\nティルフィングがおもむろに口を開く\n\n# face %(unit_a)s \"normal\"\n# textflame 1 1\n@ティルフィング\n心も…解きほぐされて…\n軽くなっていくようです\n\n@ティルフィング\n…これは温泉だけの効果でしょうか？\n\n# face %(unit_a)s \"smile\"\n# voice 1014 \"tyrufing_0043\"\n@ティルフィング\nそれとも\nマスターと一緒だから…\nなのでしょうか？\n\n# textflame 0 0\n@\n気がつけば\nお湯とは別の暖かさを\n自分の肩に感じたマスターだった\n\n# fadeout \"black\" 1.2\n# waitandnext 2\n"
	}
]