[
	{
		"ID": 102321,
		"script": "# script \"lisp\"\n# fadein \"black\" 0.5\n# background \"sea_onsen\"\n# bgmfile \"bgm256\" \"BgmSeaDate\" 0\n# body %(unit_a)s\n# pos %(unit_a)s 3\n# mask %(unit_a)s off\n# chara %(unit_a)s\n# textflame 0 0\n@\nアスカロンを誘って\n水着着用の温泉にやってきた\nマスターだったが…\n\n# textflame 1 1\n@アスカロン\n…マスター？\n\n;; face %(unit_a)s \"close\"\n# waitandnext 0.3\n\n# face %(unit_a)s \"usual\"\n@アスカロン\n…混浴なのは\n知ってたんですか？\n\n# select \"存じませんでした\" \"select_label_01\" \"そんな気はしてた\" \"select_label_02\" \"確信犯です\" \"select_label_03\"\n…混浴なのは\n知ってたんですか？\n\n# label \"select_label_01\"\n# labeljump \"select_label_end\"\n# waitandnext 0.1\n\n# label \"select_label_02\"\n# labeljump \"select_label_end\"\n# waitandnext 0.1\n\n# label \"select_label_03\"\n# labeljump \"select_label_end\"\n# textflame 1 1\n# waitandnext 0.1\n\n# label \"select_label_end\"\n# waitandnext 2\n# fadeout \"black\" 1.2"
	}
]