[
	{
		"ID": 102514,
		"script": ";;B 鬼火ちゃんがいっぱいいるみたい（小）\n# script \"lisp\"\n# fadein \"black\" 0.5\n# background \"sea_ferris\"\n# bgmfile \"bgm256\" \"BgmSeaDate\" 0\n# body %(unit_a)s\n# pos %(unit_a)s 3\n# mask %(unit_a)s off\n# chara %(unit_a)s\n# textflame 1 1\n# voice 1025 \"muramasa_0023\"\n# face %(unit_a)s \"sad\"\n@ムラマサ\nなんと！！\nあれがすべて…鬼火ちゃん！？\n\n# textflame 0 0\n@\n観覧車なのに立ち上がるムラマサは\n明らかに顔を青くして慌てている\n\n# textflame 1 1\n# voice 1025 \"muramasa_0018\"\n@ムラマサ\n主君とふたりきりになるため\n乗る前に置いてきたから\n拗ねて増えてしまったの…！？\n\n# textflame 0 0\n@\n慌ててだだ漏れになる\nムラマサの本音を\n聞こえぬふりするマスターだった…\n\n# fadeout \"black\" 1.2\n# waitandnext 2\n"
	}
]