[
	{
		"ID": 103814,
		"script": ";;C,限定デラックスパフェ！(小あたり)\n# script \"lisp\"\n# fadein \"black\" 0.5\n# background \"sea_cafe\"\n# bgmfile \"bgm256\" \"BgmSeaDate\" 0\n# body %(unit_a)s\n# pos %(unit_a)s 3\n# mask %(unit_a)s off\n# chara %(unit_a)s\n# face %(unit_a)s \"surprise\"\n# voice 210381 \"almace_0023\"\n# textflame 1 1\n@アルマス\nちょっと、なにをそんなに\nはしゃいでるのよ、もう！\n\n@アルマス\n…でもこのパフェ、写真の\nインパクトがすごいわね\nどんな盛り方よ…\n\n# face %(unit_a)s \"sad\"\n# voice 210381 \"almace_0028\"\n@アルマス\nこぼしそうよね、これ\n…ふう。おしぼりを\n用意しておかなくちゃ\n\n;;モノローグ\n# textflame 0 0\n@\nそして、とんでもない大きさの\nパフェが運ばれてきた\n\n# face %(unit_a)s \"surprise\"\n# voice 210381 \"almace_0002\"\n# textflame 1 1\n@アルマス\nちょ…これ、ひとりで食べきれる？\n無理？\nそりゃ、そうよね…\n\n# face %(unit_a)s \"usual\"\n@アルマス\nはいはい。私も食べてあげる\n…とと！うまく食べないと\n崩れちゃう！\n\n@アルマス\nあっ、ほらそっち。\nそこも食べないと、バランスが…\n\n;;モノローグ\n# textflame 0 0\n@\nアルマスは、マスターが\n口を付けたあたりを\nスプーンですくった\n\n# textflame 1 1\n@アルマス\nはむ。…うん、おいしいわね\nどうしたの？そんなに見て\n関接？なにそれ？\n\n# face %(unit_a)s \"angry\"\n# voice 210381 \"almace_0022\"\n@アルマス\nえっ！？\nそ、そんなことをしていたの？\n私！？\n\n@アルマス\nぁ…ぅ…まさか\n最初から、それ狙いで\n頼んだのね！？\n\n# voice 210381 \"almace_0042\"\n@アルマス\nうぅう…\n油断したわ…\n策士ね、あなた…！\n\n;;モノローグ\n# textflame 0 0\n@\n鋭い視線をマスターに\n向けつつも、アルマスの\n手は止まることはなかった…\n\n;;-----------------------------------------\n# waitandnext 2\n# fadeout \"black\" 1.2\n"
	}
]