[
	{
		"ID": 200125,
		"script": "# script \"lisp\"\n# fadein \"black\" 0.5\n# background \"sea_room\"\n# bgmfile \"bgm256\" \"BgmSeaDate\" 0\n# body %(unit_a)s\n# pos %(unit_a)s 3\n# mask %(unit_a)s off\n# chara %(unit_a)s\n# textflame 0 0\n@\nマスターは\nミョルニルの部屋を\n訪れていた…\n\n# voice 2001 \"myuruniru_0004\"\n# face %(unit_a)s \"smile\"\n# textflame 1 1\n@ミョルニル\nミョルニルちゃん\n本日は“のーぷらん”！\nなのです～！\n\n# textflame 1 1\n@ミョルニル\nなにして遊ぼっかぁ～…\nマスタ、なにしたい？\n\n# textflame 0 0\n@\n…………\n\n# textflame 0 0\n@\nこの後ふたりは\n色んなことをして遊んだ\n\n# fadeout \"black\" 1.2\n# waitandnext 2"
	}
]