[
	{
		"ID": 200421,
		"script": ";;A もう少し近くに行っていい？ (中当たり)\n;;B 外で待ってようか？ (小当り)\n;;C たしかに少し恥ずかしい (大当たり)\n# script \"lisp\"\n# fadein \"black\" 0.5\n# background \"sea_onsen\"\n# bgmfile \"bgm256\" \"BgmSeaDate\" 0\n# body %(unit_a)s\n# pos %(unit_a)s 3\n# mask %(unit_a)s off\n# chara %(unit_a)s\n# face %(unit_a)s \"usual\"\n# textflame 0 0\n@\nデートの帰り道\n水着着用の温泉を見つけ、\nパラシュと立ち寄ったマスター\n\n# face %(unit_a)s \"sad\"\n# voice 2004 \"parashu_0039\"\n# textflame 1 1\n@パラシュ\nまさか、混浴だったなんて…\n\n# face %(unit_a)s \"normal\"\n# voice 2004 \"parashu_0042\"\n# textflame 1 1\n@パラシュ\nけど、水着を着てても、その…\nお風呂だと思うと恥ずかしさが…\n\n# select \"もう少し近くに行っていい？\" \"select_label_01\" \"外で待ってようか？\" \"select_label_02\" \"たしかに少し恥ずかしい\" \"select_label_03\"\nけど、水着を着てても、その…\nお風呂だと思うと恥ずかしさが…\n\n# label \"select_label_01\"\n# labeljump \"select_label_end\"\n# textwindow \"close\"\n# waitandnext 0.1\n\n# label \"select_label_02\"\n# labeljump \"select_label_end\"\n# textwindow \"close\"\n# waitandnext 0.1\n\n# label \"select_label_03\"\n# labeljump \"select_label_end\"\n# textwindow \"close\"\n# waitandnext 0.1\n\n# label \"select_label_end\"\n# waitandnext 0.1\n\n# fadeout \"black\" 1.2\n# waitandnext 2"
	}
]