[
	{
		"ID": 200722,
		"script": "# script \"lisp\"\n# fadein \"black\" 0.5\n# background \"sea_drive\"\n# bgmfile \"bgm256\" \"BgmSeaDate\" 0\n# body %(unit_a)s\n# pos %(unit_a)s 3\n# mask %(unit_a)s off\n# chara %(unit_a)s\n# textflame 1 1\n# face %(unit_a)s \"sad\"\n# voice 2007 \"sharuuru_0022\"\n@シャルウル\nど、どうしたんですかマスター？\n急に手を重ねて…\n\n# textflame 1 1\n@シャルウル\nや、やめてください…\nもっとドキドキして…\n\n# textflame 1 1\n@シャルウル\nあっ、もしかして…\nこれは破壊衝動ではなく…\n\n# textflame 0 0\n@\nシャルウルは慌てて\nマスターから手を離す\n\n# voice 2007 \"sharuuru_0015\"\n# textflame 1 1\n@シャルウル\nダメですよ、マスター\n私、本気にしちゃいます…\n\n# textflame 1 1\n@シャルウル\nそんなことになったら私、\nマスターを束縛してしまうかも…\n\n# textflame 1 1\n@シャルウル\n例えば他の女性とこの風景を共有\nできないように車を破壊するとか…\n\n# voice 2007 \"sharuuru_0031\"\n# textflame 1 1\n@シャルウル\nす、すみません…\n私ったらなにを言っているんでしょう\n\n# textflame 1 1\n@シャルウル\n…やはり、\nまた手を握ってくれますか？\n\n# textflame 0 0\n@\n静かに頷いたマスターは、\n自ら手を伸ばす\n\n# voice 2007 \"sharuuru_0005\"\n# face %(unit_a)s \"smile\"\n# textflame 1 1\n@シャルウル\n例え千年、一万年経とうとも…\n今日のことは、決して忘れません…\n;;--------------------------------------\n\n# fadeout \"black\" 1.2\n# waitandnext 2\n"
	}
]