[
	{
		"ID": 201024,
		"script": ";;A 水着…着てるね（小）\n# script \"lisp\"\n# fadein \"black\" 0.5\n# background \"sea_onsen\"\n# bgmfile \"bgm256\" \"BgmSeaDate\" 0\n# body %(unit_a)s\n# pos %(unit_a)s 3\n# mask %(unit_a)s off\n# chara %(unit_a)s\n# textflame 1 1\n# face %(unit_a)s \"usual\"\n@ウコンバサラ\nうん？\nああ、ここは\n水着着用が原則だからね\n\n# face %(unit_a)s \"angry\"\n# voice 2010 \"ukonbasara_0035\"\n@ウコンバサラ\n…そんな目をしてもダメだよ！？\nいくらキミでも、その…\n\n@ウコンバサラ\n心の準備もなくそんなこと、\nできるわけないじゃないか…\n\n# textflame 0 0\n@\n入浴中、ウコンバサラから\n微妙に距離を開けられてしまった…\n\n# fadeout \"black\" 1.2\n# waitandnext 2\n"
	}
]