[
	{
		"ID": 201321,
		"script": ";;どこいきたい？,大\n;;素直になれよ…,小\n;;たまにはいいじゃない,中\n# script \"lisp\"\n# fadein \"black\" 0.5\n# background \"sea_drive\"\n# bgmfile \"bgm256\" \"BgmSeaDate\" 0\n# body %(unit_a)s\n# pos %(unit_a)s 3\n# mask %(unit_a)s off\n# chara %(unit_a)s\n# textflame 0 0\n@\nマスターは\nレシェフを誘って\nドライブにやってきた\n\n# face %(unit_a)s \"angry\"\n# voice 2013 \"reshef_0014\"\n# textflame 1 1\n@レシェフ\n…不満\n超不満なんですけど\n;;----------------------------------------\n\n# textflame 1 1\n@%(unitName:unit_a)s\nオレについてこい…的な\n空気がたまらなくイヤなんだけど！\n\n# select \"どこいきたい？\" \"select_label_01\" \"素直になれよ…\" \"select_label_02\" \"たまにはいいじゃない\" \"select_label_03\"\nオレについてこい…的な\n空気がたまらなくイヤなんだけど！\n\n# label \"select_label_01\"\n# labeljump \"select_label_end\"\n# textwindow \"close\"\n# waitandnext 0.1\n\n# label \"select_label_02\"\n# labeljump \"select_label_end\"\n# textwindow \"close\"\n# waitandnext 0.1\n\n# label \"select_label_03\"\n# labeljump \"select_label_end\"\n# textwindow \"close\"\n# textflame 1 1\n# waitandnext 0.1\n\n# label \"select_label_end\"\n# waitandnext 1.2\n# fadeout \"black\" 2\n"
	}
]