[
	{
		"ID": 2100133,
		"script": "# script \"lisp\"\n# fadein \"black\" 0.5\n# background \"sea_park_night\"\n# bgmfile \"bgm256\" \"BgmSeaDate\" 0\n# body %(unit_a)s\n# pos %(unit_a)s 3\n# mask %(unit_a)s off\n# chara %(unit_a)s\n# textflame 0 0\n@\n夜の公園にやってきた\nマスターと%(unitName:unit_a)s\n\n@\nベンチに並んで座り\nゆったりとした時間を共有する\n\n# textflame 1 1\n# face %(unit_a)s \"shy\"\n@%(unitName:unit_a)s\nこの様な場所で\n気を落ち着かせるのも\n悪くないかも知れません\n\n# textflame 0 0\n@\n%(unitName:unit_a)sとの距離が\nより近くなった気がした。\n\n# fadeout \"black\" 1.2\n# waitandnext 2"
	}
]