[
	{
		"ID": 2100224,
		"script": "# script \"lisp\"\n# fadein \"black\" 0.5\n# background \"sea_onsen\"\n# bgmfile \"bgm256\" \"BgmSeaDate\" 0\n# body %(unit_a)s\n# pos %(unit_a)s 3\n# mask %(unit_a)s off\n# chara %(unit_a)s\n# textflame 1 1\n# face %(unit_a)s \"angry\"\n# voice 210022 \"revatein_k_0010\"\n@レーヴァテイン\nむ…なんか、イラッとした…\n\n;;モノローグ\n# textflame 0 0\n@\nなにかが気に障ったのか、\n彼女は鋭い視線で睨んできた\n\n# textflame 1 1\n@レーヴァテイン\n大したことじゃなくても、\n私は感謝してる…\n\n@レーヴァテイン\n私のマスターなんだから、\n私の感謝ぐらい\n素直に受け取ってよ\n\n# voice 210022 \"revatein_k_0027\"\n# face %(unit_a)s \"usual\"\n@レーヴァテイン\nはあ…\nなんか怒ったら疲れた…\nしばらく黙るから\n\n;;モノローグ\n# eye %(unit_a)s \"close\"\n# textflame 0 0\n@\nそう言って、\n彼女は目を閉じた\n\n;;モノローグ\n@\n私のマスターなんだから、\nという言葉が重く圧しかかる\n\n;;モノローグ\n@\n彼女のマスターに\n相応しくなろう―\n\n;;モノローグ\n@\n静かに温泉を満喫する彼女を\n見ながら、改めてそう誓った\n;;----------------------------------------\n\n# fadeout \"black\" 1.2\n# waitandnext 2"
	}
]