[
	{
		"ID": 2100222,
		"script": ";;とても上がる\n# script \"lisp\"\n# fadein \"black\" 0.5\n# background \"sea_onsen\"\n# bgmfile \"bgm256\" \"BgmSeaDate\" 0\n# body %(unit_a)s\n# pos %(unit_a)s 3\n# mask %(unit_a)s off\n# chara %(unit_a)s\n# textflame 1 1\n# face %(unit_a)s \"normal\"\n# voice 210022 \"revatein_k_0003\"\n@レーヴァテイン\nうん、気に入った\nあったかい水に浸かるって\nなんだか新鮮だし\n\n@レーヴァテイン\nこれじゃあ余計に\nやる気がなくなる…\n\n# textflame 0 0\n@\nまったく動かなくなっても\n困るからねと苦笑すると、\n彼女も小さく笑みを返した\n\n# face %(unit_a)s \"smile\"\n# textflame 1 1\n@レーヴァテイン\n安心してよ…\nそれくらいわかってるから\n\n@レーヴァテイン\nそれに戦いとあったら\nいつでもあなたを守るために\n動くからさ…\n\n@レーヴァテイン\nその代わり\nまたここに連れてきてよ\nこれ、約束だから…\n\n# textflame 0 0\n@\nそう言って微笑む\nレーヴァテインに、\nマスターは頷く\n\n# textflame 0 0\n@\nまたいつか、\nこうして温泉に来ようと告げて\n彼女とともにくつろぐのだった…\n\n# waitandnext 2\n# fadeout \"black\" 1.2\n"
	}
]