[
	{
		"ID": 291014399,
		"script": "# script \"lisp\"\n# background %(wayback_background)s\n# bgmfile \"bgm255\" \"BgmSeaDate\" 0\n# body %(unit_a)s\n# pos %(unit_a)s 3\n# mask %(unit_a)s off\n# chara %(unit_a)s\n# fadein \"black\" 0.5\n# textflame 1 1\n# face %(unit_a)s \"normal\"\n# voice 210142 \"tyrufing_k_0004\"\n# se \"SE_0732\"\n@ティルフィング\nマスターには、\nこの程度簡単でしたか？\n\n# voice 210142 \"tyrufing_k_0003\"\n@ティルフィング\nええ、もちろん正解です\n\n@ティルフィング\nですがあっさり過ぎて\n少しつまらないですね\n\n# voice 210142 \"tyrufing_k_0020\"\n# face %(unit_a)s \"smile\"\n@ティルフィング\n次はもっと難しい問題を\n用意しておきますから\n期待していてください\n\n# textflame 0 0\n@\n満面の笑みを浮かべる彼女を\n見ながら、次も必ず正解しなければと\n心に誓った…\n\n# fadeout \"black\" 1.2\n# waitandnext 2"
	}
]