[
	{
		"ID": 293001498,
		"script": "# script \"lisp\"\n# background %(wayback_background)s\n# bgmfile \"bgm255\" \"BgmSeaDate\" 0\n# body %(unit_a)s\n# pos %(unit_a)s 3\n# mask %(unit_a)s off\n# chara %(unit_a)s\n# fadein \"black\" 0.5\n# textflame 1 1\n# se \"SE_0733\"\n# face %(unit_a)s \"angry\"\n@ロンギヌス\n…………\n\n# textflame 0 0\n@\n不機嫌そうにこちらを見つめてくる\nロンギヌスを見て\n自分が間違ったことに気が付いた\n\n# face %(unit_a)s \"sad\"\n# voice 230012 \"ronginusu_k_0027\"\n# textflame 1 1\n@ロンギヌス\nマスターは忙しいですからね…\nいろいろ考えることが\n多いかとは思います\n\n@ロンギヌス\nでも\n今は私とのデートだったのに…\n\n# textflame 0 0\n@\nそれから、帰り道の間中\nロンギヌスの表情は\nずっと暗いままだった\n\n@\nロンギヌスにつらい思いを\nさせないためにも\nもっと彼女に気を配っていこう…\n\n# fadeout \"black\" 1.2\n# waitandnext 2"
	}
]