[
	{
		"ID": 293001299,
		"script": "# script \"lisp\"\n# background %(wayback_background)s\n# bgmfile \"bgm255\" \"BgmSeaDate\" 0\n# body %(unit_a)s\n# pos %(unit_a)s 3\n# mask %(unit_a)s off\n# chara %(unit_a)s\n# fadein \"black\" 0.5\n# textflame 1 1\n# face %(unit_a)s \"smile\"\n# se \"SE_0732\"\n# voice 230012 \"ronginusu_k_0041\"\n@ロンギヌス\nわぁ…正解です\n\n@ロンギヌス\nさすがマスターです\n私のことならなんでも\n知っているのですね\n\n@ロンギヌス\nもちろん信じていましたよ\nマスターは正解してくれると\n\n@ロンギヌス\nなんだか、いい気分です\nさぁ、帰りましょう\n\n# textflame 0 0\n@\n普段は明るい感情を出さない\nロンギヌスだったが\n今回ばかりは違うようだった\n\n@\n自分が選択した道は\n正しいんだと言われているようで\n胸が温かくなってくるのだった…\n\n# fadeout \"black\" 1.2\n# waitandnext 2"
	}
]