[
	{
		"ID": 300124,
		"script": "# script \"lisp\"\n# fadein \"black\" 0.5\n# background \"sea_onsen\"\n# bgmfile \"bgm256\" \"BgmSeaDate\" 0\n# body %(unit_a)s\n# pos %(unit_a)s 3\n# mask %(unit_a)s off\n# chara %(unit_a)s\n# textflame 1 1\n# face %(unit_a)s \"sad\"\n# voice 3001 \"ronginusu_0023\"\n@ロンギヌス\nいえいえいえ！\n全然面白くないですから！\nすごく地味ですから！\n\n# textflame 0 0\n@\n全力で否定するロンギヌス\nそのあわあわっぷりに\n余計に興味をそそる\n\n# textflame 0 0\n@\nその後…なんとかお願いして\nほんの一瞬だけ\n奇跡を見せてもらったマスターだった\n\n# fadeout \"black\" 1.2\n# waitandnext 2"
	}
]