[
	{
		"ID": 300623,
		"script": "# script \"lisp\"\n# fadein \"black\" 0.5\n# background \"sea_fireworks\"\n# bgmfile \"bgm256\" \"BgmSeaDate\" 0\n# body %(unit_a)s\n# pos %(unit_a)s 3\n# mask %(unit_a)s off\n# chara %(unit_a)s\n# textflame 1 1\n# face %(unit_a)s \"smile\"\n# voice 3006 \"torisyula_0039\"\n@トリシューラ\nだな\nおー、すげー！\nあんなデカい花火、はじめて見た！\n\n# face %(unit_a)s \"normal\"\n# textflame 1 1\n@トリシューラ\n花火ってさ、\n見た目もキレイだけど\nとくにあの音がいいよな！\n\n# textflame 1 1\n@トリシューラ\nこう、固い奴をぶっ壊した時\nみたいな爽快感があるっていうか\n\n# face %(unit_a)s \"smile\"\n# textflame 1 1\n@トリシューラ\nやっぱ“破壊”は\n自分の手でやるのが一番だけどさ\nたまにはこういうのも悪くねえ\n\n# textflame 1 1\n@トリシューラ\nやっぱ、あの花火も\n敵にぶち当てたら\nスゲー威力でんのかなぁ\n\n# face %(unit_a)s \"sad\"\n# textflame 1 1\n@トリシューラ\nおっ、もっとデカいの上がったな！\nあれ喰らったら\n流石にバラバラだなぁ！！\n\n# voice 3006 \"torisyula_0005\"\n# face %(unit_a)s \"smile\"\n# textflame 1 1\n@トリシューラ\nあははははは！\n\n# textflame 0 0\n@\n美しい夜空を見上げながら、\n花火の破壊力について語り合った…\n;;----------------------------------------\n\n# fadeout \"black\" 1.2\n# waitandnext 2\n"
	}
]