[
	{
		"ID": 302523,
		"script": "# script \"lisp\"\n# fadein \"black\" 0.5\n# background \"sea_room\"\n# bgmfile \"bgm256\" \"BgmSeaDate\" 0\n# body %(unit_a)s\n# pos %(unit_a)s 3\n# mask %(unit_a)s off\n# chara %(unit_a)s\n# textflame 1 1\n# eye %(unit_a)s \"close\"\n@ミネルヴァ\n夏の薬膳の一つとして\n体に籠もった熱を外へと解放する\n『清熱』というものがあるそうです\n\n# eye %(unit_a)s \"normal\"\n# face %(unit_a)s \"sad\"\n# voice 3025 \"minerva_0002\"\n@ミネルヴァ\nニガウリと呼ばれるその野菜も\n清熱の食材の一つなのですが…\nお口に合いませんでしたでしょうか？\n\n# textflame 0 0\n@\n心配そうに見つめてくるミネルヴァ\nだがマスターは次第に苦味が\n癖になってきたと告げる\n\n# textflame 0 0\n# face %(unit_a)s \"normal\"\n@\nすべてを食べ終え\nミネルヴァへと礼を述べるマスター\n彼女はほのかに頬を染めていた\n\n# face %(unit_a)s \"smile\"\n# textflame 1 1\n# voice 3025 \"minerva_0003\"\n@ミネルヴァ\n礼には及びません\nマスターがいつも頑張っていること\n知っていますから…\n\n# textflame 0 0\n@\nマスターの力になれたことを\nミネルヴァは喜んでいるようだ\n\n# textflame 0 0\n@\n今度は自分がミネルヴァの力になろう\n薬膳を取り入れた体からは\nそんな活力が湧いてくるのだった…\n\n# fadeout \"black\" 1.2\n# waitandnext 2"
	}
]