[
	{
		"ID": 400813,
		"script": ";;B 一緒だから平気（中）\n# script \"lisp\"\n# fadein \"black\" 0.5\n# background \"sea_hauntedhouse\"\n# bgmfile \"bgm257\" \"BgmSeaDate\" 0\n# body %(unit_a)s\n# pos %(unit_a)s 3\n# mask %(unit_a)s off\n# chara %(unit_a)s\n# textflame 1 1\n# face %(unit_a)s \"smile\"\n# voice 4008 \"otyinusu_0025\"\n@オティヌス\nそれって…\nあたしと一緒だからってこと？\n\n# voice 4008 \"otyinusu_0005\"\n@オティヌス\nえへへ…なんだか嬉しいな、ソレ\n\n@オティヌス\nよぉし、あたしがマスターを\nお化けから守ってあげるからね！\n\n# voice 4008 \"otyinusu_0022\"\n@オティヌス\nひゃっ！？\n\n# textflame 0 0\n@\n意気込んだ瞬間、オティヌスは\n作り物のお化けを見て悲鳴を上げた\n\n# textflame 1 1\n@オティヌス\nい、今のはナシ！\n不意打ち！\n不意打ちだったから！\n\n# face %(unit_a)s \"angry\"\n@オティヌス\nあ、マスター笑ってない！？\nもぉ～っ！\n\n# textflame 0 0\n@\n怖さの吹っ飛んだふたりは、\n笑顔でホラーハウスを突破した…\n\n# fadeout \"black\" 1.2\n# waitandnext 2\n"
	}
]