[
	{
		"ID": 400823,
		"script": ";;B 自分で打ち上げてみたい？（中）\n# script \"lisp\"\n# fadein \"black\" 0.5\n# background \"sea_fireworks\"\n# bgmfile \"bgm256\" \"BgmSeaDate\" 0\n# body %(unit_a)s\n# pos %(unit_a)s 3\n# mask %(unit_a)s off\n# chara %(unit_a)s\n# textflame 1 1\n# voice 4008 \"otyinusu_0004\"\n# face %(unit_a)s \"smile\"\n@オティヌス\nちょっと、やってみたいかも！\nあ、でもどうだろう\n\n# face %(unit_a)s \"usual\"\n@オティヌス\nあれって、\n弓っていうより大砲だよねぇ…\n\n@オティヌス\n難しいかな…\n難しいよね～\n\n# face %(unit_a)s \"smile\"\n@オティヌス\nう～\nでも、やってみたいなぁ\n\n# voice 4008 \"otyinusu_0028\"\n# eye %(unit_a)s \"close\"\n@オティヌス\n角度の調整とかも大変そうだし\n綺麗に見せるのも技術が…\n\n# eye %(unit_a)s \"normal\"\n@オティヌス\nだとすると、風の影響とか、\nどのくらいあるのかなぁ\n\n# voice 4008 \"otyinusu_0001\"\n@オティヌス\nマスターはどう思う？\n\n# textflame 0 0\n@\n真剣に考え始めたオティヌスと\n一緒に、花火のあげ方について\n議論を交わした…\n\n# fadeout \"black\" 1.2\n# waitandnext 2\n"
	}
]