[
	{
		"ID": 401931,
		"script": "# script \"lisp\"\n# fadein \"black\" 0.5\n# background \"sea_planetarium\"\n# bgmfile \"bgm256\" \"BgmSeaDate\" 0\n# body %(unit_a)s\n# pos %(unit_a)s 3\n# mask %(unit_a)s off\n# chara %(unit_a)s\n# textflame 0 0\n@\nプラネタリウムにやってきた\nマスターと%(unitName:unit_a)s\n\n@\n吸い込まれるような\n満天の星が\nふたりを淡く照らし出す\n\n# textflame 1 1\n# voice 240191 \"failnaught_a_0002\"\n# face %(unit_a)s \"smile\"\n@%(unitName:unit_a)s\n明けの明星はどれか当てなさい\n…もちろん一回でね\n\n# textflame 0 0\n@\n%(unitName:unit_a)sとの距離が\nより近くなった気がした。\n\n# fadeout \"black\" 1.2\n# waitandnext 2"
	}
]