[
	{
		"ID": 500224,
		"script": ";;Bここでも見えるよ\n# script \"lisp\"\n# fadein \"black\" 0.5\n# background \"sea_fireworks\"\n# bgmfile \"bgm256\" \"BgmSeaDate\" 0\n# body %(unit_a)s\n# pos %(unit_a)s 3\n# mask %(unit_a)s off\n# chara %(unit_a)s\n# textflame 1 1\n# face %(unit_a)s \"angry\"\n# voice 5002 \"furaikugeru_0010\"\n@フライクーゲル\nかもだけど！\n\n@フライクーゲル\nわたしはマスターと最高の\nファイヤーワークスを観たいの！\n\n# face %(unit_a)s \"smile\"\n# voice 5002 \"furaikugeru_0004\"\n@フライクーゲル\nほらほら、早く探さなくっちゃ！\n\n# textflame 0 0\n@\nマスターはフライクーゲルに\n手を引かれるまま\n\n# textflame 0 0\n@\n花火がよく見える場所を探して\n夜の道を駆けまわった…\n\n# fadeout \"black\" 1.2\n# waitandnext 2\n"
	}
]