[
	{
		"ID": 500413,
		"script": "# script \"lisp\"\n# fadein \"black\" 0.5\n# background \"sea_hauntedhouse\"\n# bgmfile \"bgm257\" \"BgmSeaDate\" 0\n# body %(unit_a)s\n# pos %(unit_a)s 3\n# mask %(unit_a)s off\n# chara %(unit_a)s\n# textflame 1 1\n# face %(unit_a)s \"sad\"\n# voice 5004 \"burafumasutora_0028\"\n@ブラフマーストラ\n意外にってどういうことー？\n\n@ブラフマーストラ\nまあ～確かにアタシは\nたいていのことには\n動じない系だけどね\n\n# face %(unit_a)s \"smile\"\n@ブラフマーストラ\nアタシだって驚いたり\nドキドキしたりするよ～\n\n# voice 5004 \"burafumasutora_0004\"\n@ブラフマーストラ\nむしろ貴重な体験だから\n楽しんだりね～\n\n# textflame 0 0\n@\nまったくもうとふくれる\nブラフマーストラ\n\n# textflame 0 0\n@\nいつもの頼れる\nお姉さん的な態度より、\n少しだけ子供っぽい\n\n# textflame 0 0\n@\nただ、それが逆に新鮮で\nかわいらしかった\n;;--------------------------------------\n\n# fadeout \"black\" 1.2\n# waitandnext 2\n"
	}
]