[
	{
		"ID": 502624,
		"script": ";;小Cゆっくりしよう\n# script \"lisp\"\n# fadein \"black\" 0.5\n# background \"sea_onsen\"\n# bgmfile \"bgm256\" \"BgmSeaDate\" 0\n# body %(unit_a)s\n# pos %(unit_a)s 3\n# mask %(unit_a)s off\n# chara %(unit_a)s\n# textflame 1 1\n# face %(unit_a)s \"sad\"\n# voice 250261 \"yunyun_0009\"\n@ゆんゆん\nあ…はい\nそうですね…\n\n@ゆんゆん\nずっと一緒にいたんですから\nひとりの時間も必要ですよね\n\n@ゆんゆん\nあなたもゆっくりしてきてください\n私も、時間いっぱい浸かってますから\n\n# voice 250261 \"yunyun_0008\"\n@ゆんゆん\nだけど…\nお風呂からあがったあと\n\n@ゆんゆん\n少しだけ、\nお話ししてくれると嬉しいな…\n\n# textflame 0 0\n@\nそう言って、駆けていくゆんゆん\n\n# textflame 0 0\n@\nその後ろ姿は\n少し寂しそうに見えた\n\n;;-----------------------------------------\n# fadeout \"black\" 1.2\n# waitandnext 2\n"
	}
]