[
	{
		"ID": 600414,
		"script": "# script \"lisp\"\n# fadein \"black\" 0.5\n# background %(background)s\n# bgmfile \"bgm256\" \"BgmSeaDate\" 0\n# body %(unit_a)s\n# pos %(unit_a)s 3\n# mask %(unit_a)s off\n# chara %(unit_a)s\n# textflame 1 1\n@カドケウス\n市場調査もバッチリな私に\n無駄遣いなんてありえないよ～\n\n# textflame 1 1\n@カドケウス\nでもねえ絶対無駄遣いしない方法は\n人のお財布で買い物することだよ♪\n\n# voice 6004 \"kadokeusu_0007\"\n# face %(unit_a)s \"smile\"\n# textflame 1 1\n@カドケウス\n奢る気はない？ふうん……\nけどね？あら不思議！\n\n# face %(unit_a)s \"sad\"\n# textflame 1 1\n@カドケウス\nこんなところに\nとある親切なお方のお財布が！？\n\n# voice 6004 \"kadokeusu_0005\"\n# textflame 1 1\n@カドケウス\nふふふっ、大丈夫！\nちゃんとマスターに\n必要なもの買ってあげるから～\n\n# textflame 0 0\n@\n慌てて見慣れた財布を持つ\nカドケウスを追って\n\n# textflame 0 0\n@\nマスターは自分には\n場違いと思われる\nおしゃれなショップに入るのだった…\n;;--------------------------------------\n\n# fadeout \"black\" 1.2\n# waitandnext 2\n"
	}
]