[
	{
		"ID": 600814,
		"script": "# script \"lisp\"\n# fadein \"black\" 0.5\n# background %(background)s\n# bgmfile \"bgm256\" \"BgmSeaDate\" 0\n# body %(unit_a)s\n# pos %(unit_a)s 3\n# mask %(unit_a)s off\n# chara %(unit_a)s\n# textflame 1 1\n# face %(unit_a)s \"smile\"\n@グリダヴォル\nほんとに！？\nじゃあちょっと…\n一肌脱いてくる～！\n\n# textflame 0 0\n@\nグリダヴォルはとても\n楽しそうだったが、マスターは\n一人ぼっちランチになってしまった…\n\n# fadeout \"black\" 1.2\n# waitandnext 2\n"
	}
]