[
	{
		"ID": 601831,
		"script": "# script \"lisp\"\n# fadein \"black\" 0.5\n# background \"sea_cafe\"\n# bgmfile \"bgm256\" \"BgmSeaDate\" 0\n# body %(unit_a)s\n# pos %(unit_a)s 3\n# mask 2601811 on\n# chara %(unit_a)s\n# textflame 0 0\n@\nカフェにやってきた\nマスターと%(unitName:unit_a)s\n\n@\n小さなテーブルを挟み\nいつもより近い距離を\n楽しむふたり…\n\n# textflame 1 1\n# face %(unit_a)s \"smile\"\n# voice 260181 \"wizu_0004\"\n@%(unitName:unit_a)s\nいい香りがしますね\nお腹が空きます\n\n# textflame 0 0\n@\n%(unitName:unit_a)sとの距離が\nより近くなった気がした。\n\n# fadeout \"black\" 1.2\n# waitandnext 2"
	}
]