[
	{
		"ID": 602025,
		"script": ";;B:節制するのは大事\n;;A:ネスと一緒ならどこでも楽しいよ\n;;C:大丈夫、気にしないで\n# script \"lisp\"\n# fadein \"black\" 0.5\n# background \"sea_room\"\n# bgmfile \"bgm256\" \"BgmSeaDate\" 0\n# body %(unit_a)s\n# pos %(unit_a)s 3\n# mask %(unit_a)s off\n# chara %(unit_a)s\n# textflame 0 0\n# face %(unit_a)s \"normal\"\n;;モノローグ\n@\nネスに呼ばれ、\n彼女の部屋へとやってきたマスター\n\n# face %(unit_a)s \"smile\"\n# textflame 1 1\n@ネス\n外に出なければ節制になりますし、\n今日のところはわたしの部屋で\n一緒にお話しをしましょう\n\n# face %(unit_a)s \"normal\"\n@ネス\n…その、マスターとしては\n外出して楽しみたかったのかも\nしれませんが…\n\n# voice 6020 \"ness_0042\"\n@ネス\nえっと、あの…\nやっぱり、そっちのほうが…\nいいですか？\n\n# textflame 0 0\n@\n大丈夫、気にしないで\nと、マスター\n\n# face %(unit_a)s \"sad\"\n# textflame 1 1\n@ネス\nそ、そうですか？\nマスターがそう言うのなら\nいいんですけど…\n\n@ネス\n…もしかして\n興味がない、とかですか？\n\n# face %(unit_a)s \"normal\"\n@ネス\nあ、ごめんなさい\nなんか淡白な返答だったので\n心配しちゃいました\n\n@ネス\nしかし、わざわざ部屋まで\n来てもらったのですから\n退屈させるのもいけませんね\n\n# face %(unit_a)s \"smile\"\n@ネス\nその辺は安心してください\n\n@ネス\nマスターを楽しませるよう、\nわたしも精一杯努めますので…\n\n# voice 6020 \"ness_0028\"\n# face %(unit_a)s \"normal\"\n@ネス\n…とは言っても\n何をしましょう…？\n\n;;モノローグ\n# textflame 0 0\n@\nそれから何をするかを\n二人で考えてみたが\n特に思いつかず\n\n;;モノローグ\n@\n結局、\n他愛もない話をして\n終わったのだった\n;;----------------------------------------\n\n# fadeout \"black\" 1.2\n# waitandnext 2"
	}
]