[
	{
		"ID": 9100811,
		"script": "# script \"lisp\"\n# background %(wayback_background)s\n# bgmfile \"bgm255\" \"BgmSeaDate\" 0\n# body %(unit_a)s\n# pos %(unit_a)s 3\n# mask %(unit_a)s off\n# chara %(unit_a)s\n# fadein \"black\" 0.5\n# textflame 0 0\n@\n帰り道－\n\n# fadein \"white\" 0.5\n# se \"SE_0735\"\n# bgm \"stop\"\n# waitandnext 2\n@\n…………\n\n# fadein \"white\" 0.5\n# se \"SE_0735\"\n# waitandnext 2\n@\n…………\n\n@\nふと、\n傍らを歩く彼女が足を止めた…\n\n# bgmfile \"bgm255\" \"BgmSeaDate\" 0\n# textflame 1 1\n# face %(unit_a)s \"sad\"\n# voice 1008 \"guramu_0001\"\n@グラム\nねぇ、マスター？\nあの…ちょっといいかな？\n\n@グラム\nえっとね…\n試すみたいになっちゃうんだけど…\n\n@グラム\n私のこと…\nどれだけ知ってるか\nクイズ出してもいい？\n\n# face %(unit_a)s \"smile\"\n# voice 1008 \"guramu_0004\"\n@グラム\nじゃあ…いくよ？\n\n# face %(unit_a)s \"normal\"\n@グラム\n私が…何属性だか覚えてる？\n\n# se \"SE_0734\"\n# select \"炎\" \"select_label_correct\" \"氷\" \"select_label_wrong1\" \"雷\" \"select_label_wrong2\"\n私が…何属性だか覚えてる？\n\n# label \"select_label_correct\"\n# labeljump \"select_label_end\"\n# textwindow \"close\"\n# waitandnext 0.1\n\n# label \"select_label_wrong1\"\n# labeljump \"select_label_end\"\n# textwindow \"close\"\n# waitandnext 0.1\n\n# label \"select_label_wrong2\"\n# labeljump \"select_label_end\"\n# textwindow \"close\"\n# waitandnext 0.1\n\n# label \"select_label_end\"\n# waitandnext 0.1\n\n# fadeout \"black\" 1.2\n# waitandnext 2"
	}
]