[
	{
		"ID": 9100428,
		"script": ";;2:チビ\n# script \"lisp\"\n# background %(wayback_background)s\n# bgmfile \"bgm255\" \"BgmSeaDate\" 0\n# body %(unit_a)s\n# pos %(unit_a)s 3\n# mask %(unit_a)s off\n# chara %(unit_a)s\n# fadein \"black\" 0.5\n# textflame 0 0\n@\n帰り道－\n\n# textflame 0 0\n# fadein \"white\" 0.5\n# se \"SE_0735\"\n# bgm \"stop\"\n# waitandnext 2\n@\n…………\n\n# textflame 0 0\n# fadein \"white\" 0.5\n# se \"SE_0735\"\n# waitandnext 2\n@\n…………\n\n# textflame 0 0\n@\nふと、\n傍らを歩く彼女が足を止めた…\n\n# bgmfile \"bgm255\" \"BgmSeaDate\" 0\n# voice 1004 \"kusanagi_0003\"\n# textflame 1 1\n@草薙剣\n…さてと\n余がなにを言いたいかわかるな？\n\n# textflame 1 1\n@草薙剣\nもうそろそろ\n余について\n極めておるころであろう！\n\n# voice 1004 \"kusanagi_0036\"\n# textflame 1 1\n@草薙剣\nくるしゅうないぞ！\nなんなりと答えてみよ！\n\n# textflame 1 1\n# face %(unit_a)s \"normal\"\n@草薙剣\n余のことを\n◯◯なんて呼んでみよ…\nそちとて容赦せんからな？\n\n# se \"SE_0734\"\n# select \"カナヅチ\" \"select_label_1\" \"チビ\" \"select_label_2\" \"古い\" \"select_label_3\"\n余のことを\n◯◯なんて呼んでみよ…\nそちとて容赦せんからな？\n\n# label \"select_label_1\"\n# labeljump \"select_label_end\"\n# textwindow \"close\"\n# waitandnext 0.1\n\n# label \"select_label_2\"\n# labeljump \"select_label_end\"\n# textwindow \"close\"\n# waitandnext 0.1\n\n# label \"select_label_3\"\n# labeljump \"select_label_end\"\n# textwindow \"close\"\n# waitandnext 0.1\n\n# label \"select_label_end\"\n# waitandnext 0.1\n\n# sestop \"SE_0734\"\n# fadeout \"black\" 1.2\n# waitandnext 2\n"
	}
]