[
	{
		"ID": 9100517,
		"script": "# script \"lisp\"\n# background %(wayback_background)s\n# bgmfile \"bgm255\" \"BgmSeaDate\" 0\n# body %(unit_a)s\n# pos %(unit_a)s 3\n# mask %(unit_a)s off\n# chara %(unit_a)s\n# fadein \"black\" 0.5\n# textflame 0 0\n@\n帰り道－\n\n# fadein \"white\" 0.5\n# se \"SE_0735\"\n# bgm \"stop\"\n# waitandnext 2\n@\n…………\n\n# fadein \"white\" 0.5\n# se \"SE_0735\"\n# waitandnext 2\n@\n…………\n\n@\nふと、\n傍らを歩く彼女が足を止めた…\n\n# bgmfile \"bgm255\" \"BgmSeaDate\" 0\n# textflame 1 1\n# face %(unit_a)s \"usual\"\n# voice 1005 \"ritto_0003\"\n@リットゥ\nふむ…\nいま思い付いたんだが…\n\n@リットゥ\nマスター、突然だがここで、\nお前を試させてほしい\n\n# textflame 0 0\n@\n試す、というと？\nと、首を傾げるマスター\n\n# textflame 1 1\n# eye %(unit_a)s \"close\"\n# voice 1005 \"ritto_0003\"\n@リットゥ\n簡単なことだ、\nただ私の質問に答えてほしい\n\n# eye %(unit_a)s \"normal\"\n@リットゥ\nこれはお前が、\nどれくらい私を知っているか、\nというのを確認するものだ\n\n# face %(unit_a)s \"smile\"\n@リットゥ\n理解することは、\n信頼関係にもつながるだろう…\n\n# face %(unit_a)s \"usual\"\n# voice 1005 \"ritto_0036\"\n@リットゥ\nでは、期待している\n\n@%(unitName:unit_a)s\nお前は私が誰と仲がいいか\n知っているか？\n\n# se \"SE_0734\"\n# select  \"シェキナー\" \"select_label_1\" \"ミトゥム\" \"select_label_2\" \"ブリューナク\" \"select_label_3\"\nお前は私が誰と仲がいいか\n知っているか？\n\n# label \"select_label_1\"\n# labeljump \"select_label_end\"\n# textwindow \"close\"\n# waitandnext 0.1\n\n# label \"select_label_2\"\n# labeljump \"select_label_end\"\n# textwindow \"close\"\n# waitandnext 0.1\n\n# label \"select_label_3\"\n# labeljump \"select_label_end\"\n# textwindow \"close\"\n# waitandnext 0.1\n\n# label \"select_label_end\"\n# waitandnext 0.1\n\n# sestop \"SE_0734\"\n# fadeout \"black\" 1.2\n# waitandnext 2"
	}
]