[
	{
		"ID": 91004399,
		"script": "# script \"lisp\"\n# background %(wayback_background)s\n# bgmfile \"bgm255\" \"BgmSeaDate\" 0\n# body %(unit_a)s\n# pos %(unit_a)s 3\n# mask %(unit_a)s off\n# chara %(unit_a)s\n# fadein \"black\" 0.5\n# textflame 1 1\n# face %(unit_a)s \"smile\"\n# se \"SE_0732\"\n# voice 1004 \"kusanagi_0041\"\n@草薙剣\nすばらしい！\n免許皆伝も近いぞよ！\n\n# voice 1004 \"kusanagi_0005\"\n# textflame 1 1\n@草薙剣\nそちは余の扱い方について\n誰よりも長けておるといっても\n過言ではない！\n\n# textflame 1 1\n@草薙剣\n余を誰よりも大事にし\n誰よりも可愛がる！\nそれがそちの務めである！\n\n# textflame 0 0\n@\n満面の笑顔を\n浮かべる彼女を見て…\n\n# textflame 0 0\n@\nマスターは彼女との絆が\nまた深まったのを実感した…\n\n# fadeout \"black\" 1.2\n# waitandnext 2"
	}
]