[
	{
		"ID": 91005399,
		"script": "# script \"lisp\"\n# background %(wayback_background)s\n# bgmfile \"bgm255\" \"BgmSeaDate\" 0\n# body %(unit_a)s\n# pos %(unit_a)s 3\n# mask %(unit_a)s off\n# chara %(unit_a)s\n# fadein \"black\" 0.5\n# textflame 1 1\n# face %(unit_a)s \"smile\"\n# se \"SE_0732\"\n# voice 1005 \"ritto_0041\"\n@リットゥ\n上出来だ、マスター\n\n# face %(unit_a)s \"normal\"\n@リットゥ\nし、しかし…\nなんというか…\n\n@リットゥ\n自分から振っておいて、\nなんなんだという話になるが…\n\n# voice 1005 \"ritto_0042\"\n# face %(unit_a)s \"smile\"\n@リットゥ\n自分のことをこうも知られてると、\nなんだか恥ずかしい、ものだな…\n\n# voice 1005 \"ritto_0009\"\n# face %(unit_a)s \"normal\"\n@リットゥ\nそ、そんなに顔を見ないでくれっ\n\n@リットゥ\nむぅ…なんだか顔が熱くて、\n変な感じだ…\n\n@リットゥ\nさ、さっさと帰ろう！\nそうしよう！\n\n# textflame 0 0\n@\n照れくさくて落ち着かない彼女は、\nすぐに帰ろうと、\nマスターの手を引っ張る\n\n@\nそのまま彼女と手をつないだままの、\n穏やかな帰り道では、\nずっと強い絆を感じていた\n\n# fadeout \"black\" 1.2\n# waitandnext 2"
	}
]