[
	{
		"ID": 9100403,
		"script": ";;正解:3ヤマタノオロチ\n# script \"lisp\"\n# background %(wayback_background)s\n# bgmfile \"bgm255\" \"BgmSeaDate\" 0\n# body %(unit_a)s\n# pos %(unit_a)s 3\n# mask %(unit_a)s off\n# chara %(unit_a)s\n# fadein \"black\" 0.5\n# textflame 0 0\n@\n帰り道－\n\n# fadein \"white\" 0.5\n# se \"SE_0735\"\n# bgm \"stop\"\n# waitandnext 2\n@\n…………\n\n# fadein \"white\" 0.5\n# se \"SE_0735\"\n# waitandnext 2\n@\n…………\n\n@\nふと、\n傍らを歩く彼女が足を止めた…\n\n# bgmfile \"bgm255\" \"BgmSeaDate\" 0\n# textflame 1 1\n# face %(unit_a)s \"sad\"\n# voice 1004 \"kusanagi_0002\"\n@草薙剣\nそちよ\n余は常々言っておるが…\n\n# voice 1004 \"kusanagi_0010\"\n# face %(unit_a)s \"angry\"\n@草薙剣\n大事にされないと\nものすごく拗ねる！\n\n# voice 1004 \"kusanagi_0003\"\n# face %(unit_a)s \"normal\"\n@草薙剣\nゆえにそちは\n余のことを深く理解し\n丁重に扱わねばならぬのだ\n\n# voice 1004 \"kusanagi_0005\"\n# face %(unit_a)s \"smile\"\n@草薙剣\nどれ、どれくらい余のことを\n知っておるか\n試してみるとしよう！\n\n# face %(unit_a)s \"normal\"\n@草薙剣\n余のキラーズ『草薙剣』は\nなんという生き物中から\n出てきたか知っておろう？\n\n# se \"SE_0734\"\n# select \"キリン\" \"select_label_wrong1\" \"シンリュウオウ\" \"select_label_wrong2\" \"ヤマタノオロチ\" \"select_label_correct\"\n余のキラーズ『草薙剣』は\nなんという生き物中から\n出てきたか知っておろう？\n\n# label \"select_label_wrong1\"\n# labeljump \"select_label_end\"\n# textwindow \"close\"\n# waitandnext 0.1\n\n# label \"select_label_wrong2\"\n# labeljump \"select_label_end\"\n# textwindow \"close\"\n# waitandnext 0.1\n\n# label \"select_label_correct\"\n# labeljump \"select_label_end\"\n# textwindow \"close\"\n# waitandnext 0.1\n\n# label \"select_label_end\"\n# waitandnext 0.1\n\n# sestop \"SE_0734\"\n# fadeout \"black\" 1.2\n# waitandnext 2\n"
	}
]