[
	{
		"ID": 9100525,
		"script": "# script \"lisp\"\n# background %(wayback_background)s\n# bgmfile \"bgm255\" \"BgmSeaDate\" 0\n# body %(unit_a)s\n# pos %(unit_a)s 3\n# mask %(unit_a)s off\n# chara %(unit_a)s\n# fadein \"black\" 0.5\n# textflame 0 0\n@\n帰り道－\n\n# fadein \"white\" 0.5\n# se \"SE_0735\"\n# bgm \"stop\"\n# waitandnext 2\n@\n…………\n\n# fadein \"white\" 0.5\n# se \"SE_0735\"\n# waitandnext 2\n@\n…………\n\n@\nふと、\n傍らを歩く彼女が足を止めた…\n\n# bgmfile \"bgm255\" \"BgmSeaDate\" 0\n# textflame 1 1\n# face %(unit_a)s \"usual\"\n# voice 1005 \"ritto_0001\"\n@リットゥ\nそうだ、マスター…\n少し時間をくれないか？\n\n# voice 1005 \"ritto_0005\"\n# face %(unit_a)s \"smile\"\n@リットゥ\nせっかくの機会だ、\nここでクイズを出すとしよう\n\n# eye %(unit_a)s \"close\"\n@リットゥ\n飽くまで私のことを、\nお前がどこまで理解してるか、\nというものだ\n\n# voice 1005 \"ritto_0006\"\n# face %(unit_a)s \"angry\"\n# eye %(unit_a)s \"normal\"\n@リットゥ\nお前がどれほど私を知っているか、\n示してみろっ！\n\n@%(unitName:unit_a)s\n私の☆５のジョブ…\n覚えているか？\n\n# se \"SE_0734\"\n# select  \"グランファイター\" \"select_label_1\" \"グランマスター\" \"select_label_2\" \"グランサモナー\" \"select_label_3\"\n私の☆５のジョブ…\n覚えているか？\n\n# label \"select_label_1\"\n# labeljump \"select_label_end\"\n# textwindow \"close\"\n# waitandnext 0.1\n\n# label \"select_label_2\"\n# labeljump \"select_label_end\"\n# textwindow \"close\"\n# waitandnext 0.1\n\n# label \"select_label_3\"\n# labeljump \"select_label_end\"\n# textwindow \"close\"\n# waitandnext 0.1\n\n# label \"select_label_end\"\n# waitandnext 0.1\n\n# sestop \"SE_0734\"\n# fadeout \"black\" 1.2\n# waitandnext 2"
	}
]