[
	{
		"ID": 9100537,
		"script": "# script \"lisp\"\n# background %(wayback_background)s\n# bgmfile \"bgm255\" \"BgmSeaDate\" 0\n# body %(unit_a)s\n# pos %(unit_a)s 3\n# mask %(unit_a)s off\n# chara %(unit_a)s\n# fadein \"black\" 0.5\n# textflame 0 0\n@\n帰り道－\n\n# fadein \"white\" 0.5\n# se \"SE_0735\"\n# bgm \"stop\"\n# waitandnext 2\n@\n…………\n\n# fadein \"white\" 0.5\n# se \"SE_0735\"\n# waitandnext 2\n@\n…………\n\n@\nふと、\n傍らを歩く彼女が足を止めた…\n\n# bgmfile \"bgm255\" \"BgmSeaDate\" 0\n# textflame 1 1\n# face %(unit_a)s \"usual\"\n# voice 1005 \"ritto_0001\"\n@リットゥ\nなあマスター\n\n@リットゥ\n私達の付き合いも、\nそれなりに長くなったことだし…\n\n# voice 1005 \"ritto_0003\"\n# eye %(unit_a)s \"close\"\n@リットゥ\n私のことを、\nちゃんと理解できているか、\n確かめてみたいんだ\n\n# voice 1005 \"ritto_0004\"\n# face %(unit_a)s \"usual\"\n# eye %(unit_a)s \"normal\"\n@リットゥ\nなに、そこまで難しくはない\n常に私を見ているマスターなら、\n容易く正解できるはずだ\n\n@リットゥ\nクイズという形式で、\n問題を出していくから\n\n# face %(unit_a)s \"smile\"\n@リットゥ\nマスター、君の知る私を、\n聞かせてほしい\n\n# voice 1005 \"ritto_0036\"\n# face %(unit_a)s \"angry\"\n@リットゥ\nでは…始めるぞ！\n\n@%(unitName:unit_a)s\n私の好きなものは林檎だが\nそれを英語にしたらなんと言うか\n当然わかっているだろう？\n\n# se \"SE_0734\"\n# select  \"Apple\" \"select_label_1\" \"Pineapple\" \"select_label_2\" \"Melon\" \"select_label_3\"\n私の好きなものは林檎だが\nそれを英語にしたらなんと言うか\n当然わかっているだろう？\n\n# label \"select_label_1\"\n# labeljump \"select_label_end\"\n# textwindow \"close\"\n# waitandnext 0.1\n\n# label \"select_label_2\"\n# labeljump \"select_label_end\"\n# textwindow \"close\"\n# waitandnext 0.1\n\n# label \"select_label_3\"\n# labeljump \"select_label_end\"\n# textwindow \"close\"\n# waitandnext 0.1\n\n# label \"select_label_end\"\n# waitandnext 0.1\n\n# sestop \"SE_0734\"\n# fadeout \"black\" 1.2\n# waitandnext 2"
	}
]