[
	{
		"ID": 91007298,
		"script": "# script \"lisp\"\n# background %(wayback_background)s\n# bgmfile \"bgm255\" \"BgmSeaDate\" 0\n# body %(unit_a)s\n# pos %(unit_a)s 3\n# mask %(unit_a)s off\n# chara %(unit_a)s\n# fadein \"black\" 0.5\n# textflame 1 1\n# se \"SE_0733\"\n# face %(unit_a)s \"sad\"\n# voice 1007 \"Arondaito_0017\"\n@アロンダイト\n仕方ありません\n\n@アロンダイト\nマスターでも、\nこういうことは\nありますよね…\n\n# eye %(unit_a)s \"close\"\n@アロンダイト\nいいんです、マスター\n私は気にしませんから\n\n@アロンダイト\n今日のマスターはたまたま、\n調子が悪かっただけ…\n\n# eye %(unit_a)s \"normal\"\n# face %(unit_a)s \"normal\"\n@アロンダイト\nきっと、そうだと\n思いますから…\n\n# textflame 0 0\n@\nそう言って、笑顔を浮かべる\nアロンダイト\n\n@\nそんな彼女の横顔を眺めながら、\nマスターは、申し訳ない気持ちで\n胸がいっぱいになったのだった\n\n# fadeout \"black\" 1.2\n# waitandnext 2"
	}
]