[
	{
		"ID": 9101110,
		"script": ";;1\n# script \"lisp\"\n# background %(wayback_background)s\n# bgmfile \"bgm255\" \"BgmSeaDate\" 0\n# body %(unit_a)s\n# pos %(unit_a)s 3\n# mask %(unit_a)s off\n# chara %(unit_a)s\n# fadein \"black\" 0.5\n# face %(unit_a)s \"usual\"\n# textflame 0 0\n@\n帰り道－\n\n# fadein \"white\" 0.5\n# se \"SE_0735\"\n# bgm \"stop\"\n# waitandnext 2\n@\n…………\n\n# fadein \"white\" 0.5\n# se \"SE_0735\"\n# waitandnext 2\n@\n…………\n\n@\nふと、\n傍らを歩く彼女が足を止めた…\n\n# voice 1011 \"excalibur_0001\"\n# textflame 1 1\n# bgmfile \"bgm255\" \"BgmSeaDate\" 0\n@エクスカリバー\nマスターに\nお願いしたいことがあります\n\n# textflame 1 1\n@エクスカリバー\nマスターの剣として…\nあなたをお守りするために\n\n# face %(unit_a)s \"smile\"\n# textflame 1 1\n@エクスカリバー\n私のことを\n知っておいていただきたいのです\n\n# voice 1011 \"excalibur_0036\"\n# textflame 1 1\n@エクスカリバー\nまずは…\n質問をさせてください\n\n# textflame 1 1\n# face %(unit_a)s \"usual\"\n@エクスカリバー\n私のキラーズ『エクスカリバー』の\n持ち主アーサー王の配下といえば…\nこの方々ですよね？\n\n# se \"SE_0734\"\n# select \"12人の円卓の騎士\" \"select_label_1\" \"12人の洗濯の騎士\" \"select_label_2\" \"12人の独身貴族\" \"select_label_3\"\n私のキラーズ『エクスカリバー』の\n持ち主アーサー王の配下といえば…\nこの方々ですよね？\n\n# label \"select_label_1\"\n# labeljump \"select_label_end\"\n# textwindow \"close\"\n# waitandnext 0.1\n\n# label \"select_label_2\"\n# labeljump \"select_label_end\"\n# textwindow \"close\"\n# waitandnext 0.1\n\n# label \"select_label_3\"\n# labeljump \"select_label_end\"\n# textwindow \"close\"\n# waitandnext 0.1\n\n# label \"select_label_end\"\n# waitandnext 0.1\n\n# sestop \"SE_0734\"\n# fadeout \"black\" 1.2\n# waitandnext 2\n"
	}
]