[
	{
		"ID": 91011299,
		"script": "# script \"lisp\"\n# background %(wayback_background)s\n# bgmfile \"bgm255\" \"BgmSeaDate\" 0\n# body %(unit_a)s\n# pos %(unit_a)s 3\n# mask %(unit_a)s off\n# chara %(unit_a)s\n# fadein \"black\" 0.5\n# textflame 1 1\n# face %(unit_a)s \"smile\"\n# voice 1011 \"excalibur_0030\"\n# se \"SE_0732\"\n@エクスカリバー\n…ありがとうございます！！\n\n# textflame 1 1\n@エクスカリバー\nあなたが\n見ていてくださるなら…\n\n# voice 1011 \"excalibur_0003\"\n# textflame 1 1\n@エクスカリバー\n私はいかなる強敵にも\n決して負けることはありません！\n\n# textflame 0 0\n@\nとても嬉しそうな彼女をみて\nマスターは二人の絆が\nより深まったのを実感した…\n\n# fadeout \"black\" 1.2\n# waitandnext 2"
	}
]