[
	{
		"ID": 9101239,
		"script": "# background %(wayback_background)s\n# bgmfile \"bgm255\" \"BgmSeaDate\" 0\n# body %(unit_a)s\n# pos %(unit_a)s 3\n# mask %(unit_a)s off\n# chara %(unit_a)s\n# fadein \"black\" 0.5\n# textflame 0 0\n@\n帰り道－\n\n# fadein \"white\" 0.5\n# se \"SE_0735\"\n# bgm \"stop\"\n# waitandnext 2\n@\n…………\n\n# fadein \"white\" 0.5\n# se \"SE_0735\"\n# waitandnext 2\n@\n…………\n\n@\nふと、\n傍らを歩く彼女が足を止めた…\n\n# bgmfile \"bgm255\" \"BgmSeaDate\" 0\n# textflame 1 1\n# voice 1012 \"adamasu_0005\"\n@アダマス\n…今からあたしが\nなんて言いたいかわかる？\n\n# eye %(unit_a)s \"close\"\n@アダマス\nあら、わかるのね\nそれなら話が早いわ\n\n# eye %(unit_a)s \"normal\"\n# face %(unit_a)s \"angry\"\n# voice 1012 \"adamasu_0004\"\n@アダマス\nこうして一緒に過ごす以上\nあたしのことを知らないなんて\n許さないわ\n\n# face %(unit_a)s \"smile\"\n@アダマス\nなんだって答えてみせてね♪\n\n# face %(unit_a)s \"normal\"\n@アダマス\n私と仲のいい\nキラープリンセスといえば…？\n\n# se \"SE_0734\"\n# select \"ピナーカ\" \"select_label_1\" \"フォルカス\" \"select_label_2\" \"エロース\" \"select_label_3\"\n私と仲のいい\nキラープリンセスといえば…？\n\n# label \"select_label_1\"\n# labeljump \"select_label_end\"\n# textwindow \"close\"\n# waitandnext 0.1\n\n# label \"select_label_2\"\n# labeljump \"select_label_end\"\n# textwindow \"close\"\n# waitandnext 0.1\n\n# label \"select_label_3\"\n# labeljump \"select_label_end\"\n# textwindow \"close\"\n# waitandnext 0.1\n\n# label \"select_label_end\"\n# waitandnext 0.1\n\n# sestop \"SE_0734\"\n# fadeout \"black\" 1.2\n# waitandnext 2"
	}
]