[
	{
		"ID": 9102809,
		"script": "# script \"lisp\"\n# background %(wayback_background)s\n# bgmfile \"bgm255\" \"BgmSeaDate\" 0\n# body %(unit_a)s\n# pos %(unit_a)s 3\n# mask %(unit_a)s off\n# chara %(unit_a)s\n# fadein \"black\" 0.5\n# textflame 0 0\n@\n帰り道－\n\n# fadein \"white\" 0.5\n# se \"SE_0735\"\n# bgm \"stop\"\n# waitandnext 2\n@\n…………\n\n# fadein \"white\" 0.5\n# se \"SE_0735\"\n# waitandnext 2\n@\n…………\n\n@\nふと、\n傍らを歩く彼女が足を止めた…\n\n# bgmfile \"bgm255\" \"BgmSeaDate\" 0\n;;生き血,3\n# textflame 1 1\n# voice 1028 \"dainsleif_0001\"\n# face %(unit_a)s \"usual\"\n@ダーインスレイヴ\nなぁ…おぬし\n\n# voice 1028 \"dainsleif_0003\"\n# face %(unit_a)s \"sad\"\n@ダーインスレイヴ\nわたしはおぬしが\nマスターであることに\nなんの不満もない\n\n# face %(unit_a)s \"usual\"\n@ダーインスレイヴ\nだが、それは…\nちゃんとわたしのことを\n知ってくれてたらの話だ\n\n# face %(unit_a)s \"normal\"\n@ダーインスレイヴ\nなにが言いたいか分かるな？\nそう…\n\n;;# voice 1028 \"dainsleif_0005\"\n# face %(unit_a)s \"usual\"\n# voice 1028 \"dainsleif_0022\"\n@ダーインスレイヴ\nクイズだ\n;;---------------------------------\n\n@%(unitName:unit_a)s\nわたしのキラーズ\n『ダーインスレイヴ』は\n鞘から抜くと、なにを吸う？\n\n# se \"SE_0734\"\n# select  \"池の水\" \"select_label_1\" \"花の蜜\" \"select_label_2\" \"生き血\" \"select_label_3\"\nわたしのキラーズ\n『ダーインスレイヴ』は\n鞘から抜くと、なにを吸う？\n\n# label \"select_label_1\"\n# labeljump \"select_label_end\"\n# textwindow \"close\"\n# waitandnext 0.1\n\n# label \"select_label_2\"\n# labeljump \"select_label_end\"\n# textwindow \"close\"\n# waitandnext 0.1\n\n# label \"select_label_3\"\n# labeljump \"select_label_end\"\n# textwindow \"close\"\n# waitandnext 0.1\n\n# label \"select_label_end\"\n# waitandnext 0.1\n\n# sestop \"SE_0734\"\n# fadeout \"black\" 1.2\n# waitandnext 2"
	}
]