[
	{
		"ID": 9102626,
		"script": "# script \"lisp\"\n# background %(wayback_background)s\n# bgmfile \"bgm255\" \"BgmSeaDate\" 0\n# body %(unit_a)s\n# pos %(unit_a)s 3\n# mask %(unit_a)s off\n# chara %(unit_a)s\n# fadein \"black\" 0.5\n# textflame 0 0\n@\n帰り道－\n\n# fadein \"white\" 0.5\n# se \"SE_0735\"\n# bgm \"stop\"\n# waitandnext 2\n@\n…………\n\n# fadein \"white\" 0.5\n# se \"SE_0735\"\n# waitandnext 2\n@\n…………\n\n@\nふと、\n傍らを歩く彼女が足を止めた…\n\n# bgmfile \"bgm255\" \"BgmSeaDate\" 0\n;;自信がある,3\n# textflame 1 1\n# face %(unit_a)s \"smile\"\n# voice 1026 \"caladbolg_0004\"\n@カラドボルグ\nうふふ…\n\n# textflame 1 1\n@カラドボルグ\n色んな水着の女性がいるけど…\n\n# textflame 1 1\n@カラドボルグ\nやっぱり私が一番似合ってるわね\nそう思わない、マスター？\n\n# textflame 0 0\n@\nそうだね、マスターが答えると\n\n# voice 1026 \"caladbolg_0009\"\n# face %(unit_a)s \"sad\"\n# textflame 1 1\n@カラドボルグ\nもう～、本当にわかってる？\n\n# face %(unit_a)s \"smile\"\n# textflame 1 1\n@カラドボルグ\nじゃあ、私の魅力を\nどこまで理解してるか\n\n# textflame 1 1\n@カラドボルグ\nクイズね？\n;;---------------------------------\n\n@%(unitName:unit_a)s\n私、正直言って\n“裸”には…\n\n# se \"SE_0734\"\n# select  \"抵抗がある\" \"select_label_1\" \"自信がない\" \"select_label_2\" \"自信がある\" \"select_label_3\"\n私、正直言って\n“裸”には…\n\n# label \"select_label_1\"\n# labeljump \"select_label_end\"\n# textwindow \"close\"\n# waitandnext 0.1\n\n# label \"select_label_2\"\n# labeljump \"select_label_end\"\n# textwindow \"close\"\n# waitandnext 0.1\n\n# label \"select_label_3\"\n# labeljump \"select_label_end\"\n# textwindow \"close\"\n# waitandnext 0.1\n\n# label \"select_label_end\"\n# waitandnext 0.1\n\n# sestop \"SE_0734\"\n# fadeout \"black\" 1.2\n# waitandnext 2"
	}
]