[
	{
		"ID": 9102840,
		"script": "# script \"lisp\"\n# background %(wayback_background)s\n# bgmfile \"bgm255\" \"BgmSeaDate\" 0\n# body %(unit_a)s\n# pos %(unit_a)s 3\n# mask %(unit_a)s off\n# chara %(unit_a)s\n# fadein \"black\" 0.5\n# textflame 0 0\n@\n帰り道－\n\n# fadein \"white\" 0.5\n# se \"SE_0735\"\n# bgm \"stop\"\n# waitandnext 2\n@\n…………\n\n# fadein \"white\" 0.5\n# se \"SE_0735\"\n# waitandnext 2\n@\n…………\n\n@\nふと、\n傍らを歩く彼女が足を止めた…\n\n# bgmfile \"bgm255\" \"BgmSeaDate\" 0\n;;猛毒にする,1\n# textflame 1 1\n# voice 1028 \"dainsleif_0008\"\n# face %(unit_a)s \"sad\"\n@ダーインスレイヴ\nわたしは…\n必ず誰かを不幸にする…\nずっとそう思っていた…\n\n# voice 1028 \"dainsleif_0019\"\n@ダーインスレイヴ\n楽しいデート中の…\n今もだ…\n\n# face %(unit_a)s \"usual\"\n@ダーインスレイヴ\nなぁ、マスター…\nそんな思いは…\n杞憂だと思わせてくれないか…\n\n@ダーインスレイヴ\nわたしといると楽しいと…\nそう思わせてほしい…\n\n@ダーインスレイヴ\nわたしのこと、\nどれだけ分かってくれているか…\n試してもよいか…？\n;;---------------------------------\n\n@%(unitName:unit_a)s\nわたしのデュエルスキル\n「シークレットローズ」は敵を…\n\n# se \"SE_0734\"\n# select  \"猛毒にする\" \"select_label_1\" \"石化させる\" \"select_label_2\" \"メロメロにする\" \"select_label_3\"\nわたしのデュエルスキル\n「シークレットローズ」は敵を…\n\n# label \"select_label_1\"\n# labeljump \"select_label_end\"\n# textwindow \"close\"\n# waitandnext 0.1\n\n# label \"select_label_2\"\n# labeljump \"select_label_end\"\n# textwindow \"close\"\n# waitandnext 0.1\n\n# label \"select_label_3\"\n# labeljump \"select_label_end\"\n# textwindow \"close\"\n# waitandnext 0.1\n\n# label \"select_label_end\"\n# waitandnext 0.1\n\n# sestop \"SE_0734\"\n# fadeout \"black\" 1.2\n# waitandnext 2"
	}
]