[
	{
		"ID": 9102337,
		"script": "# script \"lisp\"\n# background %(wayback_background)s\n# bgmfile \"bgm255\" \"BgmSeaDate\" 0\n# body %(unit_a)s\n# pos %(unit_a)s 3\n# mask %(unit_a)s off\n# chara %(unit_a)s\n# fadein \"black\" 0.5\n# textflame 0 0\n# face %(unit_a)s \"usual\"\n@\n帰り道－\n\n# fadein \"white\" 0.5\n# se \"SE_0735\"\n# bgm \"stop\"\n# waitandnext 2\n@\n…………\n\n# fadein \"white\" 0.5\n# se \"SE_0735\"\n# waitandnext 2\n@\n…………\n\n@\nふと、\n傍らを歩く彼女が足を止めた…\n\n# face %(unit_a)s \"sad\"\n# bgmfile \"bgm255\" \"BgmSeaDate\" 0\n# textflame 1 1\n# voice 1023 \"ascalon_0002\"\n@アスカロン\nあの、マスター…\n\n@アスカロン\n突然なんですけど…\n\n# face %(unit_a)s \"smile\"\n@アスカロン\nクイズのコーナーです！\n\n# voice 1023 \"ascalon_0004\"\n@アスカロン\nクイズって言っても…\n私のことちゃんと知ってくれてれば\n簡単ですから…！\n\n# voice 1023 \"ascalon_0029\"\n# face %(unit_a)s \"usual\"\n@アスカロン\nじゃあ…いきますね？\n\n@アスカロン\n私、皆さんにこう言ってもらって\nすっごく嬉しいんです！\nなんだかわかりますか？\n\n# se \"SE_0734\"\n# select \"笑顔が魅力的な頑張り屋\" \"select_label_correct\" \"笑顔が魅力的なハニカミ屋\" \"select_label_wrong1\" \"笑顔が魅力的な気分屋\" \"select_label_wrong2\"\n私、皆さんにこう言ってもらって\nすっごく嬉しいんです！\nなんだかわかりますか？\n\n# label \"select_label_correct\"\n# labeljump \"select_label_end\"\n# textwindow \"close\"\n# waitandnext 0.1\n\n# label \"select_label_wrong1\"\n# labeljump \"select_label_end\"\n# textwindow \"close\"\n# waitandnext 0.1\n\n# label \"select_label_wrong2\"\n# labeljump \"select_label_end\"\n# textwindow \"close\"\n# waitandnext 0.1\n\n# label \"select_label_end\"\n# waitandnext 0.1\n\n# sestop \"SE_0734\"\n# fadeout \"black\" 1.2\n# waitandnext 2"
	}
]