[
	{
		"ID": 91023199,
		"script": "# script \"lisp\"\n# background %(wayback_background)s\n# bgmfile \"bgm255\" \"BgmSeaDate\" 0\n# body %(unit_a)s\n# pos %(unit_a)s 3\n# mask %(unit_a)s off\n# chara %(unit_a)s\n# fadein \"black\" 0.5\n# textflame 1 1\n# face %(unit_a)s \"smile\"\n# se \"SE_0732\"\n@アスカロン\nわ～い！\nさすがマスターです！\n\n# face %(unit_a)s \"sad\"\n@アスカロン\nあの…結構難しいこと\n聞いちゃったかなって\n思ったけど…\n\n# face %(unit_a)s \"smile\"\n# voice 1023 \"ascalon_0020\"\n@アスカロン\n…うふふっ。やっぱり\nマスターはすごいですね！\n\n# textflame 0 0\n@\nアスカロンの満面の笑みは\nなによりも可愛く…\n\n@\n彼女との絆が\nまた深まったのを実感した…\n\n# fadeout \"black\" 1.2\n# waitandnext 2"
	}
]