[
	{
		"ID": 91038298,
		"script": "# script \"lisp\"\n# background %(wayback_background)s\n# bgmfile \"bgm255\" \"BgmSeaDate\" 0\n# body %(unit_a)s\n# pos %(unit_a)s 3\n# mask %(unit_a)s off\n# chara %(unit_a)s\n# fadein \"black\" 0.5\n# se \"SE_0733\"\n# textflame 1 1\n# face %(unit_a)s \"usual\"\n;;-----------------------------------------\n@アルマス\nその答え…\n\n# face %(unit_a)s \"angry\"\n@アルマス\n不正解\n\n# face %(unit_a)s \"sad\"\n# voice 210381 \"almace_0027\"\n@アルマス\nマスターなら\n分かると思ったのに…\n\n# textflame 0 0\n@\nさっきまでの笑顔から一変\n雲った表情になる彼女\n\n# textflame 1 1\n@アルマス\nべ、べつに落ち込んでなんか\nないし\n\n# face %(unit_a)s \"usual\"\n# voice 210381 \"almace_0003\"\n@アルマス\nそこまで気にしないで\n急にクイズ出した\n私が悪いんだから\n\n# textflame 0 0\n@\n笑ってはいるが、\nその顔は明らかに\n悲しげだった\n\n# textflame 0 0\n@\nもしまたチャンスがあるのなら…\n\n# textflame 0 0\n@\n次こそは彼女を笑顔にしたいと\n心に強く誓うマスターだった\n\n;;-----------------------------------------\n# fadeout \"black\" 1.2\n# waitandnext 2\n"
	}
]