[
	{
		"ID": 92003498,
		"script": "# script \"lisp\"\n# background %(wayback_background)s\n# bgmfile \"bgm255\" \"BgmSeaDate\" 0\n# body %(unit_a)s\n# pos %(unit_a)s 3\n# mask %(unit_a)s off\n# chara %(unit_a)s\n# fadein \"black\" 0.5\n# textflame 1 1\n# se \"SE_0733\"\n# face %(unit_a)s \"angry\"\n# voice 2003 \"loveryus_0027\"\n@ラブリュス\n普通に間違えてるし！\n\n# voice 2003 \"loveryus_0014\"\n# textflame 1 1\n@ラブリュス\nんもー、凡ミスなんて\nマスターらしくないじゃん？\n\n# textflame 1 1\n@ラブリュス\nそんなマスターにはぁ…\nおらおらっ！おしおきだっ！\n\n# textflame 0 0\n@\nラブリュスは\nぽこぽこと腕を叩いてくる\n\n# textflame 0 0\n@\n叩かれながら、\n今度は間違えないから！\nそう弁解するマスター\n\n# face %(unit_a)s \"smile\"\n# voice 2003 \"loveryus_0004\"\n# textflame 1 1\n@ラブリュス\nえへへ、当たり前じゃん！\n\n# textflame 1 1\n@ラブリュス\nもう、次はないからね\n今度は全問正解…\n\n# textflame 1 1\n@ラブリュス\n約束だからねっ！\n\n# textflame 0 0\n@\nラブリュスの笑みに心打たれ、\nマスターはグッと拳を握る\n\n# textflame 0 0\n@\nこの約束は絶対に守る…\n\n# textflame 0 0\n@\nラブリュスファンの誇りにかけて！\nマスターは大きく頷くのだった\n\n# fadeout \"black\" 1.2\n# waitandnext 2\n"
	}
]