[
	{
		"ID": 9200840,
		"script": "# script \"lisp\"\n# background %(wayback_background)s\n# bgmfile \"bgm255\" \"BgmSeaDate\" 0\n# body %(unit_a)s\n# pos %(unit_a)s 3\n# mask %(unit_a)s off\n# chara %(unit_a)s\n# fadein \"black\" 0.5\n# textflame 0 0\n# face %(unit_a)s \"usual\"\n@\n帰り道－\n\n# fadein \"white\" 0.5\n# se \"SE_0735\"\n# bgm \"stop\"\n# waitandnext 2\n@\n…………\n\n# fadein \"white\" 0.5\n# se \"SE_0735\"\n# waitandnext 2\n@\n…………\n\n@\nふと、\n傍らを歩く彼女が足を止めた…\n\n# bgmfile \"bgm255\" \"BgmSeaDate\" 0\n# textflame 1 1\n# voice 2008 \"perun_0001\"\n@ペルーン\nあのさ…マスター？\n\n# face %(unit_a)s \"sad\"\n@ペルーン\nあたしのこと…\nちゃんと知っててくれているか\n試してみても…いい？\n\n@ペルーン\nえっと、なんていうか…\nクイズ…みたいな感じ！\n\n# voice 2008 \"perun_0005\"\n# face %(unit_a)s \"smile\"\n@ペルーン\nじゃ、いっくよー！\n\n@ペルーン\nこの前のバレンタインデーに\nマスターにチョコを作ったじゃない？\nどんな形だったか覚えてる？\n\n# se \"SE_0734\"\n# select \"溶けてしまった\" \"select_label_correct\" \"ハート型\" \"select_label_wrong1\" \"そもそも作っていない\" \"select_label_wrong2\"\nこの前のバレンタインデーに\nマスターにチョコを作ったじゃない？\nどんな形だったか覚えてる？\n\n# label \"select_label_correct\"\n# labeljump \"select_label_end\"\n# textwindow \"close\"\n# waitandnext 0.1\n\n# label \"select_label_wrong1\"\n# labeljump \"select_label_end\"\n# textwindow \"close\"\n# waitandnext 0.1\n\n# label \"select_label_wrong2\"\n# labeljump \"select_label_end\"\n# textwindow \"close\"\n# waitandnext 0.1\n\n# label \"select_label_end\"\n# waitandnext 0.1\n\n# sestop \"SE_0734\"\n# fadeout \"black\" 1.2\n# waitandnext 2"
	}
]