[
	{
		"ID": 9200115,
		"script": ";;2\n# script \"lisp\"\n# background %(wayback_background)s\n# bgmfile \"bgm255\" \"BgmSeaDate\" 0\n# body %(unit_a)s\n# pos %(unit_a)s 3\n# mask %(unit_a)s off\n# chara %(unit_a)s\n# fadein \"black\" 0.5\n# textflame 0 0\n@\n帰り道－\n\n# fadein \"white\" 0.5\n# se \"SE_0735\"\n# bgm \"stop\"\n# waitandnext 2\n@\n…………\n\n# fadein \"white\" 0.5\n# se \"SE_0735\"\n# waitandnext 2\n@\n…………\n\n@\nふと、\n傍らを歩く彼女が足を止めた…\n\n# voice 2001 \"myuruniru_0006\"\n# face %(unit_a)s \"smile\"\n# textflame 1 1\n# bgmfile \"bgm255\" \"BgmSeaDate\" 0\n@ミョルニル\n突然の～\nミョルニルクイズ～！\n\n# eye %(unit_a)s \"close\"\n# textflame 1 1\n@ミョルニル\nミョルニルちゃんのクイズに\n答えられないと…\n\n# voice 2001 \"myuruniru_0036\"\n# eye %(unit_a)s \"normal\"\n# textflame 1 1\n@ミョルニル\nマスタはおうちに\nかえれませ～ん！\nいくよ～♪\n\n# textflame 1 1\n# face %(unit_a)s \"normal\"\n@%(unitName:unit_a)s\nミョルニルちゃんさ、\nこの前、○○がついた帽子を\nかぶってたの、覚えてる？\n\n# se \"SE_0734\"\n# select \"宝石\" \"select_label_1\" \"猫耳\" \"select_label_2\" \"お菓子\" \"select_label_3\"\nミョルニルちゃんさ、\nこの前、○○がついた帽子を\nかぶってたの、覚えてる？\n\n# label \"select_label_1\"\n# labeljump \"select_label_end\"\n# textwindow \"close\"\n# waitandnext 0.1\n\n# label \"select_label_2\"\n# labeljump \"select_label_end\"\n# textwindow \"close\"\n# waitandnext 0.1\n\n# label \"select_label_3\"\n# labeljump \"select_label_end\"\n# textwindow \"close\"\n# waitandnext 0.1\n\n# label \"select_label_end\"\n# waitandnext 0.1\n\n# sestop \"SE_0734\"\n# fadeout \"black\" 1.2\n# waitandnext 2\n"
	}
]