[
	{
		"ID": 9200502,
		"script": "# script \"lisp\"\n# background %(wayback_background)s\n# bgmfile \"bgm255\" \"BgmSeaDate\" 0\n# body %(unit_a)s\n# pos %(unit_a)s 3\n# mask %(unit_a)s off\n# chara %(unit_a)s\n# fadein \"black\" 0.5\n# textflame 0 0\n@\n帰り道－\n\n# fadein \"white\" 0.5\n# se \"SE_0735\"\n# bgm \"stop\"\n# waitandnext 2\n@\n…………\n\n# fadein \"white\" 0.5\n# se \"SE_0735\"\n# waitandnext 2\n@\n…………\n\n@\nふと、\n傍らを歩く彼女が足を止めた…\n\n# bgmfile \"bgm255\" \"BgmSeaDate\" 0\n# textflame 1 1\n# voice 2005 \"mitwumu_0001\"\n@ミトゥム\nおいマスター！\n\n@ミトゥム\nマスターって、\nミトゥムのこと、ちゃんと\nわかってくれてるか？\n\n# eye %(unit_a)s \"close\"\n@ミトゥム\n仲間なんだからよ\nやっぱそういうのって\n大事だろ！\n\n# eye %(unit_a)s \"normal\"\n# voice 2005 \"mitwumu_0036\"\n# face %(unit_a)s \"smile\"\n@ミトゥム\nよし、じゃあ…\nミトゥム様の\n質問に答えてみろ！\n\n# face %(unit_a)s \"normal\"\n@ミトゥム\nミトゥム様のキラーズ『ミトゥム』は\nどんな武器だ？\n\n# se \"SE_0734\"\n# select \"剣\" \"select_label_1\" \"斧\" \"select_label_2\" \"槍\" \"select_label_3\"\nミトゥム様のキラーズ『ミトゥム』は\nどんな武器だ？\n\n# label \"select_label_1\"\n# labeljump \"select_label_end\"\n# textwindow \"close\"\n# waitandnext 0.1\n\n# label \"select_label_2\"\n# labeljump \"select_label_end\"\n# textwindow \"close\"\n# waitandnext 0.1\n\n# label \"select_label_3\"\n# labeljump \"select_label_end\"\n# textwindow \"close\"\n# waitandnext 0.1\n\n# label \"select_label_end\"\n# waitandnext 0.1\n\n# sestop \"SE_0734\"\n# fadeout \"black\" 1.2\n# waitandnext 2"
	}
]