[
	{
		"ID": 9201716,
		"script": "# script \"lisp\"\n# background %(wayback_background)s\n# bgmfile \"bgm255\" \"BgmSeaDate\" 0\n# body %(unit_a)s\n# pos %(unit_a)s 3\n# mask %(unit_a)s off\n# chara %(unit_a)s\n# fadein \"black\" 0.5\n# textflame 0 0\n@\n帰り道－\n\n# fadein \"white\" 0.5\n# se \"SE_0735\"\n# bgm \"stop\"\n# waitandnext 2\n@\n…………\n\n# fadein \"white\" 0.5\n# se \"SE_0735\"\n# waitandnext 2\n@\n…………\n\n@\nふと、\n傍らを歩く彼女が足を止めた…\n\n# bgmfile \"bgm255\" \"BgmSeaDate\" 0\n;;アイムール,3\n# textflame 1 1\n# face %(unit_a)s \"sad\"\n# voice 2017 \"yagurushi_0002\"\n@ヤグルシ\nねー、歩いてるだけだと暇だし、\nちょっとあそぼう？\n\n# textflame 0 0\n@\nいいけど…\n何して遊ぶの？\n\n# voice 2017 \"yagurushi_0006\"\n# face %(unit_a)s \"smile\"\n# textflame 1 1\n@ヤグルシ\nうふふ、簡単なクイズだよ～\n\n# textflame 1 1\n@ヤグルシ\nヤグに関係する\n問題を出すから、\nしっかり答えてね～？\n\n# voice 2017 \"yagurushi_0029\"\n# textflame 1 1\n@ヤグルシ\nじゃ、いくよ～！\n;;---------------------------------\n\n@%(unitName:unit_a)s\nこの中にヤグと\n仲が良い子がいるんだけど\n誰だかわかるかなぁ？\n\n# se \"SE_0734\"\n# select  \"メギド\" \"select_label_1\" \"ムラマサ\" \"select_label_2\" \"アイムール\" \"select_label_3\"\nこの中にヤグと\n仲が良い子がいるんだけど\n誰だかわかるかなぁ？\n\n# label \"select_label_1\"\n# labeljump \"select_label_end\"\n# textwindow \"close\"\n# waitandnext 0.1\n\n# label \"select_label_2\"\n# labeljump \"select_label_end\"\n# textwindow \"close\"\n# waitandnext 0.1\n\n# label \"select_label_3\"\n# labeljump \"select_label_end\"\n# textwindow \"close\"\n# waitandnext 0.1\n\n# label \"select_label_end\"\n# waitandnext 0.1\n\n# sestop \"SE_0734\"\n# fadeout \"black\" 1.2\n# waitandnext 2"
	}
]