[
	{
		"ID": 9201706,
		"script": "# script \"lisp\"\n# background %(wayback_background)s\n# bgmfile \"bgm255\" \"BgmSeaDate\" 0\n# body %(unit_a)s\n# pos %(unit_a)s 3\n# mask %(unit_a)s off\n# chara %(unit_a)s\n# fadein \"black\" 0.5\n# textflame 0 0\n@\n帰り道－\n\n# fadein \"white\" 0.5\n# se \"SE_0735\"\n# bgm \"stop\"\n# waitandnext 2\n@\n…………\n\n# fadein \"white\" 0.5\n# se \"SE_0735\"\n# waitandnext 2\n@\n…………\n\n@\nふと、\n傍らを歩く彼女が足を止めた…\n\n# bgmfile \"bgm255\" \"BgmSeaDate\" 0\n;;ハダド,3\n# textflame 1 1\n# face %(unit_a)s \"smile\"\n# voice 2017 \"yagurushi_0002\"\n@ヤグルシ\n突然だけどさ！\nクイズをやろっか！\n\n# textflame 0 0\n@\n本当に突然だ\nていうかクイズ？\n首を傾げるマスター\n\n# voice 2017 \"yagurushi_0036\"\n# face %(unit_a)s \"sad\"\n# textflame 1 1\n@ヤグルシ\nねえ、いいでしょ～？\n\n# textflame 0 0\n@\nヤグルシが笑顔で覗き込んでくる\nこんなもの、断れるはずもない\nわかった、と頷くマスター\n\n# voice 2017 \"yagurushi_0020\"\n# face %(unit_a)s \"smile\"\n# textflame 1 1\n@ヤグルシ\nわーい、やったー！\n\n# textflame 1 1\n@ヤグルシ\n全然難しくないから\n安心して！\n\n# textflame 1 1\n@ヤグルシ\nマスターがヤグのことをちゃんと\n見てたら簡単に解けるからね！\n\n# textflame 1 1\n@ヤグルシ\nじゃあ、行っくよ～♪\n;;---------------------------------\n\n@%(unitName:unit_a)s\nヤグのキラーズ『ヤグルシ』の\n持ち主であるバアルはシリアでは\nなんて呼ばれてたでしょ～？\n\n# se \"SE_0734\"\n# select  \"ドゥーハ\" \"select_label_1\" \"ハッドゥ\" \"select_label_2\" \"ハダド\" \"select_label_3\"\nヤグのキラーズ『ヤグルシ』の\n持ち主であるバアルはシリアでは\nなんて呼ばれてたでしょ～？\n\n# label \"select_label_1\"\n# labeljump \"select_label_end\"\n# textwindow \"close\"\n# waitandnext 0.1\n\n# label \"select_label_2\"\n# labeljump \"select_label_end\"\n# textwindow \"close\"\n# waitandnext 0.1\n\n# label \"select_label_3\"\n# labeljump \"select_label_end\"\n# textwindow \"close\"\n# waitandnext 0.1\n\n# label \"select_label_end\"\n# waitandnext 0.1\n\n# sestop \"SE_0734\"\n# fadeout \"black\" 1.2\n# waitandnext 2"
	}
]