[
	{
		"ID": 92011299,
		"script": "# script \"lisp\"\n# background %(wayback_background)s\n# bgmfile \"bgm255\" \"BgmSeaDate\" 0\n# body %(unit_a)s\n# pos %(unit_a)s 3\n# mask %(unit_a)s off\n# chara %(unit_a)s\n# fadein \"black\" 0.5\n# textflame 1 1\n# face %(unit_a)s \"smile\"\n# se \"SE_0732\"\n# voice 2011 \"Wazra_0004\"\n@ワズラ\nさすがはマスター、\n正解です！\n\n@ワズラ\nじゃあ、\n契約違反のことは\n許してあげます\n\n# eye %(unit_a)s \"close\"\n@ワズラ\nでも…\n\n# face %(unit_a)s \"usual\"\n# eye %(unit_a)s \"normal\"\n@ワズラ\nどうせなら…\nもう少しだけ…\n\n# voice 2011 \"Wazra_0008\"\n@ワズラ\n範囲内で延長…\nしていきますか？\n\n# textflame 0 0\n@\n…と、のぞき込んでくる彼女\n\n@\nその潤んだ瞳をみて\nマスターは二人の絆が\nより深まったのを実感した…\n\n# fadeout \"black\" 1.2\n# waitandnext 2"
	}
]