[
	{
		"ID": 92013499,
		"script": "# script \"lisp\"\n# background %(wayback_background)s\n# bgmfile \"bgm255\" \"BgmSeaDate\" 0\n# body %(unit_a)s\n# pos %(unit_a)s 3\n# mask %(unit_a)s off\n# chara %(unit_a)s\n# fadein \"black\" 0.5\n# textflame 1 1\n# face %(unit_a)s \"smile\"\n# se \"SE_0732\"\n# face %(unit_a)s \"usual\"\n# voice 2013 \"reshef_0029\"\n@レシェフ\nチェスト～～～！\n\n# face %(unit_a)s \"smile\"\n@レシェフ\nやったね、覚えてくれたんだ\n\n@レシェフ\nあんたの熱血…\nイヤじゃないよ\n\n@レシェフ\nいや、むしろ…\n心地いい！\n\n# voice 2013 \"reshef_0006\"\n@レシェフ\n決めた！\n\n@レシェフ\nあんたのこと…\nこれからも守ってあげる！\nずっと！！\n\n@レシェフ\nあたしの熱血でね！\n\n# textflame 0 0\n@\n彼女は嬉しそうに宣言した\n\n@\nその特別な笑顔が見られて\n二人の絆が\nさらに深まったのを実感していた…\n\n# fadeout \"black\" 1.2\n# waitandnext 2\n"
	}
]