[
	{
		"ID": 92017298,
		"script": "# script \"lisp\"\n# background %(wayback_background)s\n# bgmfile \"bgm255\" \"BgmSeaDate\" 0\n# body %(unit_a)s\n# pos %(unit_a)s 3\n# mask %(unit_a)s off\n# chara %(unit_a)s\n# fadein \"black\" 0.5\n# textflame 1 1\n# se \"SE_0733\"\n# face %(unit_a)s \"sad\"\n# voice 2017 \"yagurushi_unit_0010\"\n@ヤグルシ\nわからないかぁ…\n\n@ヤグルシ\nまぁ、突然だったから\nしょうがないよね…\n\n@ヤグルシ\nううん、別に怒ってないよ？\n気にしないで！\n\n@ヤグルシ\nでも、いつもヤグと一緒にいる\n君なのになぁ…\n\n@ヤグルシ\n次は、頑張ってね？\nそうじゃないとヤグ、\n悲しくなっちゃうから！\n\n# textflame 0 0\n@\nヤグルシを少しだけ\n悲しませてしまったようだ\n\n# textflame 0 0\n@\n次のクイズに正解する為にも、\nもっとヤグルシについて\n勉強しないと！\n\n# fadeout \"black\" 1.2\n# waitandnext 2"
	}
]