[
	{
		"ID": 9300107,
		"script": ";;1\n# script \"lisp\"\n# background %(wayback_background)s\n# bgmfile \"bgm255\" \"BgmSeaDate\" 0\n# body %(unit_a)s\n# pos %(unit_a)s 3\n# mask %(unit_a)s off\n# chara %(unit_a)s\n# fadein \"black\" 0.5\n# textflame 0 0\n@\n帰り道－\n\n# fadein \"white\" 0.5\n# se \"SE_0735\"\n# bgm \"stop\"\n# waitandnext 2\n@\n…………\n\n# fadein \"white\" 0.5\n# se \"SE_0735\"\n# waitandnext 2\n@\n…………\n\n@\nふと、\n傍らを歩く彼女が足を止めた…\n\n# voice 3001 \"ronginusu_0028\"\n# face %(unit_a)s \"sad\"\n# bgmfile \"bgm255\" \"BgmSeaDate\" 0\n# textflame 1 1\n@ロンギヌス\n…日々\n不安なんです\n\n# eye %(unit_a)s \"close\"\n# textflame 1 1\n@ロンギヌス\nマスターは一体\n私のなにを知っていてくれて…\n\n# eye %(unit_a)s \"normal\"\n# textflame 1 1\n@ロンギヌス\nこんなに\n優しくしてくれるのかと…\n\n# voice 3001 \"ronginusu_0036\"\n# face %(unit_a)s \"smile\"\n# textflame 1 1\n@ロンギヌス\nマスターの知っていること…\n教えて下さいますか…？\n\n# textflame 1 1\n# face %(unit_a)s \"normal\"\n@ロンギヌス\n私のキラーズ『ロンギヌスの槍』の\n使用者の名前をご存知ですか？\n\n# se \"SE_0734\"\n# select \"ロンギヌス\" \"select_label_1\" \"ランペイジ\" \"select_label_2\" \"カシウス\" \"select_label_3\"\n私のキラーズ『ロンギヌスの槍』の\n使用者の名前をご存知ですか？\n\n# label \"select_label_1\"\n# labeljump \"select_label_end\"\n# textwindow \"close\"\n# waitandnext 0.1\n\n# label \"select_label_2\"\n# labeljump \"select_label_end\"\n# textwindow \"close\"\n# waitandnext 0.1\n\n# label \"select_label_3\"\n# labeljump \"select_label_end\"\n# textwindow \"close\"\n# waitandnext 0.1\n\n# label \"select_label_end\"\n# waitandnext 0.1\n\n# sestop \"SE_0734\"\n# fadeout \"black\" 1.2\n# waitandnext 2\n"
	}
]