[
	{
		"ID": 93004299,
		"script": "# script \"lisp\"\n# background %(wayback_background)s\n# bgmfile \"bgm255\" \"BgmSeaDate\" 0\n# body %(unit_a)s\n# pos %(unit_a)s 3\n# mask %(unit_a)s off\n# chara %(unit_a)s\n# fadein \"black\" 0.5\n# textflame 1 1\n# face %(unit_a)s \"smile\"\n# se \"SE_0732\"\n# voice 3004 \"amenonuboko_0041\"\n@天沼矛\nわ～！\nさすがです、マスター！\n\n@天沼矛\nうふふ♪\n急にクイズなんて\n出してしまったんですが～\n\n# voice 3004 \"amenonuboko_0005\"\n@天沼矛\nわたしに関わることを…\nちゃんと知っててもらえるのは\nとっても嬉しいです～！\n\n# textflame 0 0\n@\n嬉しさにあふれた顔をみて\nマスターは彼女との絆が\nまた深まったのを実感した…\n\n# fadeout \"black\" 1.2\n# waitandnext 2"
	}
]