[
	{
		"ID": 9300827,
		"script": "# script \"lisp\"\n# background %(wayback_background)s\n# bgmfile \"bgm255\" \"BgmSeaDate\" 0\n# body %(unit_a)s\n# pos %(unit_a)s 3\n# mask %(unit_a)s off\n# chara %(unit_a)s\n# fadein \"black\" 0.5\n# textflame 0 0\n@\n帰り道－\n\n# fadein \"white\" 0.5\n# se \"SE_0735\"\n# bgm \"stop\"\n# waitandnext 2\n@\n…………\n\n# fadein \"white\" 0.5\n# se \"SE_0735\"\n# waitandnext 2\n@\n…………\n\n@\nふと、\n傍らを歩く彼女が足を止めた…\n\n# bgmfile \"bgm255\" \"BgmSeaDate\" 0\n# textflame 1 1\n# face %(unit_a)s \"usual\"\n# voice 3008 \"gunguniru_0001\"\n@グングニル\nなぁ、そなたよ…\n\n;; face %(unit_a)s \"close\"\n@グングニル\nコホン…\n突然だが、\nクイズのコーナーだ！\n\n# face %(unit_a)s \"usual\"\n@グングニル\nなにを驚いておる\n戦場では急襲奇襲は当たり前であろう\n\n@グングニル\nさあ、ゆくぞ！\n\n# face %(unit_a)s \"usual\"\n@グングニル\n我はついつい“あの者”が\n目についてしまい、\n追いかけてしまうのだ…\n\n# se \"SE_0734\"\n# select \"アスカロン\" \"select_label_wrong1\" \"グラム\" \"select_label_correct\" \"ラグナロク\" \"select_label_wrong2\"\n我はついつい“あの者”が\n目についてしまい、\n追いかけてしまうのだ…\n\n# label \"select_label_wrong1\"\n# labeljump \"select_label_end\"\n# textwindow \"close\"\n# waitandnext 0.1\n\n# label \"select_label_correct\"\n# labeljump \"select_label_end\"\n# textwindow \"close\"\n# waitandnext 0.1\n\n# label \"select_label_wrong2\"\n# labeljump \"select_label_end\"\n# textwindow \"close\"\n# waitandnext 0.1\n\n# label \"select_label_end\"\n# waitandnext 0.1\n\n# sestop \"SE_0734\"\n# fadeout \"black\" 1.2\n# waitandnext 2"
	}
]