[
	{
		"ID": 93008198,
		"script": "# script \"lisp\"\n# background %(wayback_background)s\n# bgmfile \"bgm255\" \"BgmSeaDate\" 0\n# body %(unit_a)s\n# pos %(unit_a)s 3\n# mask %(unit_a)s off\n# chara %(unit_a)s\n# face %(unit_a)s \"angry\"\n# fadein \"black\" 0.5\n# textflame 1 1\n# se \"SE_0733\"\n@グングニル\n納得いかんな！\n\n@グングニル\nなぜそのような\n回答を導き出したのだ！\n\n;; face %(unit_a)s \"close\"\n@グングニル\n…あ、いや…違うな…\nそなたは悪くない…\n\n@グングニル\n急に思いついて\nこんな試すようなことした\n我が悪かった…\n\n# face %(unit_a)s \"smile\"\n@グングニル\nすまない…\n違う話をしようじゃないか！\n\n# textflame 0 0\n@\nそう言って笑う彼女の笑顔は\nなんだか無理しているように見えた\n\n# textflame 1 1\n@グングニル\n…………\n\n# textflame 0 0\n@\nデート中のはずなのに…\n無理した笑顔をさせちゃうなんて…\n\n@\n…………\n\n@\n自然な笑顔で居て欲しいから…\n彼女のことちゃんと\n知っておかないとな…\n\n# fadeout \"black\" 1.2\n# waitandnext 2"
	}
]