[
	{
		"ID": 9300808,
		"script": "# script \"lisp\"\n# background %(wayback_background)s\n# bgmfile \"bgm255\" \"BgmSeaDate\" 0\n# body %(unit_a)s\n# pos %(unit_a)s 3\n# mask %(unit_a)s off\n# chara %(unit_a)s\n# fadein \"black\" 0.5\n# textflame 0 0\n@\n帰り道－\n\n# fadein \"white\" 0.5\n# se \"SE_0735\"\n# bgm \"stop\"\n# waitandnext 2\n@\n…………\n\n# fadein \"white\" 0.5\n# se \"SE_0735\"\n# waitandnext 2\n@\n…………\n\n@\nふと、\n傍らを歩く彼女が足を止めた…\n\n# bgmfile \"bgm255\" \"BgmSeaDate\" 0\n# textflame 1 1\n# face %(unit_a)s \"usual\"\n@グングニル\nそなたよ…\nちょっとよいか？\n\n@グングニル\n…………\n\n# face %(unit_a)s \"sad\"\n@グングニル\n我のことを…\nしっかり理解しているのか\n聞いてみていいか？\n\n# voice 3008 \"gunguniru_0004\"\n@グングニル\nゆくぞ？\n\n# face %(unit_a)s \"normal\"\n@グングニル\n我のキラーズ『グングニル』より\n優れていると評価されている\n武器はなんだと思う？\n\n# se \"SE_0734\"\n# select \"グラム\" \"select_label_wrong1\" \"ミョルニル\" \"select_label_correct\" \"グングニル\" \"select_label_wrong2\"\n我のキラーズ『グングニル』より\n優れていると評価されている\n武器はなんだと思う？\n\n# label \"select_label_wrong1\"\n# labeljump \"select_label_end\"\n# textwindow \"close\"\n# waitandnext 0.1\n\n# label \"select_label_correct\"\n# labeljump \"select_label_end\"\n# textwindow \"close\"\n# waitandnext 0.1\n\n# label \"select_label_wrong2\"\n# labeljump \"select_label_end\"\n# textwindow \"close\"\n# waitandnext 0.1\n\n# label \"select_label_end\"\n# waitandnext 0.1\n\n# sestop \"SE_0734\"\n# fadeout \"black\" 1.2\n# waitandnext 2"
	}
]