[
	{
		"ID": 9300410,
		"script": "# script \"lisp\"\n# background %(wayback_background)s\n# bgmfile \"bgm255\" \"BgmSeaDate\" 0\n# body %(unit_a)s\n# pos %(unit_a)s 3\n# mask %(unit_a)s off\n# chara %(unit_a)s\n# fadein \"black\" 0.5\n# textflame 0 0\n@\n帰り道－\n\n# fadein \"white\" 0.5\n# se \"SE_0735\"\n# bgm \"stop\"\n# waitandnext 2\n@\n…………\n\n# fadein \"white\" 0.5\n# se \"SE_0735\"\n# waitandnext 2\n@\n…………\n\n@\nふと、\n傍らを歩く彼女が足を止めた…\n\n# face %(unit_a)s \"sad\"\n# bgmfile \"bgm255\" \"BgmSeaDate\" 0\n# voice 3004 \"amenonuboko_0001\"\n# textflame 1 1\n@天沼矛\nねぇ…マスター\nちょっといいですか～？\n\n@天沼矛\n…………\n\n@天沼矛\nえっとですね、わたしのこと…\n知っていてくれているか\n聞いてみても…いいですか？\n\n# voice 3004 \"amenonuboko_0036\"\n# face %(unit_a)s \"smile\"\n@天沼矛\nじゃあ、いきますよ～\n\n@天沼矛\nわたしのキラーズの『天沼矛』の\n別名ではないかと\n呼ばれているものはご存知ですかぁ？\n\n# se \"SE_0734\"\n# select \"天逆鉾\" \"select_label_1\" \"天地槍\" \"select_label_2\" \"天薙刀\" \"select_label_3\"\nわたしのキラーズの『天沼矛』の\n別名ではないかと\n呼ばれているものはご存知ですかぁ？\n\n# label \"select_label_1\"\n# labeljump \"select_label_end\"\n# textwindow \"close\"\n# waitandnext 0.1\n\n# label \"select_label_2\"\n# labeljump \"select_label_end\"\n# textwindow \"close\"\n# waitandnext 0.1\n\n# label \"select_label_3\"\n# labeljump \"select_label_end\"\n# textwindow \"close\"\n# waitandnext 0.1\n\n# label \"select_label_end\"\n# waitandnext 0.1\n\n# sestop \"SE_0734\"\n# fadeout \"black\" 1.2\n# waitandnext 2"
	}
]