[
	{
		"ID": 9300639,
		"script": "# script \"lisp\"\n# background %(wayback_background)s\n# bgmfile \"bgm255\" \"BgmSeaDate\" 0\n# body %(unit_a)s\n# pos %(unit_a)s 3\n# mask %(unit_a)s off\n# chara %(unit_a)s\n# fadein \"black\" 0.5\n# textflame 0 0\n@\n帰り道－\n\n# fadein \"white\" 0.5\n# se \"SE_0735\"\n# bgm \"stop\"\n# waitandnext 2\n@\n…………\n\n# fadein \"white\" 0.5\n# se \"SE_0735\"\n# waitandnext 2\n@\n…………\n\n@\nふと、\n傍らを歩く彼女が足を止めた…\n\n# bgmfile \"bgm255\" \"BgmSeaDate\" 0\n;;雛祭り,3\n# textflame 1 1\n# voice 3006 \"torisyula_0003\"\n# face %(unit_a)s \"smile\"\n@トリシューラ\nちょっと、\nあんたのことを試してみても\nいいかい？\n\n# textflame 0 0\n@\nどんなことを試されるのだろうと、\n身構えてしまうマスター\n\n# voice 3006 \"torisyula_0007\"\n# face %(unit_a)s \"normal\"\n# textflame 1 1\n@トリシューラ\nなぁに、\nあたいに関する簡単なクイズさ\n\n# textflame 1 1\n@トリシューラ\nあんたもマスターだってんなら、\nそれくらいのことはわかるよな？\n\n# textflame 1 1\n@トリシューラ\nんじゃ、\nさっそく始めるとしようぜ？\n;;---------------------------------\n\n@%(unitName:unit_a)s\nあたいの誕生日と同じ日にある\n可愛らしい行事はなんなのか、\nわかるかい？\n\n# se \"SE_0734\"\n# select  \"端午の節句\" \"select_label_1\" \"七五三\" \"select_label_2\" \"雛祭り\" \"select_label_3\"\nあたいの誕生日と同じ日にある\n可愛らしい行事はなんなのか、\nわかるかい？\n\n# label \"select_label_1\"\n# labeljump \"select_label_end\"\n# textwindow \"close\"\n# waitandnext 0.1\n\n# label \"select_label_2\"\n# labeljump \"select_label_end\"\n# textwindow \"close\"\n# waitandnext 0.1\n\n# label \"select_label_3\"\n# labeljump \"select_label_end\"\n# textwindow \"close\"\n# waitandnext 0.1\n\n# label \"select_label_end\"\n# waitandnext 0.1\n\n# sestop \"SE_0734\"\n# fadeout \"black\" 1.2\n# waitandnext 2"
	}
]