[
	{
		"ID": 9300125,
		"script": ";;2\n# script \"lisp\"\n# background %(wayback_background)s\n# bgmfile \"bgm255\" \"BgmSeaDate\" 0\n# body %(unit_a)s\n# pos %(unit_a)s 3\n# mask %(unit_a)s off\n# chara %(unit_a)s\n# fadein \"black\" 0.5\n# textflame 0 0\n@\n帰り道－\n\n# fadein \"white\" 0.5\n# se \"SE_0735\"\n# bgm \"stop\"\n# waitandnext 2\n@\n…………\n\n# fadein \"white\" 0.5\n# se \"SE_0735\"\n# waitandnext 2\n@\n…………\n\n@\nふと、\n傍らを歩く彼女が足を止めた…\n\n# voice 3001 \"ronginusu_0002\"\n# textflame 1 1\n# bgmfile \"bgm255\" \"BgmSeaDate\" 0\n# face %(unit_a)s \"sad\"\n@ロンギヌス\n…単刀直入に聞きますね！\n\n# textflame 1 1\n@ロンギヌス\nマスターは私のことを…\nどれくらい知ってくれてますか？\n\n# voice 3001 \"ronginusu_0036\"\n# textflame 1 1\n@ロンギヌス\n急でごめんなさい…\n質問しますね！\n\n# textflame 1 1\n# textflame 1 1\n# face %(unit_a)s \"normal\"\n@ロンギヌス\n恥ずかしい話なのですが、\n一時期私は自分のことを\n○○じゃないかと思っていました…\n\n# se \"SE_0734\"\n# select \"ペテン師\" \"select_label_1\" \"吸血鬼\" \"select_label_2\" \"魔女\" \"select_label_3\"\n恥ずかしい話なのですが、\n一時期私は自分のことを\n○○じゃないかと思っていました…\n\n# label \"select_label_1\"\n# labeljump \"select_label_end\"\n# textwindow \"close\"\n# waitandnext 0.1\n\n# label \"select_label_2\"\n# labeljump \"select_label_end\"\n# textwindow \"close\"\n# waitandnext 0.1\n\n# label \"select_label_3\"\n# labeljump \"select_label_end\"\n# textwindow \"close\"\n# waitandnext 0.1\n\n# label \"select_label_end\"\n# waitandnext 0.1\n\n# sestop \"SE_0734\"\n# fadeout \"black\" 1.2\n# waitandnext 2\n"
	}
]