[
	{
		"ID": 93001498,
		"script": "# script \"lisp\"\n# background %(wayback_background)s\n# bgmfile \"bgm255\" \"BgmSeaDate\" 0\n# body %(unit_a)s\n# pos %(unit_a)s 3\n# mask %(unit_a)s off\n# chara %(unit_a)s\n# fadein \"black\" 0.5\n# textflame 1 1\n# se \"SE_0733\"\n# face %(unit_a)s \"sad\"\n# voice 3001 \"ronginusu_unit_1006\"\n@ロンギヌス\n…でしゃばりました！\nすみません…\n\n# textflame 1 1\n@ロンギヌス\n大事なことは…\n口で言わないと\n伝わりませんよね\n\n# textflame 1 1\n@ロンギヌス\n目と目で通じ合うとか…\n夢のまた夢ですよね…\n\n# voice 3001 \"ronginusu_0027\"\n# textflame 1 1\n@ロンギヌス\n…………\n\n# textflame 0 0\n@\n彼女のあまりに\nがっかりした顔に\nマスターの心はギュッと痛んだ\n\n# textflame 0 0\n@\nデート中のはずなのに…\nなにやってるんだろう\n\n# textflame 0 0\n@\n急に聞かれても間違えないように\nしっかりと心に刻んでおかないとな…\n\n# fadeout \"black\" 1.2\n# waitandnext 2"
	}
]