[
	{
		"ID": 9301827,
		"script": "# script \"lisp\"\n# background %(wayback_background)s\n# bgmfile \"bgm255\" \"BgmSeaDate\" 0\n# body %(unit_a)s\n# pos %(unit_a)s 3\n# mask %(unit_a)s off\n# chara %(unit_a)s\n# fadein \"black\" 0.5\n# textflame 0 0\n@\n帰り道－\n\n# fadein \"white\" 0.5\n# se \"SE_0735\"\n# bgm \"stop\"\n# waitandnext 2\n@\n…………\n\n# fadein \"white\" 0.5\n# se \"SE_0735\"\n# waitandnext 2\n@\n…………\n\n@\nふと、\n傍らを歩く彼女が足を止めた…\n\n# bgmfile \"bgm255\" \"BgmSeaDate\" 0\n;;冷静派,1\n# textflame 1 1\n# face %(unit_a)s \"usual\"\n# voice 3018 \"forcas_0001\"\n@フォルカス\nマスター、\nちょっといいですか…？\n\n# textflame 1 1\n@フォルカス\n実は今日の占いで、\nクイズをするといいって\n出たんですけど…\n\n# face %(unit_a)s \"smile\"\n# textflame 1 1\n@フォルカス\nよければ、クイズ、\nやってみませんか…？\n\n# textflame 1 1\n@フォルカス\nそんなに、難しいことは\n聞かないと思いますから…\nたぶん\n\n# textflame 0 0\n@\nクイズか、それも面白そうだ\nよし、やろう\n\n# voice 3018 \"forcas_0036\"\n# textflame 1 1\n@フォルカス\n気合いは、十分みたいですね…\nじゃあ、始めますよ？\n;;---------------------------------\n\n@%(unitName:unit_a)s\n私はセブンスキラーズ随一の\n何と呼ばれているでしょう…？\n\n# se \"SE_0734\"\n# select  \"冷静派\" \"select_label_1\" \"穏健派\" \"select_label_2\" \"武闘派\" \"select_label_3\"\n私はセブンスキラーズ随一の\n何と呼ばれているでしょう…？\n\n# label \"select_label_1\"\n# labeljump \"select_label_end\"\n# textwindow \"close\"\n# waitandnext 0.1\n\n# label \"select_label_2\"\n# labeljump \"select_label_end\"\n# textwindow \"close\"\n# waitandnext 0.1\n\n# label \"select_label_3\"\n# labeljump \"select_label_end\"\n# textwindow \"close\"\n# waitandnext 0.1\n\n# label \"select_label_end\"\n# waitandnext 0.1\n\n# sestop \"SE_0734\"\n# fadeout \"black\" 1.2\n# waitandnext 2"
	}
]