[
	{
		"ID": 9302113,
		"script": "# script \"lisp\"\n# background %(wayback_background)s\n# bgmfile \"bgm255\" \"BgmSeaDate\" 0\n# body %(unit_a)s\n# pos %(unit_a)s 3\n# mask %(unit_a)s off\n# chara %(unit_a)s\n# fadein \"black\" 0.5\n# textflame 0 0\n@\n帰り道－\n\n# fadein \"white\" 0.5\n# se \"SE_0735\"\n# bgm \"stop\"\n# waitandnext 2\n@\n…………\n\n# fadein \"white\" 0.5\n# se \"SE_0735\"\n# waitandnext 2\n@\n…………\n\n@\nふと、\n傍らを歩く彼女が足を止めた…\n\n# bgmfile \"bgm255\" \"BgmSeaDate\" 0\n;;2月4日,3\n# textflame 1 1\n@ガ・ボー\n………\n\n# voice 3021 \"gaebuide_0001\"\n# face %(unit_a)s \"sad\"\n@ガ・ボー\n…あ\nマスター、すみません…\n\n# voice 3021 \"gaebuide_0003\"\n# face %(unit_a)s \"normal\"\n@ガ・ボー\n姉様のことを考えていました\n\n@ガ・ボー\nボーの姉様は…\n\n# face %(unit_a)s \"sad\"\n@ガ・ボー\nえ？ボーのことも知りたい…？\nそんなの知っても\n面白くないですよ…？\n\n# voice 3021 \"gaebuide_0032\"\n# face %(unit_a)s \"smile\"\n@ガ・ボー\nわかりました…\nじゃあ…\n問題を出しますね\n;;---------------------------------\n\n@%(unitName:unit_a)s\nボーの誕生日はいつでしょうか？\n\n# se \"SE_0734\"\n# select  \"11月4日\" \"select_label_1\" \"7月4日\" \"select_label_2\" \"2月4日\" \"select_label_3\"\nボーの誕生日はいつでしょうか？\n\n# label \"select_label_1\"\n# labeljump \"select_label_end\"\n# textwindow \"close\"\n# waitandnext 0.1\n\n# label \"select_label_2\"\n# labeljump \"select_label_end\"\n# textwindow \"close\"\n# waitandnext 0.1\n\n# label \"select_label_3\"\n# labeljump \"select_label_end\"\n# textwindow \"close\"\n# waitandnext 0.1\n\n# label \"select_label_end\"\n# waitandnext 0.1\n\n# sestop \"SE_0734\"\n# fadeout \"black\" 1.2\n# waitandnext 2"
	}
]