[
	{
		"ID": 9302128,
		"script": "# script \"lisp\"\n# background %(wayback_background)s\n# bgmfile \"bgm255\" \"BgmSeaDate\" 0\n# body %(unit_a)s\n# pos %(unit_a)s 3\n# mask %(unit_a)s off\n# chara %(unit_a)s\n# fadein \"black\" 0.5\n# textflame 0 0\n@\n帰り道－\n\n# fadein \"white\" 0.5\n# se \"SE_0735\"\n# bgm \"stop\"\n# waitandnext 2\n@\n…………\n\n# fadein \"white\" 0.5\n# se \"SE_0735\"\n# waitandnext 2\n@\n…………\n\n@\nふと、\n傍らを歩く彼女が足を止めた…\n\n# bgmfile \"bgm255\" \"BgmSeaDate\" 0\n;;ビートルズの日,2\n# textflame 1 1\n# face %(unit_a)s \"sad\"\n# voice 3021 \"gaebuide_0008\"\n@ガ・ボー\n…あぁ\n\n@ガ・ボー\n戦闘以外でも…\nボーは役立たず…\n\n# textflame 0 0\n@\nここに来る途中で落としてしまった\nソフトクリームのことを\n気に病んでいる彼女\n\n# textflame 1 1\n;;# voice 3021 \"gaebuide_0009\"\n# face %(unit_a)s \"normal\"\n# voice 3021 \"gaebuide_0001\"\n@ガ・ボー\nボーはどうしてこんななのか…\n自分でも自分がわからない…\n\n# voice 3021 \"gaebuide_0001\"\n@ガ・ボー\nだから、マスター…\nボーのこと…\n\n# face %(unit_a)s \"sad\"\n@ガ・ボー\n…教えて下さい\n;;---------------------------------\n\n@%(unitName:unit_a)s\nボーの誕生日って\nなんの日だか知ってますか…？\n\n# se \"SE_0734\"\n# select  \"東の日\" \"select_label_1\" \"西の日\" \"select_label_2\" \"北の日\" \"select_label_3\"\nボーの誕生日って\nなんの日だか知ってますか…？\n\n# label \"select_label_1\"\n# labeljump \"select_label_end\"\n# textwindow \"close\"\n# waitandnext 0.1\n\n# label \"select_label_2\"\n# labeljump \"select_label_end\"\n# textwindow \"close\"\n# waitandnext 0.1\n\n# label \"select_label_3\"\n# labeljump \"select_label_end\"\n# textwindow \"close\"\n# waitandnext 0.1\n\n# label \"select_label_end\"\n# waitandnext 0.1\n\n# sestop \"SE_0734\"\n# fadeout \"black\" 1.2\n# waitandnext 2"
	}
]