[
	{
		"ID": 93032398,
		"script": "# script \"lisp\"\n# background %(wayback_background)s\n# bgmfile \"bgm255\" \"BgmSeaDate\" 0\n# body %(unit_a)s\n# pos %(unit_a)s 3\n# mask %(unit_a)s off\n# chara %(unit_a)s\n# fadein \"black\" 0.5\n# textflame 1 1\n# face %(unit_a)s \"sad\"\n# voice 230321 \"gaedearg_ge_0028\"\n# se \"SE_0733\"\n@ガ・ジャルグ\nその答え…\n\n@ガ・ジャルグ\n不正解よ\n\n@ガ・ジャルグ\nやはりあなたには、\nなにも見えていなかったのね\n\n@ガ・ジャルグ\n…先に帰るわ\n\n;;モノローグ\n# textflame 0 0\n@\n追いかけようとするマスター\nだが…、\n\n# textflame 1 1\n# voice 230321 \"gaedearg_ge_0027\"\n@ガ・ジャルグ\n悪いけれど、しばらく\n放っておいてくれる？\n\n@ガ・ジャルグ\nあの子のことが気になるから…\n\n@ガ・ジャルグ\nこんなことしてる場合じゃないの\n\n;;モノローグ\n# textflame 0 0\n@\n悲しみに満ちた目で、\n去ってゆく彼女\n\n;;モノローグ\n# textflame 0 0\n@\nマスターは、彼女の心の支えに\nなってあげられなかったことを\n深く後悔していた\n\n# fadeout \"black\" 1.2\n# waitandnext 2\n"
	}
]