[
	{
		"ID": 9400738,
		"script": "# script \"lisp\"\n# background %(wayback_background)s\n# bgmfile \"bgm255\" \"BgmSeaDate\" 0\n# body %(unit_a)s\n# pos %(unit_a)s 3\n# mask %(unit_a)s off\n# chara %(unit_a)s\n# fadein \"black\" 0.5\n# textflame 0 0\n@\n帰り道－\n\n# fadein \"white\" 0.5\n# se \"SE_0735\"\n# bgm \"stop\"\n# waitandnext 2\n@\n…………\n\n# fadein \"white\" 0.5\n# se \"SE_0735\"\n# waitandnext 2\n@\n…………\n\n@\nふと、\n傍らを歩く彼女が足を止めた…\n\n# bgmfile \"bgm255\" \"BgmSeaDate\" 0\n;;Eden,2\n# textflame 1 1\n# voice 4007 \"shekina_0001\"\n@シェキナー\nマスター、ちょっといいですか…？\n\n@シェキナー\n今日のデート中…\n\n# voice 4007 \"shekina_0037\"\n# eye %(unit_a)s \"close\"\n@シェキナー\n周りの人達はみんな、\n私の派手な水着を\nじろじろと見ていました\n\n# eye %(unit_a)s \"normal\"\n# face %(unit_a)s \"sad\"\n@シェキナー\nマスターは…\nそうじゃないですよね？\n\n# face %(unit_a)s \"normal\"\n# voice 4007 \"shekina_0042\"\n@シェキナー\nちゃんと私の内面まで\n見てくれている…\nそう信じています\n\n@シェキナー\n…ということで\n\n# voice 4007 \"shekina_0004\"\n# face %(unit_a)s \"smile\"\n@シェキナー\n質問させていただきますね？\n;;---------------------------------\n\n@%(unitName:unit_a)s\n私の出身地の\n正確なスペルはどれでしょうか？\n\n# se \"SE_0734\"\n# select  \"Edo\" \"select_label_1\" \"Eden\" \"select_label_2\" \"Edion\" \"select_label_3\"\n私の出身地の\n正確なスペルはどれでしょうか？\n\n# label \"select_label_1\"\n# labeljump \"select_label_end\"\n# textwindow \"close\"\n# waitandnext 0.1\n\n# label \"select_label_2\"\n# labeljump \"select_label_end\"\n# textwindow \"close\"\n# waitandnext 0.1\n\n# label \"select_label_3\"\n# labeljump \"select_label_end\"\n# textwindow \"close\"\n# waitandnext 0.1\n\n# label \"select_label_end\"\n# waitandnext 0.1\n\n# sestop \"SE_0734\"\n# fadeout \"black\" 1.2\n# waitandnext 2"
	}
]