[
	{
		"ID": 94007299,
		"script": "# script \"lisp\"\n# background %(wayback_background)s\n# bgmfile \"bgm255\" \"BgmSeaDate\" 0\n# body %(unit_a)s\n# pos %(unit_a)s 3\n# mask %(unit_a)s off\n# chara %(unit_a)s\n# fadein \"black\" 0.5\n# textflame 1 1\n# face %(unit_a)s \"smile\"\n# se \"SE_0732\"\n# voice 4007 \"shekina_0021\"\n@シェキナー\n正解です！\n\n# face %(unit_a)s \"normal\"\n@シェキナー\nさすがはマスター\n\n# voice 4007 \"shekina_0005\"\n# face %(unit_a)s \"smile\"\n@シェキナー\nこれで私達の絆は\nもっと深いものになるでしょう！\n\n@シェキナー\nだって私はマスターのこと…\n\n@シェキナー\n全部わかってますから\n\n# textflame 0 0\n@\nニコリと微笑む彼女\n\n@\nとても嬉しそうな彼女の言葉通り、\nマスターは二人の絆が\nより深まったのを実感した…\n\n# fadeout \"black\" 1.2\n# waitandnext 2"
	}
]