[
	{
		"ID": 9400725,
		"script": "# script \"lisp\"\n# background %(wayback_background)s\n# bgmfile \"bgm255\" \"BgmSeaDate\" 0\n# body %(unit_a)s\n# pos %(unit_a)s 3\n# mask %(unit_a)s off\n# chara %(unit_a)s\n# fadein \"black\" 0.5\n# textflame 0 0\n@\n帰り道－\n\n# fadein \"white\" 0.5\n# se \"SE_0735\"\n# bgm \"stop\"\n# waitandnext 2\n@\n…………\n\n# fadein \"white\" 0.5\n# se \"SE_0735\"\n# waitandnext 2\n@\n…………\n\n@\nふと、\n傍らを歩く彼女が足を止めた…\n\n# bgmfile \"bgm255\" \"BgmSeaDate\" 0\n;;赤色,2\n# textflame 1 1\n# voice 4007 \"shekina_0001\"\n@シェキナー\nあの、マスター\n\n@シェキナー\n今日のデート中…\n\n# face %(unit_a)s \"sad\"\n@シェキナー\nずっと私の胸ばっかり\n見ていませんでしたか…？\n\n# face %(unit_a)s \"angry\"\n# voice 4007 \"shekina_0012\"\n@シェキナー\n誤魔化してもダメです！\nそんなに言うなら\n私のことどこまで分かっているのか…\n\n@シェキナー\n試させて頂きます！\n;;---------------------------------\n\n@%(unitName:unit_a)s\n私の持つ弓の色は分かりますか？\n\n# se \"SE_0734\"\n# select  \"青色\" \"select_label_1\" \"赤色\" \"select_label_2\" \"黄色\" \"select_label_3\"\n私の持つ弓の色は分かりますか？\n\n# label \"select_label_1\"\n# labeljump \"select_label_end\"\n# textwindow \"close\"\n# waitandnext 0.1\n\n# label \"select_label_2\"\n# labeljump \"select_label_end\"\n# textwindow \"close\"\n# waitandnext 0.1\n\n# label \"select_label_3\"\n# labeljump \"select_label_end\"\n# textwindow \"close\"\n# waitandnext 0.1\n\n# label \"select_label_end\"\n# waitandnext 0.1\n\n# sestop \"SE_0734\"\n# fadeout \"black\" 1.2\n# waitandnext 2"
	}
]