[
	{
		"ID": 9400234,
		"script": "# script \"lisp\"\n# background %(wayback_background)s\n# bgmfile \"bgm255\" \"BgmSeaDate\" 0\n# body %(unit_a)s\n# pos %(unit_a)s 3\n# mask %(unit_a)s off\n# chara %(unit_a)s\n# fadein \"black\" 0.5\n# textflame 0 0\n# face %(unit_a)s \"usual\"\n@\n帰り道－\n\n# fadein \"white\" 0.5\n# se \"SE_0735\"\n# bgm \"stop\"\n# waitandnext 2\n@\n…………\n\n# fadein \"white\" 0.5\n# se \"SE_0735\"\n# waitandnext 2\n@\n…………\n\n@\nふと、\n傍らを歩く彼女が足を止めた…\n\n# bgmfile \"bgm255\" \"BgmSeaDate\" 0\n# textflame 1 1\n# face %(unit_a)s \"usual\"\n# voice 4002 \"pinaka_0001\"\n@ピナーカ\nあのよ…\n\n@ピナーカ\n急なんだけどさ、オイラのこと\n…ちゃんと知っててくれているか\n試してもいいか…？\n\n# face %(unit_a)s \"angry\"\n@ピナーカ\nえっと、なんていうか…\nクイズ…みたいな感じだよ、クイズ！\n\n# voice 4002 \"pinaka_0007\"\n@ピナーカ\nじゃ、いくぜ？\n\n# face %(unit_a)s \"normal\"\n@ピナーカ\nオイラの血液型はB型なんだけど、\n同じやつはどいつかわかるかい？\n\n# se \"SE_0734\"\n# select \"アイムール\" \"select_label_wrong1\" \"ミョルニル\" \"select_label_correct\" \"グラム\" \"select_label_wrong2\"\nオイラの血液型はB型なんだけど、\n同じやつはどいつかわかるかい？\n\n# label \"select_label_wrong1\"\n# labeljump \"select_label_end\"\n# textwindow \"close\"\n# waitandnext 0.1\n\n# label \"select_label_correct\"\n# labeljump \"select_label_end\"\n# textwindow \"close\"\n# waitandnext 0.1\n\n# label \"select_label_wrong2\"\n# labeljump \"select_label_end\"\n# textwindow \"close\"\n# waitandnext 0.1\n\n# label \"select_label_end\"\n# waitandnext 0.1\n\n# sestop \"SE_0734\"\n# fadeout \"black\" 1.2\n# waitandnext 2"
	}
]