[
	{
		"ID": 9400107,
		"script": "# script \"lisp\"\n# background %(wayback_background)s\n# bgmfile \"bgm255\" \"BgmSeaDate\" 0\n# body %(unit_a)s\n# pos %(unit_a)s 3\n# mask %(unit_a)s off\n# chara %(unit_a)s\n# fadein \"black\" 0.5\n# textflame 0 0\n@\n帰り道－\n\n# fadein \"white\" 0.5\n# se \"SE_0735\"\n# bgm \"stop\"\n# waitandnext 2\n@\n…………\n\n# fadein \"white\" 0.5\n# se \"SE_0735\"\n# waitandnext 2\n@\n…………\n\n@\nふと、\n傍らを歩く彼女が足を止めた…\n\n# bgmfile \"bgm255\" \"BgmSeaDate\" 0\n# textflame 1 1\n# voice 4001 \"arutemisu_0001\"\n@アルテミス\nマスター…\n確認しておきたいことがあります\n\n# face %(unit_a)s \"sad\"\n@アルテミス\n指揮官として\nマスターは私の性能を\nどれほど把握されているのか…\n\n@アルテミス\n知っておかなければと思いまして\n\n# voice 4001 \"arutemisu_0036\"\n# face %(unit_a)s \"smile\"\n@アルテミス\n質問、させていただきますね？\n\n# face %(unit_a)s \"normal\"\n@アルテミス\n私のキラーズ『アルテミスの弓』の\n持ち主であるアルテミスと特に\n深い関わりのある獣はなんでしょう？\n\n# se \"SE_0734\"\n# select \"熊\" \"select_label_1\" \"猪\" \"select_label_2\" \"狼\" \"select_label_3\"\n私のキラーズ『アルテミスの弓』の\n持ち主であるアルテミスと特に\n深い関わりのある獣はなんでしょう？\n\n# label \"select_label_1\"\n# labeljump \"select_label_end\"\n# textwindow \"close\"\n# waitandnext 0.1\n\n# label \"select_label_2\"\n# labeljump \"select_label_end\"\n# textwindow \"close\"\n# waitandnext 0.1\n\n# label \"select_label_3\"\n# labeljump \"select_label_end\"\n# textwindow \"close\"\n# waitandnext 0.1\n\n# label \"select_label_end\"\n# waitandnext 0.1\n\n# sestop \"SE_0734\"\n# fadeout \"black\" 1.2\n# waitandnext 2"
	}
]