[
	{
		"ID": 9400537,
		"script": "# script \"lisp\"\n# background %(wayback_background)s\n# bgmfile \"bgm255\" \"BgmSeaDate\" 0\n# body %(unit_a)s\n# pos %(unit_a)s 3\n# mask %(unit_a)s off\n# chara %(unit_a)s\n# fadein \"black\" 0.5\n# textflame 0 0\n# face %(unit_a)s \"usual\"\n@\n帰り道－\n\n# fadein \"white\" 0.5\n# se \"SE_0735\"\n# bgm \"stop\"\n# waitandnext 2\n@\n…………\n\n# fadein \"white\" 0.5\n# se \"SE_0735\"\n# waitandnext 2\n@\n…………\n\n@\nふと、\n傍らを歩く彼女が足を止めた…\n\n# bgmfile \"bgm255\" \"BgmSeaDate\" 0\n# textflame 1 1\n;; face %(unit_a)s \"close\"\n# voice 4005 \"yoichi_0001\"\n@与一\nあの…マスター？\n\n# face %(unit_a)s \"usual\"\n@与一\n私のこと…\nちゃんと知っててくれているか\n試してみても…いいですか？\n\n# face %(unit_a)s \"smile\"\n@与一\nえっと、なんていうか…\nクイズ…みたいな感じ、です！\n\n# voice 4005 \"yoichi_0004\"\n@与一\nでは…参ります！\n\n@与一\n与一と仲良くしてくれて、\nいつも“あの方”には感謝しています\n\n# se \"SE_0734\"\n# select \"マサムネ\" \"select_label_correct\" \"パラシュ\" \"select_label_wrong1\" \"ティルフィング\" \"select_label_wrong2\"\n与一と仲良くしてくれて、\nいつも“あの方”には感謝しています\n\n# label \"select_label_correct\"\n# labeljump \"select_label_end\"\n# textwindow \"close\"\n# waitandnext 0.1\n\n# label \"select_label_wrong1\"\n# labeljump \"select_label_end\"\n# textwindow \"close\"\n# waitandnext 0.1\n\n# label \"select_label_wrong2\"\n# labeljump \"select_label_end\"\n# textwindow \"close\"\n# waitandnext 0.1\n\n# label \"select_label_end\"\n# waitandnext 0.1\n\n# sestop \"SE_0734\"\n# fadeout \"black\" 1.2\n# waitandnext 2"
	}
]