[
	{
		"ID": 9400135,
		"script": "# script \"lisp\"\n# background %(wayback_background)s\n# bgmfile \"bgm255\" \"BgmSeaDate\" 0\n# body %(unit_a)s\n# pos %(unit_a)s 3\n# mask %(unit_a)s off\n# chara %(unit_a)s\n# fadein \"black\" 0.5\n# textflame 0 0\n@\n帰り道－\n\n# fadein \"white\" 0.5\n# se \"SE_0735\"\n# bgm \"stop\"\n# waitandnext 2\n@\n…………\n\n# fadein \"white\" 0.5\n# se \"SE_0735\"\n# waitandnext 2\n@\n…………\n\n@\nふと、\n傍らを歩く彼女が足を止めた…\n\n# face %(unit_a)s \"sad\"\n# bgmfile \"bgm255\" \"BgmSeaDate\" 0\n# textflame 1 1\n# voice 4001 \"arutemisu_0031\"\n@アルテミス\nマスターにお仕えするようになって\nしばらく経ちますが…\n\n# face %(unit_a)s \"normal\"\n@アルテミス\n最近は、指示をいただかなくても\nなんとなく意図が\n汲み取れる気がします！\n\n# voice 4001 \"arutemisu_0004\"\n# eye %(unit_a)s \"close\"\n@アルテミス\nマスターにも…\n私の考えていることが\n伝わっていればいいのですが…\n\n# eye %(unit_a)s \"normal\"\n@アルテミス\n私のことを…\n聞いてみてよいでしょうか…？\n\n@アルテミス\n私はこれの中の一人に\n数えられますね\n\n# se \"SE_0734\"\n# select \"セブンスキラーズ\" \"select_label_1\" \"ファーストキラーズ\" \"select_label_2\" \"ウルフキラーズ\" \"select_label_3\"\n私はこれの中の一人に\n数えられますね\n\n# label \"select_label_1\"\n# labeljump \"select_label_end\"\n# textwindow \"close\"\n# waitandnext 0.1\n\n# label \"select_label_2\"\n# labeljump \"select_label_end\"\n# textwindow \"close\"\n# waitandnext 0.1\n\n# label \"select_label_3\"\n# labeljump \"select_label_end\"\n# textwindow \"close\"\n# waitandnext 0.1\n\n# label \"select_label_end\"\n# waitandnext 0.1\n\n# sestop \"SE_0734\"\n# fadeout \"black\" 1.2\n# waitandnext 2"
	}
]