[
	{
		"ID": 95006299,
		"script": "# script \"lisp\"\n# background %(wayback_background)s\n# bgmfile \"bgm255\" \"BgmSeaDate\" 0\n# body %(unit_a)s\n# pos %(unit_a)s 3\n# mask %(unit_a)s off\n# chara %(unit_a)s\n# fadein \"black\" 0.5\n# textflame 1 1\n# face %(unit_a)s \"smile\"\n# voice 5006 \"megido_0041\"\n# se \"SE_0732\"\n@メギド\n…褒めて差し上げます\n\n# textflame 1 1\n@メギド\nどうやって学んだかまでは\n追求しないけれど…\n\n# voice 5006 \"megido_0004\"\n# textflame 1 1\n@メギド\n随分と…\n私のことを\n理解しているのね\n\n# textflame 0 0\n@\nニヤリと微笑む彼女は\n嬉しそうに見えて…\n\n# textflame 0 0\n@\nマスターは二人の絆が\nより深まったのを実感した…\n\n# fadeout \"black\" 1.2\n# waitandnext 2"
	}
]