[
	{
		"ID": 95008498,
		"script": "# script \"lisp\"\n# background %(wayback_background)s\n# bgmfile \"bgm255\" \"BgmSeaDate\" 0\n# body %(unit_a)s\n# pos %(unit_a)s 3\n# mask %(unit_a)s off\n# chara %(unit_a)s\n# fadein \"black\" 0.5\n# textflame 1 1\n# se \"SE_0733\"\n# face %(unit_a)s \"angry\"\n# voice 5008 \"bashosen_0007\"\n@芭蕉扇\n…もう、なによ！\n不正解じゃない\n\n# face %(unit_a)s \"sad\"\n@芭蕉扇\n…でも…急にこんなことする\n私のほうがどうかしてるのよね…\n\n@芭蕉扇\n楽しいデート中に\nあなたを試すようなことして…\n\n# voice 5008 \"bashosen_0031\"\n@芭蕉扇\nごめんなさい…\n\n# textflame 0 0\n@\n彼女が自分のせいにするのを見て\nマスターの心はギュッと痛んだ\n\n@\nデート中のはずなのに…\nなにやってるんだろう\n\n@\n急に聞かれても間違えないように\nしっかりと心に刻んでおかないとな…\n\n# fadeout　\"black\" 1.2\n# waitandnext 2"
	}
]