[
	{
		"ID": 95005398,
		"script": "# script \"lisp\"\n# background %(wayback_background)s\n# bgmfile \"bgm255\" \"BgmSeaDate\" 0\n# body %(unit_a)s\n# pos %(unit_a)s 3\n# mask %(unit_a)s off\n# chara %(unit_a)s\n# fadein \"black\" 0.5\n# textflame 1 1\n# se \"SE_0733\"\n# face %(unit_a)s \"angry\"\n# voice 5005 \"vajura_0013\"\n@ヴァジュラ\nおい、違うって！\n\n# face %(unit_a)s \"sad\"\n@ヴァジュラ\nなんだよ、\nさっきの射的は\n命中させてたのに…\n\n# voice 5005 \"vajura_0008\"\n@ヴァジュラ\n肝心なとこは\n外しちゃうんだな…\n\n# face %(unit_a)s \"usual\"\n@ヴァジュラ\nま、それも\nマスターらしいっつーか…\n\n# voice 5005 \"vajura_0036\"\n@ヴァジュラ\n今度は…\n外さないでくれよな…？\n\n# textflame 0 0\n@\nいつも元気な彼女が\n落ち込む顔は、\nマスターの胸を痛ませた\n\n@\nデート中のはずなのに…\nごめんよ…\n\n@\n次の機会は\n絶対間違えないようにしないと\nいけないな…\n\n# fadeout \"black\" 1.2\n# waitandnext 2\n"
	}
]