[
	{
		"ID": 9500104,
		"script": "# script \"lisp\"\n# background %(wayback_background)s\n# bgmfile \"bgm255\" \"BgmSeaDate\" 0\n# body %(unit_a)s\n# pos %(unit_a)s 3\n# mask %(unit_a)s off\n# chara %(unit_a)s\n# fadein \"black\" 0.5\n# textflame 0 0\n@\n帰り道－\n\n# fadein \"white\" 0.5\n# se \"SE_0735\"\n# bgm \"stop\"\n# waitandnext 2\n@\n…………\n\n# fadein \"white\" 0.5\n# se \"SE_0735\"\n# waitandnext 2\n@\n…………\n\n@\nふと、\n傍らを歩く彼女が足を止めた…\n\n# bgmfile \"bgm255\" \"BgmSeaDate\" 0\n# textflame 1 1\n# voice 5001 \"keraunosu_0001\"\n@ケラウノス\nマスター！\nちょっと聞いていい～？\n\n# face %(unit_a)s \"sad\"\n@ケラウノス\n私たちって\nもう二人で出かけるような\n関係なわけだよね…？\n\n@ケラウノス\nつまり…\n他の子より、特別ってことだよね♪\n\n# voice 5001 \"keraunosu_0036\"\n# face %(unit_a)s \"smile\"\n@ケラウノス\n私のこと\nどれくらい知ってるかさ…教えて♪\n\n# face %(unit_a)s \"normal\"\n@ケラウノス\nゼウスが『ケラウノス』を使って\n一網打尽にしたのってなんて奴ら？\n\n# se \"SE_0734\"\n# select \"ティーターン神族\" \"select_label_1\" \"Ｕターン族\" \"select_label_2\" \"カミナリ族\" \"select_label_3\"\nゼウスが『ケラウノス』を使って\n一網打尽にしたのってなんて奴ら？\n\n# label \"select_label_1\"\n# labeljump \"select_label_end\"\n# textwindow \"close\"\n# waitandnext 0.1\n\n# label \"select_label_2\"\n# labeljump \"select_label_end\"\n# textwindow \"close\"\n# waitandnext 0.1\n\n# label \"select_label_3\"\n# labeljump \"select_label_end\"\n# textwindow \"close\"\n# waitandnext 0.1\n\n# label \"select_label_end\"\n# waitandnext 0.1\n\n# sestop \"SE_0734\"\n# fadeout \"black\" 1.2\n# waitandnext 2"
	}
]