[
	{
		"ID": 9500824,
		"script": "# script \"lisp\"\n# background %(wayback_background)s\n# bgmfile \"bgm255\" \"BgmSeaDate\" 0\n# body %(unit_a)s\n# pos %(unit_a)s 3\n# mask %(unit_a)s off\n# chara %(unit_a)s\n# fadein \"black\" 0.5\n# textflame 0 0\n# face %(unit_a)s \"usual\"\n@\n帰り道－\n\n# fadein \"white\" 0.5\n# se \"SE_0735\"\n# bgm \"stop\"\n# waitandnext 2\n@\n…………\n\n# fadein \"white\" 0.5\n# se \"SE_0735\"\n# waitandnext 2\n@\n…………\n\n@\nふと、\n傍らを歩く彼女が足を止めた…\n\n# face %(unit_a)s \"smile\"\n# bgmfile \"bgm255\" \"BgmSeaDate\" 0\n# textflame 1 1\n# voice 5008 \"bashosen_0001\"\n@芭蕉扇\nねぇ、あなた…\n\n# face %(unit_a)s \"smile\"\n@芭蕉扇\nうふふふ…\n突然だけど、\nクイズのコーナーよ！\n\n# face %(unit_a)s \"sad\"\n@芭蕉扇\nもう、いいからつきあって頂戴！\n\n# face %(unit_a)s \"usual\"\n@芭蕉扇\nさあ、いくわよ！\n\n@芭蕉扇\n私がハロウィンの時に\nあなたに代わってしたこと…\n覚えてる？\n\n# se \"SE_0734\"\n# select \"ガチャを引く\" \"select_label_1\" \"隊を指揮する\" \"select_label_2\" \"お菓子を配り歩く\" \"select_label_3\"\n私がハロウィンの時に\nあなたに代わってしたこと…\n覚えてる？\n\n# label \"select_label_1\"\n# labeljump \"select_label_end\"\n# textwindow \"close\"\n# waitandnext 0.1\n\n# label \"select_label_2\"\n# labeljump \"select_label_end\"\n# textwindow \"close\"\n# waitandnext 0.1\n\n# label \"select_label_3\"\n# labeljump \"select_label_end\"\n# textwindow \"close\"\n# waitandnext 0.1\n\n# label \"select_label_end\"\n# waitandnext 0.1\n\n# sestop \"SE_0734\"\n# fadeout \"black\" 1.2\n# waitandnext 2"
	}
]