[
	{
		"ID": 95003499,
		"script": "# script \"lisp\"\n# background %(wayback_background)s\n# bgmfile \"bgm255\" \"BgmSeaDate\" 0\n# body %(unit_a)s\n# pos %(unit_a)s 3\n# mask %(unit_a)s off\n# chara %(unit_a)s\n# fadein \"black\" 0.5\n# textflame 1 1\n# face %(unit_a)s \"smile\"\n# se \"SE_0732\"\n# voice 5003 \"yatanokagami_0006\"\n@八咫鏡\nよし、くるしゅうない！\n\n# face %(unit_a)s \"angry\"\n@八咫鏡\n主がここまでやるとはな…\nうん？\nう、疑ってたわけじゃないぞ？\n\n@八咫鏡\nも、もう…本当じゃ！\n\n# textflame 0 0\n@\n彼女はあわあわしながらも\nさっきまでとは違う\nまた新鮮な笑顔を見せてくれた\n\n@\nその笑顔が見れたことで\n彼女との絆が\nまた深まったのを実感した…\n\n# fadeout \"black\" 1.2\n# waitandnext 2"
	}
]