[
	{
		"ID": 9500716,
		"script": "# script \"lisp\"\n# background %(wayback_background)s\n# bgmfile \"bgm255\" \"BgmSeaDate\" 0\n# body %(unit_a)s\n# pos %(unit_a)s 3\n# mask %(unit_a)s off\n# chara %(unit_a)s\n# fadein \"black\" 0.5\n# textflame 0 0\n@\n帰り道－\n\n# fadein \"white\" 0.5\n# se \"SE_0735\"\n# bgm \"stop\"\n# waitandnext 2\n@\n…………\n\n# fadein \"white\" 0.5\n# se \"SE_0735\"\n# waitandnext 2\n@\n…………\n\n@\nふと、\n傍らを歩く彼女が足を止めた…\n\n# bgmfile \"bgm255\" \"BgmSeaDate\" 0\n;;銃,3\n# textflame 1 1\n# face %(unit_a)s \"sad\"\n# voice 5007 \"buryunaku_0001\"\n@ブリューナク\n…マスター\n実はやってみたい事が\nあるんだ\n\n# textflame 1 1\n@ブリューナク\nその…\nクイズというものなんだが\nこれがなかなかくせ者でな…\n\n# face %(unit_a)s \"normal\"\n# textflame 1 1\n@ブリューナク\n様々な問題を出し、\n誰かに答えて貰うというゲームだ\n\n# textflame 1 1\n@ブリューナク\nそのルール上、\n一人では出来ないから\nちょっと付き合ってくれ\n\n# face %(unit_a)s \"smile\"\n# textflame 1 1\n@ブリューナク\nマスターとふたりきりの状況だ\nこれほどクイズを出しやすい\nタイミングもそうそうないだろう？\n\n# voice 5007 \"buryunaku_0006\"\n# textflame 1 1\n@ブリューナク\nやってくれるか？\nでは、ブリューナクに関する\n問題を出題しよう\n\n# textflame 1 1\n@ブリューナク\n難しい物ではないから\n気楽にやってくれ\n\n# textflame 1 1\n@ブリューナク\nでは、行くぞ…\n;;---------------------------------\n\n@%(unitName:unit_a)s\nブリューナクの属性がなにか…\nマスターにはわかるか？\n\n# se \"SE_0734\"\n# select  \"氷\" \"select_label_1\" \"闇\" \"select_label_2\" \"光\" \"select_label_3\"\nブリューナクの属性がなにか…\nマスターにはわかるか？\n\n# label \"select_label_1\"\n# labeljump \"select_label_end\"\n# textwindow \"close\"\n# waitandnext 0.1\n\n# label \"select_label_2\"\n# labeljump \"select_label_end\"\n# textwindow \"close\"\n# waitandnext 0.1\n\n# label \"select_label_3\"\n# labeljump \"select_label_end\"\n# textwindow \"close\"\n# waitandnext 0.1\n\n# label \"select_label_end\"\n# waitandnext 0.1\n\n# sestop \"SE_0734\"\n# fadeout \"black\" 1.2\n# waitandnext 2"
	}
]