[
	{
		"ID": 9501706,
		"script": "# script \"lisp\"\n# background %(wayback_background)s\n# bgmfile \"bgm255\" \"BgmSeaDate\" 0\n# body %(unit_a)s\n# pos %(unit_a)s 3\n# mask %(unit_a)s off\n# chara %(unit_a)s\n# fadein \"black\" 0.5\n# textflame 0 0\n@\n帰り道－\n\n# fadein \"white\" 0.5\n# se \"SE_0735\"\n# bgm \"stop\"\n# waitandnext 2\n@\n…………\n\n# fadein \"white\" 0.5\n# se \"SE_0735\"\n# waitandnext 2\n@\n…………\n\n@\nふと、\n傍らを歩く彼女が足を止めた…\n\n# textflame 1 1\n# bgmfile \"bgm255\" \"BgmSeaDate\" 0\n# voice 5017 \"grimoire_0002\"\n@グリモワール\n今日一日デートしてきたわけだけど… \n\n# face %(unit_a)s \"angry\"\n@グリモワール\nキミってさ…\n\n# voice 5017 \"grimoire_0007\"\n# eye %(unit_a)s \"close\"\n@グリモワール\nワタシのこと、\nどれくらい理解してるわけぇ？\n\n# eye %(unit_a)s \"normal\"\n@グリモワール\n今から、試してあげるから…\n\n# voice 5017 \"grimoire_0005\"\n# face %(unit_a)s \"smile\"\n@グリモワール\n覚悟なさい！\n\n@%(unitName:unit_a)s\n私のキラーズ『グリモワール』の\n一種のタイトルは次のうちどれ？ \n\n# se \"SE_0734\"\n# select  \"セロハンの小さな鍵\" \"select_label_1\" \"ソロバンの小さな鍵\" \"select_label_2\" \"ソロモンの小さな鍵\" \"select_label_3\"\n私のキラーズ『グリモワール』の\n一種のタイトルは次のうちどれ？ \n\n# label \"select_label_1\"\n# labeljump \"select_label_end\"\n# textwindow \"close\"\n# waitandnext 0.1\n\n# label \"select_label_2\"\n# labeljump \"select_label_end\"\n# textwindow \"close\"\n# waitandnext 0.1\n\n# label \"select_label_3\"\n# labeljump \"select_label_end\"\n# textwindow \"close\"\n# waitandnext 0.1\n\n# label \"select_label_end\"\n# waitandnext 0.1\n\n# sestop \"SE_0734\"\n# fadeout \"black\" 1.2\n# waitandnext 2"
	}
]