[
	{
		"ID": 9501609,
		"script": "# script \"lisp\"\n# background %(wayback_background)s\n# bgmfile \"bgm255\" \"BgmSeaDate\" 0\n# body %(unit_a)s\n# pos %(unit_a)s 3\n# mask %(unit_a)s off\n# chara %(unit_a)s\n# fadein \"black\" 0.5\n# textflame 0 0\n@\n帰り道－\n\n# fadein \"white\" 0.5\n# se \"SE_0735\"\n# bgm \"stop\"\n# waitandnext 2\n@\n…………\n\n# fadein \"white\" 0.5\n# se \"SE_0735\"\n# waitandnext 2\n@\n…………\n\n@\nふと、\n傍らを歩く彼女が足を止めた…\n\n# bgmfile \"bgm255\" \"BgmSeaDate\" 0\n# textflame 1 1\n# face %(unit_a)s \"smile\"\n# voice 5016 \"Flabellum_0001\"\n@フラベルム\nねぇ、あなた…\nちょっと遊んでみませんか？\n\n@フラベルム\nというか…このわたくしが、\nあなたごときと遊んで差し上げると\n言っているのですよ？\n\n# voice 5016 \"Flabellum_0007\"\n# face %(unit_a)s \"normal\"\n@フラベルム\nもっと嬉しそうにして、\nこの幸運を噛みしめては\nいかがですか？\n\n# textflame 0 0\n@\nフラベルムに詰め寄られ、\nすぐに遊んでくれて嬉しいと\n告げるマスター\n\n# face %(unit_a)s \"smile\"\n# textflame 1 1\n# voice 5016 \"Flabellum_0004\"\n@フラベルム\nふふっ…\n最初から、そう言えば\nいいのです\n\n# face %(unit_a)s \"normal\"\n@フラベルム\nさ、ではクイズを\n始めましょう…？\n\n@%(unitName:unit_a)s\n天使セラフィムが持つ扇、\nフラベルムが放つのは、\nどのようなものでしょうか？\n\n# se \"SE_0734\"\n# select  \"水\" \"select_label_1\" \"雷\" \"select_label_2\" \"熱風\" \"select_label_3\"\n天使セラフィムが持つ扇、\nフラベルムが放つのは、\nどのようなものでしょうか？\n\n# label \"select_label_1\"\n# labeljump \"select_label_end\"\n# textwindow \"close\"\n# waitandnext 0.1\n\n# label \"select_label_2\"\n# labeljump \"select_label_end\"\n# textwindow \"close\"\n# waitandnext 0.1\n\n# label \"select_label_3\"\n# labeljump \"select_label_end\"\n# textwindow \"close\"\n# waitandnext 0.1\n\n# label \"select_label_end\"\n# waitandnext 0.1\n\n# sestop \"SE_0734\"\n# fadeout \"black\" 1.2\n# waitandnext 2"
	}
]