[
	{
		"ID": 95020299,
		"script": "# script \"lisp\"\n# background %(wayback_background)s\n# bgmfile \"bgm255\" \"BgmSeaDate\" 0\n# body %(unit_a)s\n# pos %(unit_a)s 3\n# mask %(unit_a)s off\n# chara %(unit_a)s\n# fadein \"black\" 0.5\n# textflame 1 1\n# face %(unit_a)s \"smile\"\n# se \"SE_0732\"\n# voice 5020 \"tasuramu_0021\"\n@タスラム\nや、やるなおまえ…\nほんとに正解するなんて…\n\n# face %(unit_a)s \"angry\"\n@タスラム\nけ、けど…\nこれで終わりじゃないからな！\n\n@タスラム\nまたいつか同じように、\nクイズ出すかもしれないし…\n\n@タスラム\nそのときにはずしたら、\n今回のもなかったことにするぞ！\n\n# eye %(unit_a)s \"close\"\n@タスラム\nま、まぁ…とりあえず今回は、\n正解したことだし…\n\n# eye %(unit_a)s \"normal\"\n# face %(unit_a)s \"smile\"\n# voice 5020 \"tasuramu_0005\"\n@タスラム\nおまえに特大の肉を…\nプレゼントしてやる！\n\n@タスラム\nありがたく受け取れよ！\n\n# eye %(unit_a)s \"close\"\n# voice 5020 \"tasuramu_0033\"\n@タスラム\nえ？食べきれないから、\n一緒に食べよう？\nしょ、しょうがないな…\n\n# textflame 0 0\n@\n嬉しさを隠し切れない彼女を見て、\n絆が深まったと、\nそう感じるマスターであった\n\n# fadeout \"black\" 1.2\n# waitandnext 2"
	}
]