[
	{
		"ID": 95032498,
		"script": "# script \"lisp\"\n# background %(wayback_background)s\n# bgmfile \"bgm255\" \"BgmSeaDate\" 0\n# body %(unit_a)s\n# pos %(unit_a)s 3\n# mask %(unit_a)s off\n# chara %(unit_a)s\n# fadein \"black\" 0.5\n# textflame 1 1\n# face %(unit_a)s \"usual\"\n# voice 250321 \"tiphereth_t_0001\"\n# se \"SE_0733\"\n@ティファレト\n……主様\n\n# face %(unit_a)s \"sad\"\n@ティファレト\n…聞きたくない答えでした\n\n@ティファレト\n不正解です\n\n# voice 250321 \"tiphereth_t_0028\"\n@ティファレト\n申し訳ございません\n私の目は、なにも\n見えていなかったのですね…\n\n@ティファレト\n夏のキラキラした景色に目を奪われ、\n心が浮ついていたようです…\n\n# face %(unit_a)s \"angry\"\n# voice 250321 \"tiphereth_t_0027\"\n@ティファレト\n主様を試すようなご無礼、\nどうかお許しください\n\n# textflame 0 0\n;;モノローグ\n@\nそう言って、\n彼女は先に歩いて行った\n\n;;モノローグ\n@\n悲しむ顔を見せたくなかったのだろう\n\n;;モノローグ\n@\nでも、その背中を見て、\nマスターは心を痛めていた\n\n;;モノローグ\n@\n次こそは…\nなんとしても正解しよう…と\n\n# fadeout \"black\" 1.2\n# waitandnext 2\n"
	}
]