[
	{
		"ID": 95032199,
		"script": "# script \"lisp\"\n# background %(wayback_background)s\n# bgmfile \"bgm255\" \"BgmSeaDate\" 0\n# body %(unit_a)s\n# pos %(unit_a)s 3\n# mask %(unit_a)s off\n# chara %(unit_a)s\n# fadein \"black\" 0.5\n# textflame 1 1\n# face %(unit_a)s \"usual\"\n# voice 250321 \"tiphereth_t_0004\"\n# se \"SE_0732\"\n@ティファレト\n正解していただけて\nすごく嬉しいです\n\n@ティファレト\n主様は私のこと…\nちゃんと見ていて\n下さったのですね\n\n@ティファレト\nありがとうございます\nそして…\n\n# face %(unit_a)s \"normal\"\n# voice 250321 \"tiphereth_t_0005\"\n@ティファレト\nこれからもよろしくお願いします\n\n;;モノローグ\n# textflame 0 0\n@\nとてもうれしそうな笑顔を\n見せてくれる彼女\n\n;;モノローグ\n@\nマスターは、\n彼女とさらに距離が\n縮まったことを実感していた…\n\n# fadeout \"black\" 1.2\n# waitandnext 2\n"
	}
]