[
	{
		"ID": 96001198,
		"script": "# script \"lisp\"\n# background %(wayback_background)s\n# bgmfile \"bgm255\" \"BgmSeaDate\" 0\n# body %(unit_a)s\n# pos %(unit_a)s 3\n# mask %(unit_a)s off\n# chara %(unit_a)s\n# fadein \"black\" 0.5\n# textflame 1 1\n# se \"SE_0733\"\n# eye %(unit_a)s \"close\"\n# voice 6001 \"asukurepiosu_0027\"\n@アスクレピオス\n…はい、不正解\n\n# textflame 1 1\n@アスクレピオス\nやっぱり…私のこと\n全然わかってなかったのね…\n\n# eye %(unit_a)s \"normal\"\n# face %(unit_a)s \"angry\"\n# voice 6001 \"asukurepiosu_0009\"\n# textflame 1 1\n@アスクレピオス\nべっ…別に落ち込んでなんかないし！\n…って言うか、\n間違えたんだから…\n\n# textflame 1 1\n@アスクレピオス\n注射でも打ってあげようか？\n\n# voice 6001 \"asukurepiosu_0007\"\n# textflame 1 1\n@アスクレピオス\n…って、ウソよ、ウソ\n病気でもない人に\nそんなことするわけないでしょ\n\n# textflame 1 1\n@アスクレピオス\n私は医療に身を捧げる身なのよ？\n\n# textflame 0 0\n@\n怒ったように振る舞う彼女\n\n# textflame 0 0\n@\nでも、その瞳の奥は\nとても悲しそうで…\n\n# textflame 0 0\n@\n…………\n\n# textflame 0 0\n@\nしっかり者の彼女に\nいつも頼りっ放しだったけど…\n\n# textflame 0 0\n@\n甘えてばかりじゃいけないな\nもっと彼女のこと\n知っておかないと…\n\n# fadeout \"black\" 1.2\n# waitandnext 2\n"
	}
]