[
	{
		"ID": 96001399,
		"script": "# script \"lisp\"\n# background %(wayback_background)s\n# bgmfile \"bgm255\" \"BgmSeaDate\" 0\n# body %(unit_a)s\n# pos %(unit_a)s 3\n# mask %(unit_a)s off\n# chara %(unit_a)s\n# fadein \"black\" 0.5\n# textflame 1 1\n# face %(unit_a)s \"smile\"\n# se \"SE_0732\"\n@アスクレピオス\nすごい！\n正解よ！！\n\n# voice 6001 \"asukurepiosu_0004\"\n# textflame 1 1\n@アスクレピオス\n私のこと…\nちゃんと見ててくれてるんだ\n\n# face %(unit_a)s \"angry\"\n# textflame 1 1\n@アスクレピオス\nべ、別に…照れてないから！\nか…顔が赤いのは…\n\n# voice 6001 \"asukurepiosu_0013\"\n# textflame 1 1\n@アスクレピオス\nね、熱中症よ！\nもう、バカッ！\n\n# textflame 0 0\n@\nそう言って誤魔化す彼女は\n妙にいじらしく…\n\n# textflame 0 0\n@\nマスターは彼女との絆が\nまた深まったのを実感した…\n\n# fadeout \"black\" 1.2\n# waitandnext 2\n"
	}
]