[
	{
		"ID": 9600802,
		"script": "# script \"lisp\"\n# background %(wayback_background)s\n# bgmfile \"bgm255\" \"BgmSeaDate\" 0\n# body %(unit_a)s\n# pos %(unit_a)s 3\n# mask %(unit_a)s off\n# chara %(unit_a)s\n# fadein \"black\" 0.5\n# textflame 0 0\n@\n帰り道－\n\n# fadein \"white\" 0.5\n# se \"SE_0735\"\n# bgm \"stop\"\n# waitandnext 2\n@\n…………\n\n# fadein \"white\" 0.5\n# se \"SE_0735\"\n# waitandnext 2\n@\n…………\n\n@\nふと、\n傍らを歩く彼女が足を止めた…\n\n# voice 6008 \"guridavoru_0002\"\n# bgmfile \"bgm255\" \"BgmSeaDate\" 0\n# textflame 1 1\n# face %(unit_a)s \"sad\"\n@グリダヴォル\nあのさ…ちょっといいかな？\n\n@グリダヴォル\nあの…えっと…\n君のこと試すみたいに\nなっちゃうんだけどね…\n\n@グリダヴォル\n私のこと…\nどれだけ知ってくれているか\n聞いてみても…いいかな？\n\n# voice 6008 \"guridavoru_0004\"\n# face %(unit_a)s \"smile\"\n@グリダヴォル\n…ふふふ、いっくよー？\n\n# face %(unit_a)s \"normal\"\n@グリダヴォル\n私のキラーズ『グリダヴォル』の\n持ち主、だーれだ？\n\n# se \"SE_0734\"\n# select \"キース\" \"select_label_wrong1\" \"ポール\" \"select_label_wrong2\" \"トール\" \"select_label_correct\"\n私のキラーズ『グリダヴォル』の\n持ち主、だーれだ？\n\n# label \"select_label_wrong1\"\n# labeljump \"select_label_end\"\n# textwindow \"close\"\n# waitandnext 0.1\n\n# label \"select_label_wrong2\"\n# labeljump \"select_label_end\"\n# textwindow \"close\"\n# waitandnext 0.1\n\n# label \"select_label_correct\"\n# labeljump \"select_label_end\"\n# textwindow \"close\"\n# waitandnext 0.1\n\n# label \"select_label_end\"\n# waitandnext 0.1\n\n# fadeout \"black\" 1.2\n# waitandnext 2"
	}
]