[
	{
		"ID": 96001499,
		"script": "# script \"lisp\"\n# background %(wayback_background)s\n# bgmfile \"bgm255\" \"BgmSeaDate\" 0\n# body %(unit_a)s\n# pos %(unit_a)s 3\n# mask %(unit_a)s off\n# chara %(unit_a)s\n# fadein \"black\" 0.5\n# textflame 1 1\n# face %(unit_a)s \"smile\"\n# se \"SE_0732\"\n# voice 6001 \"asukurepiosu_0021\"\n@アスクレピオス\nすごい、大正解よ！\n\n# textflame 1 1\n@アスクレピオス\n私のこと…\nちゃんと見てくれてるんだね…\n\n# eye %(unit_a)s \"close\"\n# textflame 1 1\n@アスクレピオス\nでも…\n\n# voice 6001 \"asukurepiosu_0007\"\n# eye %(unit_a)s \"normal\"\n# face %(unit_a)s \"angry\"\n# textflame 1 1\n@アスクレピオス\nそ、そんなの…！\nマスターとしては\n当然だから！\n\n# textflame 0 0\n@\n喜んでいたかと思うと\n照れて急に怒り出す彼女\n\n# face %(unit_a)s \"smile\"\n# textflame 1 1\n@アスクレピオス\nまぁ、これからも…\nちゃんと見ててよね\n\n# textflame 1 1\n@アスクレピオス\n…私の心を\n\n# textflame 0 0\n@\n照れながらも、\nふいに見せた笑顔は\nとても眩しく…\n\n# textflame 0 0\n@\nマスターは、\n彼女との絆がまた深まったのを\n実感していた…\n\n# fadeout \"black\" 1.2\n# waitandnext 2"
	}
]