[
	{
		"ID": 9600104,
		"script": "# script \"lisp\"\n# background %(wayback_background)s\n# bgmfile \"bgm255\" \"BgmSeaDate\" 0\n# body %(unit_a)s\n# pos %(unit_a)s 3\n# mask %(unit_a)s off\n# chara %(unit_a)s\n# fadein \"black\" 0.5\n# textflame 0 0\n@\n帰り道－\n\n# fadein \"white\" 0.5\n# se \"SE_0735\"\n# bgm \"stop\"\n# waitandnext 2\n@\n…………\n\n# fadein \"white\" 0.5\n# se \"SE_0735\"\n# waitandnext 2\n@\n…………\n\n@\nふと、\n傍らを歩く彼女が足を止めた…\n\n# bgmfile \"bgm255\" \"BgmSeaDate\" 0\n;;アポロン,1\n# textflame 1 1\n# voice 6001 \"asukurepiosu_0001\"\n@アスクレピオス\nあのさ…ちょっといいかな？\n\n# textflame 1 1\n@アスクレピオス\nずっと聞きたかったんだけど…\n\n# face %(unit_a)s \"sad\"\n# textflame 1 1\n@アスクレピオス\nあなたって…\n私のこと\nちゃんとわかってる？\n\n# face %(unit_a)s \"normal\"\n# textflame 1 1\n@アスクレピオス\n体調管理のこととか、\n質問するのは\nいつも私ばっかりだから\n\n# voice 6001 \"asukurepiosu_0032\"\n# face %(unit_a)s \"smile\"\n# textflame 1 1\n@アスクレピオス\nじゃあさ、私のこと\nどれだけ知ってるか…\n今から問診しちゃおっかな？\n;;---------------------------------\n\n@%(unitName:unit_a)s\n私のキラーズ「アスクレピオス」の\n持ち主は誰の子かわかるわよね？\n\n# se \"SE_0734\"\n# select  \"アポロン\" \"select_label_1\" \"ゼウス\" \"select_label_2\" \"ポセイドン\" \"select_label_3\"\n私のキラーズ「アスクレピオス」の\n持ち主は誰の子かわかるわよね？\n\n# label \"select_label_1\"\n# labeljump \"select_label_end\"\n# textwindow \"close\"\n# waitandnext 0.1\n\n# label \"select_label_2\"\n# labeljump \"select_label_end\"\n# textwindow \"close\"\n# waitandnext 0.1\n\n# label \"select_label_3\"\n# labeljump \"select_label_end\"\n# textwindow \"close\"\n# waitandnext 0.1\n\n# label \"select_label_end\"\n# waitandnext 0.1\n\n# sestop \"SE_0734\"\n# fadeout \"black\" 1.2\n# waitandnext 2"
	}
]