[
	{
		"ID": 9601323,
		"script": "# script \"lisp\"\n# background %(wayback_background)s\n# bgmfile \"bgm255\" \"BgmSeaDate\" 0\n# body %(unit_a)s\n# pos %(unit_a)s 3\n# mask %(unit_a)s off\n# chara %(unit_a)s\n# fadein \"black\" 0.5\n# textflame 0 0\n# face %(unit_a)s \"usual\"\n@\n帰り道－\n\n# fadein \"white\" 0.5\n# se \"SE_0735\"\n# bgm \"stop\"\n# waitandnext 2\n@\n…………\n\n# fadein \"white\" 0.5\n# se \"SE_0735\"\n# waitandnext 2\n@\n…………\n\n@\nふと、\n傍らを歩く彼女が足を止めた…\n\n# face %(unit_a)s \"angry\"\n# bgmfile \"bgm255\" \"BgmSeaDate\" 0\n# textflame 1 1\n# voice 6013 \"sistrum_0019\"\n@シストルム\n…急に楽しくなくなったにゃ\n\n# face %(unit_a)s \"sad\"\n@シストルム\nボク、もしかしたら\nマスターに飽きちゃったかもにゃ？\n\n@シストルム\nマスターが\nボクのテンション上げてくれないと…\n本当にこのまま飽きちゃうかもにゃ…\n\n# voice 6013 \"sistrum_0005\"\n# face %(unit_a)s \"smile\"\n@シストルム\nだから～♪\nクイズでテンションをあげるにゃ！\n\n# face %(unit_a)s \"usual\"\n@シストルム\nボクはよくこう言われるにゃ！\n\n# se \"SE_0734\"\n# select \"ストイックで冷淡\" \"select_label_1\" \"情熱的でお人好し\" \"select_label_2\" \"飽きっぽくてきまぐれ\" \"select_label_3\"\nボクはよくこう言われるにゃ！\n\n# label \"select_label_1\"\n# labeljump \"select_label_end\"\n# textwindow \"close\"\n# waitandnext 0.1\n\n# label \"select_label_2\"\n# labeljump \"select_label_end\"\n# textwindow \"close\"\n# waitandnext 0.1\n\n# label \"select_label_3\"\n# labeljump \"select_label_end\"\n# textwindow \"close\"\n# waitandnext 0.1\n\n# label \"select_label_end\"\n# waitandnext 0.1\n\n# sestop \"SE_0734\"\n# fadeout \"black\" 1.2\n# waitandnext 2"
	}
]