[
	{
		"ID": 96011298,
		"script": "# script \"lisp\"\n# background %(wayback_background)s\n# bgmfile \"bgm255\" \"BgmSeaDate\" 0\n# body %(unit_a)s\n# pos %(unit_a)s 3\n# mask %(unit_a)s off\n# chara %(unit_a)s\n# fadein \"black\" 0.5\n# textflame 1 1\n# se \"SE_0733\"\n# face %(unit_a)s \"sad\"\n# voice 6011 \"vanargand_0016\"\n@ヴァナルガンド\nう、う～…\n\n@ヴァナルガンド\nなんだか\nがっかりしました～\n\n@ヴァナルガンド\nまぁでも、これだけで\nわたしのことを知らないだなんて、\n言うつもりはありませんから～\n\n# voice 6011 \"vanargand_0003\"\n@ヴァナルガンド\n誰にだって、\n知らないことくらいありますから～\n\n# face %(unit_a)s \"usual\"\n@ヴァナルガンド\nいつまでも、\n落ち込んでばかりでは、\nいけませんよ～\n\n# face %(unit_a)s \"smile\"\n# voice 6011 \"vanargand_0036\"\n@ヴァナルガンド\nでもまた次の機会には\nちゃんと答えられるように\n準備しておいてくださいね～？\n\n# textflame 0 0\n@\n無理に笑顔を浮かべながら、\nそんなことを言うヴァナルガンド\n\n@\n彼女の期待に、\n次こそ応えてみせようと\n決意するマスターであった\n\n# fadeout \"black\" 1.2\n# waitandnext 2"
	}
]