[
	{
		"ID": 100103011,
		"script": ";;1章3話_1　戦闘前\n;;;;//背景：街中（夜）\n# script \"lisp\"\n# background \"101_city_night3\"\n# bgmfile \"bgm271\" \"BgmLostRagnarokEvent\" 0\n# body 3400711\n# pos 3400711 3\n# scale 3400711 0.8 0\n# layer 3400711 3\n# mask 3400711 off\n# body 3500811\n# pos 3500811 3\n# scale 3500811 0.8 0\n# layer 3500811 4\n# alpha 3500811 0 0\n# mask 3500811 off\n# face 3400711 \"surprise\"\n# face 3500811 \"angry\"\n# textflame 1 1\n# textboxarrow 0 2\n# chara 3400711\n# voice 340071 \"shekina_t_0013\"\n@シェキナー\nナディア姫の抹殺が\nケイオスリオンの総意\nということですか…\n\n# face 3400711 \"sad\"\n# textflame 1 1\n# textboxarrow 0 2\n# chara 3400711\n# voice 340071 \"shekina_t_0007\"\n@シェキナー\n穢れし者達は\nやはり愚かですね\n\n# alpha 3500811 1 0.5\n# alpha 3400711 0 0.5\n# textflame 1 1\n# textboxarrow 0 2\n# chara 3500811\n# voice 350081 \"bashosen_a_0007\"\n@芭蕉扇\nふんっ…\n選民思想に凝り固まってる\nハルモニアの方がよほど愚劣だわ\n\n# textflame 1 1\n# textboxarrow 0 2\n# chara 3500811\n@芭蕉扇\n勘違いしないでね\nケイオスリオンに総意なんてない\n\n# face 3500811 \"normal\"\n# textflame 1 1\n# textboxarrow 0 2\n# chara 3500811\n@芭蕉扇\n力を持つ者達が\n各々自由に判断して行動するの\nそれこそが真の自由\n\n# face 3500811 \"angry\"\n# textflame 1 1\n# textboxarrow 0 2\n# chara 3500811\n@芭蕉扇\n私は“あの方”に頼まれたから\nナディア姫を抹殺するのよ\n早くそこをどきなさい\n\n# alpha 3500811 0 0.5\n# alpha 3400711 1 0.5\n# textflame 1 1\n# textboxarrow 0 2\n# chara 3400711\n# voice 340071 \"shekina_t_0027\"\n@シェキナー\nはぁ…規律を重んじることのない\n者達にハルモニアの理想は\n理解できないようですね\n\n# face 3400711 \"usual\"\n# textflame 1 1\n# textboxarrow 0 2\n# chara 3400711\n@シェキナー\nやはり教皇様は正しい…\n一刻も早くユグドラシルを蘇らせて\n全ての人々に神の祝福を与えないと"
	}
]