[
	{
		"ID": 100103013,
		"script": ";;1章3話_1 戦闘後\n# script \"lisp\"\n# background \"101_city_night3\"\n# bgmfile \"bgm271\" \"BgmLostRagnarokEvent\" 0\n# body 3103811\n# pos 3103811 3\n# scale 3103811 0.8 0\n# alpha 3103811 0 0\n# body 137\n# pos 137 2\n# scale 137 0.8 0\n# layer 3103811 2\n# layer 137 1\n# alpha 137 1 0\n# body 139\n# pos 139 4\n# scale 139 0.8 0\n# layer 139 5\n# body 3400711\n# pos 3400711 3\n# scale 3400711 0.8 0\n# layer 3400711 3\n# mask 3400711 off\n# alpha 3400711 0 0\n# face 3400711 \"surprise\"\n# face 137 \"surprise\"\n# face 139 \"sad\"\n# textflame 1 1\n# textboxarrow 0 1\n# chara 137\n# voice 9969 \"gill_0014\"\n@ギル\nまた仲間割れかよ…\nあいつらの関係って\nどうなってんだ？\n\n# textflame 1 1\n# textboxarrow 0 3\n# chara 139\n@ティターニア\n三国は決して仲良くありません\nむしろ争い合っています\n\n# textflame 1 1\n# textboxarrow 0 3\n# chara 139\n@ティターニア\n今回、同時に軍を動かしたのも\nオベロンの幻想結界を破るため\n一時的に手を組んだだけでしょう\n\n# textflame 1 1\n# textboxarrow 0 3\n# chara 139\n@ティターニア\n壁の穴を越えたとたん、\nバラバラに攻め入ってきたのが\nなによりの証拠です\n\n# face 137 \"normal\"\n# textflame 1 1\n# textboxarrow 0 1\n# chara 137\n@ギル\nあいつらの目的も\nバラバラってことなのかな…\n\n# alpha 3103811 1 0.5\n# move 137 1 0.5\n# move 139 5 0.5\n# textflame 1 1\n# textboxarrow 0 2\n# chara 3103811\n# voice 1038 \"almace_0028\"\n@アルマス\n少なくとも芭蕉扇は\nナディアを殺そうとしてるけど、\nシェキナーにその気はないみたいね\n\n# alpha 3103811 0 0.5\n# alpha 137 0 0.5\n# alpha 139 0 0.5\n# alpha 3400711 1 0.5\n# face 3400711 \"surprise\"\n# textflame 1 1\n# textboxarrow 0 2\n# chara 3400711\n@シェキナー\nそちらの方々、聞こえてますよ\n\n# alpha 3103811 1 0.5\n# alpha 137 1 0.5\n# alpha 139 1 0.5\n# alpha 3400711 0 0.5\n# face 3103811 \"worry\"\n# face 139 \"surprise\"\n# face 137 \"surprise\"\n# textflame 1 1\n# textboxarrow 0 1\n# chara 137\n# voice 9969 \"gill_0039\"\n@ギル\nやべっ…\n\n# alpha 3103811 0 0.5\n# alpha 137 0 0.5\n# alpha 139 0 0.5\n# alpha 3400711 1 0.5\n# face 3400711 \"usual\"\n# textflame 1 1\n# textboxarrow 0 2\n# chara 3400711\n@シェキナー\n私にナディア姫を\n害する意思はありません\n\n# textflame 1 1\n# textboxarrow 0 2\n# chara 3400711\n@シェキナー\nむしろ丁重にお迎えしたいのです\n大樹ユグドラシル復活の「鍵」として"
	}
]