[
	{
		"ID": 100102023,
		"script": ";;1章2話_3 マスターの力\n# script \"lisp\"\n# background \"101_city_night3\"\n# bgmfile \"bgm271\" \"BgmLostRagnarokEvent\" 0\n# body 3103811\n# pos 3103811 2\n# scale 3103811 0.8 0\n# body 136\n# pos 136 3\n# scale 136 0.8 0\n# alpha 136 0 0\n# mask 136 off\n# body 137\n# pos 137 3\n# scale 137 0.8 0\n# alpha 137 0 0\n# mask 137 off\n# layer 3103811 2\n# layer 136 3\n# layer 137 1\n# body 139\n# pos 139 4\n# scale 139 0.8 0\n# layer 139 4\n# textflame 1 1\n# textboxarrow 0 1\n# chara 3103811\n# voice 1038 \"almace_0027\"\n@アルマス\nどうにか逃げ切ったみたい\n…それにしても、\nあなた役に立たないわね\n\n# face 139 \"sad\"\n# textflame 1 1\n# textboxarrow 0 3\n# chara 139\n# voice 9967 \"titania_navi_0097\"\n@ティターニア\nマスターに対して\nそのような言い方をしては\nいけませんよ、アルマス\n\n# face 3103811 \"worry\"\n# textflame 1 1\n# textboxarrow 0 1\n# chara 3103811\n@アルマス\n事実だから…\nさっきから\n全然頼りにならないんだもの\n\n# face 139 \"normal\"\n# textflame 1 1\n# textboxarrow 0 3\n# chara 139\n@ティターニア\nそんなことはありません\n気づいていないのですか？\nあなたの力が増していることを\n\n# textflame 1 1\n# textboxarrow 0 1\n# chara 3103811\n# voice 1038 \"almace_0028\"\n@アルマス\n…私のキラーズが\nざわざわしてる感じはあるわよ\n\n# textflame 1 1\n# textboxarrow 0 3\n# chara 139\n@ティターニア\nバイブスと共鳴している証です\nあなたの力を引き上げ、\n暴走しないよう制御してくれる\n\n# textflame 1 1\n# textboxarrow 0 3\n# chara 139\n@ティターニア\n“マスター”が側にいることで\nあなたは真の力を発揮できるのです\n\n# textflame 1 1\n# textboxarrow 0 1\n# chara 3103811\n@アルマス\n側にいるだけって…\nなんか納得いかないんだけど\n\n# face 139 \"usual\"\n# textflame 1 1\n# textboxarrow 0 3\n# chara 139\n@ティターニア\nもちろん、それだけではありません\nこの方の記憶はとても重要なのです\nその記憶で私達を導き――\n\n# alpha 3103811 0 0.5\n# alpha 139 0 0.5\n# alpha 137 1 0.5\n# textflame 1 1\n# textboxarrow 0 2\n# chara 137\n# voice 9969 \"gill_0001\"\n@ギル\nでも、こいつ記憶なくしてるぜ\n\n# face 139 \"surprise\"\n# face 3103811 \"surprise\"\n# alpha 3103811 1 0.5\n# alpha 139 1 0.5\n# alpha 137 0 0.5\n# textflame 1 1\n# textboxarrow 0 3\n# chara 139\n@ティターニア\nえっ…？\n\n# face 139 \"worry\"\n# textflame 1 1\n# textboxarrow 0 3\n# chara 139\n# voice 9967 \"titania_0003\"\n@ティターニア\nあの…\nそれは事実なのでしょうか？\n\n# select \"事実です\" \"select_label_01\" \"面目ない\" \"select_label_01\" \"なにも覚えてません\" \"select_label_01\"\nあの…\nそれは事実なのでしょうか？\n\n# label \"select_label_01\"\n# face 139 \"surprise\"\n# textflame 1 1\n# textboxarrow 0 3\n# chara 139\n# voice 9967 \"titania_0030\"\n@ティターニア\nそ、そんなっ…\nそれでは斬ル姫達の奪還は…\nどうしましょう…\n\n# face 139 \"worry\"\n# face 3103811 \"angry\"\n# textflame 1 1\n# textboxarrow 0 1\n# chara 3103811\n# voice 1038 \"almace_0014\"\n@アルマス\nティニが絶落ち込んでる…\nどうしてくれるのよ\n\n# alpha 3103811 0 0.5\n# alpha 139 0 0.5\n# alpha 136 1 0.5\n# textflame 1 1\n# textboxarrow 0 2\n# chara 136\n# voice 9968 \"nadia_0002\"\n@ナディア\nあまりこの方…\n“マスター”でしたか？\n\n# textflame 1 1\n# textboxarrow 0 2\n# chara 136\n@ナディア\nマスターを責めないで下さい\n記憶はきっと戻ります\n\n# textflame 1 1\n# textboxarrow 0 2\n# chara 136\n# voice 9968 \"nadia_0038\"\n@ナディア\nそれより、今の状況について\nもう少し詳しく\n教えていただけませんか？\n\n# face 3103811 \"normal\"\n# alpha 3103811 1 0.5\n# alpha 139 1 0.5\n# alpha 136 0 0.5\n# textflame 1 1\n# textboxarrow 0 1\n# chara 3103811\n@アルマス\nナディアは優しいわね\nティニ、元気出して続きを話してよ\n\n# textflame 1 1\n# textboxarrow 0 3\n# chara 139\n@ティターニア\n…そうですね\n臨機応変に\n対処していくしかありません\n\n# face 139 \"normal\"\n# textflame 1 1\n# textboxarrow 0 3\n# chara 139\n@ティターニア\nそのためにも、\n私達が知っていることを\nもう少しお話ししましょう"
	}
]