[
	{
		"ID": 100104021,
		"script": ";;4_2_1\n# script \"lisp\"\n# background \"101_city_night1\"\n# bgmfile \"bgm276\" \"BgmLostRagnarokEvent\" 0\n# body 3104011\n# pos 3104011 4\n# scale 3104011 0.8 0\n# body 3104111\n# pos 3104111 2\n# scale 3104111 0.8 0\n# body 3103811\n# pos 3103811 3\n# scale 3103811 0.8 0\n# mask 3103811 off\n# alpha 3103811 0 0\n# body 136\n# pos 136 3\n# scale 136 0.8 0\n# alpha 136 0 0\n# layer 136 2\n# body 137\n# pos 137 3\n# scale 137 0.8 0z\n# alpha 137 0 0\n# body 3400711\n# pos 3400711 3\n# scale 3400711 0.8 0\n# alpha 3400711 0 0\n# mask 3400711 off\n# textwindow \"close\"\n# waitandnext 0.5\n\n# se \"SE_4301\"\n# alpha 3104011 0.5 0.3\n# alpha 3104111 0.5 0.3\n# effectbody 700 28 -150 -10 0\n# effectstart 700\n# waitandnext 0.2\n\n# se \"SE_4301\"\n# effectbody 701 28 150 -10 0\n# effectstart 701\n# waitandnext 0.2\n\n# se \"SE_9157\"\n# waitandnext 0.4\n\n# alpha 3104011 1 0.5\n# alpha 3104111 1 0.5\n# serif 0\n# textwindow \"nomal\"\n# textboxarrow 0 3\n@モラ\nアハハハ！\nお姉ちゃん、なにやってるの？\n\n# alpha 3104011 0 0.5\n# alpha 3104111 0 0.5\n# alpha 3400711 1 0.5\n# voice 340071 \"shekina_t_0023\"\n# face 3400711 \"angry\"\n# textboxarrow 0 2\n@シェキナー\nやはり\nなにか良からぬ存在のようですね\n浄化します！\n\n# textwindow \"close\"\n# alpha 3400711 0 0.5\n# alpha 3104011 1 0.5\n# alpha 3104111 1 0.5\n# waitandnext 0.5\n\n# se \"SE_4301\"\n# alpha 3104011 0.5 0.3\n# alpha 3104111 0.5 0.3\n# effectbody 702 28 -150 -10 0\n# effectstart 702\n# waitandnext 0.2\n\n# se \"SE_4301\"\n# effectbody 703 28 150 -10 0\n# effectstart 703\n# waitandnext 0.2\n\n# se \"SE_9157\"\n# waitandnext 0.4\n\n# alpha 3104011 1 0.5\n# alpha 3104111 1 0.5\n# textwindow \"nomal\"\n# textboxarrow 0 1\n# voice 1041 \"beagallta_0022\"\n@ベガ\n…？\nお姉ちゃん、今、なにかした…？\n\n# alpha 3104011 0 0.5\n# alpha 3104111 0 0.5\n# alpha 3103811 1 0.5\n# face 3103811 \"surprise\"\n# voice 1038 \"almace_0022\"\n# textboxarrow 0 2\n@アルマス\nなんなの…\nこの子達…\n\n# alpha 3103811 0 0.5\n# alpha 3400711 1 0.5\n# voice 340071 \"shekina_t_0018\"\n# face 3400711 \"surprise\"\n@シェキナー\n…私の光が届かないだなんて、\n一体、なんなのですかっ\n\n# alpha 3400711 0 0.5\n# alpha 3104011 1 0.5\n# alpha 3104111 1 0.5\n# textboxarrow 0 3\n@モラ\nアハハハ！\nねえ、王女様\nこっちに来て！\n\n# textboxarrow 0 1\n@ベガ\nこっち…こっち…\n\n# move 3104011 5 0.5\n# move 3104111 1 0.5\n# alpha 136 1 0.5\n# face 136 \"surprise\"\n# voice 9968 \"nadia_0023\"\n# textboxarrow 0 2\n@ナディア\nえっ？\nあ、あのっ…\n\n# alpha 136 0 0.5\n# alpha 3104011 0 0.5\n# alpha 3104111 0 0.5\n# alpha 3103811 1 0.5\n# face 3103811 \"angry\"\n# voice 1038 \"almace_0035\"\n@アルマス\nあなた達、\nナディアをどこに\n連れていく気よ！？"
	}
]