[
	{
		"ID": 10015302,
		"script": "# script \"lisp\"\n# background \"highland\"\n# bgm \"bgm003\" 0\n# body 100153\n# mask 100153 off\n# pos 100153 3\n# textflame 1 0\n# textboxarrow 0 2\n# face 100153 \"usual\"\n@マサムネ\n…………\n\n# textflame 0 0\n@\nあれからは文句を言わず\n黙々と料理を作っている\nマサムネ\n\n# textflame 1 0\n# textboxarrow 0 2\n# chara 100153\n@マサムネ\n…え？\n真剣…？\n\n# textflame 1 0\n# textboxarrow 0 2\n# chara 100153\n# face 100153 \"shy\"\n@マサムネ\nそ…それはそうでござる！\n\n# textflame 1 0\n# textboxarrow 0 2\n# chara 100153\n@マサムネ\nしゅ…主君に…\nおいしい料理を\n振舞いたく思うし…\n\n# voice 1001 \"masamune_0024\"\n# textflame 1 0\n# textboxarrow 0 2\n# chara 100153\n@マサムネ\nまた、いつぞやのように\n失敗はしたくないゆえ…\n\n# textflame 1 0\n# textboxarrow 0 2\n# chara 100153\n@マサムネ\n主君に…いつまでも…\n出来ぬ女子（おなご）と…\n思われたくないのだ…\n\n# textflame 0 0\n@\n潤んだ瞳で見つめるマサムネ\n\n# textflame 0 0\n@\n厨房を包む沈黙\n耐えられなくなったマスターが\n口を開いた\n\n# select \"どんな花嫁さんになりたいの…？\" \"select_label_01\" \"理想の結婚生活とか…ある？\" \"select_label_02\" \"マサムネは良い奥さんになりそうだな\" \"select_label_03\" \n厨房を包む沈黙\n耐えられなくなったマスターが\n口を開いた\n\n# textflame 1 0\n# label \"select_label_01\"\n# labeljump \"select_label_end\"\n# chara 100153\n# face 100153 \"shy\"\n# voice 1001 \"masamune_0025\"\n# face 100153 \"angry\"\n@マサムネ\nな…！なにを突然…！\n手元が狂ってしまいまする！\n\n# textflame 1 0\n# label \"select_label_02\"\n# labeljump \"select_label_end\"\n# chara 100153\n# face 100153 \"shy\"\n# voice 1001 \"masamune_0025\"\n# face 100153 \"angry\"\n@マサムネ\nけ…結婚！？キ…キル姫に…\nそのようなものが…！\n\n# textflame 1 0\n# label \"select_label_03\"\n# labeljump \"select_label_end\"\n# chara 100153\n# face 100153 \"shy\"\n# voice 1001 \"masamune_0025\"\n# face 100153 \"angry\"\n@マサムネ\nお…奥さん！？\nキル姫である拙者がそのような…！\n\n# label \"select_label_end\"\n# textflame 1 0\n# textboxarrow 0 2\n# chara 100153\n# face 100153 \"normal\"\n@マサムネ\n戦に生き、戦に死ぬ…\nそれがキル姫にござる…\n# voice 1001 \"masamune_kyara_1009\"\n\n# textflame 1 0\n# textboxarrow 0 2\n# chara 100153\n@マサムネ\n誰かに添い遂げる人生など…\n望めるはずもありませぬ\n# voice 1001 \"masamune_0004\"\n\n# textflame 1 0\n# textboxarrow 0 2\n# chara 100153\n# face 100153 \"usual\"\n@マサムネ\nされども…\n\n# textflame 1 0\n# textboxarrow 0 2\n# chara 100153\n@マサムネ\n主君に見守られ、\nこのような姿にて料理ができ…\nほんの束の間でござるが…\n\n# textflame 1 0\n# textboxarrow 0 2\n# chara 100153\n@マサムネ\nその気分を味わう事が出来申した\n\n# textflame 1 0\n# textboxarrow 0 2\n# chara 100153\n# face 100153 \"happy\"\n@マサムネ\n今日という日は…\n拙者の大事な想い出になった\n\n# textflame 1 0\n# textboxarrow 0 2\n# chara 100153\n@マサムネ\n礼を言いまする\n# voice 1001 \"masamune_0030\"\n\n# textflame 0 0\n@\nと、微笑む彼女\n\n# voice 1001 \"masamune_0006\"\n# textflame 1 0\n# textboxarrow 0 2\n# chara 100153\n# face 100153 \"normal\"\n@マサムネ\nうむ！\n間もなく出来るゆえ、\nしばしお待ちを！！\n\n# textflame 0 0\n@\n包丁を握る彼女の手に、\n一段と力がこもった"
	}
]