[
	{
		"ID": 100213143,
		"script": ";;背景：ハルモニア\n# script \"lisp\"\n# bgmfile \"bgm037\" \"BgmStory004\" 0\n# background \"angel_world\"\n# body 3503111\n# mask 3503111 off\n# pos 3503111 3\n# scale 3503111 0.8 0\n# alpha 3503111 0 0\n# body 3601111\n# mask 3601111 off\n# pos 3601111 3\n# scale 3601111 0.8 0\n# alpha 3601111 0 0\n# body 3602511\n# mask 3602511 off\n# pos 3602511 3\n# scale 3602511 0.8 0\n# alpha 3602511 0 0\n# body 3302811\n# mask 3302811 off\n# pos 3302811 3\n# scale 3302811 0.8 0\n# alpha 3302811 0 0\n# body 3100211\n# mask 3100211 off\n# pos 3100211 3\n# scale 3100211 0.8 0\n# body 162\n# pos 162 2\n# scale 162 0.6 0\n# layer 162 2\n# alpha 162 0 0\n# body 161\n# pos 161 4\n# scale 161 0.6 0\n# layer 161 3\n# body 163\n# pos 163 3\n# scale 163 0.6 0\n# alpha 163 0 0\n# body 164\n# pos 164 3\n# scale 164 0.6 0\n# alpha 164 0 0\n# body 3301811\n# mask 3301811 off\n# pos 3301811 3\n# scale 3301811 0.8 0\n# alpha 3301811 0 0\n# body 3200311\n# mask 3200311 off\n# pos 3200311 3\n# scale 3200311 0.8 0\n# alpha 3200311 0 0\n# body 3400711\n# pos 3400711 2\n# scale 3400711 0.8 0\n# alpha 3400711 0 0\n# body 3201611\n# pos 3201611 3\n# scale 3201611 0.8 0\n# alpha 3201611 0 0\n# body 3300411\n# pos 3300411 1\n# scale 3300411 0.8 0\n# alpha 3300411 0 0\n# body 3302011\n# mask 3302011 off\n# pos 3302011 3\n# scale 3302011 0.8 0\n# alpha 3302011 0 0\n# body 3300111\n# mask 3300111 off\n# pos 3300111 3\n# scale 3300111 0.8 0\n# alpha 3300111 0 0\n# textwindow \"nomal\"\n# textboxarrow 0 3\n# voice 9953 \"mwu_0005\"\n@ムー\nよっしゃぁぁぁ！\nこのまま押し潰しちまおうぜ！\n俺達、最強過ぎんだろっ\n\n# textwindow \"nomal\"\n# textflame 1 1\n# textboxarrow 0 2\n# voice 310021 \"revatein_ge_0002\"\n@レーヴァテイン\n…ソロモン、どうなの？\n\n# textboxarrow 0 3\n# voice 9953 \"mwu_0022\"\n@ムー\nレヴァ！？\nここは一気にいくところだろっ？\n\n# alpha 3503111 1 0.5\n# alpha 161 0 0.5\n# alpha 3100211 0 0.5\n# textwindow \"nomal\"\n# textflame 1 1\n# textboxarrow 0 2\n# voice 5031 \"solomon_t_0034\"\n@ソロモン\n私の分析によると、ここが引き際よ\n包囲網はズタズタで\nヴァナルガンド達は混乱してる\n\n# face 3503111 \"angry\"\n# textwindow \"nomal\"\n# textflame 1 1\n# textboxarrow 0 2\n@ソロモン\nでも、さらなる増援があれば建て直す\nそうなればこちらにも被害が出るわ\n安全なうちに退きましょう\n\n# alpha 3503111 0 0.5\n# alpha 3302811 1 0.5\n# textwindow \"nomal\"\n# textflame 1 1\n# textboxarrow 0 2\n# voice 3028 \"herena_a_0004\"\n@ヘレナ\n結局、慎重な性格はそのままなんだね\nそれがアナタの本質なのかな？\n\n# alpha 3503111 1 0.5\n# alpha 3302811 0 0.5\n# textwindow \"nomal\"\n# textflame 1 1\n# textboxarrow 0 2\n# voice 5031 \"solomon_t_0032\"\n@ソロモン\nそうよ\nこれが私の本質にして最適解！\n\n# face 3100211 \"sad\"\n# alpha 3503111 0 0.5\n# alpha 3100211 1 0.5\n# textwindow \"nomal\"\n# textflame 1 1\n# textboxarrow 0 2\n# voice 310021 \"revatein_ge_0013\"\n@レーヴァテイン\n…包囲網を抜けてハルモニアを出る\nはぁ…ようやく脱出できるわ\n\n# alpha 3100211 0 0.5\n# alpha 3602511 1 0.5\n# textwindow \"nomal\"\n# textflame 1 1\n# textboxarrow 0 2\n# voice 6025 \"chalice_t_0002\"\n@カリス\nみんな！こっちだよ～っ\n早く、早く！\n\n# alpha 3100211 1 0.5\n# alpha 3602511 0 0.5\n# textwindow \"nomal\"\n# textflame 1 1\n# textboxarrow 0 2\n# voice 310021 \"revatein_ge_0027\"\n@レーヴァテイン\n…大声で言わないで\n気づかれるわ\n\n# alpha 3100211 0 0.5\n# alpha 163 1 0.5\n# voice 9951 \"kipuru_0023\"\n@キプル\nあああ…\nカリスが本当にすみません！\n\n;;レーヴァテイン達が飛び去る\n# bgm \"stop\"\n# se \"SE_5767\"\n# textwindow \"close\"\n# alpha 163 0 0.5\n# waitandnext 0.5\n\n# textwindow \"nomal\"\n# alpha 3601111 1 0.5\n# face 3601111 \"angry\"\n@ヴァナルガンド\n待ちなさい！\n…くっ、何てこと！\n早く追って！\n\n# bgmfile \"bgm271\" \"BgmLostRagnarokEvent\" 0\n# alpha 3601111 0 0.5\n# alpha 3300111 1 0.5\n# voice 330011 \"ronginusu_t_0011\"\n@ロンギヌス\nやめてください\n追撃は無意味です\n\n# alpha 3301811 1 0.5\n# alpha 3300111 0 0.5\n# face 3301811 \"surprise\"\n# voice 330181 \"forcas_t_0022\"\n@フォルカス\nロンギヌス！\nあなたまで出てくるだなんて…\n\n# alpha 3301811 0 0.5\n# alpha 3601111 1 0.5\n@ヴァナルガンド\n何故、止めるのですかロンギヌス！？\nあの者達を野放しにしては――\n\n# face 3300111 \"angry\"\n# alpha 3601111 0 0.5\n# alpha 3300111 1 0.5\n@ロンギヌス\n教皇様のご指示です\nただちにヴァナルガンドを\n連れて戻るようにと…\n\n@ロンギヌス\nヴァナルガンド…\n\n# face 3300111 \"sad\"\n# voice 330011 \"ronginusu_t_0027\"\n@ロンギヌス\nソロモンの指輪は二つに分けた後、\n片方を厳重に保管しておくよう\n命じられたはずです\n\n@ロンギヌス\nどうして持ち出したのか、\n教皇様がお尋ねになっています\n\n# face 3601111 \"sad\"\n# alpha 3300111 0 0.5\n# alpha 3601111 1 0.5\n@ヴァナルガンド\nくっ…\n教皇様…あなたは私のことをっ…\n\n# mask 3201611 off\n# face 3201611 \"angry\"\n# alpha 3601111 0 0.5\n# alpha 3201611 1 0.5\n@シタ\nまさかヴァナルガンド、\n戒律を犯したのですか？\n…贖罪が必要ですか？\n\n# face 3601111 \"angry\"\n# alpha 3601111 1 0.5\n# alpha 3201611 0 0.5\n@ヴァナルガンド\n…教皇様の下に帰還し、\n申し開きをします！\n\n@ヴァナルガンド\n誰もついてこないでっ\n\n# face 3300111 \"normal\"\n# alpha 3601111 0 0.5\n# alpha 3300111 1 0.5\n@ロンギヌス\nいいでしょう\n皆さんも戻りますよ\n\n# alpha 3300111 0 0.5\n# alpha 3301811 1 0.5\n# serif 0\n# face 3301811 \"sad\"\n# textwindow \"nomal\"\n# move 3301811 3 0\n# textwindow \"moya\"\n# textboxarrow 0 0\n@フォルカス\nまた捕り逃がしてしまった…\n\n# voice 330181 \"forcas_t_0028\"\n@フォルカス\nしかし…\nヴァナルガンドの態度…\n教皇様と何かあったのでしょうか？\n"
	}
]