[
	{
		"ID": 100212071,
		"script": ";;----------------------------------------------\n;;100212071\n;;第2-7話　タイトル：イノセント・ヒーラー\n;;----------------------------------------------\n# script \"lisp\"\n# background \"mamon_room\"\n# bgmfile \"bgm272\" \"BgmLostRagnarokEvent\" 0\n;;ムー\n# body 161\n# pos 161 2\n# scale 161 0.6 0\n# layer 161 4\n# mask 161 on\n# alpha 161 0 0\n;;レーヴァ\n# body 3100211\n# pos 3100211 2\n# scale 3100211 0.8 0\n# layer 3100211 1\n# mask 3100211 on\n# alpha 3100211 0 0\n;;カリス\n# body 3602511\n# pos 3602511 4\n# scale 3602511 0.8 0\n# layer 3602511 2\n# mask 3602511 on\n;;キプル\n# body 163\n# pos 163 5\n# scale 163 0.6 0\n# layer 163 3\n# mask 163 on\n# alpha 163 0 0\n;;カーテンフェード\n# imageset 0 \"black\"\n# imagealpha 0 0 0\n# imagelayer 0 1\n;;黒バック\n# imageset 1 \"bg_black\"\n# imagepos 1 0 0\n# imagelayer 1 1\n# imageleftin 1 0\n# imagealpha 1 0 0\n# textwindow \"close\"\n# waitandnext 0.1\n\n;;◆背景：ハルモニア城内\n;;レーヴァ気が付く\n# alpha 3100211 1 0.5\n# waitandnext 0.6\n\n# shake 0 0.3\n# textwindow \"normal\"\n# textflame 1 1\n# textboxarrow 0 1\n# face 3100211 \"surprise\"\n# voice 310021 \"revatein_ge_battle_0005\"\n# chara 3100211\n@レーヴァテイン\nうっ！\n…ここは？\n\n# textflame 1 1\n# textboxarrow 0 3\n# face 3602511 \"happy\"\n# voice 6025 \"chalice_t_0006\"\n# chara 3602511\n@カリス\nあ！お姉さん目が覚めたんだね～\nわたし、カリス・聖鎖・アザゼル！\nカリスって呼んでね\n\n# textflame 1 1\n# textboxarrow 0 1\n# face 3100211 \"normal\"\n# chara 3100211\n@レーヴァテイン\nカリス…\n\n# textflame 1 1\n# textboxarrow 0 3\n# face 3602511 \"normal\"\n# voice 6025 \"chalice_t_0032\"\n# chara 3602511\n@カリス\nおっけい！\nわたしもお姉さんのこと\nレーヴァって呼ぶね！\n\n# textflame 1 1\n# textboxarrow 0 3\n# face 3602511 \"sad\"\n# chara 3602511\n@カリス\n傷の具合はどう？\n痛いところがあったら言ってね～\n\n# textflame 1 1\n# textboxarrow 0 1\n# face 3100211 \"surprise\"\n# voice 310021 \"revatein_ge_0007\"\n# chara 3100211\n@レーヴァテイン\n…あなたが手当てしたの？\n待って！\nなんで私の名前を知っているの\n\n# textflame 1 1\n# textboxarrow 0 3\n# face 3602511 \"happy\"\n# voice 6025 \"chalice_t_0004\"\n# chara 3602511\n@カリス\nなんでって、\nムーが教えてくれたからだよ～っ\n\n# textflame 1 1\n# textboxarrow 0 3\n# face 3602511 \"normal\"\n# chara 3602511\n@カリス\nほら、あっちでキプルと遊んでる！\nやっぱりお友達だったんだね～\n\n;;◆ムーとキプル\n# textwindow \"close\"\n# alpha 3602511 0 0.5\n# alpha 3100211 0 0.5\n# waitandnext 0.5\n\n# alpha 161 1 0.5\n# alpha 163 1 0.5\n# waitandnext 0.5\n\n# textwindow \"normal\"\n# face 3100211 \"normal\"\n# textflame 1 1\n# textboxarrow 0 1\n# voice 9953 \"mwu_0002\"\n# chara 161\n@ムー\nで、俺がガツンとやってやったわけよ\n史上最強最大の幻獣たる俺様で\nなかったら助からなかったろうなぁ\n\n# textflame 1 1\n# textboxarrow 0 3\n# voice 9951 \"kipuru_0028\"\n# chara 163\n@キプル\nキプルキプルキプルキプル…\n\n# textflame 1 1\n# textboxarrow 0 3\n# chara 163\n@キプル\n絡まれてます…\nやたらと饒舌な奴に絡まれてます…\nどうすればっ…\n\n# alpha 163 0 0.3\n# move 161 3 0.3\n# textflame 1 1\n# textboxarrow 0 2\n# voice 9953 \"mwu_0004\"\n# chara 161\n@ムー\nでさぁ、話聞いてっか？\nこっからが俺の武勇伝の凄いところ\nでな！まあ、俺はいつだって――\n\n# pos 3100211 3\n# alpha 3100211 1 0.3\n# textflame 1 1\n# textboxarrow 0 2\n# face 3100211 \"angry\"\n# voice 310021 \"revatein_ge_0085\"\n# chara 3100211\n@レーヴァテイン\n黙って\n\n;;ムギュ\n# se \"SE_0694\"\n# shake 0 0.3\n# textflame 1 1\n# textboxarrow 0 2\n# voice 9953 \"mwu_0025\"\n# chara 161\n@ムー\nムギュギュギュギュッ…\nおお、レヴァ！\n目が覚めたんだなっ\n\n# textwindow \"close\"\n# move 161 4 0.5\n# waitandnext 0.5\n\n# textwindow \"normal\"\n# textflame 1 1\n# textboxarrow 0 2\n# face 3100211 \"normal\"\n# voice 310021 \"revatein_ge_0007\"\n# chara 3100211\n@レーヴァテイン\nムーは呑気にお喋りしてたみたいね\n\n# textflame 1 1\n# textboxarrow 0 3\n# voice 9953 \"mwu_0008\"\n# chara 161\n@ムー\nいや、俺達の事情を\nキプルに説明してやろうと思ったら\nなんでか長くなっちまったんだよ…\n\n# textflame 1 1\n# textboxarrow 0 3\n# chara 161\n@ムー\nなんでだろうな？\n\n# textflame 1 1\n# textboxarrow 0 2\n# face 3100211 \"sad\"\n# voice 310021 \"revatein_ge_0013\"\n# chara 3100211\n@レーヴァテイン\nはぁ…めんどくさい\n\n;;◆全員\n# textwindow \"close\"\n# move 3100211 1 0.5\n# move 161 2 0.6\n# pos 3602511 4\n# pos 163 5\n# alpha 163 1 0.5\n# alpha 3602511 1 0.5\n# waitandnext 0.6\n\n# textwindow \"normal\"\n# textflame 1 1\n# textboxarrow 0 3\n# face 3602511 \"happy\"\n# voice 6025 \"chalice_t_0005\"\n# chara 3602511\n@カリス\nキプルの良い話し相手ができて\nわたしも嬉しいよ～っ\n\n# textflame 1 1\n# textboxarrow 0 3\n# chara 3602511\n@カリス\n今まではソロモンのところの\nグラウしかいなかったからね～\n\n# textflame 1 1\n# textboxarrow 0 1\n# face 3100211 \"normal\"\n# voice 310021 \"revatein_ge_0039\"\n# chara 3100211\n@レーヴァテイン\nソロモン？\nグラウ？\n\n# textflame 1 1\n# textboxarrow 0 3\n# face 3602511 \"normal\"\n# voice 6025 \"chalice_t_0033\"\n# chara 3602511\n@カリス\nソロモンはね～、\nとっても真面目で\nわたしによくお説教するんだよ～\n\n# textflame 1 1\n# textboxarrow 0 3\n# chara 3602511\n@カリス\nでも、わたしのこと\nいつも気に掛けてくれてるんだって\n知ってるから！\n\n;;◆カリスとキプル\n# textwindow \"close\"\n# alpha 3100211 0 0.5\n# alpha 161 0 0.5\n# move 3602511 3 0.5\n# move 163 4 0.5\n# waitandnext 0.5\n\n# textwindow \"normal\"\n# pos 163 4\n# textflame 1 1\n# textboxarrow 0 3\n# voice 9951 \"kipuru_0054\"\n# chara 163\n@キプル\nカリス！この怖い人達は\n他国の斬ル姫ですよっ…\n早く通報しないと危険が大変です…！\n\n# textflame 1 1\n# textboxarrow 0 2\n# face 3602511 \"happy\"\n# voice 6025 \"chalice_t_0034\"\n# chara 3602511\n@カリス\nそうかな？\nレーヴァともムーとも\nお友達になれると思うな～\n\n# textflame 1 1\n# textboxarrow 0 3\n# voice 9951 \"kipuru_0022\"\n# chara 163\n@キプル\nなにを根拠にっ…？\n\n# textflame 1 1\n# textboxarrow 0 2\n# face 3602511 \"shy\"\n# voice 6025 \"chalice_t_0004\"\n# chara 3602511\n@カリス\nふんふん～♪\nなんとなくかな～\n\n# textflame 1 1\n# textboxarrow 0 3\n# voice 9951 \"kipuru_0026\"\n# chara 163\n@キプル\nなんとなく…！\nカリスの悪い癖が\n出てしまいました！\n\n# textflame 1 1\n# textboxarrow 0 3\n# chara 163\n@キプル\nそもそも、この方々は窓を割って\n部屋に飛び込んできたんですよ！\n不審者なんですよ！\n\n# textflame 1 1\n# textboxarrow 0 2\n# face 3602511 \"angry\"\n# voice 6025 \"chalice_t_0009\"\n# chara 3602511\n@カリス\nでも、大怪我してたんだよ\n治療してあげないと\n\n;;◆全員\n# textwindow \"close\"\n# pos 161 2\n# pos 3100211 1\n# alpha 161 1 0.5\n# alpha 3100211 1 0.5\n# move 163 5 0.5\n# move 3602511 4 0.5\n# waitandnext 0.5\n\n# textwindow \"normal\"\n# textflame 1 1\n# textboxarrow 0 1\n# voice 9953 \"mwu_0039\"\n# chara 161\n@ムー\nカリスは良い子だなぁ\nキプルも見習えよ\nで、話の続きなんだけどよ\n\n# textflame 1 1\n# textboxarrow 0 1\n# face 3100211 \"surprise\"\n# voice 310021 \"revatein_ge_0085\"\n# chara 3100211\n@レーヴァテイン\n黙って\nあなた、マリアって\n女の子のこと知ってる？\n\n# textflame 1 1\n# textboxarrow 0 3\n# face 3602511 \"happy\"\n# voice 6025 \"chalice_t_0021\"\n# chara 3602511\n@カリス\nマリア！？\nもちろんだよ～、だってお友達だから\n早くまた会いに行きたいな～っ\n\n# textflame 1 1\n# textboxarrow 0 1\n# face 3100211 \"normal\"\n# voice 310021 \"revatein_ge_0003\"\n# chara 3100211\n@レーヴァテイン\n決まりね…\nマリアが言っていた天使様は\nあなたで間違いない\n\n# move 161 3 0.3\n# textflame 1 1\n# textboxarrow 0 2\n# voice 9953 \"mwu_0001\"\n# face 3602511 \"normal\"\n# chara 161\n@ムー\nなあ、カリス\nここから出て俺達と一緒に\n世界を救う旅に出ようぜ\n\n# textflame 1 1\n# textboxarrow 0 2\n# chara 161\n@ムー\nキプルみたいなオートアバターを\n連れてる斬ル姫同士、\n運命を感じるってもんだろ？\n\n# textflame 1 1\n# textboxarrow 0 2\n# voice 9953 \"mwu_0027\"\n# chara 161\n@ムー\nちなみにヘレナっつう\n困った奴がいるんだが、\n\n# textflame 1 1\n# textboxarrow 0 2\n# chara 161\n@ムー\nそいつのところにも\nニールってのがいてな\n\n# textflame 1 1\n# textboxarrow 0 2\n# chara 161\n@ムー\nそいつらのせいでレヴァは\n大怪我しちまったんだが…\n\n# textflame 1 1\n# textboxarrow 0 3\n# face 3602511 \"sad\"\n# voice 6025 \"chalice_t_0039\"\n# chara 3602511\n@カリス\nひょっとして、レヴァの背中にあった\n一番深い傷のことかな～？\nあれをつけたのがヘレナ？\n\n# textflame 1 1\n# textboxarrow 0 2\n# voice 9953 \"mwu_0032\"\n# chara 161\n@ムー\nおお！そうだぜ\nあいつ、あそこで裏切るとか\nふざけんなってんだ！\n\n# textflame 1 1\n# textboxarrow 0 3\n# face 3602511 \"normal\"\n# voice 6025 \"chalice_t_0041\"\n# chara 3602511\n@カリス\nね～ね～、そのお話し\nもう少し詳しく聞きたいな～\nお願い！\n\n# bgmfile \"bgm271\" \"BgmLostRagnarokEvent\" 0\n# textflame 1 1\n# textboxarrow 0 1\n# face 3100211 \"sad\"\n# voice 310021 \"revatein_ge_0013\"\n# chara 3100211\n@レーヴァテイン\n別にいいけど…\n\n# textflame 1 1\n# textboxarrow 0 2\n# voice 9953 \"mwu_0028\"\n# chara 161\n@ムー\n酷ぇ話だぞ\n俺達はお前に会ってみたくて\nここに入る方法を考えてたんだ\n\n# textflame 1 1\n# textboxarrow 0 2\n# chara 161\n@ムー\nで、ヘレナが計画を立てたんだよ\n教皇庁の近くでレヴァが騒ぎを\n起こして斬ル姫を誘き出し\n\n# textflame 1 1\n# textboxarrow 0 2\n# chara 161\n@ムー\nその間にヘレナが教皇庁に潜入して\nお前に接触するって計画をな\n\n# textflame 1 1\n# textboxarrow 0 2\n# voice 9953 \"mwu_0017\"\n# chara 161\n@ムー\nそれなのに、あいつ…\nレヴァの背中を刺しやがった！\nなに、考えてやがんだ！！"
	}
]