[
	{
		"ID": 10028201,
		"script": ";;【ブラックレーヴァテイン】【EP1】(フリ)スキル効果：攻撃系\n;;BGM \"bgm002\" 背景は平原\n# script \"lisp\"\n# background \"plain\"\n# bgm \"bgm002\" 0\n# body 100281\n# pos 100281 3\n# mask 100281 off\n# textflame 1 1\n# textboxarrow 0 2\n# chara 100281\n# voice 10028 \"revatein_k_kyara_1011\"\n# face 100281 \"angry\"\n@レーヴァテイン\nなぁに？\n戦闘が終われば、\n私に用はないでしょ？\n\n# chara 100281\n# voice 10028 \"revatein_k_0007\"\n# face 100281 \"usual\"\n@レーヴァテイン\n放っておいて\n１人になりたいの\n\n# alpha 100281 0 0.3\n# textflame 0 0\n@\n黒奏官の元にいた\n“黒”のレーヴァテイン\n\n# textflame 0 0\n@\n彼女は隊と馴染もうとせず、\n１人でいる事が多かった\n\n# textflame 0 0\n@\n心配したマスターは\n彼女を探し出し、\n話をしてみることにした\n\n# alpha 100281 1 0.5\n# textflame 1 1\n# textboxarrow 0 2\n# chara 100281\n# face 100281 \"surprise\"\n@レーヴァテイン\n…！\n\n# chara 100281\n# voice 10028 \"revatein_k_0022\"\n@レーヴァテイン\n追ってきたの…？\n\n# chara 100281\n# face 100281 \"usual\"\n@レーヴァテイン\n言ったでしょ？\n１人がいいって\n\n# textflame 0 0\n@\n広大な平原の中、\n大きな岩の上に\n寝そべっていた彼女\n\n# textflame 1 1\n# textboxarrow 0 2\n# chara 100281\n# voice 10028 \"revatein_k_0013\"\n# face 100281 \"sad\"\n@レーヴァテイン\n…はぁ…\nほんと、あなたって…\n\n# chara 100281\n# voice 10028 \"revatein_k_kyara_1013\"\n@レーヴァテイン\nめんどくさい人ね\n\n# textflame 0 0\n@\nそう言う彼女に、\nマスターが尋ねる\n\n# textflame 1 1\n# textboxarrow 0 2\n# chara 100281\n# face 100281 \"usual\"\n@レーヴァテイン\nここでなにをしてるか…って？\n\n# chara 100281\n# voice 10028 \"revatein_k_event_1014\"\n@レーヴァテイン\nいいでしょ、なんでも\nあなたに関係ないし\n\n# textflame 0 0\n@\nマスターに背を向けるように\n彼女が寝返りを打つ\n\n# textflame 0 0\n@\n隊のみんなと話そうとしないけど、\nなにか不安があるの？\n\n# textflame 1 1\n# textboxarrow 0 2\n# chara 100281\n@レーヴァテイン\n………\n\n# textflame 0 0\n@\n相談事なら乗るよ、\n僕も改善できるところは直すし\n…と、マスターが続ける\n\n# textflame 1 1\n# textboxarrow 0 2\n# chara 100281\n# face 100281 \"sad\"\n# voice 10028 \"revatein_k_0013\"\n@レーヴァテイン\nあぁ…もう…\n\n# chara 100281\n# face 100281 \"angry\"\n@レーヴァテイン\nうるさいなぁ\n\n# textflame 0 0\n@\n背を向けていた彼女が、\nマスターに向き直った\n\n# textflame 1 1\n# textboxarrow 0 2\n# chara 100281\n# face 100281 \"usual\"\n@レーヴァテイン\n話聞いてた…？\n\n# chara 100281\n# voice 10028 \"revatein_k_0027\"\n@レーヴァテイン\n放っておいて欲しいの、私は\n\n# chara 100281\n# face 100281 \"sad\"\n@レーヴァテイン\nなのに、ベラべラと…\n\n# chara 100281\n@レーヴァテイン\n他の姫にはその熱血っぷりで\n通用してるのかも知れないけど…\n\n# chara 100281\n@レーヴァテイン\nあなたみたいな人って…\n\n# textflame 0 0\n@\n岩から見下ろしながら話していた\n彼女が、マスターの前に飛び降りた\n\n# textflame 1 1\n# textboxarrow 0 2\n# chara 100281\n# voice 10028 \"revatein_k_kyara_1013\"\n# face 100281 \"angry\"\n@レーヴァテイン\n本当にめんどくさいんだけど…\n\n# textflame 0 0\n@\n音もなく剣を取り出し、\n冷ややかな目で睨み付ける彼女\n\n# textflame 0 0\n@\nその迫力に後ずさるマスターだった\n"
	}
]