[
	{
		"ID": 100205014,
		"script": ";;第５話　タイトル：笑顔でいられる世界\n;;//背景：ユグドラシル（地上編）\n# script \"lisp\"\n;;ティル\n# body 101415\n# pos 101415 3\n# scale 101415 0.8 0\n# mask 101415 off\n# alpha 101415 0 0\n;;ベルゼブブ\n# body 960022\n# pos 960022 3\n# scale 960022 0.8 0\n# mask 960022 off\n# textwindow \"nomal\"\n# face 960022 \"happy\"\n# textwindow \"nomal\"\n# textflame 1 1\n# textboxarrow 0 2\n@ベルゼブブ\nティルフィングウウウウウウウ！！\n\n# face 101415 \"angry\"\n# alpha 101415 1 0.5\n# alpha 960022 0 0.5\n@ティルフィング\nこれで終わりよ！"
	}
]