[
	{
		"ID": 10034202,
		"script": "# script \"lisp\"\n# background \"town\"\n# bgm \"bgm002\" 0\n# body 100341\n# mask 100341 off\n# pos 100341 3\n# textboxarrow 0 2\n# face 100341 \"shy\"\n# chara 100341\n@デュランダル\nわ、私が好きなのは紅茶ではなく、\nマカロンだと仰りたいのですか？\nこの淑女の私が…？\n\n# voice 1003 \"durandaru_0004\"\n# chara 100341\n@デュランダル\nふふ…………確かに\n\n# face 100341 \"happy\"\n# voice 1003 \"durandaru_0005\"\n# chara 100341\n@デュランダル\nなかなか鋭いのです、マスター！\n私、マカロンがと〜っても\n大好きなのです〜〜ッ！\n\n# face 100341 \"normal\"\n# chara 100341\n@デュランダル\n…あ！ありました！\nスイーツショップ！\n今日も行列ができてるのです！\n\n# chara 100341\n@デュランダル\nつらい戦いが続く時代は、\n甘いものが一服の清涼剤になるのです\nよし、急ぎましょぉ〜〜〜っ！！\n\n# leftout 100341 0.3\n# textboxarrow 0 0\n\n# pos 100341 3\n# leftin 100341 0.5\n# textboxarrow 0 2\n# voice 1003 \"durandaru_0006\"\n# chara 100341\n@デュランダル\nよかった〜！今日は売り切れずに、\n無事ゲットすることができたのです！\n\n# face 100341 \"sad\"\n# chara 100341\n@デュランダル\nあの…本当は、\nもう一つ…買いたいものがあるのです\n\n# chara 100341\n@デュランダル\n新しいティーカップなのです\nでも…\n\n# chara 100341\n@デュランダル\nあまりにおいしそうだったので、\nつい今日の予算を全部…\nマカロンに…その…\n\n# face 100341 \"happy\"\n# chara 100341\n@デュランダル\nえっ！ほ、本当なのですか！？\n本当に…新しいティーカップ、\n私に買ってくれるのですか！？\n\n# select \"余計なことだったかな…？\" \"select_label_01\" \"さっき無神経なこと言っちゃったから\" \"select_label_02\" \"プレゼントより自分で選ぶ方がいい？\" \"select_label_03\"\nえっ！ほ、本当なのですか！？\n本当に…新しいティーカップ、\n私に買ってくれるのですか！？\n\n# label \"select_label_01\"\n# labeljump \"select_label_end\"\n# chara 100341\n@デュランダル\nそ…そんな！\n余計なことではないのです！\nあの…その…\n\n# label \"select_label_02\"\n# labeljump \"select_label_end\"\n# chara 100341\n@デュランダル\nえ？無神経…？\nいつ？なにがですか？？\nあの…マスター？\n\n# label \"select_label_03\"\n# labeljump \"select_label_end\"\n# chara 100341\n@デュランダル\nそ、そんなことないのです！\nマスターが選んで下さいッ！\nあの…マスター\n\n# label \"select_label_end\"\n# chara 100341\n# voice 1003 \"durandaru_0001\"\n@デュランダル\nデュランダル\n…とっても嬉しいのです！\n\n# voice 1003 \"durandaru_0030\"\n# textflame 0 0\n@\nいつも少し天然で、\nマイペースなデュランダル\n\n# textflame 0 0\n@\nそんな彼女が珍しく頬を赤らめて、\nぎこちなくモジモジと\n嬉しさを露わにしていた"
	}
]