[
	{
		"ID": 10034203,
		"script": "# script \"lisp\"\n# background \"town\"\n# bgm \"bgm002\" 0\n# body 100341\n# mask 100341 off\n# pos 100341 3\n# textflame 1 1\n# textboxarrow 0 2\n# chara 100341\n@デュランダル\nだ…大丈夫ぅ〜…\nフラフラなんかしていないのです…\n\n# chara 100341\n@デュランダル\nちょ…ちょっと両手から\nマカロンとティーカップが\nモリモリ溢れているだけで…\n\n# chara 100341\n@デュランダル\nま、マスター大丈夫ですっ\nこ…これくらい…\n自分で持てるのですぅ…\n\n# face 100341 \"surprise\"\n# voice 1003 \"durandaru_0022\"\n# chara 100341\n@デュランダル\n…あっ！！\nなんで、こんなとこに石ころがッ！！\n\n# voice 1003 \"durandaru_0023\"\n# textsize 48\n# chara 100341\n@デュランダル\nきゃあっ！！\n\n# voice 1003 \"durandaru_0016\"\n# textsize 24\n# chara 100341\n@デュランダル\nマ、マスターにいただいた\nティーカップがぁ〜〜っ！！\n\n# textflame 0 0\n@\n宙に舞うティーカップとマカロン。\nが、次の瞬間…デュランダルは\n驚くほどの俊敏さでキャッチした\n\n# textflame 0 0\n@\nその体捌きは常人の目では\n追えぬほどのスピードであった…\n\n# textflame 1 1\n# chara 100341\n@デュランダル\nわわっ…散乱したティーカップと\nマカロンが…まるで…\n宙に止まっているように見えました！\n\n# face 100341 \"happy\"\n# voice 1003 \"durandaru_0021\"\n# chara 100341\n@デュランダル\n今の動きは…戦闘にも\n使えるかも知れないのですぅ！！\n\n# se \"SE_0602\"\n# chara 100341\n@デュランダル\nその名も…\n奥義『淑女の嗜み♪』！\nなのです！！\n\n# textflame 0 0\n@\nそれはまさしく\n彼女が新たなるスキルに\n目覚めた瞬間だった\n\n# voice 1003 \"durandaru_0030\"\n# textflame 1 1\n# chara 100341\n@デュランダル\nありがとうなのです、マスター！\nこれで、また一つ強くなれました！！\n…え？なんですか？\n\n# select \"マカロン…少し落ちちゃったよ？\" \"select_label_01\" \"なぜティーカップをキャッチしたの？\" \"select_label_02\" \"マカロンもう１回買いに行く？\" \"select_label_03\"\nありがとうなのです、マスター！\nこれで、また一つ強くなれました！！\n…え？なんですか？\n\n# label \"select_label_01\"\n# labeljump \"select_label_end\"\n# chara 100341\n@デュランダル\nティーカップのためなら、\nマカロンくらい…あ、いや！\nくぅ、行列店のマカロンだったのに！\n\n# label \"select_label_02\"\n# labeljump \"select_label_end\"\n# chara 100341\n@デュランダル\nべ、別に…\nただ一番近くにあっただけで！\n特に意味は…っ！\n\n# label \"select_label_03\"\n# labeljump \"select_label_end\"\n# chara 100341\n@デュランダル\n大丈夫なのです！\nマスターが買ってくれた\nティーカップさえ無事ならって…あ！\n\n# label \"select_label_end\"\n# face 100341 \"shy\"\n# chara 100341\n@デュランダル\nもう！変な質問しないでください！\n落ちたマカロンは、\nマスターが持ってきて下さいね！\n\n# imageset 0 \"c100341\"\n# imagealpha 0 0 0\n# voice 1003 \"durandaru_0024\"\n# chara 100341\n@デュランダル\nしゅ…淑女は落ちたものなど、\n拾わないのですからッ！！\n\n# imagealpha 0 1 0\n# imagepos 0 0 0 \n# fadein \"white\" 3\n# voice 1003 \"durandaru_kyara_0018\"\n# textwindow \"close\"\n\n# textwindow \"nomal\"\n# textflame 0 0\n@\n今度は怒って頬を赤らめる\nデュランダル\n\n# textflame 0 0\n@\n落としたものをキチンと拾うのは\n良いことだが…\n拾ってどうするのだろうか？\n\n# textflame 0 0\n@\n淑女のデュランダルだけに、\nまさか食べることはないとは思うが\n果たして…？"
	}
]