[
	{
		"ID": 10054201,
		"script": ";;【EP1】\n# script \"lisp\"\n# background \"schoolgate_morning\"\n# bgm \"bgm003\" 0\n# body 119\n# body 100541\n# alpha 100541 0 0\n# pos 119 3\n# mask 119 off\n# alpha 119 0 0\n# textflame 0 0\n@\n五月晴れ――\n\n# textflame 0 0\n@\n気持ちのよい朝\n清々しい気分で校門をくぐる\nマスターだったが…\n\n# textflame 0 0\n@\n目の前をゆく聖ユグのお嬢様たちは\nどこか覇気がなく…\nむしろゆるゆるな雰囲気…？\n\n# alpha 119 1 1\n# textflame 1 1\n# textboxarrow 0 2\n# chara 119\n# voice 10054 \"ritto_0009\"\n# face 119 \"angry\"\n@リットゥ\nなにをぼーっと突っ立っている！\n\n# textboxarrow 0 2\n# chara 119\n# face 119 \"normal\"\n@リットゥ\nまさか玄関まで来て…\n学校に行きたくなくなった\nなどと言わないだろうな？\n\n# textflame 0 0\n@\nなにやら名簿らしきものを持った\n風紀委員のリットゥが\n厳しく立っていた\n\n# textflame 1 1\n# textboxarrow 0 2\n# chara 119\n# voice 10054 \"ritto_0020\"\n@リットゥ\n…ふむ\nどうやらお前はいつも通りだな\n通ってよし！\n\n# textflame 0 0\n@\n通ってよし…？\n一体、なんのチェックなのだろうか\n\n# textflame 1 1\n# textboxarrow 0 2\n# chara 119\n# face 119 \"angry\"\n@リットゥ\n…お前も気づいているんだろう？\n弛緩し切った学院の空気を！\n\n# textboxarrow 0 2\n# chara 119\n@リットゥ\n聖ユグドラシル生に\nあるまじきこのたるみを\nあるべき姿に導くべく…\n\n# textboxarrow 0 2\n# chara 119\n# face 119 \"normal\"\n@リットゥ\n我が友パラシュが\n自主的に風紀指導をしているんだ\n\n# textboxarrow 0 2\n# chara 119\n@リットゥ\n大切な友人だからな\n私も協力している\n\n# textflame 0 0\n@\nまさか、いつもきりりとしている\n聖ユグ生の間で五月病的なものが\nはやっているとは…\n\n# textflame 0 0\n@\n意外だとは思いつつも\n周りを見渡す限り、納得するしかない\n\n# textflame 1 1\n# textboxarrow 0 2\n# chara 119\n# face 119 \"angry\"\n@リットゥ\nほら君、上着はどうした！\n聖ユグドラシル生としての節度は\n常にしっかり持ちたまえ！\n\n# textflame 0 0\n@\n事実、こうして目の目の前で\n次々に生徒が指導されている…\n\n# textflame 0 0\n@\n力のこもったリットゥの姿に\nマスターは感心するばかりだった"
	}
]