[
	{
		"ID": 100601063,
		"script": ";;//バトル003\n# bgmfile \"bgm271\" \"BgmLostRagnarokEvent\" 0\n# background \"201_border\"\n# fadein \"black\" 2\n# textwindow \"nomal\"\n# body 3103811\n# pos 3103811 1\n# scale 3103811 0.8 0\n# alpha 3103811 1 0\n# body 139\n# pos 139 1\n# scale 139 0.8 0\n# alpha 139 0 0\n# body 3820001\n# pos 3820001 2\n# scale 3820001 0.8 0\n# alpha 3820001 0 0\n# entry 100 3820001\n# pos 100 4\n# scale 100 0.8 0\n# alpha 100 0 0\n# body 3400811\n# pos 3400811 4\n# scale 3400811 0.8 0\n# alpha 3400811 0 0\n# textwindow \"nomal\"\n# alpha 3103811 0 0\n# alpha 139 0 0\n# alpha 3820001 1 0\n# alpha 100 1 0\n# textboxarrow 0 1\n@ケイオスリオン兵\nクソォォッ…！\n何でこんな辺鄙なところに\n敵が現れるんだ！？\n\n# move 3103811 3 0\n# textboxarrow 0 3\n@ケイオスリオン兵\nやってられるか！\n撤退だぁっ…\n\n# alpha 3820001 0 0.5\n# alpha 100 0 0.5\n# alpha 3103811 1 0.5\n# textboxarrow 0 2\n@アルマス\nここまでは良い感じよ！\nこれで斬ル姫が出なければっ\n\n# textboxarrow 0 0\n# se \"SE_0719\"\n# alpha 3400811 1 0.5\n# move 3103811 2 0.5\n# waitandnext 1\n\n# face 3400811 \"happy\"\n# textboxarrow 0 3\n# voice 340081 \"otyinusu_a_0005\"\n@オティヌス\nそういうこと言うと、\n出ちゃうんだよね\n\n# face 3103811 \"surprise\"\n# voice 1038 \"almace_0022\"\n# textboxarrow 0 1\n@アルマス\nオティヌス！？\nあなた、レーヴァテインに瞬殺\nされたんじゃ…\n\n# face 3400811 \"normal\"\n# textboxarrow 0 3\n@オティヌス\nそんなこともあったね\nまあ、死んでないけど\n\n@オティヌス\nせっかく伯爵を騙して失墜させたのに\nディスラプターズのせいで散々だよ\nお陰で今は閑職なんだ\n\n# voice 340081 \"otyinusu_a_0002\"\n# face 3400811 \"happy\"\n@オティヌス\nどうだい？\n退屈だから、アルマス達も\nあたしとカード遊戯をしていきなよ\n\n# face 3103811 \"angry\"\n# textboxarrow 0 1\n# voice 1038 \"almace_0010\"\n@アルマス\n騙す気満々の相手とカード遊戯なんて\n絶対にお断りよ！\n\n# textboxarrow 0 3\n@オティヌス\n騙す気満々か…\n警戒するのは良いことだ\nその気持ちを忘れないようにね\n\n@オティヌス\nじゃ、あたしはこの辺で\n\n# face 3103811 \"surprise\"\n# textboxarrow 0 1\n# voice 1038 \"almace_0022\"\n@アルマス\nえっ…？\n国境を守ってるんじゃないの？\n\n# voice 340081 \"otyinusu_a_0004\"\n# textboxarrow 0 3\n@オティヌス\nさあて、どうだろうね？\n…ふふっ\n\n;;//オティヌスが立ち去る\n# textboxarrow 0 0 \n# se \"SE_0719\"\n# alpha 3400811 0 1\n# move 139 4 0\n# waitandnext 1\n\n# face 139 \"sad\"\n# alpha 139 1 0.5\n# textboxarrow 0 3\n@ティターニア\n本当にいなくなってしまいました…"
	}
]