[
	{
		"ID": 10065203,
		"script": ";;【EP3】(オチ)\n# script \"lisp\"\n# background \"classroom01_culturefestival_daytime\"\n# bgm \"bgm002\" 0\n# body 76\n# pos 76 3\n# mask 76 off\n# alpha 76 0 0\n# textboxarrow 0 2\n# chara 76\n# textflame 0 0\n@\nナーゲルリングが抜けた穴は\nそこそこ痛かったが\n手が回らないほどではなかった\n\n# textflame 0 0\n@\nずっとナーゲルリングが\n気になっていたマスターは、\n落ち着いたところで様子を見に行く\n\n# voice 1006 \"nageruring_0004\"\n# face 76 \"happy\"\n# textflame 1 1\n# chara 76\n# alpha 76 1 0.3\n@ナーゲルリング\nはぁ♪おいし…\nやっぱりティータイムは\nカップにもこだわらないと♪\n\n# voice 1006 \"nageruring_0002\"\n# textflame 1 1\n# chara 76\n@ナーゲルリング\nあらマスター。一緒にどうです？\n今ならおろしたてのミニカップに\n淹れて差し上げますよ♪\n\n# textflame 0 0\n@\nえ～と…\nお茶を飲んで疲労が回復した…\nということでいいのだろうか？\n\n# voice 1006 \"nageruring_0004\"\n# face 76 \"normal\"\n# textflame 1 1\n# chara 76\n@ナーゲルリング\n様子を見に来るの、早かったですね\nそんなに私の具合が\n心配だったんですか？\n\n# select \"元気になったってことでいい？\" \"select_label_01\" \"心配に決まってるじゃないか！\" \"select_label_02\" \"もしかして…サボりだったの？\" \"select_label_03\"\n様子を見に来るの、早かったですね\nそんなに私の具合が\n心配だったんですか？\n\n# label \"select_label_01\"\n# labeljump \"select_label_end\"\n# face 76 \"normal\"\n# textflame 1 1\n# chara 76\n@ナーゲルリング\nええ、このとおりですよ♪\n\n# label \"select_label_02\"\n# labeljump \"select_label_end\"\n# face 76 \"normal\"\n# textflame 1 1\n# chara 76\n@ナーゲルリング\nあれ…本当に気づいてない…？\n\n# label \"select_label_03\"\n# labeljump \"select_label_end\"\n# face 76 \"happy\"\n# textflame 1 1\n# chara 76\n@ナーゲルリング\nふふふ♪作戦通りです！\n\n# label \"select_label_end\"\n# textflame 1 1\n# chara 76\n# face 76 \"normal\"\n@ナーゲルリング\nご存知の通り、この催しは\n初めから気乗りしていなかったので\nできれば頑張りたくないなと…\n\n# textflame 1 1\n# chara 76\n@ナーゲルリング\nあなたの前で疲れたふりを\nしていれば、休ませてくれるんじゃ\nないかと思ったんです\n\n# voice 1006 \"nageruring_0006\"\n# textflame 1 1\n# chara 76\n@ナーゲルリング\nまさかこんなにうまくいくとは\n思わなかったですが…\n本当に心配性なんだから！\n\n# textflame 0 0\n@\n思わず、騙された！\nという言葉をこぼすマスター\nナーゲルリングは意地悪そうに笑う\n\n# voice 1006 \"nageruring_0009\"\n# face 76 \"surprise\"\n# textflame 1 1\n# chara 76\n@ナーゲルリング\n騙した、とは人聞きの悪い！\nこれは上手に生きていくための\n処世術なんですよ…♪\n\n# se \"SE_0602\"\n# textflame 1 1\n# face 76 \"happy\"\n# chara 76\n@ナーゲルリング\n私の策へと\n『入ってらっしゃいませ』♪\nなーんて…\n\n# textflame 0 0\n@\n完全にしてやられたわけだが…\n不思議と怒りは湧いてこなかった\nナーゲルリングは尚も自慢げに語る\n\n# textflame 1 1\n# face 76 \"normal\"\n# chara 76\n@ナーゲルリング\nきっと相手がシェキナーだったら、\n一緒に頑張ろう、とか\n励ましていたんじゃないですか？\n\n# textflame 1 1\n# face 76 \"shy\"\n# chara 76\n@ナーゲルリング\n私はこの通り小さいから…\n庇護欲が湧いて\n休ませてくれると思ったんです\n\n# imageset 0 \"c100651\"\n# imagealpha 0 0 0\n# voice 1006 \"nageruring_0004\"\n# face 76 \"happy\"\n# textflame 1 1\n# chara 76\n@ナーゲルリング\nまったくもって\n私の作戦勝ちというわけです！\n\n# imagealpha 0 1 0\n# imagepos 0 0 0 \n# voice 10065 \"nageruring_g_unit_0006\"\n# fadein \"white\" 3\n# textwindow \"close\"\n\n# textwindow \"nomal\"\n# textflame 0 0\n@\n騙されてよかったとすら思える\n可愛くて自信満々な笑顔だった\n"
	}
]