[
	{
		"ID": 100803053,
		"script": "# background \"red_corridor\"\n# bgmfile \"bgm272\" \"BgmLostRagnarokEvent\" 0\n# textflame 0 0\n# body 3503111\n# pos 3503111 4\n# scale 3503111 0.8 0\n# alpha 3503111 0 0\n# body 3302811\n# pos 3302811 2\n# scale 3302811 0.8 0\n# alpha 3302811 0 0\n# body 162\n# pos 162 3\n# scale 162 0.8 0\n# alpha 162 0 0\n# layer 162 3\n# body 3602511\n# pos 3602511 3\n# scale 3602511 0.8 0\n# alpha 3602511 0 0\n# body 163\n# pos 163 4\n# scale 163 0.8 0\n# alpha 163 0 0\n# layer 163 4\n# mask 3602511 off\n@\nヘレナ達は資料室で幾つかの資料を\n見つけ出していた\n\n# alpha 162 1 0.5\n# alpha 3503111 1 0.5\n# alpha 3302811 1 0.5\n# textboxarrow 0 3\n# textflame 1 1\n# face 3503111 \"normal\"\n# voice 5031 \"solomon_t_0028\"\n@ソロモン\n何とか復元できたのはこれだけね\n地底世界について、有益な情報が\nあれば良いのだけれど\n\n# textboxarrow 0 1\n# face 3302811 \"normal\"\n# voice 3028 \"herena_a_0004\"\n@ヘレナ\nソロモンがこんなに頑張ったんだから\nきっと成果が出るよ…くふっ\n\n# textboxarrow 0 3\n# face 3503111 \"happy\"\n# voice 5031 \"solomon_t_0030\"\n@ソロモン\nヘレナ、ありがとう！\nその言葉だけで報われた気分よっ\n\n# textboxarrow 0 2\n# voice 9952 \"nir_0027\"\n@ニール\n相変わらずのバカ正直よね…\n\n# textboxarrow 0 1\n# voice 3028 \"herena_a_0020\"\n@ヘレナ\nそれがソロモンの良いところだよ\n…くふっ\n\n# se \"SE_0648\"\n# textboxarrow 0 2\n# alpha 3602511 1 0.5\n# alpha 163 1 0.5\n# alpha 162 0 0.5\n# alpha 3503111 0 0.5\n# alpha 3302811 0 0.5\n# face 3602511 \"surprise\"\n# voice 360251 \"chalice_t_0039\"\n@カリス\n何だか難しいことばっかり書いて\nあるね～っ\nあ！アルマス見っけ！\n\n# se \"SE_0761\"\n# textboxarrow 0 3\n# voice 9951 \"kipuru_0054\"\n@キプル\nあああああっ…せっかく整えた\n資料をバラバラにしないで下さい\nカリスっ\n\n# textboxarrow 0 2\n# face 3602511 \"normal\"\n# voice 360251 \"chalice_t_0002\"\n@カリス\nね～ね～二人とも見てよっ\nこれ、アルマスだよね！\n\n# textboxarrow 0 3\n# alpha 3602511 0 0.5\n# alpha 163 0 0.5\n# alpha 162 1 0.5\n# alpha 3503111 1 0.5\n# alpha 3302811 1 0.5\n# face 3503111 \"surprise\"\n# voice 5031 \"solomon_t_0022\"\n@ソロモン\nこれは…どこで撮影された記録なの？\n\n# textboxarrow 0 1\n# face 3302811 \"surprise\"\n# voice 3028 \"herena_a_0040\"\n@ヘレナ\n右下に書いてあるよ\n『幻想機構ビフレスト』\n…こことは内装が違うね\n\n# textboxarrow 0 2\n# alpha 3602511 1 0.5\n# alpha 163 1 0.5\n# alpha 162 0 0.5\n# alpha 3503111 0 0.5\n# alpha 3302811 0 0.5\n# face 3602511 \"normal\"\n# voice 360251 \"chalice_t_0004\"\n@カリス\nこれ、アルマスに見せてあげたら\n何か思い出すんじゃない！？\n持っていってあげようよ！\n\n# textboxarrow 0 3\n# alpha 3602511 0 0.5\n# alpha 163 0 0.5\n# alpha 162 1 0.5\n# alpha 3503111 1 0.5\n# alpha 3302811 1 0.5\n# face 3503111 \"normal\"\n# voice 5031 \"solomon_t_0032\"\n@ソロモン\nそうね\nそろそろレーヴァのところに\n戻った方が良さそうだし\n\n# textboxarrow 0 2\n# alpha 3602511 1 0.5\n# alpha 163 1 0.5\n# alpha 162 0 0.5\n# alpha 3503111 0 0.5\n# alpha 3302811 0 0.5\n# face 3602511 \"happy\"\n# voice 360251 \"chalice_t_0006\"\n@カリス\nやっほい！\nカリスちゃん、お手柄だよ～っ\nそれじゃ――\n\n;;//爆発音と画面揺れ\n# face 3602511 \"surprise\"\n# bgm \"stop\"\n# se \"SE_9126\"\n# fadein \"white\" 0.5\n# shake 1 1\n# waitandnext 1\n\n# textboxarrow 0 3\n# voice 9951 \"kipuru_0025\"\n@キプル\nキャーッ！\nキプルキプルキプルキプル…\n\n# textboxarrow 0 2\n# alpha 3602511 0 0.5\n# alpha 163 0 0.5\n# move 3302811 3 0\n# mask 3302811 off\n# alpha 3302811 1 0.5\n# face 3302811 \"usual\"\n# voice 3028 \"herena_a_0028\"\n@ヘレナ\n何か騒ぎが起きたみたいだね\nレーヴァ達かな？\n…ふふっ"
	}
]