[
	{
		"ID": 10122303,
		"script": "# script \"lisp\"\n# background \"foot_mountain_village\"\n# bgm \"bgm002\" 0\n# body 101221\n# mask 101221 off\n# pos 101221 3\n# textflame 0 0\n@\n買い込んだ食料を\n棚に積み込むマスター\n\n# textflame 1 1\n# textboxarrow 0 0\n# voice 1012 \"adamasu_0004\"\n@アダマス\nようやく任務完了ね\nじゃ、とっとと帰りましょ\n\n# textflame 0 0\n@\n彼女が踵を返す\n\n# textflame 0 0\n@\n…と、その瞬間！\n\n# textflame 0 0\n@\n１０㎏はあろうかと思われる米袋が、\n彼女の頭上目がけ、棚から落下した\n\n# face 101221 \"surprise\"\n# textflame 1 1\n# textboxarrow 0 0\n# voice 1012 \"adamasu_0022\"\n@アダマス\n…！！\n\n# textflame 0 0\n@\n彼女が大鎌を出すのよりも早く、\nマスターが彼女を守ろうと\n咄嗟に動く\n\n# face 101221 \"angry\"\n# textflame 1 1\n# textboxarrow 0 0\n# voice 1012 \"adamasu_0023\"\n@アダマス\n！！\n…くっ！\n\n# textflame 0 0\n@\nそのマスターを助けるため、\n彼女の大鎌が強烈な光を放った\n\n# textflame 0 0\n@\n刹那！米袋は粉砕され、\nその勢いに吹っ飛ぶマスター\n\n# select \"た…助けてくれたの？\" \"select_label_01\" \"弱い男は助けないと思ってた…\" \"select_label_02\" \"強い男じゃなきゃ許さないって…\" \"select_label_03\"\n刹那！米袋は粉砕され、\nその勢いに吹っ飛ぶマスター\n\n# face 101221 \"amazed\"\n# label \"select_label_01\"\n# labeljump \"select_label_end\"\n# textflame 1 1\n# textboxarrow 0 2\n@アダマス\nそんなつもり…なかったんだけどね\n\n# face 101221 \"amazed\"\n# label \"select_label_02\"\n# labeljump \"select_label_end\"\n# textflame 1 1\n# textboxarrow 0 2\n@アダマス\nあたしも…そう思ってた…\n\n# face 101221 \"amazed\"\n# label \"select_label_03\"\n# labeljump \"select_label_end\"\n# textflame 1 1\n# textboxarrow 0 2\n@アダマス\nあぁ、許さないよ…だから\n\n# face 101221 \"angry\"\n# label \"select_label_end\"\n# voice 1012 \"adamasu_0028\"\n@アダマス\n自分でも驚いてるよ\n何で、あんたなんか…\n\n# face 101221 \"amazed\"\n@アダマス\nでも…\n\n@アダマス\n躊躇もせず、怖気も見せずに、\nあたしを助けようとするなんて…\n\n# face 101221 \"smile\"\n# voice 1012 \"adamasu_0001\"\n@アダマス\nあんた…心の強い\nいいマスターだよ\n\n# textflame 0 0\n@\n初めて彼女がドＳじゃない、\n優しい笑顔を見せた\n\n# textflame 1 1\n# textboxarrow 0 2\n# se \"SE_0602\"\n@アダマス\n今の…新たな技になるかも\n奥義『クイーンズサイス』\nとして！！\n\n# textflame 0 0\n@\nそれはまさしく、\n彼女が新たなるスキルに\n目覚めた瞬間だった\n\n# textflame 0 0\n@\n誰かのためってのも…\nいいもんでしょ？\nマスターが彼女に尋ねる\n\n# face 101221 \"amazed\"\n# textflame 1 1\n# textboxarrow 0 2\n# voice 1012 \"adamasu_0003\"\n@アダマス\n誰かのために動くなんて…\nガラじゃないと思ったのに\n\n# face 101221 \"normal\"\n@アダマス\nだって自分を犠牲にして\n喜ぶなんて、そんなの\nドＭのすることでしょ？\n\n@アダマス\nでも…\n\n# face 101221 \"shy\"\n# voice 1012 \"adamasu_0004\"\n@アダマス\nあんたのためなら、\nそれもアリかな\n…なんて\n\n# textflame 0 0\n@\n床に転んだままのマスターに、\n彼女がそっと手を差し出す\n\n# textflame 0 0\n@\n起こしてもらえるのかと\n手を伸ばすマスター\n\n# textflame 1 1\n# textboxarrow 0 2\n# voice 1012 \"adamasu_0005\"\n@アダマス\n…ふふ\n\n# textflame 0 0\n@\nしかし、その手はすんでのところで\nすっと引っ込められた\n\n# imageset 0 \"c101221\"\n# imagealpha 0 0 0\n# imagepos 0 0 0\n# textflame 1 1\n# textboxarrow 0 2\n@アダマス\n甘いわよ？あたしのマスターを\n名乗る以上…あんたには\nもっと強くなってもらわないとね\n\n# voice 1012 \"adamasu_kyara_0017\"\n# imagealpha 0 1 0\n# imagepos 0 0 0\n# fadein \"white\" 3\n# textwindow \"close\"\n\n# textwindow \"nomal\"\n# textflame 0 0\n@\nそう言って見下ろす彼女の目は、\n小悪魔的な妖艶さと\n天使の優しさが同居していた"
	}
]