[
	{
		"ID": 10148202,
		"script": ";;【EP2】（ウケ）\n# script \"lisp\"\n# background \"town\"\n# bgm \"bgm002\" 0\n# body 101481\n# pos 101481 3\n# mask 101481 off\n# textflame 0 0\n@\nマスターと話したことで、\n余計に思い悩むことになってしまった\nティルフィング\n\n# voice 10148 \"tyrufing_k_0022\"\n# face 101481 \"surprise\"\n# textboxarrow 0 2\n# textflame 1 1\n@ティルフィング\nみ、魅力的などと…！\n\n# face 101481 \"sad\"\n# textboxarrow 0 2\n# textflame 1 1\n@ティルフィング\n私は…破壊の象徴…！\n\n# textboxarrow 0 2\n# textflame 1 1\n@ティルフィング\nその私が…！\n\n# textflame 0 0\n@\nそう、ぶつぶつ言っていると…\n\n# textflame 0 0\n@\n「ティルフィング～！」\n\n# face 101481 \"surprise\"\n# textboxarrow 0 2\n# textflame 1 1\n@ティルフィング\n！！\n\n# textflame 0 0\n@\nと、また隊の仲間が寄ってくる\n\n# voice 10148 \"tyrufing_k_0002\"\n# textboxarrow 0 2\n# textflame 1 1\n@ティルフィング\n…あの、な、何でしょうか？\n\n# textflame 0 0\n@\n「一緒に買い物行こうよ～！」\n「ケーキ食べに行こうよ～！」\n\n# voice 10148 \"tyrufing_k_0042\"\n# face 101481 \"sad\"\n# textboxarrow 0 2\n# textflame 1 1\n@ティルフィング\nうぅ…\n\n# select \"行ってきたら？\" \"select_label_01\" \"何事も経験だよ？\" \"select_label_02\" \"食わず嫌いは良くないよ？\" \"select_label_03\"\nうぅ…\n\n# label \"select_label_01\"\n# labeljump \"select_label_end\"\n# textflame 1 1\n@ティルフィング\nそ、そうですか…？\n\n# label \"select_label_02\"\n# labeljump \"select_label_end\"\n# textflame 1 1\n@ティルフィング\nそ、それは…そうですけど…\n\n# label \"select_label_03\"\n# labeljump \"select_label_end\"\n# textflame 1 1\n@ティルフィング\nた、確かに…\n\n# label \"select_label_end\"\n# textboxarrow 0 2\n# textflame 1 1\n# face 101481 \"normal\"\n@ティルフィング\nわかりました…では…\n\n# textflame 0 0\n@\n断わってばかりも気が引けるので、\n付き合う彼女\n\n# textflame 0 0\n@\n半ば強引に引き連れられ、\nショッピングしたり…\n\n# voice 10148 \"tyrufing_k_0004\"\n# face 101481 \"happy\"\n# textboxarrow 0 2\n# textflame 1 1\n@ティルフィング\nこの洋服…キレイですね\n\n# textflame 0 0\n@\nまた、キル姫であることを隠し、\nみんなで入っていたカフェでは\n\n# textflame 0 0\n@\nスイーツを食べながら\nみんなでお茶したり、\n\n# voice 10148 \"tyrufing_k_0005\"\n# face 101481 \"shy\"\n# textboxarrow 0 2\n# textflame 1 1\n@ティルフィング\nお、おいしいです…はい\n\n# textflame 0 0\n@\nみんなに合わせてはいるが、\nやはり不慣れで\n気疲れしてしまうようだ\n\n# face 101481 \"sad\"\n# voice 10148 \"tyrufing_k_0019\"\n# textboxarrow 0 2\n# textflame 1 1\n@ティルフィング\n…ふぅ\n\n# textflame 0 0\n@\nそんな時……\n\n# face 101481 \"surprise\"\n# voice 10148 \"tyrufing_k_0023\"\n# textboxarrow 0 2\n# textflame 1 1\n@ティルフィング\n…！\n\n# textboxarrow 0 2\n# textflame 1 1\n@ティルフィング\n今のは…\n\n# textflame 0 0\n@\n街の中から聞こえてきた小さな悲鳴…\n\n# textflame 0 0\n@\nそれは、助けを呼ぶ叫び声だった\n\n# voice 10148 \"tyrufing_k_battle_0005\"\n# face 101481 \"angry\"\n# textboxarrow 0 2\n# textflame 1 1\n@ティルフィング\n敵が現れた…！\n\n# textboxarrow 0 2\n# textflame 1 1\n@ティルフィング\nこんなことをしている場合では…！\n\n# textflame 0 0\n@\n立ち上がるティルフィングと姫たち\n\n# textflame 0 0\n@\n…が、次の瞬間\n\n;;SE:（ドラゴン出現時の音）\n# se \"SE_5268\"\n# waitandnext 0.5\n\n# textflame 0 0\n@\nティ、ティルフィング、それ！\n\n# textflame 0 0\n@\n姫たちが驚きの声を上げる\n\n# textboxarrow 0 2\n# textflame 1 1\n@ティルフィング\n私の背負った業は『強欲』、\n破壊をもたらす\n呪われた黒き魔剣ティルフィング…\n\n# textboxarrow 0 2\n# textflame 1 1\n@ティルフィング\nこの世界からすべてを奪う、\n竜の咆哮と共に……\n\n# textflame 0 0\n@\n彼女の前には、\n破壊の象徴を示すかのように\nドラゴンが出現していた\n\n# voice 10148 \"tyrufing_k_0037\"\n# face 101481 \"sad\"\n# textboxarrow 0 2\n# textflame 1 1\n@ティルフィング\nやはり私には…\nこういう場所は不釣り合いです\n\n# textflame 0 0\n@\n目の前の光景に\n恐れ、身構える一般の人たち\n\n# textflame 0 0\n@\nキル姫であることはもう\n隠しようがない\n\n# textboxarrow 0 2\n# textflame 1 1\n@ティルフィング\n誰にどう見られようと…\nこれが私の本質\n\n# textflame 0 0\n@\n彼女の大胆な行動に驚き、\n声を失う姫たち\n\n# voice 10148 \"tyrufing_k_battle_0001\"\n# textboxarrow 0 2\n# textflame 1 1\n@ティルフィング\nこの手には甘いケーキではなく…\n血塗られた魔剣がお似合いなのです\n\n# face 101481 \"angry\"\n# textflame 0 0\n@\nそう言うと、\nドラゴンに騎乗し―\n\n# textflame 0 0\n@\n目にも止まらぬ速さで敵のいる場所へ\n飛び去って行くのだった\n\n# textwindow \"close\"\n# fadeout \"black\" 2\n# waitandnext 2\n\n# fadein \"black\" 1\n# waitandnext 1\n\n# textwindow \"nomal\"\n# textboxarrow 0 2\n# textflame 1 1\n@ティルフィング\nいた！\n\n# textflame 0 0\n@\n敵の元に舞い降りた\nティルフィング\n\n# textboxarrow 0 2\n# textflame 1 1\n@ティルフィング\nはぁっ！\n\n# textflame 0 0\n@\n敵目がけて、\n一気に剣を振り下ろす\n\n# voice 10148 \"tyrufing_k_0029\"\n# textboxarrow 0 2\n# textflame 1 1\n@ティルフィング\nうおぉぉぉぉぉっ！！\n\n# textflame 0 0\n@\nティルフィングーーッ！！\n\n# face 101481 \"surprise\"\n# textboxarrow 0 2\n# textflame 1 1\n@ティルフィング\n！！\n\n# textflame 0 0\n@\n彼女に遅れて、\nやってくる隊の姫たち\n\n# face 101481 \"sad\"\n# textboxarrow 0 2\n# textflame 1 1\n@ティルフィング\nみ…皆さん…\n\n# textflame 0 0\n@\nカフェで取った行動に対する\n姫たちの表情を思い出し、\n一瞬攻撃の手が緩むティルフィング\n\n# textflame 0 0\n@\nしかし、姫たちから出たのは…\n\n# textflame 0 0\n@\n「がんばって！ティルフィング！」\n「私たちも一緒に戦うわ！！」\n\n# voice 10148 \"tyrufing_k_0023\"\n# face 101481 \"surprise\"\n# textboxarrow 0 2\n# textflame 1 1\n@ティルフィング\n！！\n\n# textflame 0 0\n@\n思い掛けない言葉に、驚く彼女\n\n# face 101481 \"angry\"\n# textboxarrow 0 2\n# textflame 1 1\n@ティルフィング\n私の力は…破壊を呼ぶ…\n破壊しか呼ばないと思っていた…\nでも…\n\n# textboxarrow 0 2\n# textflame 1 1\n@ティルフィング\n力は使い方を誤らなければ、\n希望の光に変えられる！！\n\n# textboxarrow 0 2\n# textflame 1 1\n@ティルフィング\nそして皆さんの言葉が…\n想いが…私に力をくれる！！\n\n# se \"SE_0602\"\n# voice 10148 \"tyrufing_k_battle_0002\"\n# textboxarrow 0 2\n# textflame 1 1\n@ティルフィング\n見えたっ！\n新技『黒式・騎竜翔煌剣』！！\n\n# fadein \"white\" 0.5\n# waitandnext 0.5\n\n# textflame 0 0\n@\n剣から繰り出される強力な技で\n敵をなぎ倒す\n\n# textflame 0 0\n@\nそれは彼女が新たなる力に\n目覚めた瞬間だった\n\n# textwindow \"close\"\n# fadeout \"black\" 2\n# waitandnext 2\n\n# alpha 101481 0 0\n# waitandnext 0.1\n\n# fadein \"black\" 1\n# waitandnext 1\n\n# textwindow \"nomal\"\n# textflame 0 0\n@\nそして…\n\n# alpha 101481 1 0.5\n# face 101481 \"happy\"\n# voice 10148 \"tyrufing_k_0030\"\n# textboxarrow 0 2\n# textflame 1 1\n@ティルフィング\nあ、ありがとう…皆さん…\nこんな私に…声援を…\n\n# textflame 0 0\n@\n頭を下げる彼女に…\n\n# textflame 0 0\n@\n「可愛い～！」\n\n# textflame 0 0\n@\nと姫たちから声が上がる\n\n# voice 10148 \"tyrufing_k_0022\"\n# face 101481 \"surprise\"\n# textboxarrow 0 2\n# textflame 1 1\n@ティルフィング\n…え？か、かわ…\n\n# textflame 0 0\n@\n戸惑うばかりの彼女に、\nマスターが言葉を掛ける\n\n# textflame 0 0\n@\nみんなが君を「可愛い」と言うのは、\n顔やスタイルの話じゃない\n\n# textflame 0 0\n@\n健気で一生懸命な\n「魅力」の持ち主だからだよ\n\n# textboxarrow 0 2\n# textflame 1 1\n@ティルフィング\n！！\n\n# voice 10148 \"tyrufing_k_0002\"\n# face 101481 \"sad\"\n# textboxarrow 0 2\n# textflame 1 1\n@ティルフィング\nけ、健気…ですか？\n\n# textboxarrow 0 2\n# textflame 1 1\n@ティルフィング\n破壊しか生まない…\nこの私が…？\n\n# textflame 0 0\n@\nそんな大きな力を、\n希望の光に変えようと戦っている姿が\n何ともいじらしいよ\n\n# textboxarrow 0 2\n# textflame 1 1\n@ティルフィング\nかつては…\n最凶最悪のグリードと呼ばれ、\n恐れられ、忌み嫌われたこの私が…\n\n# textflame 0 0\n@\n未来に希望の光を灯したい、\nそんな君の想いに、みんな共感し、\n憧れてるんだ\n\n# select \"だから…自信持って！\" \"select_label_011\" \"要するに…みんな、きみが好きなんだ\" \"select_label_012\" \"これからも…みんなの憧れでいてよ\" \"select_label_013\"\n未来に希望の光を灯したい、\nそんな君の想いに、みんな共感し、\n憧れてるんだ\n\n# label \"select_label_011\"\n# labeljump \"select_label_end02\"\n# face 101481 \"happy\"\n# textflame 1 1\n@ティルフィング\nあ、ありがとうございます\n\n# label \"select_label_012\"\n# labeljump \"select_label_end02\"\n# face 101481 \"happy\"\n# textflame 1 1\n@ティルフィング\n…！…う…嬉しいです\n\n# label \"select_label_013\"\n# labeljump \"select_label_end02\"\n# face 101481 \"happy\"\n# textflame 1 1\n@ティルフィング\nそんな…でも…がんばります\n\n# label \"select_label_end02\"\n# textflame 0 0\n@\nそう答える彼女を見て、\nマスターが微笑んだ\n\n# voice 10148 \"tyrufing_k_0004\"\n# textboxarrow 0 2\n# textflame 1 1\n@ティルフィング\n心が…晴れました\nみんなの優しさに包まれて…\n私は幸福です！\n\n# face 101481 \"shy\"\n# textboxarrow 0 2\n# textflame 1 1\n@ティルフィング\nこれからも私と…\n一緒に戦ってください！\n\n# textboxarrow 0 2\n# textflame 1 1\n@ティルフィング\nマスター…\nもしかしたら、\n初めてかも知れません\n\n# voice 10148 \"tyrufing_k_0005\"\n# face 101481 \"happy\"\n# textboxarrow 0 2\n# textflame 1 1\n@ティルフィング\nこの私が\n仲間と共に…\n光ある明日を夢見るのは\n\n# imageset 0 \"c101481\"\n# imagealpha 0 0 0\n# textflame 0 0\n@\n空を見つめ、\n微笑んだティルフィングの目には、\n輝かしい未来が映っているようだった\n\n# imagealpha 0 1 0\n# imagepos 0 0 0\n# fadein \"white\" 3\n# textwindow \"close\"\n# voice 10148 \"tyrufing_k_kyara_1026\"\n;;「マスター…そう呼ぶことが、こんなにも心地よいなんて、」"
	}
]