[
	{
		"ID": 10141401,
		"script": "# script \"lisp\"\n# background \"forest\"\n# bgm \"bgm003\" 0\n# body 101414\n# mask 101414 off\n# pos 101414 3\n# alpha 101414 0 0\n# textflame 0 0\n@\nあれから数日後─\n\n# alpha 101414 1 0.5\n# textflame 1 1\n# textboxarrow 0 2\n# chara 101414\n# face 101414 \"angry\"\n@ティルフィング\n…はぁ…はぁ…はぁ！\n\n# voice 1014 \"tyrufing_0001\"\n# chara 101414\n# face 101414 \"surprised\"\n@ティルフィング\n…！…あ、マスター\n\n# voice 1014 \"tyrufing_0003\"\n# chara 101414\n# face 101414 \"normal\"\n@ティルフィング\nはい、今日も剣の特訓です\n\n# voice 1014 \"tyrufing_0030\"\n# chara 101414\n@ティルフィング\nこの前は、ありがとうございました\n\n# chara 101414\n@ティルフィング\nこれ、見てください\n\n# textflame 0 0\n@\nデートのお礼かな？\nと、少し期待するマスター\nしかし…\n\n# textflame 1 1\n# voice 1014 \"tyrufing_0005\"\n# chara 101414\n@ティルフィング\nこの前、得た極意を応用し、\nこんな技も身につけたんです\n\n# face 101414 \"angry\"\n# flush \"white\" 0.5 1\n\n# textflame 0 0\n@\n剣を振るティルフィング\n辺り一面に気の衝撃が走る\n\n# face 101414 \"normal\"\n# textflame 1 1\n#se \"SE_0602\"\n# chara 101414\n@ティルフィング\n新たなる奥義…\n『魔剣の誓い』です\n\n# textflame 0 0\n@\n彼女は、また更なるスキルに\n目覚めていた\n\n# textflame 1 1\n# voice 1014 \"tyrufing_0046\"\n# chara 101414\n# face 101414 \"smile\"\n@ティルフィング\nマスターといると…\n私はどこまでも\n強くなれる気がするんです\n\n# voice 1014 \"tyrufing_0002\"\n# chara 101414\n@ティルフィング\n相変わらず真面目ですか？私\n\n# voice 1014 \"tyrufing_0057\"\n# chara 101414\n# face 101414 \"shy\"\n@ティルフィング\nでも、ちゃんと思ってますよ\nデートに連れてって下さって、\nありがとうございました…って\n\n# voice 1014 \"tyrufing_0062\"\n# chara 101414\n@ティルフィング\nデート…でいいんですよね？あれ\n\n# textflame 0 0\n@\nはにかんで笑う顔が可愛い\n\n# textflame 1 1\n# voice 1014 \"tyrufing_0008\"\n# chara 101414\n# face 101414 \"smile\"\n@ティルフィング\nあの後、大変だったんですよ\n案の定、デュリンにたくさん\n文句言われちゃって\n\n# chara 101414\n# face 101414 \"shy\"\n@ティルフィング\nでも…\n\n# chara 101414\n@ティルフィング\n楽しかったです、本当に\n\n# voice 1014 \"tyrufing_0001\"\n# chara 101414\n# face 101414 \"sad\"\n@ティルフィング\nあの、マスター…\n実はあの日…\n嘘ついたんです、私\n\n# chara 101414\n@ティルフィング\nマスターに\n本当に言いたかったのは…\nあの言葉じゃない\n\n# chara 101414\n@ティルフィング\n…本当は……\n\n# textflame 0 0\n@\n静寂が２人を包む\n\n# textflame 1 1\n# voice 1014 \"tyrufing_0004\"\n# chara 101414\n# face 101414 \"shy\"\n@ティルフィング\n今は…上手くは言えないのですが…\nいつか…きっと…\n\n# chara 101414\n@ティルフィング\nだからマスター…\nその日まで私のこと…\n\n# imageset 0 \"c101414\"\n# imagealpha 0 0 0\n# voice 1014 \"tyrufing_0005\"\n# chara 101414\n# face 101414 \"smile\"\n@ティルフィング\nちゃんと見ていて下さいね\n\n# imagealpha 0 1 0\n# imagepos 0 0 0\n# fadein \"white\" 3\n# voice 1014 \"tyrufing_kyara_jizen\"\n# textwindow \"close\"\n\n# textwindow \"normal\"\n# textflame 0 0\n@\nそう言って、マスターの目を\nしっかりと見つめる\nティルフィングだった"
	}
]