[
	{
		"ID": 10211301,
		"script": "# script \"lisp\"\n# background \"plain\"\n# bgm \"bgm002\" 0\n# body 102111\n# pos 102111 3\n# textflame 1 1\n# textboxarrow 0 2\n# chara 102111\n# face 102111 \"angry\"\n# voice 1021 \"menmaf_battle_0002\"\n@めんま\nえいっ！\n\n# textflame 0 0\n@\n振り下ろした剣が、\n巨大な岩を両断した\n\n# face 102111 \"surprise\"\n# textsize 34\n# textflame 1 1\n# chara 102111\n@めんま\nすっ…\nご〜いっ！\n\n# face 102111 \"happy\"\n# textsize 24\n# textflame 1 1\n# chara 102111\n@めんま\nねぇ、ねぇ、マスター！\n見てた？\nめんまが斬ったんだよ、これ！\n\n# face 102111 \"smile\"\n# textflame 1 1\n# chara 102111\n# voice 1021 \"menmaf_0020\"\n@めんま\nどう？めんま、強いでしょ？\nめんま、勇者みたいでしょ！\n\n# textflame 0 0\n@\n無邪気にはしゃぐ少女、めんま\n最近、入隊した姫だ\n\n# face 102111 \"happy\"\n# textflame 1 1\n# chara 102111\n# voice 1021 \"menmaf_0005\"\n@めんま\nめんまね、\nこの世界に来られて嬉しいんだ！\nすっごく楽しい！！\n\n# face 102111 \"sad\"\n# textflame 1 1\n# chara 102111\n@めんま\nでも、どうしてめんま、\nこの世界に来たんだろ？\n\n# textflame 1 1\n# chara 102111\n@めんま\nなんか、やらなくちゃいけないことが\nあった気がするんだけど…\n\n# textflame 0 0\n@\nどんなこと？\nと、尋ねるマスター\n\n# face 102111 \"normal\"\n# textflame 1 1\n# chara 102111\n# voice 1021 \"menmaf_0028\"\n@めんま\nう〜、わかんないってばよ！\n\n# textflame 0 0\n@\nそれじゃ、叶えるのは難しいな…\nと、マスター\n\n# textflame 1 1\n# chara 102111\n@めんま\nただね…なんだか、\nそんな気がするの…\nめんま“大切なこと”を忘れてる…\n\n# textflame 1 1\n# chara 102111\n# voice 1021 \"menmaf_0040\"\n@めんま\nそれを思い出したら…\nなんでこの世界に来たかも\nわかる気がするの\n\n# textflame 0 0\n@\n空を見つめて話す彼女は、\nどこか寂しげでもあった"
	}
]