[
	{
		"ID": 10331201,
		"script": ";;【クロエ】\n;;【EP1】\n# script \"lisp\"\n# background \"town\"\n# bgm \"bgm002\" 0\n# textboxarrow 0 2\n# body 103311\n# mask 103311 off\n# pos 103311 3\n# textflame 1 1\n# textboxarrow 0 2\n# chara 103311\n# voice 1033 \"chloe_unit_0010\"\n# face 103311 \"angry\"\n@クロエ\nさあ、来なさい…\nいざ、尋常に！\n\n# textflame 0 0\n@\n戦場にて、\n大量の異族を\n斬り倒したクロエ\n\n# textflame 0 0\n@\nその戦いぶりを\nマスターが称賛するも…\n\n# textflame 1 1\n# textboxarrow 0 2\n# chara 103311\n# voice 1033 \"chloe_0003\"\n# face 103311 \"usual\"\n@クロエ\nここに来る前は、\n騎士団の近衛部隊隊長を\nしていましたから\n\n# textflame 1 1\n# textboxarrow 0 2\n# chara 103311\n# voice 1033 \"chloe_0004\"\n# face 103311 \"smile2\"\n@クロエ\nこれくらいは当然です\n\n# textflame 0 0\n@\n実にしっかり者で、\n頼りになる存在だ\n\n# textflame 0 0\n@\nそんな彼女を連れ、\nマスターはある日、\n街に買い物へ出掛けた\n\n# textflame 1 1\n# textboxarrow 0 2\n# chara 103311\n# voice 1033 \"chloe_0021\"\n# face 103311 \"smile1\"\n@クロエ\nいいですね、活気があって\n\n# textflame 1 1\n# textboxarrow 0 2\n# chara 103311\n# face 103311 \"smile2\"\n@クロエ\nハッキリと記憶が残っている\nわけではありませんが…\n不思議と懐かしい気がします\n\n# textflame 1 1\n# textboxarrow 0 2\n# chara 103311\n@クロエ\n私の故郷もきっと…\nこんな風だったんでしょうね\n\n# textflame 0 0\n@\n想いを馳せる彼女に、\nマスターが声を掛ける\n\n# textflame 1 1\n# textboxarrow 0 2\n# chara 103311\n# voice 1033 \"chloe_0022\"\n# face 103311 \"surprise1\"\n@クロエ\nえ？あの武器屋に…？\n\n# textflame 1 1\n# textboxarrow 0 2\n# chara 103311\n# face 103311 \"usual\"\n@クロエ\nいえ、新調の必要はありません\n\n# textflame 1 1\n# textboxarrow 0 2\n# chara 103311\n@クロエ\n武器の手入れは…\n騎士の心を磨くに等しい行為\n\n# textflame 1 1\n# textboxarrow 0 2\n# chara 103311\n@クロエ\n常日頃より怠ってはいませんから\n\n# textflame 0 0\n@\nキッパリと断る彼女に、\nマスターが問い掛ける\n\n# textflame 0 0\n@\nクロエはしっかり者だね\nでも…\n\n# textflame 0 0\n@\nやっぱり寂しい？\n\n# textflame 1 1\n# textboxarrow 0 2\n# chara 103311\n# face 103311 \"surprise2\"\n@クロエ\n…！\n\n# textflame 1 1\n# textboxarrow 0 2\n# chara 103311\n# voice 1033 \"chloe_0022\"\n# face 103311 \"surprise1\"\n@クロエ\n…え？\n\n# textflame 0 0\n@\nなんだかそんな気がしてね\n\n# textflame 1 1\n# textboxarrow 0 2\n# chara 103311\n# face 103311 \"sad\"\n@クロエ\n………\n\n# textflame 1 1\n# textboxarrow 0 2\n# chara 103311\n@クロエ\n…気づいていたんですね\n\n# textflame 0 0\n@\nそれは、\n彼女が初めて見せた\n弱々しい眼差しだった"
	}
]