[
	{
		"ID": 1130102,
		"script": ";;-----------------------------------------\n;;■□■１－３改修案■□■\n;;整形済み\n;;【１－３－１（バトル後）】\n;;スクリプト最後の背景：highland\n;;-----------------------------------------\n# script \"lisp\"\n# background \"highland\"\n# bgm \"bgm021\" 0\n;;----------------------------------------------------------\n;;ティルフィング\n# body 24\n# pos 24 3\n# scale 24 0.8 0\n# layer 24 2\n# alpha 24 0 0\n# mask 24 off\n# face 24 \"normal\"\n;;デュリン\n# body 0\n# pos 0 3\n# scale 0 0.8 0\n# layer 0 2\n# alpha 0 0 0\n# mask 0 off\n# face 0 \"normal\"\n;;ティルフィング（イミテーション）\n# entry 999 24\n# pos 999 3\n# scale 999 0.8 0\n# layer 999 2\n# alpha 999 0 0\n# mask 999 off\n# face 999 \"normal\"\n;;-----------------------------------------\n;;背景:highland\n# se \"SE_5205\"\n# se \"SE_0604\"\n# move 24 2 0\n# face 24 \"angry\"\n# alpha 24 1 0\n# mask 24 on\n# textflame 1 1\n# textboxarrow 0 1\n# move 999 4 0\n# face 999 \"angry\"\n# alpha 999 1 0\n# mask 999 on\n@ティルフィング\nアナタの意志は…私が担う…\n汚れなき声を心に刻め！\n\n# effectbody 1000 1 160 0 0\n# effectstart 1000\n# fadein \"red \" 0.5\n# shake 0 0.5\n# se \"SE_4830\"\n# alpha 999 0 2.5\n# waitandnext 2.5\n\n# textboxarrow 0 1\n@ティルフィング\n我が同胞の叫び…\nこの魂の礎とならん\n\n# bgm \"stop\"\n# face 24 \"sad\"\n# move 0 4 0\n# face 0 \"sad\"\n# alpha 0 1 0.5\n# mask 0 on\n# textboxarrow 0 3\n@デュリン\nティルフィング！\n…アナタは…アタシ達の知ってる\nティルフィング…よね？\n\n# textboxarrow 0 1\n@ティルフィング\nハァ、ハァ…\nなに言ってるのデュリン\n…見て分からないの？\n\n# bgm \"bgm003\" 0\n# face 0 \"normal\"\n# textboxarrow 0 3\n@デュリン\n良かった！！\nもう…“イミテーション”なんだから\n見て分かるわけないでしょ！\n\n# voice 1014 \"tyrufing_0046\"\n# face 24 \"normal\"\n# textboxarrow 0 1\n@ティルフィング\nふふ…心配してくれて\nありがとう、デュリン\n\n# textboxarrow 0 1\n@ティルフィング\n本物か偽物かもわからない私を…\n数多にいる私…その中から…\n\n# textboxarrow 0 1\n@ティルフィング\nこの私を相棒に選んでくれて、\n本当に感謝しているわ…\n\n# textboxarrow 0 3\n@デュリン\nティルフィング…\n\n;;《選択肢》\n;;本物も偽物もない。君は君だろ…？\n;;君が、正真正銘のティルフィングだ\n# select \"本物も偽物もない。君は君だろ…？\" \"select_label_01\" \"君が、正真正銘のティルフィングだ\" \"select_label_01\"\nティルフィング…\n\n# label \"select_label_01\"\n# labeljump \"select_label_end\"\n# voice 1014 \"tyrufing_0001\"\n# face 24 \"happy2\"\n# textboxarrow 0 1\n@ティルフィング\n…マスター！\nありがとうございます\n\n# label \"select_label_end\"\n# voice 9999 \"durin_0046\"\n# face 0 \"usual\"\n# textboxarrow 0 3\n@デュリン\nふふ…ティルフィング、\nアンタ感動して泣いてるの？\n\n# face 24 \"shy\"\n# textboxarrow 0 1\n@ティルフィング\nな、泣いてなんていません！\n\n# face 0 \"normal\"\n# textboxarrow 0 3\n@デュリン\n“淘汰”は殺し合いに見えるけど…\n彼女たちにとって、\n存在を統合する聖なる儀式なの\n\n# textboxarrow 0 3\n@デュリン\n敢えて言うなら…\n淘汰の果てに残った最後の一人が、\nオリジナルといえる存在になるの\n\n# face 24 \"normal\"\n# textboxarrow 0 1\n@ティルフィング\n…オリジナルに近づけば、\n記憶が蘇ると言われている\n\n# textboxarrow 0 1\n@ティルフィング\n…私は…私の中に沈んだ\n記憶を取り戻したいんです！"
	}
]