[
	{
		"ID": 1211003,
		"script": "# script \"lisp\"\n# background \"ghost_town\"\n# bgm \"bgm005\" 0\n# body 101411\n# body 4\n# body 0\n# pos 0 5\n# chara 0\n# textwindow \"close\"\n# pos 101411 1\n# chara 101411\n# serif 1\n# textboxarrow 1 2\n# pos 4 3\n# chara 4\n# face 4 \"angry\"\n# face 0 \"angry\"\n@トト\n離せ！離せったら！！\nおい、妖精！\nこのキル姫に離すように言えよ！！\n\n# voice 9999 \"durin_0009\"\n# textwindow \"nomal\"\n# serif 0\n# textboxarrow 0 3\n# chara 0\n@デュリン\n誰が妖精よっ、このクソガキッ！！\n\n# voice 9999 \"durin_0029\"\n# serif 0\n# textboxarrow 0 3\n# chara 0\n@デュリン\nアッタマきた…\nアンタの鼻ん中に入って、\nギッタギタに暴れてやる！！\n\n# body 5\n# serif 0\n# textboxarrow 0 3\n# chara 0\n@デュリン\n大人の怖さってものを\n見せてやりましょう、ねぇ祀官様！\n…祀官様ぁ！？\n\n# face 5 \"angry\"\n# textboxarrow 0 0\n# alpha 0 0 0.5\n# pos 5 5\n# chara 5\n# rightin 5 0.5\n\n# serif 1\n# textboxarrow 1 3\n# chara 5\n@祀官\n逃げるつもりか…？\n浅はかな…愚か過ぎてヘドが出る\n\n# face 4 \"normal\"\n# serif 1\n# textboxarrow 1 2\n# pos 4 3\n# chara 4\n@トト\n…！\n\n# face 0 \"normal\"\n# leftout 101411 0.5\n# alpha 0 1 0\n# pos 0 1\n# chara 0\n# leftin 0 0.5\n\n# voice 9999 \"durin_0002\"\n# body 1\n# serif 0\n# textboxarrow 0 1\n# chara 0\n@デュリン\nち、ちょっと…\nそこまで言うことはないんじゃ…\n\n# rightout 5 0.5\n# pos 1 5\n# chara 1\n# rightin 1 0.5\n\n# serif 1\n# textboxarrow 1 3\n@村人A\nところで…この村になにか用か？\nキル姫の派遣は頼んどらんのだぞ？\n\n# body 2\n# leftout 0 0.5\n# serif 0\n# textboxarrow 0 1\n# pos 101411 1\n# chara 101411\n# leftin 101411 0.5\n@ティルフィング\n旅の途中、通りがかりまして…\nともかく寄進は結構なので\n残った異族を…\n\n# textboxarrow 1 0\n# rightout 1 0.5\n# pos 2 5\n# chara 2\n# rightin 2 0.5\n\n# serif 1\n# textboxarrow 1 3\n# chara 2\n@村人B\n異族は自警団で処理する\n心配には及ばん…\nここは“天使が微笑む村”だからな\n\n# serif 0\n# textboxarrow 0 1\n# pos 101411 1\n# chara 101411\n@ティルフィング\n“天使が微笑む村”…？\n\n# textboxarrow 1 0\n# rightout 2 0.5\n# pos 1 5\n# chara 1\n# rightin 1 0.5\n\n# serif 1\n# textboxarrow 1 3\n# pos 1 5\n# chara 1\n@村人A\nかつて、このエゼル村では\n…天使が目撃されたことがあるのだ\n\n# leftout 101411 0.5\n# serif 0\n# textboxarrow 0 1\n# pos 0 1\n# chara 0\n# leftin 0 0.5\n@デュリン\n天使が目撃された…？\nちょっと待って…\nえ〜となんだっけ、その話…\n\n# face 5 \"normal\"\n# textboxarrow 1 0\n# rightout 1 0.5\n# pos 5 5\n# chara 5\n# rightin 5 0.5\n\n# serif 1\n# textboxarrow 1 3\n# pos 5 5\n# chara 5\n@祀官\nっ！わっ…我々がすがるのは、\n天使のご加護…\n殺戮に血塗られた手ではありません！\n\n# voice 9999 \"durin_0010\"\n# face 0 \"occur\"\n# serif 0\n# textboxarrow 0 1\n# pos 0 1\n# chara 0\n@デュリン\nは！？\nなによ、その言い方…\n\n# serif 0\n# textboxarrow 0 1\n# pos 0 1\n# chara 0\n@デュリン\nアンタだって\nラグナロク側の人間でしょ！？\n\n# serif 0\n# textboxarrow 0 1\n# pos 0 1\n# chara 0\n@デュリン\n第一…キラープリンセスより\n自警団を優先するなんて、\n教会本部が…\n\n# serif 1\n# textboxarrow 1 3\n# pos 5 5\n# chara 5\n@祀官\nラグナロクの理解は得ております\nさぁ、間もなく日が暮れる\n…お引き取りを\n\n# textwindow \"close\"\n# select \"…それが村の総意なら、仕方ない\" \"select_label_01\" \"目の前の異族を、見過ごせと…？\" \"select_label_01\"\nラグナロクの理解は得ております\nさぁ、間もなく日が暮れる\n…お引き取りを\n\n# face 0 \"normal\"\n# face 4 \"angry\"\n# textwindow \"close\"\n# label \"select_label_01\"\n# labeljump \"select_label_end\"\n# serif 1\n# textboxarrow 1 2\n# chara 4\n@トト\nウソばっかり…何が天使だよ！\nそのせいで僕を\n村から追い出したいクセに！！\n\n# textwindow \"close\"\n# label \"select_label_end\"\n# textboxarrow 1 0\n# rightout 4 0.5\n\n# voice 1014 \"tyrufing_0022\"\n# face 101411 \"angry\"\n# textwindow \"nomal\"\n# move 0 3 0.5\n# serif 0\n# textboxarrow 0 1\n# pos 101411 1\n# chara 101411\n# leftin 101411 0.5\n@ティルフィング\n待って！\n\n# face 0 \"angry\"\n# serif 0\n# textboxarrow 0 2\n# chara 0\n@デュリン\nこちらの判断で、\n彼を保護します…失礼\n…急いで、ティルフィング！\n\n# textwindow \"close\"\n# textboxarrow 0 0\n# alpha 0 0 0.5\n# alpha 101411 0 0.5\n# pos 1 1\n# alpha 1 0 0\n# pos 2 3\n# alpha 2 0 0\n\n# face 5 \"angry\"\n# alpha 1 1 0.5\n# alpha 2 1 0.5\n\n# serif 1\n# textboxarrow 1 3\n# pos 5 5\n# chara 5\n@祀官\nあの子を…トトを捕えなさい"
	}
]