[
	{
		"ID": 1220302,
		"script": "# script \"lisp\"\n# body 0\n# body 101411\n# textwindow \"close\"\n# serif 1\n# textboxarrow 1 3\n# pos 0 4\n# chara 0\n# pos 101411 2\n# chara 101411\n@デュリン\n祀官…のこと？\nあ、そっか…まだ、\nちゃんと説明してなかったわね\n\n# serif 1\n# textboxarrow 1 3\n# chara 0\n@デュリン\n教会にはラグナロクが任命した\n“祀官”が常駐してんのよ\n\n# textwindow \"nomal\"\n# serif 0\n# textboxarrow 0 1\n# chara 101411\n@ティルフィング\n私達キラープリンセスの派遣要請など\n…人々とラグナロクの橋渡し役です\n\n# serif 1\n# textboxarrow 1 3\n# chara 0\n@デュリン\nラグナロク内の正規役職名で言えば…\n“デディケーター”\n\n# serif 1\n# textboxarrow 1 3\n# chara 0\n@デュリン\nまぁ、\n大体は“祀官様”って\n呼んじゃうけど…\n\n# voice 1014 \"tyrufing_0001\"\n# serif 0\n# textboxarrow 0 1\n# chara 101411\n@ティルフィング\n“祀官”のように、\nマスターにも“奏官”という\n別称があるんですよ\n\n# voice 1014 \"tyrufing_0043\"\n# serif 0\n# textboxarrow 0 1\n# chara 101411\n@ティルフィング\nねぇ、デュリン？\n\n# serif 1\n# textboxarrow 1 3\n# chara 0\n@デュリン\nキラープリンセスを率いて闘う様子が\n楽団を率いて音楽を奏でる指揮者\nに似ているのが由来だってさ\n\n# serif 1\n# textboxarrow 1 3\n# chara 0\n@デュリン\n…そんな呑気なもんじゃないけど\nともかく、\n祀官もラグナロク側の人間なの！\n\n# voice 9999 \"durin_0009\"\n# face 0 \"angry\"\n# serif 1\n# textboxarrow 1 3\n# chara 0\n@デュリン\nなのに、キラープリンセスより\n自警団を推奨するなんて\n…何なのよ、アイツ！"
	}
]