[
	{
		"ID": 1351003,
		"script": ";;-----------------------------------------\n;;■□■３－５改修案■□■\n;;整形済み\n;;【３－５－４（バトル後）】\n;;スクリプト最後の背景：bog\n;;-----------------------------------------\n# script \"lisp\"\n# background \"bog\"\n# bgm \"bgm004\" 0\n;;----------------------------------------------------------\n;;ティルフィング\n# body 24\n# pos 24 3\n# scale 24 0.8 0\n# layer 24 1\n# alpha 24 0 0\n# mask 24 off\n# face 24 \"normal\"\n;;デュリン\n# body 0\n# pos 0 3\n# scale 0 0.8 0\n# layer 0 3\n# alpha 0 0 0\n# mask 0 off\n# face 0 \"normal\"\n;;ディーン\n# body 6\n# pos 6 3\n# scale 6 0.8 0\n# layer 6 1\n# alpha 6 0 0\n# mask 6 off\n# face 6 \"normal\"\n;;トト\n# body 4\n# pos 4 3\n# scale 4 0.8 0\n# layer 4 2\n# alpha 4 0 0\n# mask 4 off\n# face 4 \"normal\"\n;;暴走ロンギヌス\n# body 300111\n# pos 300111 3\n# scale 300111 0.8 0\n# layer 300111 2\n# alpha 300111 0 0\n# mask 300111 off\n# face 300111 \"normal\"\n;;ダグダ\n# body 200611\n# pos 200611 3\n# scale 200611 0.8 0\n# layer 200611 2\n# alpha 200611 0 0\n# mask 200611 off\n# face 200611 \"normal\"\n;;レーヴァテイン\n# body 100221\n# pos 100221 3\n# scale 100221 0.8 0\n# layer 100221 1\n# alpha 100221 0 0\n# mask 100221 off\n# face 100221 \"normal\"\n;;-----------------------------------------\n;;背景:bog\n# move 300111 1 0\n# face 300111 \"mad\"\n# alpha 300111 1 0\n# mask 300111 on\n# move 100221 3 0\n# face 100221 \"normal\"\n# alpha 100221 1 0\n# mask 100221 on\n# move 200611 5 0\n# face 200611 \"normal\"\n# alpha 200611 1 0\n# mask 200611 on\n# textflame 1 1\n# textboxarrow 0 3\n@ダグダ\nさようなら、ロンギヌス…\n\n# textboxarrow 0 2\n@レーヴァテイン\nあなたの魂は…\nいつまでも私たちと共にある…\n\n# imageset 2 \"mov2_3_sword\"\n# imagealpha 2 0 0\n# imagelayer 2 3\n# imageset 3 \"mov2_3_overlay\"\n# imagealpha 3 0 0\n# imagelayer 3 2\n# waitandnext 0.1\n\n# shake 1 1\n# imagealpha 2 1 0\n# imagepos 2 0 0\n# imagealpha 3 1 0\n# imagepos 3 0 0\n# se \"SE_4815\"\n# fadein \"white\" 1.0\n# imagealpha 2 0 1\n# imagealpha 3 0 1\n# waitandnext 1\n\n# se \"SE_0634\"\n# alpha 300111 0 1\n# waitandnext 2\n\n# voice 9998 \"toto_0023\"\n# alpha 100221 0 0.5\n# alpha 200611 0 0.5\n# move 0 1 0\n# face 0 \"usual2\"\n# alpha 0 1 0.5\n# mask 0 on\n# move 4 3 0\n# face 4 \"angry\"\n# alpha 4 1 0.5\n# mask 4 on\n# textboxarrow 0 2\n# move 6 5 0\n# face 6 \"normal\"\n# alpha 6 1 0.5\n# mask 6 on\n@トト\nえっ！？\nき、消えた…！？\n\n# face 0 \"normal\"\n# textboxarrow 0 1\n@デュリン\n肉体は消え、その武器だけが残る…\nそれがキラープリンセスの最期なの\n\n# voice 9997 \"deen_0010\"\n# face 4 \"normal\"\n# face 6 \"happy\"\n# textboxarrow 0 3\n@ディーン\nチッ、ようやくか…\n最後まで粘りやがって\n\n# textboxarrow 0 3\n@ディーン\n時間の無駄だ、\nとっととそこらに墓標を立てんぞ\n\n# voice 9997 \"deen_0050\"\n# textboxarrow 0 3\n@ディーン\n…なぁ、ティルフィング\n…コイツの後釜にマジで来ねぇ？\n優遇するぜ？\n\n# voice 1014 \"tyrufing_0012\"\n# alpha 0 0 0.5\n# move 24 1 0\n# face 24 \"angry\"\n# alpha 24 1 0.5\n# mask 24 on\n# textboxarrow 0 1\n@ティルフィング\n…いい加減にしてください\n\n# textboxarrow 0 1\n@ティルフィング\nロンギヌスは…最期の瞬間まで、\nアナタのことを\n気にかけていたんですよ…？\n\n# face 6 \"angry\"\n# textboxarrow 0 3\n@ディーン\n…それがなんだってんだよ？\n…うぜぇだけだっつーの\n\n# voice 1014 \"tyrufing_0049\"\n# textboxarrow 0 1\n@ティルフィング\nそんな！！\n彼女だって暴走したかったわけじゃ\nないんですよ！？\n\n# textboxarrow 0 3\n@ディーン\n知るかよ…暴走したヤツが悪いんだ\nんなこと、\nいちいち気にしてられねぇよ\n\n# voice 1014 \"tyrufing_0049\"\n# textboxarrow 0 1\n@ティルフィング\nひどい…っ！\nどうして彼女の想いを\n理解しようとしないんですか！？\n\n# textboxarrow 0 1\n@ティルフィング\nアナタに、\n感情は無いんですか！？\n\n# voice 9997 \"deen_0049\"\n# face 6 \"sad\"\n# textboxarrow 0 3\n@ディーン\n…うっせーな\n…辛く無いわけねぇだろっ！！！\n\n# voice 1014 \"tyrufing_0022\"\n# face 24 \"surprise\"\n# textboxarrow 0 1\n@ティルフィング\n…え…！？\n\n# voice 9997 \"deen_0053\"\n# textboxarrow 0 3\n@ディーン\n…黙っててくれよ、ティルフィング\n…お前ら、墓標を立てに行くぞ\n\n# se \"SE_0719\"\n# alpha 6 0 0.5\n# waitandnext 0.5\n\n# textboxarrow 0 2\n@トト\n…アイツ…泣いてた？\n\n;;時間経過\n# textwindow \"close\"\n# fadeout \"black\" 1\n# waitandnext 1.2\n\n# alpha 24 0 0\n# alpha 4 0 0\n# move 24 1 0\n# face 24 \"normal\"\n# alpha 24 1 0\n# mask 24 on\n# move 0 3 0\n# face 0 \"usual2\"\n# alpha 0 1 0\n# mask 0 on\n# move 4 5 0\n# face 4 \"normal\"\n# alpha 4 1 0\n# mask 4 on\n# waitandnext 0.1\n\n# bgm \"bgm003\" 0\n# fadein \"black\" 1\n# waitandnext 1\n\n# textwindow \"normal\"\n# textflame 1 1\n# textboxarrow 0 1\n@ティルフィング\n…ディーン隊の\nキラープリンセス達に\n話を聞いてきました\n\n# textboxarrow 0 1\n@ティルフィング\nロンギヌスは、\nディーンが初めて出逢った\nキラープリンセス…\n\n# textboxarrow 0 1\n@ティルフィング\n隊の中でも特別な存在だったって…\n\n# face 0 \"sad\"\n# textboxarrow 0 2\n@デュリン\n…情は迷いを生み、命取りになる\n王都に辿り着くまで、\n一切の情を捨てるって…\n\n# textboxarrow 0 2\n@デュリン\nロンギヌスと約束してたらしいわね\n\n# face 24 \"sad\"\n# textboxarrow 0 1\n@ティルフィング\nはい…ディーンの辛さに\n気付けなかった自分が情けなくて…\n\n# face 24 \"normal\"\n# textboxarrow 0 1\n@ティルフィング\nそれで…彼は？\n\n# textboxarrow 0 3\n@トト\nロンギヌスのお墓の前にいるよ\n\n;;場面転換\n# textwindow \"close\"\n# fadeout \"black\" 1\n# waitandnext 1\n\n# alpha 24 0 0\n# alpha 0 0 0\n# alpha 4 0 0\n# move 6 3 0\n# face 6 \"normal\"\n# alpha 6 1 0\n# mask 6 off\n# waitandnext 0.1\n\n# fadein \"black\" 1\n# waitandnext 1\n\n# voice 9997 \"deen_0048\"\n# textwindow \"normal\"\n# textflame 1 1\n# textboxarrow 0 2\n@ディーン\n…んだよ？\n何か言いに来たのかよ、新人？\n\n# textboxarrow 0 2\n@ディーン\n…勘違いすんなよな\n俺はただ…これからの隊の編成を、\n考えてただけなんだからよ\n\n# face 6 \"sad\"\n# textboxarrow 0 2\n@ディーン\n…………\n\n# voice 9997 \"deen_0001\"\n# face 6 \"normal\"\n# textboxarrow 0 2\n@ディーン\nおい、新人…\nマスターに最も必要な条件…\nそれがなにかわかるか？\n\n# textboxarrow 0 2\n@ディーン\n苦楽を共にしたヤツらが暴走した時…\n躊躇なく手を下せるかどうかだ\n\n# textboxarrow 0 2\n@ディーン\nもしティルフィングが暴走したら…\nお前はためらいなく、\n斬り捨てることが出来るか？\n\n;;《選択肢》\n;;情は捨てられない…それが人間だろ？\n;;苦しまないはずがない…お前と同じだ\n# select \"情は捨てられない…それが人間だろ？\" \"select_label_01\" \"苦しまないはずがない…お前と同じだ\" \"select_label_02\"\nもしティルフィングが暴走したら…\nお前はためらいなく、\n斬り捨てることが出来るか？\n\n;;《返答１》\n# label \"select_label_01\"\n# labeljump \"select_label_end\"\n# voice 9997 \"deen_0010\"\n# textboxarrow 0 2\n@ディーン\nチッ、わかったようなことを\n言いやがって…\n\n;;《返答２》\n# label \"select_label_02\"\n# labeljump \"select_label_end\"\n# voice 9997 \"deen_0010\"\n# textboxarrow 0 2\n@ディーン\n…チッ、新米のお前に、\nなにがわかるっつーんだよ？\n\n# label \"select_label_end\"\n# textboxarrow 0 2\n@ディーン\nロンギヌスが聞いてたら、\n“マスター失格だ”って、\n鼻で笑われるぜ…でもよ…\n\n# textboxarrow 0 2\n@ディーン\nでもよ…そう簡単に、\n斬り捨てらんねぇよなぁ…？\n\n;;時間経過演出\n# textwindow \"close\"\n# fadeout \"black\" 1\n# waitandnext 1.2\n\n# alpha 6 0 0\n# move 24 2 0\n# face 24 \"normal\"\n# alpha 24 1 0\n# mask 24 on\n# move 0 4 0\n# face 0 \"normal\"\n# alpha 0 1 0\n# mask 0 on\n# waitandnext 0.1\n\n# fadein \"black\" 1\n# waitandnext 1\n\n# textflame 1 1\n# textwindow \"normal\"\n# textboxarrow 0 3\n@デュリン\n…どうしたのよアンタ、\n神妙な顔して？\n\n# voice 1014 \"tyrufing_0001\"\n# textboxarrow 0 1\n@ティルフィング\nさっきの質問を考えてるんですね…？\n大丈夫です…マスター、\n悩むことなんてありません\n\n# voice 1014 \"tyrufing_0004\"\n# textboxarrow 0 1\n@ティルフィング\n彼とロンギヌスが教えてくれました…\nもし、私が暴走したら…その時は、\n迷わず消してください\n\n# voice 1014 \"tyrufing_0005\"\n# textboxarrow 0 1\n@ティルフィング\nマスターの手にかかれるなら…\n私は幸せですから"
	}
]