[
	{
		"ID": 1411002,
		"script": ";;【４－１－３（バトル後）】\n# background \"004_outland\"\n# bgm \"bgm005\" 0\n# body 24\n# pos 24 2\n# scale 24 0.8 0\n# alpha 24 1 0\n# body 0\n# pos 0 4\n# scale 0 0.8 0\n# alpha 0 1 0\n# body 4\n# pos 4 4\n# scale 4 0.8 0\n# alpha 4 0 0\n# body 6\n# pos 6 2\n# scale 6 0.8 0\n# alpha 6 0 0\n# textboxarrow 0 1\n# face 24 \"sad\"\n# voice 1014 \"tyrufing_0043\"\n@ティルフィング\n…どうだった？\n\n# voice 9999 \"durin_0011\"\n# face 0 \"sad\"\n# textboxarrow 0 3\n@デュリン\nダメ\n…ろくに耳も傾けてくれなかったわ\n\n# voice 1014 \"tyrufing_0015\"\n# face 24 \"mad2\"\n# textboxarrow 0 1\n@ティルフィング\nそんな…！\nマスター…\nいったい、どうすれば…？\n\n# select \"…もう一度、掛け合ってみるよ\" \"select_label_01\" \"なにか、他の手を…\" \"select_label_02\"\nそんな…！\nマスター…\nいったい、どうすれば…？\n\n# label \"select_label_01\"\n# voice 9999 \"durin_0027\"\n# textboxarrow 0 3\n@デュリン\n無理よ\nアタシでさえ、ダメだったのよ？\n\n# labeljump \"select_label_end\"\n@デュリン\n洗礼前の人間の言葉なんて、\n聞く耳持つわけ無いでしょ？\n\n# label \"select_label_02\"\n# textboxarrow 0 3\n@デュリン\n関所の審査を甘く見ちゃダメよ\n許可証の偽造なんか、すぐバレる\n\n# labeljump \"select_label_end\"\n@デュリン\n不法に入域しようもんなら…\n洗礼どころか、\n即処刑対象になるわよ？\n\n# alpha 24 0 0.5\n# alpha 0 0 0.5\n# alpha 4 1 0.5\n# alpha 6 1 0.5\n# textboxarrow 0 1\n# label \"select_label_end\"\n@ディーン\nでもよ、マジな話…\n許可が下りねぇんじゃ、\nどうしようもねぇだろ？\n\n@ディーン\nやっぱ、コイツを置いてくしか…\n\n# voice 9998 \"toto_0011\"\n# face 4 \"angry\"\n# textboxarrow 0 3\n@トト\nヤダ！\nイヤだよ！！\n\n# voice 1014 \"tyrufing_0011\"\n# move 4 5 0.5\n# move 6 1 0.5\n# move 24 3 0\n# alpha 24 1 0.5\n# face 24 \"angry\"\n# textboxarrow 0 2\n@ティルフィング\nダメです！\nナパルさんと約束したんです！\nお願いです…知恵を貸してください！\n\n# voice 9997 \"deen_0016\"\n# textboxarrow 0 1\n@ディーン\n知恵を貸せったって…\nう…！ティルフィング…なんて、\nまっすぐな瞳をしてやがるんだ…\n\n# voice 1014 \"tyrufing_0036\"\n# face 24 \"mad2\"\n# textboxarrow 0 2\n@ティルフィング\nお願いします！\n\n# textboxarrow 0 1\n@ディーン\nそ、その、なんだ…\n許可証が貰えねぇなら…\n\n@ディーン\n持ってるヤツに、\n借りりゃあいいんじゃねぇか…？\n\n# voice 9999 \"durin_0010\"\n# face 0 \"serious\"\n# move 0 3 0\n# alpha 0 1 0.5\n# alpha 24 0 0.5\n# textboxarrow 0 2\n@デュリン\nは…？\n借りる…？\n\n# voice 9997 \"deen_0003\"\n# textboxarrow 0 1\n@ディーン\nそう！そうだよ！\n入域許可証を与えられるほどの\nヤツなら信頼もあるってことだろ！？\n\n@ディーン\nそいつのお墨付きとなりゃ、関所も\n無視するわけにはいかねぇだろ！\n…どう？\n\n# alpha 24 1 0.5\n# alpha 0 0 0.5\n# textboxarrow 0 2\n@ティルフィング\n確かに…！\nトト、まだ可能性はある\n…諦めないで！\n\n# face 4 \"normal\"\n# textboxarrow 0 3\n# voice 9998 \"toto_0003\"\n@トト\nうん！"
	}
]