[
	{
		"ID": 1640302,
		"script": ";;４－５＜戦闘画面＞\n# script \"lisp\"\n# background \"006_town2_TotalEclipse\"\n# bgm \"bgm005\" 0\n# body 6\n# pos 6 3\n# body 4\n# pos 4 5\n# body 28\n# pos 28 1\n# scale 6 0.8 0\n# scale 4 0.8 0\n# scale 28 0.8 0\n# textflame 1 1\n# textboxarrow 0 2\n# chara 6\n@ディーン\nよーし…あらかた片付いたか？\n\n# serif 1\n# textboxarrow 1 1\n# chara 28\n# voice 9984 \"ren_0014\"\n# face 28 \"surprise\"\n@レン\nハァ…ハァ…！\n…もう、何なのよ！！\n死ぬかと思ったわ！！\n\n# serif 0\n# textboxarrow 0 2\n# chara 6\n# voice 9997 \"deen_0008\"\n# face 6 \"angry\"\n@ディーン\n自業自得だろうが…\nくだらねぇ盗みなんかしやがって\n…暦は取り返したのか？\n\n# serif 1\n# textboxarrow 1 3\n# chara 4\n@トト\nうん\n\n# serif 0\n# textboxarrow 0 1\n# chara 28\n# face 28 \"worry\"\n@レン\n…もう必要ないわよ\n“蝕”は始まってしまった\n\n# serif 0\n# textboxarrow 0 1\n# chara 28\n@レン\n…既にどこかで、現の扉は\n開いてしまっているはずだもの…\n\n# serif 1\n# textboxarrow 1 2\n# chara 6\n# voice 9997 \"deen_0035\"\n# face 6 \"normal\"\n@ディーン\nまぁ、俺たちも悪かったよ\n…お前の言うことに、\nろくに耳を貸さなかったからな\n\n# serif 1\n# textboxarrow 1 2\n# chara 6\n# face 6 \"sad\"\n@ディーン\nまさか、本当に\n終わりなき夜が来るなんてよ…\n\n# serif 0\n# textboxarrow 0 1\n# chara 28\n# voice 9984 \"ren_0007\"\n@レン\n…今さら謝ったって、遅いわよ…\nこれで、もう…あの人の足取りは、\n掴めなくなってしまったんだもの…\n\n# serif 1\n# textboxarrow 1 2\n# chara 6\n# voice 9997 \"deen_0004\"\n# face 6 \"normal\"\n@ディーン\n…“リベリオン”か？\nそいつの居場所なら、\nわかるかもしれないぜ？\n\n# serif 0\n# textboxarrow 0 1\n# body 24\n# pos 24 5\n# alpha 24 0 0\n# scale 24 0.8 0\n# face 24 \"surprise\"\n# chara 28\n# voice 9984 \"ren_0022\"\n# face 28 \"surprise\"\n@レン\nえ…！？\nそれって…どういうこと！？\n\n# serif 1\n# textboxarrow 1 3\n# body 39\n# pos 39 1\n# alpha 39 0 0\n# scale 39 0.8 0\n# alpha 4 0 0.5\n# alpha 24 1 0.5\n# chara 101411\n@ティルフィング\nリベリオン…？\n\n# serif 0\n# textboxarrow 0 1\n# leftin 39 0.5\n# alpha 28 0 0.5\n# alpha 39 1 0\n# chara 39\n@カルロ\n“終わりなき夜”に、\n闇の中から現れる悪魔の名前だよ\n\n# serif 0\n# textboxarrow 0 1\n# chara 39\n# face 39 \"irregular\"\n@カルロ\nそもそもは“反逆”\nという意味の言葉だが…\n\n# serif 0\n# textboxarrow 0 1\n# chara 39\n# voice 9981 \"carlo_0013\"\n# face 39 \"normal\"\n@カルロ\n世を脅かす反乱分子という\n意味合いから、\n名付けられたんだろうな\n\n# serif 1\n# textboxarrow 1 3\n# chara 101411\n# voice 1014 \"tyrufing_0022\"\n# face 24 \"angry\"\n@ティルフィング\n…！待って…！\n異族の気配が近付いています…！\n\n# serif 0\n# textboxarrow 0 2\n# chara 6\n# voice 9997 \"deen_0010\"\n# face 6 \"angry\"\n@ディーン\nチッ…！\nダグダ、\nレーヴァテインを呼んで来い！\n\n# serif 1\n# textboxarrow 1 1\n# body 40\n# pos 40 3\n# alpha 40 0 0\n# scale 40 0.8 0\n# alpha 28 1 0.5\n# alpha 39 0 0.5\n# chara 28\n# voice 9984 \"ren_0010\"\n# face 28 \"surprise\"\n@レン\nちょ、ちょっと待って！\nどういう意味よ、\nリベリオンの居場所がわかるって！？\n\n# serif 0\n# textboxarrow 0 2\n# body 0\n# pos 0 5\n# layer 0 1\n# alpha 0 0 0\n# scale 0 0.7 0\n# face 0 \"serious\"\n# alpha 40 1 0.5\n# alpha 6 0 0.5\n# chara 40\n# voice 9982 \"edgar_0032\"\n@エドガー\n…君たちが戻ってくる前に、\nこの街の駐留部隊に\n救援要請が入ったんだ\n\n# serif 1\n# textboxarrow 1 3\n# alpha 0 1 0.5\n# alpha 24 0 0.5\n# chara 0\n@デュリン\n救援要請…？\n…確かに、あのバカ師団長達の\n姿が見えないわね…\n\n# serif 0\n# textboxarrow 0 2\n# chara 40\n@エドガー\nどうやら、王立軍の第６師団が\n壊滅したらしい…\n\n# serif 0\n# textboxarrow 0 2\n# chara 40\n@エドガー\nその…リベリオンという\n男の手によってね…\n\n# serif 1\n# textboxarrow 1 1\n# chara 28\n# voice 9984 \"ren_0022\"\n# face 28 \"trouble\"\n@レン\n…！！\n"
	}
]