[
	{
		"ID": 1730102,
		"script": ";;３－１＜戦闘画面＞\n;;【指定】bgm005\n;;第一師団に追われながら、キトゥリス市場街を目指している一行\n# script \"lisp\"\n# background \"006_town\"\n# bgm \"bgm005\" 0\n# body 0\n# pos 0 1\n# mask 0 off\n# layer 0 1\n# face 0 \"serious2\"\n# body 44\n# pos 44 5\n# body 24\n# pos 24 3\n# scale 44 0.8 0\n# scale 24 0.8 0\n# scale 0 0.7 0\n# textflame 1 1\n# textboxarrow 0 2\n# chara 101411\n# face 24 \"surprise\"\n@ティルフィング\n“キラーメイル”…！？\n私達と同じ…\nキラ－ズを宿す存在…！？\n\n# serif 1\n# textboxarrow 1 3\n# chara 44\n# voice 9979 \"rebellion_0003\"\n@リベリオン\nああ、言っただろ…\n俺とお前らは、\n親戚のような関係だって\n\n# serif 0\n# textboxarrow 0 1\n# chara 0\n# voice 9999 \"durin_0027\"\n# face 0 \"serious\"\n@デュリン\nなにを言い出したかと思えば…\n言っとくけど、\nキラ－ズは男には宿らないのよ？\n\n# serif 1\n# textboxarrow 1 3\n# chara 44\n# voice 9979 \"rebellion_0009\"\n@リベリオン\nあ？\n\n# serif 0\n# textboxarrow 0 1\n# chara 0\n# voice 9999 \"durin_0044\"\n# face 0 \"serious2\"\n@デュリン\nキラ－ズが宿るのは、\n若い女性だけ…\n\n# chara 0\n@デュリン\nそれが、あまたの犠牲の末に\nラグナロクの研究者達が\n辿り着いた答えよ\n\n# chara 0\n@デュリン\nアンタに移植してごらんなさい…\n\n# chara 0\n# face 0 \"serious\"\n@デュリン\nキラーズが持つ狂気に精神が壊されて\nあっという間に\n死に至ることになるわ\n\n# chara 0\n@デュリン\n…わかった？\n\n# serif 1\n# textboxarrow 1 3\n# chara 44\n# voice 9979 \"rebellion_0007\"\n# face 44 \"sad\"\n@リベリオン\n…ったく、お前ってヤツは\n呆れて物も言えねぇぜ\n\n# serif 0\n# textboxarrow 0 1\n# chara 0\n# voice 9999 \"durin_0010\"\n@デュリン\nなに…？\n\n# serif 1\n# textboxarrow 1 3\n# chara 44\n# voice 9979 \"rebellion_0026\"\n# face 44 \"irregular\"\n@リベリオン\nチッ…\nいいか、それはあくまで\nこの世界での話だ\n\n# serif 1\n# chara 44\n# face 44 \"normal\"\n@リベリオン\n俺達が住む世界では、\n奇跡的に男にも\n根付くことができたんだよ\n\n# serif 1\n# chara 44\n@リベリオン\n…ある男の登場でな\n\n# serif 0\n# textboxarrow 0 2\n# chara 101411\n@ティルフィング\nある男…？\n\n# serif 1\n# textboxarrow 1 3\n# chara 44\n@リベリオン\nキラーメイルの試作第一号…\n“ゼロ”と呼ばれている男だ\n\n# serif 0\n# textboxarrow 0 2\n# imageset 0 \"st160801_SS_07\"\n# imagealpha 0 0 0\n# imageset 1 \"st160801_SS_08\"\n# imagealpha 1 0 0\n# imageset 2 \"st160801_SS_09\"\n# imagealpha 2 0 0\n# chara 101411\n# voicedelay 1014 \"tyrufing_0037\" 0.5\n# face 24 \"sad\"\n@ティルフィング\nゼロ…\n…クッ！？\n\n;;【指定】SE_4820\n;;地上編の光景を挿入\n;;悪魔を相手に、猛然と闘うゼロの姿\n# se \"SE_4820\"\n# fadein \"white\" 0.1\n# imagealpha 0 1 0\n# imagepos 0 0 30\n# waitandnext 0.15\n# serif 0\n# textwindow \"close\"\n# serif 1\n# textwindow \"close\"\n\n# fadein \"white\" 0.1\n# imagealpha 1 1 0\n# imagepos 1 0 30\n# waitandnext 0.15\n\n# fadein \"white\" 0.1\n# imagealpha 2 1 0\n# imagepos 2 0 30\n# waitandnext 0.15\n\n# imagealpha 0 0 0\n# imagealpha 1 0 0\n# imagealpha 2 0 0\n# serif 0\n# textwindow \"nomal\"\n# textboxarrow 0 2\n# chara 101411\n# voice 1014 \"tyrufing_0038\"\n@ティルフィング\n！！\n…ウ…ウグッ…！\nあ、頭が…！\n\n# serif 1\n# textwindow \"nomal\"\n# textboxarrow 1 1\n# chara 0\n# voice 9999 \"durin_0037\"\n# face 0 \"worry\"\n@デュリン\nグッ…！\n\n# serif 0\n# textboxarrow 0 3\n# chara 44\n# voice 9979 \"rebellion_0022\"\n# face 44 \"irregular\"\n@リベリオン\n…！\nもう追いついてきやがった…\n\n# chara 44\n# face 44 \"angry\"\n@リベリオン\nのんびりしている暇はない\n急ぐぞ！\n\n# serif 1\n# textboxarrow 1 2\n# chara 101411\n@ティルフィング\nは、はい…\nデュリン、しっかり…！\n\n# serif 0\n# textboxarrow 0 1\n# chara 0\n# voice 9999 \"durin_0042\"\n@デュリン\n今まで以上に、鮮明に…\n\n# chara 0\n@デュリン\nゼロ…\nその男のことを、\nアタシは知っているの…？"
	}
]