[
	{
		"ID": 20012303,
		"script": "# script \"lisp\"\n# background \"plain\"\n# bgm \"bgm002\" 0\n# textboxarrow 0 2\n# body 200121\n# mask 200121 off\n# pos 200121 3\n# chara 200121\n# face 200121 \"worry\"\n# textflame 1 1\n@ミョルニル\n# voice 2001 \"myuruniru_1015\"\nうぅ…子ヤギちゃんを\nお母さんに会わせてあげたいけど…\n\n# textflame 0 0\n@\n細い岩の一本道\nしかも下は、断崖絶壁の奈落…\n\n@\nバランス感覚の悪い彼女に\n渡ることはやはり無理なのか…\n\n\n# textflame 1 1\n@ミョルニル\nでも、ここでやらなきゃ…\n一生、このままだよね…\n\n# face 200121 \"normal\"\n@ミョルニル\n今の自分を超えていくには…\nいつか立ち向かわなきゃ\nいけなんだよね！！\n\n# voice 2001 \"myuruniru_unit_0005\"\n@ミョルニル\nよ～っし！！\n\n# textflame 0 0\n@\n意を決し、子ヤギを担ぎ上げる彼女！\nそのまま渡り切ろうというのか…\n\n# face 200121 \"usual\"\n# textflame 1 1\n@ミョルニル\nいっくよ～！！\n\n# textflame 0 0\n@\n危険だ！やめろ！\nマスターが叫ぶ\n\n# face 200121 \"angry\"\n# textflame 1 1\n@ミョルニル\nはぁぁぁぁっ！！\n\n# textflame 0 0\n@\n次の瞬間、彼女が巨大なハンマーで\n地面を打ち付けた！\n\n@\n反動で母ヤギのいる向こう岸まで\n飛んでいくミョルニルと子ヤギ\n\n# voice 2001 \"myuruniru_0005\"\n# face 200121 \"happy\"\n# textflame 1 1\n#se \"SE_0602\"\n@ミョルニル\nできた～！！\nミョルニルちゃんの新奥義！\n『ヘヴィリバース』だよ～～～っ！！\n\n# textflame 0 0\n@\n断崖を飛び越え、ミョルニルは無事\n子ヤギを母親の元まで送り届ける事が\n出来たのだった\n\n# select \"立ち向かうって、あぁいうこと？\" \"select_label_01\" \"弱点を克服するんじゃないんだ？\" \"select_label_02\" \"ちょっとズルくない…？\" \"select_label_03\"\n断崖を飛び越え、ミョルニルは無事\n子ヤギを母親の元まで送り届ける事が\n出来たのだった\n\n# face 200121 \"normal\"\n# label \"select_label_01\"\n# labeljump \"select_label_end\"\n# textflame 1 1\n#chara 200121\n@ミョルニル\nそ！\nあれがミョルニルちゃんの\nやり方！\n\n# face 200121 \"normal\"\n# label \"select_label_02\"\n# labeljump \"select_label_end\"\n# textflame 1 1\n#chara 200121\n@ミョルニル\nなんだっけ？\nそう、発想の転換？だよ！\n\n# face 200121 \"usual\"\n# label \"select_label_03\"\n# labeljump \"select_label_end\"\n# textflame 1 1\n#chara 200121\n@ミョルニル\nえ～、そっかな？\nいいじゃん！\n\n# label \"select_label_end\"\n# voice 2001 \"myuruniru_kyara_1001\"\n# face 200121 \"normal\"\n# textflame 1 1\n@ミョルニル\n弱点を克服するんじゃなくて、\n長所をさらに伸ばしたんだよ！\n\n@ミョルニル\n苦手なことに挑戦して落ちるより…\n得意のぺったんこハンマーで\n挑んだ方がイケる気がしたんだぁ～\n\n# textflame 0 0\n@\n逆転の発想というか、何というか…\nとにかく彼女は\n新たなスキルに目覚めたのだった\n\n# face 200121 \"happy\"\n# textflame 1 1\n@ミョルニル\nじゃあね、子ヤギちゃん\nお母さんに会えて、よかったね\n\n# textflame 0 0\n@\n回復奥義で母親を治し、\n子ヤギに別れを告げるミョルニル\n\n# voice 2001 \"myuruniru_0005\"\n# imageset 0 \"c200121\"\n# imagealpha 0 0 0\n# textflame 1 1\n@ミョルニル\nあは♪くすぐったいよ～\n\n# imagealpha 0 1 0\n# imagepos 0 0 0 \n# fadein \"white\" 3\n# voice 2001 \"myuruniru_kyara_0016\"\n# textwindow \"close\"\n\n# textwindow \"nomal\"\n# textflame 0 0\n@\n子ヤギが彼女の顔をペロペロとなめる\nその光景を見て、\n穏やかに微笑むマスターだった"
	}
]