[
	{
		"ID": 20045404,
		"script": "# script \"lisp\"\n# background \"ghost_town\"\n# bgm \"bgm003\" 0\n# body 200451\n# mask 200451 off\n# pos 200451 3\n# chara 200451\n# textboxarrow 0 2\n# face 200451 \"normal\"\n# textflame 1 1\n@パラシュ\n…なんだろう\nまたこれを着る日が\nこんな早く来るとは思わなかったよ\n\n# chara 200451\n@パラシュ\nこの時期は模擬結婚式を\nするシーズンなんだってね\n知らなかったよ…\n\n# chara 200451\n# face 200451 \"smile\"\n@パラシュ\n久しぶりに\n立ち寄った町なのにね\n\n# chara 200451\n# face 200451 \"happy\"\n# voice 2004 \"parashu_0008\"\n@パラシュ\n店員さんにバッタリ会って…\nちょうど良かったなんて言われて\n不思議な縁もあるもんだね\n\n@パラシュ\nそれにこのドレスは…\nボクが一番似合ってたから\n今年も頼みたくて探してたなんて\n\n# chara 200451\n# face 200451 \"smile\"\n# voice 2004 \"parashu_0004\"\n@パラシュ\nふふ…照れるね…\n\n# select \"とても似合ってるよ\" \"select_label_01\" \"立派なモデルさんだね\" \"select_label_02\" \"このバッタリは嬉しい偶然だね\" \"select_label_03\"\nふふ…照れるね…\n\n# label \"select_label_01\"\n# labeljump \"select_label_end\"\n# face 200451 \"shy\"\n# textflame 1 0\n# chara 200451\n@パラシュ\n…あ、ありがとう\n本当に照れるよ\n\n# label \"select_label_02\"\n# labeljump \"select_label_end\"\n# face 200451 \"shy\"\n# textflame 1 0\n# chara 200451\n@パラシュ\n…そ、そんな\n本物のモデルさんに失礼だよ\n\n# label \"select_label_03\"\n# labeljump \"select_label_end\"\n# face 200451 \"happy\"\n# textflame 1 0\n# chara 200451\n@パラシュ\nそうだね\n素敵な偶然だね…\n\n# label \"select_label_end\"\n# textflame 1 1\n# chara 200451\n# face 200451 \"normal\"\n# voice 2004 \"parashu_1003\"\n@パラシュ\nそれにね店員さんだけじゃなく…\n前回見に来ていた人が\nまたいるみたいなんだ\n\n# chara 200451\n@パラシュ\nその人に向かって\nブーケを投げれたらって思うんだけど\nどうかな？\n\n# textflame 0 0\n@\nいいと思うけど\nあまり力み過ぎると\n上手く飛ばないよ？\n\n# chara 200451\n# face 200451 \"surprise\"\n# textflame 1 1\n@パラシュ\nあ、ああ…そうだね…\n\n# chara 200451\n# face 200451 \"worry\"\n# voice 2004 \"parashu_0028\"\n@パラシュ\n力みすぎる…？\n\n# textflame 0 0\n@\nなにか引っかかった顔をしていたが\nパラシュは深呼吸をし、\n肩の力を抜いて、ブーケを放り投げた\n\n@\nパラシュがあげたいと言っていた\nお客さんの手にそのブーケは\nふわりと届いた\n\n# chara 200451\n# textflame 1 1\n# face 200451 \"surprise\"\n# voice 2004 \"parashu_0024\"\n@パラシュ\n！！\nこれは…！\n\n;;文字大きく\n# chara 200451 \n# textwindow \"toge\"\n# textsize 34\n@パラシュ\nそうか！\n\n# textwindow \"nomal\"\n# textsize 24\n# chara 200451\n# face 200451 \"normal\"\n@パラシュ\n今みたいに…力を入れずに、\n力み過ぎずに攻撃することで\n刃の軌道が読みにくくなる！\n\n#se \"SE_0602\"\n# chara 200451\n@パラシュ\n見えた！ボクのさらなる奥義！\n『幸福な花束の光』！！\n\n# textflame 0 0\n@\nそれはまさしく、\n彼女が新たなるスキルに\n目覚めた瞬間だった\n\n# chara 200451\n# textflame 1 1\n# face 200451 \"smile\"\n# voice 2004 \"parashu_0008\"\n@パラシュ\nマスターにはいつも\nフォローしてもらってばっかりだね\n\n# chara 200451\n# face 200451 \"normal\"\n@パラシュ\nでも、\n模擬結婚式の司会者さんが\n言ってた通り…\n\n# chara 200451\n# face 200451 \"happy\"\n@パラシュ\nふたりでフォローしあえる\n関係が一番いい夫婦なんだって…\n\n;;文字小さく\n# textsize 16\n# chara 200451\n# face 200451 \"smile\"\n# voice 2004 \"parashu_0004\"\n@パラシュ\n（ボクもそんな風な\n夫婦になれたらって思っちゃった\n…新たな理想だよ）\n\n# textsize 24\n# chara 200451\n# face 200451 \"normal\"\n@パラシュ\nさ、着替えなきゃ…\nお色直しのドレスは\n好きなの選んでいいんだって\n\n# imageset 0 \"c200451\"\n# imagealpha 0 0 0\n# chara 200451\n# face 200451 \"smile\"\n@パラシュ\nじゃあ、マスター\n着替えてくるね！\n\n# imagealpha 0 1 0\n# imagepos 0 0 0 \n# fadein \"white\" 3\n# voice 2004 \"parashu_kyara_0017\"\n# textwindow \"close\"\n\n# textwindow \"nomal\"\n# textflame 0 0\n@\nそう言って笑顔で立ち去る彼女は\n本当の花嫁のように\n可憐で美しかった…"
	}
]