[
	{
		"ID": 20065204,
		"script": ";;【EP4】\n# script \"lisp\"\n# background \"Schoolyard_daytime\"\n# bgm \"bgm002\" 0\n# body 200651\n# pos 200651 3\n# mask 200651 off\n# textboxarrow 0 2\n# chara 200651\n# voice 2006 \"daguda_0005\"\n# face 200651 \"happy\"\n# textflame 1 1\n@ダグダ\nはいは～い♪\nそこの素敵な\nマスターく～ん♪\n\n# textflame 0 0\n@\n聞き覚えのある声に\n振り向くと…\nリアカーに乗ったダグダ先生\n\n# voice 2006 \"daguda_0004\"\n# textflame 1 1\n# chara 200651\n@ダグダ\nはい、目があった～！\nもうわかるよね？わかったよね？\n…は・こ・ん・で♪\n\n# textflame 0 0\n@\n一遍のくもりもなく\nいつものゆるゆるダグダ先生\n昨日のスパルタモードはどこへやら…\n\n# select \"熱血モードは終了ですか？\" \"select_label_01\" \"またぐだぐだして～…\" \"select_label_02\" \"昨日はちょっとカッコよかったのに\" \"select_label_03\"\n一遍のくもりもなく\nいつものゆるゆるダグダ先生\n昨日のスパルタモードはどこへやら…\n\n# label \"select_label_01\"\n# labeljump \"select_label_end\"\n# face 200651 \"usual\"\n# textflame 1 1\n# chara 200651\n@ダグダ\nそうで～す、平常運転で～す\n\n# label \"select_label_02\"\n# labeljump \"select_label_end\"\n# face 200651 \"angry\"\n# textflame 1 1\n# chara 200651\n@ダグダ\n誰がグダグダグダよ～！\n\n# label \"select_label_03\"\n# labeljump \"select_label_end\"\n# face 200651 \"angry\"\n# textflame 1 1\n# chara 200651\n@ダグダ\nえ～、かわいい♪のほうがいい～！\n\n# label \"select_label_end\"\n# voice 2006 \"daguda_0007\"\n# textflame 1 1\n# chara 200651\n# face 200651 \"usual\"\n@ダグダ\n昨日はちょ～っと\nやる気出しすぎちゃった\nほどほどにしないとね～\n\n# textflame 0 0\n@\nダグダ先生はリヤカーを\nガタガタさせてアピールしてくる\nしかたなくマスターは取手を握った\n\n# voice 2006 \"daguda_0030\"\n# face 200651 \"shy\"\n# textflame 1 1\n# chara 200651\n@ダグダ\n昨日はありがとね\n君のお陰で\n色々気づかされちゃったよ\n\n# textflame 1 1\n# chara 200651\n@ダグダ\n自主性を重んじる方針は変えない\nでもまだみんな子供…\n迷ったり間違うこともあるよね\n\n#SE \"se_0602\"\n# textflame 1 1\n# face 200651 \"happy\"\n# chara 200651\n@ダグダ\n『ばーにんぐメガホン』\n時には導いてあげなきゃね\n教師なんだもん♪\n\n# textflame 0 0\n@\nそれはまさしく、\n彼女が新たなるスキルに\n目覚めた瞬間だった\n\n# voice 2006 \"daguda_0005\"\n# face 200651 \"shy\"\n# textflame 1 1\n# chara 200651\n@ダグダ\nみんなを引っ張ろうと\n一生懸命走るキミの背中…\nカッコよかったぞ♪\n\n# textflame 0 0\n@\n突然のダグダ先生の\nウィンクに戸惑っていると\n授業開始のチャイムがなった\n\n# voice 2006 \"daguda_0003\"\n# face 200651 \"happy\"\n# textflame 1 1\n# chara 200651\n@ダグダ\nというわけで…\n今日からマラソン大会まで\n練習の仕切りお願いね♪\n\n# textflame 0 0\n@\n……はい？\n\n# textflame 1 1\n# face 200651 \"usual\"\n# chara 200651\n@ダグダ\nあれ、言ってなかったっけ？\nみんなと話して決めたの\n満場一致で決定だよ～♪\n\n# textflame 1 1\n# chara 200651\n@ダグダ\nみんなとダグダ先生の\nお願いなんだから…\n聞いてくれるよね？ね♪\n\n# textflame 0 0\n@\n嫌だと言っても\nもう決まっているなら仕方ない\nそれより何より…\n\n# imageset 0 \"c200651\"\n# imagealpha 0 0 0\n# textflame 0 0\n@\nダグダ先生の\n可愛らしいおねだりには\nどうも逆らえないマスターなのだった\n\n# imagealpha 0 1 0\n# imagepos 0 0 0 \n# voice 2006 \"daguda_kyara_0023\"\n# fadein \"white\" 3\n# textwindow \"close\""
	}
]