[
	{
		"ID": 20092401,
		"script": ";;【EP4】\n# script \"lisp\"\n# background \"town\"\n# bgm \"bgm002\" 0\n# body 200911\n# pos 200911 3\n# mask 200911 off\n# textboxarrow 0 2\n# textflame 0 0\n@\nあれから、さらに数日が過ぎた\n\n# textflame 1 1\n# chara 200911\n@ねむ\n…ふぅ、こんなもんかな？\nテーブル、ピッカピカでしょ\n\n# textflame 0 0\n@\n先日の店にやってきて驚くマスター\n\n# textflame 1 1\n# chara 200911\n# face 200911 \"shy\"\n# voice 2009 \"nemu_0001\"\n@ねむ\nあ、マスター\n\n# chara 200911\n# face 200911 \"normal\"\n@ねむ\nなにって…お手伝いだよ\nまぁ、お手伝いって言うか…\nアルバイト？\n\n# textflame 0 0\n@\nなんで、急に？\nと、マスターが尋ねる\n\n# textflame 1 1\n# chara 200911\n# face 200911 \"angry\"\n# voice 2009 \"nemu_0022\"\n@ねむ\nなんでって…\nマスターが貧乏だからに\n決まってんでしょ～！\n\n# chara 200911\n# face 200911 \"amazed\"\n# voice 2009 \"nemu_0015\"\n@ねむ\nだから、ねむがこうして、\nお金を稼いで…！！\n\n# chara 200911\n# face 200911 \"shy\"\n# voice 2009 \"nemu_0004\"\n@ねむ\n…って、冗談♪\n\n# chara 200911\n@ねむ\n前にも言ったでしょ？\n\n# chara 200911\n@ねむ\nねむは…これからは、\nみんなの幸せのために戦うって\n\n# chara 200911\n@ねむ\nみんなが幸せになってくれるなら…\nどんな仕事でもがんばっちゃうよ！\n\n# textflame 0 0\n@\nそして開店\nお客さんにどんどん声を\n掛けられるねむ\n\n# textflame 1 1\n# chara 200911\n# voice 2009 \"nemu_0032\"\n@ねむ\nはい、少々お待ちを～！\n\n# chara 200911\n@ねむ\nはぁ～い、今すぐ\n持っていきま～す！！\n\n# textflame 0 0\n@\nテキパキと動き回る彼女\n\n# textflame 1 1\n# chara 200911\n# face 200911 \"surprise\"\n@ねむ\n…ん？なんだか…\n無駄な動きがどんどん\n削り落とされる感じ♪\n\n#se \"SE_0602\"\n# chara 200911\n@ねむ\nこれは…新奥義\n『忍忍♪疾風の斧』\n完成じゃない！？\n\n# textflame 0 0\n@\nアルバイトの中で、\n新奥義に目覚める彼女\nそして…\n\n# textflame 1 1\n# chara 200911\n# face 200911 \"shy\"\n# voice 2009 \"nemu_0030\"\n@ねむ\nえ？お給料？\nこんなにも～！？\nありがとう、おばちゃん！\n\n# textflame 0 0\n@\nアルバイト代をもらって\n大喜びのねむ\n\n# textflame 1 1\n# chara 200911\n# face 200911 \"normal\"\n@ねむ\nそっか…\nみんなの幸せのために\nがんばってたつもりだったけど、\n\n# chara 200911\n# face 200911 \"shy\"\n# voice 2009 \"nemu_0004\"\n@ねむ\nみんなが幸せになってくれたら…\n私も幸せなんだ\n\n# chara 200911\n# face 200911 \"sad\"\n@ねむ\nだから…\n自分を犠牲にして\n戦うんじゃない\n\n# chara 200911\n# face 200911 \"shy\"\n@ねむ\n自分も幸せになるために…\n戦うんだね！！\n\n# chara 200911\n# voice 2009 \"nemu_0005\"\n@ねむ\nなんだか…お給料以上の\n素敵なご褒美をもらった気分だよ\n\n# textflame 0 0\n@\nまぶしい笑顔を見せるねむ\n\n# select \"そのお給料、なにに使うの？\" \"select_label_01\" \"そのお給料でなにか買うの？\" \"select_label_02\" \"なにか欲しいものでもあるの？\" \"select_label_03\"\nまぶしい笑顔を見せるねむ\n\n# label \"select_label_01\"\n# labeljump \"select_label_end\"\n# face 200911 \"shy\"\n# textflame 1 1\n# chara 200911\n@ねむ\nこれ…？決まってるじゃん！\n\n# label \"select_label_02\"\n# labeljump \"select_label_end\"\n# face 200911 \"shy\"\n# textflame 1 1\n# chara 200911\n@ねむ\nふふ、ねむが買うのは…\n\n# label \"select_label_03\"\n# labeljump \"select_label_end\"\n# face 200911 \"shy\"\n# textflame 1 1\n# chara 200911\n@ねむ\nうん！ねむが欲しいのはね…\n\n# label \"select_label_end\"\n# chara 200911\n# face 200911 \"shy\"\n@ねむ\nおばちゃん、ご飯大盛りで～！\n\n# textflame 0 0\n@\n早速、食べることに使うのか…\nと少々呆れ気味のマスター\n\n# textflame 1 1\n# chara 200911\n# voice 2009 \"nemu_0007\"\n@ねむ\nいいでしょ！\nねむは食べてる時が\n一番幸せなんだから♪\n\n# chara 200911\n# face 200911 \"normal\"\n@ねむ\n…って言っても、\n一人で食べても\nしょうがないじゃん\n\n# chara 200911\n# voice 2009 \"nemu_0004\"\n# face 200911 \"shy\"\n@ねむ\nお給料も入ったし、\n今回はおごってあげてもいいよ、\nマスター\n\n# chara 200911\n@ねむ\n誰かと一緒に食べる方が\nおいしいんだから！\n\n# chara 200911\n@ねむ\n特に…マスターとだったらね♪\n\n# imageset 0 \"c200911\"\n# imagealpha 0 0 0\n# textflame 0 0\n@\n少し照れて言う様子が、\nとてもいじらしいねむだった\n\n# imagealpha 0 1 0\n# imagepos 0 0 0 \n# voice 2009 \"nemu_kyara_0025\"\n# fadein \"white\" 3\n# textwindow \"close\""
	}
]