[
	{
		"ID": 20141302,
		"script": "# script \"lisp\"\n# background \"town_evening\"\n# bgm \"bgm002\" 0\n# body 201411\n# mask 201411 off\n# pos 201411 3\n# textflame 0 0\n@\n“あいつ”…？\n尋ねるマスター\n\n# textboxarrow 0 2\n# textflame 1 1\n# chara 201411\n# face 201411 \"amazed\"\n@あなる\n…あいつは\nあっちの世界の、仲間なんだ\n\n# textflame 1 1\n# chara 201411\n@あなる\n私じゃなくて…\n別の友達のことが、好きな…\n\n# select \"別の友達って…どんな子？\" \"select_label_01\" \"その友達も…こっちの世界に？\" \"select_label_02\" \"好きな人にそう言われたの？\" \"select_label_03\"\n私じゃなくて…\n別の友達のことが、好きな…\n\n# label \"select_label_01\"\n# labeljump \"select_label_end\"\n# textflame 1 1\n# chara 201411\n@あなる\n私なんか…\nとてもかなわない子なんだ…\n\n# label \"select_label_02\"\n# labeljump \"select_label_end\"\n# textflame 1 1\n# chara 201411\n@あなる\nうん…そうみたい…\n\n# label \"select_label_03\"\n# labeljump \"select_label_end\"\n# textflame 1 1\n# chara 201411\n@あなる\nわかるもん…その子は…\n\n# label \"select_label_end\"\n# textflame 1 1\n# chara 201411\n# face 201411 \"happy\"\n@あなる\n私も憧れちゃうような…\nすごく可愛い子…\n\n# textflame 1 1\n# chara 201411\n@あなる\n私も、大好きだけど…\n…大嫌いだった\n\n# textflame 1 1\n# chara 201411\n@あなる\nその子は…こっちの世界でもやっぱり\nみんなと仲良くて、活躍してるみたい\n\n# face 201411 \"amazed\"\n# textflame 1 1\n# chara 201411\n@あなる\nなのに私はウジウジばっかりしてて…\n誰の役にも立てなくて、\n足を引っ張って！\n\n# voice 2014 \"anaruf_0009\"\n# textflame 1 1\n# chara 201411\n@あなる\nはぁ〜あ！\nもう…こんな自分がイヤ！\n\n# textflame 0 0\n@\nそんなことないよ\nだって、ほら…\n後ろを見ろと促すマスター\n\n# face 201411 \"normal\"\n# textflame 1 1\n# chara 201411\n@あなる\n…え？\n\n# textflame 0 0\n@\n「ねぇ、あなる！塩、どこ？」\n「おたま、どこにしまったっけ？」\n尋ねてくる料理当番の姫達\n\n# textflame 0 0\n@\nみんな、しっかり者の君に頼ってる\n君が大好きなんだよ\n\n# textflame 1 1\n# chara 201411\n@あなる\n…っ！！\n\n# textflame 0 0\n@\n“しっかりものの\nあなるがだいすきです”\n\n# textflame 1 1\n# chara 201411\n# face 201411 \"sad\"\n@あなる\n…あ\n\n# textflame 0 0\n@\n彼女の目から一筋の涙がこぼれた\n\n# textsize 14\n# textflame 1 1\n# chara 201411\n@あなる\nめんま…\n\n# voice 2014 \"anaruf_0006\"\n# textsize 24\n# textflame 1 1\n# chara 201411\n# face 201411 \"shy\"\n@あなる\nも…もう、しょうがないな〜\nみんな…私がいないと、\nなんもできないんだから！\n\n# textflame 0 0\n@\n涙を拭い、みんなの前に躍り出る\nあなるだった"
	}
]