[
	{
		"ID": 20162201,
		"script": "# script \"lisp\"\n# background \"town\"\n# bgm \"bgm002\" 0\n# body 201621\n# mask 201621 off\n# pos 201621 3\n# textflame 1 1\n# textboxarrow 0 2\n# voice 2016 \"shita_kyara_1001\"\n# chara 201621\n@シタ\nあ、マスター\nミトゥムちゃん、\n見ませんでした？\n\n# textflame 1 1\n# voice 2016 \"shita_0013\"\n# chara 201621\n# face 201621 \"worry\"\n@シタ\nもう〜、今日は２人で\n買い物に行くって\n約束してたのに\n\n# face 201621 \"smile\"\n# voice 2016 \"shita_0001\"\n# chara 201621\n@シタ\nあ、そうだ、マスター\nうふふふふ♪\n\n# textflame 0 0\n@\n嬉しそうな笑顔で\nぴょんとマスターに近づくシタ\n\n# textflame 1 1\n# voice 2016 \"shita_0004\"\n# chara 201621\n@シタ\nはい、これ！\nプレゼントです！\n\n# chara 201621\n@シタ\n姉妹そろって、\nいつもお世話になってますし！\nそれに…\n\n# chara 201621\n@シタ\n好きですし♪\n\n# face 201621 \"surprise\"\n# chara 201621\n@シタ\nあ、好きって、マスターに\nプレゼントするのがですよ？\n\n# face 201621 \"shy\"\n# voice 2016 \"shita_0020\"\n# chara 201621\n@シタ\nもしかして、ドキッと\nしちゃいました？あはは\n\n# textflame 0 0\n@\n「いつも悪いね」と、マスター\n\n# face 201621 \"smile\"\n# textflame 1 1\n# voice 2016 \"shita_0033\"\n# chara 201621\n@シタ\nとんでもないです！\n次は何を贈ろうか考えるの\n楽しいですから♪\n\n# textflame 0 0\n@\n「でも、いつもいつも\n貰ってばかりで悪いよ」\nと、マスター\n\n# face 201621 \"surprise\"\n# textflame 1 1\n# voice 2016 \"shita_0022\"\n# chara 201621\n@シタ\n…え？もしかして…\n\n# face 201621 \"sad\"\n# voice 2016 \"shita_0017\"\n# chara 201621\n@シタ\n…迷惑…\nでした…？\n\n# textflame 0 0\n@\nショックを受けるシタ\n\n# textflame 0 0\n@\n「そ、そんなことないけど…！\nでも、たまには自分のために\n使ったらどうかなと思って」\n\n# textflame 0 0\n@\nシタの悲しげな表情に\nしどろもどろになるマスターだった\n\n# textflame 0 0\n@\nそれから、数日後…\n\n# textflame 1 1\n# voice 2016 \"shita_0019\"\n# chara 201621\n@シタ\nあぁ、マスター…\n本当は…\nずっと迷惑だったんじゃ…\n\n# voice 2016 \"shita_0013\"\n# chara 201621\n@シタ\nこの間、ミトゥムちゃんと\n一緒に選んだプレゼントも…\n\n# chara 201621\n@シタ\nその前にあげたプレゼントも…\n\n# face 201621 \"worry\"\n# chara 201621\n@シタ\nあぁ…やっぱり…\n重いのかな〜…\n\n# textflame 0 0\n@\n自問自答し\nますます落ち込むシタだった"
	}
]