[
	{
		"ID": 20171103,
		"script": "# script \"lisp\"\n# background \"plain\"\n# bgm \"bgm002\" 0\n# body 201711\n# mask 201711 off\n# pos 201711 3\n# textflame 1 1\n# textboxarrow 0 2\n# voice 2017 \"yagurushi_0042\"\n# face 201711 \"irregular\"\n@ヤグルシ\n…う〜ん…待て〜、\nマスタァ〜…\n\n# voice 2017 \"yagurushi_kyara_1004\"\n@ヤグルシ\nヤグだって…\n強くなるんだから…\nムニャムニャ…\n\n# textflame 0 0\n@\n特訓中に眠ってしまったヤグルシ\nマスターは彼女を起こすことにした\n\n# textflame 1 1\n# textboxarrow 0 2\n@ヤグルシ\nう…う〜ん…\n\n# textflame 0 0\n@\nゆさゆさと肩を揺らす\n…すると\n\n# face 201711 \"surprise\"\n# textflame 1 1\n# textboxarrow 0 2\n# voice 2017 \"yagurushi_0022\"\n@ヤグルシ\n…ハッ！！\n\n# textflame 0 0\n@\nヤグルシの目がパチリと開いた！\n次の瞬間！\n\n# textflame 1 1\n# textboxarrow 0 2\n# voice 2017 \"yagurushi_0001\"\n@ヤグルシ\nマスタ〜ッ！！\nヤグのおムネ…\n\n@ヤグルシ\n触ろうとしてたでしょーっ！！\n\n# textflame 0 0\n@\n「いや、誤解…」と言う間もなく、\n彼女の巨大なハンマーが\nマスターの頬をかすめた！\n\n# textflame 0 0\n@\n『どかぁぁ〜〜ん！！』\n\n# textflame 0 0\n@\n恐るべき破壊力！\n地面にめり込んでいる\n\n# face 201711 \"irregular\"\n# textflame 1 1\n# textboxarrow 0 2\n# voice 2017 \"yagurushi_0010\"\n@ヤグルシ\nもう、マスター！\nそんなエッチなイタズラは…\n\n# face 201711 \"usual\"\n# voice 2017 \"yagurushi_0012\"\n@ヤグルシ\nめ！だよ！\n\n# select \"攻撃力…お姉ちゃんより上じゃない？\" \"select_label_01\" \"お姉ちゃんに勝ってるよ…破壊力\" \"select_label_02\" \"その爆発力…お姉ちゃんよりスゴイよ\" \"select_label_03\"\nめ！だよ！\n\n# face 201711 \"surprise\"\n# label \"select_label_01\"\n# labeljump \"select_label_end\"\n@ヤグルシ\n…え？攻撃力ぅ…？なにが…？\n\n# face 201711 \"surprise\"\n# label \"select_label_02\"\n# labeljump \"select_label_end\"\n@ヤグルシ\n…え？破壊力ぅ…？どゆこと？\n\n# face 201711 \"surprise\"\n# label \"select_label_03\"\n# labeljump \"select_label_end\"\n@ヤグルシ\n…え？爆発力ぅ…？え？下…？\n\n# face 201711 \"normal\"\n# label \"select_label_end\"\n# voice 2017 \"yagurushi_0039\"\n@ヤグルシ\nあ〜、ほんとだ〜っ！！\nこれ、ヤグがやったの！？\nすご〜い！！\n\n@ヤグルシ\nねぇ、マスター！\nヤグの新しい必殺技できたよ！\n\n#se \"SE_0602\"\n# face  201711 \"smile\"\n@ヤグルシ\nその名も…\n『ビッグバズーカ』！！\n\n# textflame 0 0\n@\n元々、潜在能力は高かった彼女\n眠りという無の境地で\n才能が開花したのか…\n\n# textflame 0 0\n@\nそれはまさしく、\n彼女が新たなるスキルに\n目覚めた瞬間だった\n\n# textflame 1 1\n# textboxarrow 0 2\n# voice 2017 \"yagurushi_0004\"\n@ヤグルシ\n“果報は寝て待て”って\n本当だったんだね〜♪\n\n# face 201711 \"normal\"\n@ヤグルシ\nなにをやってもお姉ちゃんには\n勝てないって思ってたけど…\nなんだか自信湧いてきちゃった！\n\n# face 201711 \"usual\"\n# voice 2017 \"yagurushi_0040\"\n@ヤグルシ\nよ〜し、こうなったら！\n\n# textflame 0 0\n@\n特訓再開？と身を乗り出すマスター\n\n# face 201711 \"smile\"\n# textflame 1 1\n# textboxarrow 0 2\n@ヤグルシ\nお昼寝再開！！\n\n# textflame 0 0\n@\nガクッっとずっこける\n\n# face 201711 \"irregular\"\n# textflame 1 1\n# textboxarrow 0 2\n# voice 2017 \"yagurushi_0020\"\n@ヤグルシ\nだって〜今ので疲れちゃったし〜\nそれに、寝て待った方が\nいいことあるってわかったし♪\n\n# face 201711 \"usual\"\n@ヤグルシ\nということだから…\nマスターも一緒に寝る？\n\n# textflame 0 0\n@\n芝生にゴロンと寝転がる彼女\nその目は、どこまでも甘えん坊で\n憎めない可愛らしさがあった\n\n# imageset 0 \"c201711\"\n# imagealpha 0 0 0\n# imagepos 0 0 0\n# textflame 1 1\n# textboxarrow 0 2\n# voice 2017 \"yagurushi_0001\"\n@ヤグルシ\nへへ〜♪ヤグ、今日は\nお姉ちゃんじゃなくて、\nマスターに甘えよっかな〜♪\n\n# voice 2017 \"yagurushi_kyara_0017\"\n# imagealpha 0 1 0\n# imagepos 0 0 0\n# fadein \"white\" 3\n# textwindow \"close\"\n\n"
	}
]