[
	{
		"ID": 20192202,
		"script": ";;【EP2】（ウケ）\n# script \"lisp\"\n# background \"town\"\n# bgm \"bgm002\" 0\n# body 201921\n# mask 201921 off\n# pos 201921 3\n# textflame 1 1\n# textboxarrow 0 2\n# chara 201921\n# face 201921 \"surprise\"\n@シユウ\nたすけをよぶこえがするぞ！！\n\n# textflame 0 0\n@\nそう言ったかと思うと、\n突然駆け出すシユウ\n\n@\n子どもとは思えぬ脚力に\n必死に付いて行くマスター\n\n# textflame 1 1\n# textboxarrow 0 2\n# chara 201921\n# voice 2019 \"chihyu_0023\"\n@シユウ\nあ！あのこなのだ！！\nたすけをもとめていたのは！！\n\n# textflame 0 0\n@\nシユウが指さした先には…\n\n# se \"SE_0662\"\n@\nにゃぁ…\n\n@\nと心細そうに鳴く子猫が\n\n# textflame 1 1\n# textboxarrow 0 2\n# chara 201921\n# voice 2019 \"chihyu_0005\"\n# face 201921 \"normal\"\n@シユウ\nたかいたてものにのぼったけど、\nおりられなくなったんだな！\nこどものころには、よくあるのだ！！\n\n# textflame 0 0\n@\nお前も子どもだろ！\nと、心の中でツッコむマスター\n\n# textflame 1 1\n# textboxarrow 0 2\n# chara 201921\n# voice 2019 \"chihyu_battle_0003\"\n@シユウ\nまかせるのだ！\nシユウがいま…\nたすけてあげるのだ～っ！！\n\n# textflame 0 0\n@\nぶん！と、\n大斧を振り上げるシユウ\n\n# select \"塔ごと切り倒すつもり！？\" \"select_label_01\" \"そんなことしちゃダメだよ！\" \"select_label_02\" \"むちゃくちゃだよ、シユウ！\" \"select_label_03\"\nぶん！と、\n大斧を振り上げるシユウ\n\n# label \"select_label_01\"\n# labeljump \"select_label_end\"\n# textflame 1 1\n# textboxarrow 0 2\n# face 201921 \"surprise\"\n# chara 201921\n@シユウ\nそのと～り！！…え？ダメ？\n\n# label \"select_label_02\"\n# labeljump \"select_label_end\"\n# textflame 1 1\n# textboxarrow 0 2\n# face 201921 \"surprise\"\n# chara 201921\n@シユウ\nなんで？どうして？なんで！？\n\n# label \"select_label_03\"\n# labeljump \"select_label_end\"\n# textflame 1 1\n# textboxarrow 0 2\n# face 201921 \"surprise\"\n# chara 201921\n@シユウ\nなにがむちゃくちゃなのだ！？\n\n# label \"select_label_end\"\n# textflame 0 0\n@\nマスターに止められ、\n斧をおろすシユウ\n\n@\n発想のむちゃくちゃさまで、\nこっちのシユウと同じだな…\n額に汗を垂らすマスター\n\n# textflame 1 1\n# textboxarrow 0 2\n# chara 201921\n# face 201921 \"angry\"\n# voice 2019 \"chihyu_0013\"\n@シユウ\nじゃあ、どうすればいいのだ？\n\n@シユウ\nあんなとこまで、\nのぼっていけないぞ？\n\n# textflame 0 0\n@\nにゃぁ…と鳴き続けている子猫\n\n# textflame 1 1\n# textboxarrow 0 2\n# chara 201921\n# face 201921 \"angry\"\n@シユウ\nねこちゃん、かわいそうなのだ！\nますた～！どうすればいい！？\n\n# textflame 0 0\n@\nう～ん…\n解決策を練ろうとした瞬間\n\n# textflame 1 1\n# textboxarrow 0 2\n# face 201921 \"surprise\"\n# chara 201921\n@シユウ\n…あ！\n\n@シユウ\n思い出した！！\n\n# textflame 0 0\n@\nえ？なにを…？\n別世界での…記憶？\nマスターが尋ねる\n\n# textflame 1 1\n# textboxarrow 0 2\n# chara 201921\n# face 201921 \"normal\"\n# voice 2019 \"chihyu_0032\"\n@シユウ\nこのやりかたなら…\nねこちゃんをたすけられるのだ！！\n\n# textflame 0 0\n@\n大きな瞳が爛々と輝き始めた"
	}
]