[
	{
		"ID": 20202204,
		"script": ";;【EP4】\n# script \"lisp\"\n# background \"classroom03_daytime\"\n# bgm \"bgm003\" 0\n# body 202021\n# pos 202021 3\n# mask 202021 off\n# alpha 202021 0 0\n# face 202021 \"angry\"\n# textflame 0 0\n@\n三時間後――\n\n@\n健闘むなしく\nマスターはあと一歩のところで\n解答にたどり着かなかった…\n\n# alpha 202021 1 0.5\n# textflame 1 1\n# textboxarrow 0 2\n# chara 202021\n@ハルパー\nタイムリミットです\nいくらとことんとはいえ\nこれ以上残すわけにはいきません\n\n# textflame 0 0\n@\nマスターは自分の\n不甲斐なさを嘆くも\n次こそは…と意欲を見せた\n\n# textflame 1 1\n# textboxarrow 0 2\n# chara 202021\n# face 202021 \"usual\"\n@ハルパー\n初めからそうしていれば\n私の貴重な時間を費やす必要も\nなかったのですがね\n\n# face 202021 \"normal\"\n# voice 20202 \"harpe_0005\"\n@ハルパー\nやはりあなたの考え方を\nバッキバキに折って\n叩き直すべきでした\n\n@ハルパー\n…………\n\n# face 202021 \"sad\"\n# voice 20202 \"harpe_0019\"\n@ハルパー\n少し私になじられた程度で\nそのザマですか？\n\n@ハルパー\n情けない…\n絶対に解くと言った勢いは\nどこにいったのです？\n\n# textflame 0 0\n@\nたしかにその通りなのだが\nマスターはハルパーに\n迷惑をかけたことを悔やんでいた\n\n# textflame 1 1\n# textboxarrow 0 2\n# chara 202021\n# voice 20202 \"harpe_0009\"\n@ハルパー\n…まさか\n私の時間を使ったことを\nくよくよしているのでは？\n\n# face 202021 \"angry\"\n@ハルパー\nそういう安い気遣いは不快なので\n即刻撤回してください\n\n@ハルパー\n貫くなら貫く\nできないなら諦める\n\n@ハルパー\n半端者は好きません\n退学ものです\n理事長に直談判します\n\n# textflame 0 0\n@\nハルパーにまくしたてられて\nマスターの弱気は吹き飛んでいた\n\n@\nみるみる目に光が宿るマスターを見て\nハルパーはため息をついた\n\n# textflame 1 1\n# textboxarrow 0 2\n# chara 202021\n# face 202021 \"sad\"\n# voice 20202 \"harpe_0019\"\n@ハルパー\n…今度こそ心を折ってやろうと\n言ったつもりなのですが…\nなぜ元気になるのやら…\n\n# face 202021 \"happy\"\n# voice 20202 \"harpe_0005\"\n@ハルパー\nやっぱりあなたは\nこういうのが好きな変態なんですね\n教師として嘆かわしい\n\n# se \"SE_0602\"\n@ハルパー\n『星心イノセンス』\nまぁ、これも指導法の一つとして\n受け入れるとしましょう…\n\n# textflame 0 0\n@\nそれはまさしく\n彼女が新たなスキルに\n目覚めた瞬間だった\n\n# textflame 1 1\n# textboxarrow 0 2\n# chara 202021\n# face 202021 \"happy\"\n# voice 20202 \"harpe_0004\"\n@ハルパー\nあなたの場合、なじりになじって\n退路を絶った方が\n底力を発揮するようですから\n\n# face 202021 \"normal\"\n@ハルパー\nこれからも思う存分\n歯に衣を着せずに\n指導させていただきますね\n\n# textflame 0 0\n@\nうれしいような、怖いような…\nマスターは苦笑いするしかなかった\n\n# face 202021 \"usual\"\n# textflame 1 1\n# textboxarrow 0 2\n# chara 202021\n@ハルパー\nさて、今後の指導方針も\n固まったところで…\n\n@ハルパー\n私にここまで時間を使わせた\n責任について追求していきましょう\n\n# face 202021 \"normal\"\n# voice 20202 \"harpe_0005\"\n@ハルパー\nまさか、謝って済むなんて…\n思っていませんよね？\n\n# textflame 0 0\n@\nハルパーの目が\nマジである……\n\n# face 202021 \"angry\"\n# voice 20202 \"harpe_0007\"\n# textflame 1 1\n# textboxarrow 0 2\n# chara 202021\n@ハルパー\n言い出したのは私とはいえ\nこんな時間まで残ることになったのは\n一体誰のせいです？\n\n@ハルパー\n…あなたです\n\n@ハルパー\nタイム・イズ・マネー\n時は金なり、です\nとても、貴重なものですね？\n\n# face 202021 \"happy\"\n@ハルパー\nとはいえ、教師が生徒に\n金品を要求するわけには…\nいきませんよね？\n\n# textflame 0 0\n@\nジリジリと寄ってくるハルパーに\n後退りするマスター…\n\n# textflame 1 1\n# textboxarrow 0 2\n# chara 202021\n# imageset 0 \"c202021\"\n# imagealpha 0 0 0\n# voice 20202 \"harpe_0005\"\n@ハルパー\nでは、ない頭で一生懸命考えなさい\n物事には対価が付きまとうのですから\n\n# imagealpha 0 1 0\n# imagepos 0 0 0\n# fadein \"white\" 3\n# textwindow \"close\"\n# voice 20202 \"harpe_g_unit_0006\"\n;;さて、この無駄な時間をどう償ってくれるのかしら？"
	}
]