[
	{
		"ID": 20241203,
		"script": ";;【EP3】（オチ）town, bgm002\n# script \"lisp\"\n# background \"town\"\n# bgm \"bgm002\" 0\n# body 202411\n# pos 202411 3\n# mask 202411 off\n# face 202411 \"sad\"\n# textflame 0 0\n@\nあれから少し経って…\n\n# textflame 1 1\n# textboxarrow 0 2\n# chara 202411\n# voice 2024 \"rosa_0027\"\n@ローザ\n………\n\n# textflame 0 0\n@\n池のほとりで\n一人佇んでいるローザ\n\n# textflame 1 1\n# textboxarrow 0 2\n# chara 202411\n# face 202411 \"surprise\"\n@ローザ\n…あ\n\n# textflame 0 0\n@\nそこにマスターが現れる\n\n# textflame 1 1\n# textboxarrow 0 2\n# chara 202411\n# face 202411 \"angry1\"\n@ローザ\n…なによ？\n\n# textflame 0 0\n@\nはい、これ\nと先程の噴水の薔薇を\n手渡すマスター\n\n# textflame 1 1\n# textboxarrow 0 2\n# chara 202411\n# voice 2024 \"rosa_0007\"\n# face 202411 \"sad\"\n@ローザ\n…もういいわよ\nそんな花\n\n# textflame 0 0\n@\n良くないよ、この赤と黒の薔薇は…\n僕を試しただけじゃなく、\n君が本当に好きな花なんでしょ？\n\n# textflame 1 1\n# textboxarrow 0 2\n# chara 202411\n# voice 2024 \"rosa_0022\"\n# face 202411 \"surprise\"\n@ローザ\n…！\nどうして、それを…？\n\n# textflame 0 0\n@\nだって着ている洋服も\n「赤と黒」だし\n\n# textflame 0 0\n@\nそれに、今日買った小物も\nその色の組み合わせだったし\n…と、マスターが答える\n\n# textflame 1 1\n# textboxarrow 0 2\n# chara 202411\n@ローザ\nそんなとこまで\n…見てたの？\n\n# textflame 0 0\n@\n隊の子の好みは知っとかないとね\n怒らせた時に機嫌を取るために\n\n# textflame 0 0\n@\n二カッと笑うマスター\n\n# textflame 1 1\n# textboxarrow 0 2\n# chara 202411\n# face 202411 \"sad\"\n@ローザ\n随分、正直に言うのね…\nでも、そういうの…\n\n# chara 202411\n# voice 2024 \"rosa_0004\"\n# face 202411 \"happy\"\n@ローザ\nいい心がけよ\n\n# textflame 0 0\n@\n生意気な口調ながらも、\n初めて彼女が微笑んだ\n\n# textflame 1 1\n# textboxarrow 0 2\n# chara 202411\n# face 202411 \"sad\"\n@ローザ\n私のお父様とお母様は…\nウソばっかりついてたわ\n\n# chara 202411\n@ローザ\n買い物や食事に行く約束をしても\n果たされた試しがないの…\n「忙しい」って言ってばっかで…\n\n# textflame 0 0\n@\nそれは多分…\nきっと本当に忙しかったんだよ\nと、マスターが答える\n\n# textflame 1 1\n# textboxarrow 0 2\n# chara 202411\n@ローザ\n…わかってるわよ、そんなの…\nでも…\n\n# select \"本当は寂しかっただけなんだよね？\" \"select_label_01\" \"少し…甘えたかっただけなんだよね？\" \"select_label_02\" \"愛情を感じたかっただけなんだよね？\" \"select_label_03\"\n…わかってるわよ、そんなの…\nでも…\n\n# label \"select_label_01\"\n# labeljump \"select_label_end\"\n# textflame 1 1\n# textboxarrow 0 2\n# chara 202411\n# face 202411 \"angry1\"\n@ローザ\nまた…分かったようなこと言って…\n\n# label \"select_label_02\"\n# labeljump \"select_label_end\"\n# textflame 1 1\n# textboxarrow 0 2\n# chara 202411\n# face 202411 \"angry1\"\n@ローザ\n貴方になにが分かるって言うの…？\n\n# label \"select_label_03\"\n# labeljump \"select_label_end\"\n# textflame 1 1\n# textboxarrow 0 2\n# chara 202411\n# face 202411 \"angry1\"\n@ローザ\n…人の心にズカズカ踏み込んで…\n\n# label \"select_label_end\"\n# fadein \"black\" 0.7\n# textflame 1 1\n# textboxarrow 0 2\n# chara 202411\n# voice 2024 \"rosa_0009\"\n# face 202411 \"angry2\"\n@ローザ\nその首…！\n\n# textflame 0 0\n@\nあ、ごめんなさい！お嬢様！！\n出過ぎたことを言って…！\nこれはほんのお詫びです\n\n# textflame 0 0\n@\n…と、赤と黒の薔薇を差し出す\n\n# textflame 1 1\n# textboxarrow 0 2\n# chara 202411\n# voice 2024 \"rosa_0022\"\n# face 202411 \"surprise\"\n@ローザ\n…！\n\n# chara 202411\n# voice 2024 \"rosa_0027\"\n# face 202411 \"sad\"\n@ローザ\n…もう…\n貴方といると\n調子が狂うわ\n\n# textflame 0 0\n@\nお父様とお母様の代わりには\nなれないけど…\n僕はずっと一緒にいるよ\n\n# textflame 1 1\n# textboxarrow 0 2\n# chara 202411\n# face 202411 \"surprise\"\n@ローザ\n…！\n\n# textflame 0 0\n@\n…って言っても、まぁ…\n同じ隊にいるから\n当たり前のことなんだけど\n\n# textflame 1 1\n# textboxarrow 0 2\n# chara 202411\n@ローザ\nそ、そうよ…！それなのに…\nさも偉いみたいな言い方して…！\n\n# chara 202411\n# face 202411 \"usual\"\n@ローザ\nでも…\n\n# se \"SE_0602\"\n# fadein \"white\" 2\n# textflame 0 0\n@\n次の瞬間、光に包まれる彼女の体\nそれは新奥義『闇珠-斬-』に\n目覚めた瞬間だった\n\n# textflame 1 1\n# textboxarrow 0 2\n# chara 202411\n# face 202411 \"shy\"\n@ローザ\nねぇ、今の言葉\n「ずっと一緒にいる」って…\n本当？\n\n# fadein \"black\" 0.7\n# chara 202411\n# face 202411 \"normal\"\n@ローザ\nもし破ったら…\nその首、飛ばすからね？\n\n# textflame 0 0\n@\nかしこまりました、お嬢様！\n\n# textflame 1 1\n# textboxarrow 0 2\n# chara 202411\n# voice 2024 \"rosa_0004\"\n# face 202411 \"happy\"\n@ローザ\nいい心がけよ\n\n# textflame 0 0\n# imageset 0 \"c202411\"\n# imagealpha 0 0 0\n@\nバラを見つめ、\n優しく微笑むローザだった\n\n;;音声：ローザ「これは契約よ」\n;;音声ID：rosa_kyara_0026\n# imagealpha 0 1 0\n# imagepos 0 0 0 \n# voice 2024 \"rosa_kyara_0026\"\n# fadein \"white\" 3\n# textwindow \"close\"\n"
	}
]