[
	{
		"ID": 20261202,
		"script": ";;【EP2】(ウケ)\n# script \"lisp\"\n# background \"town\"\n# bgm \"bgm002\" 0\n# body 202611\n# pos 202611 3\n# mask 202611 off\n# alpha 202611 0 0\n# textflame 0 0\n@\nカン！カン！カン！\n\n@\n金属を強く叩く音が聞こえてくる\n\n# alpha 202611 1 0.5\n# textflame 1 1\n# textboxarrow 0 2\n# chara 202611\n# face 202611 \"angry\"\n@ミウナ\n…なに？\n\n# textflame 0 0\n@\nさっきのこと、謝ろうと思って\n…とマスターが顔を覗かせる\n\n# textflame 1 1\n# textboxarrow 0 2\n# chara 202611\n# face 202611 \"sad\"\n# voice 2026 \"miuna_0028\"\n@ミウナ\nいや…アタシこそ\n\n@ミウナ\n昔からよく父と比べられたり…\n刀鍛冶は女の住む世界じゃないとか\n言われたりしてきたから…\n\n# voice 2026 \"miuna_0031\"\n@ミウナ\nつい、ムキになっちゃって…\nゴメンね\n\n# textflame 0 0\n@\n素直に謝罪の言葉を述べるミウナ\n\n# select \"どうして鍛冶師を志したの？\" \"select_label_01\" \"お父さんの後を継ぎたかったの？\" \"select_label_02\" \"色々言った人を見返したかったの？\" \"select_label_03\"\n素直に謝罪の言葉を述べるミウナ\n\n# label \"select_label_01\"\n# labeljump \"select_label_end\"\n# textflame 1 1\n# textboxarrow 0 2\n# chara 202611\n@ミウナ\nどうして…か\n\n# label \"select_label_02\"\n# labeljump \"select_label_end\"\n# textflame 1 1\n# textboxarrow 0 2\n# chara 202611\n@ミウナ\nう～ん、それもあるけど…\n\n# label \"select_label_03\"\n# labeljump \"select_label_end\"\n# textflame 1 1\n# textboxarrow 0 2\n# chara 202611\n@ミウナ\nふふ、そうかも…でも…\n\n# label \"select_label_end\"\n# textflame 1 1\n# textboxarrow 0 2\n# chara 202611\n# face 202611 \"usual\"\n@ミウナ\nアタシはね…\n\n@ミウナ\n世界を平和に導きたいとか\n悪をこの世からなくしたいなんて\n大層なことは思っちゃいないの\n\n# face 202611 \"sad\"\n@ミウナ\n正義の味方って柄じゃないしね\nでもね…\n\n@ミウナ\n正義を守って来た…\n正義を貫いてきた奴らを\n見てきたから…\n\n# face 202611 \"smile\"\n# voice 2026 \"miuna_0004\"\n@ミウナ\nそんな奴らが大好きなんだ\n\n@ミウナ\nだから\nそういう人達に使ってもらえる\n武器を作りたい\n\n@ミウナ\nこの世界にいる\nキル姫と呼ばれる\n連中も…\n\n# face 202611 \"normal\"\n# voice 2026 \"miuna_0003\"\n@ミウナ\nみんな女だけど\nそういう奴ばっかだろ\n\n@ミウナ\nアタシはね…\nそんな奴らの\n手助けをしたいんだ\n\n# imageset 0 \"black\"\n# imagealpha 0 0 0\n# imagelayer 0 1\n# textflame 0 0\n@\nそう言った彼女の目は\n剣と同じくらいに光り輝いていた\n\n;;――場面転換――\n# imagealpha 0 1 0\n# imagepos 0 0 30\n# imageleftin 0 0.5\n# serif 0\n# textwindow \"close\"\n# serif 1\n# textwindow \"close\"\n# waitandnext 1\n\n# imagealpha 0 0 0.5\n# imagerightout 0 0.5\n# serif 0\n# textwindow \"nomal\"\n@\nそんな、ある日─\n\n# textflame 1 1\n# textboxarrow 0 2\n# chara 202611\n# face 202611 \"surprise\"\n# voice 2026 \"miuna_0023\"\n@ミウナ\n…なんだって！？\n\n# textflame 0 0\n@\n戦闘で負傷し\n運び込まれてきた\n一人のキル姫\n\n# textflame 1 1\n# textboxarrow 0 2\n# chara 202611\n# face 202611 \"sad\"\n@ミウナ\nアタシが打った剣が折れて\nこんな事に…\n\n# face 202611 \"angry\"\n# voice 2026 \"miuna_0018\"\n@ミウナ\nくそっ！アタシが未熟だから…！\n\n# textflame 0 0\n@\nあなたのせいじゃない\n相手が強過ぎただけよ！\n…とミウナに告げる仲間達\n\n# textflame 1 1\n# textboxarrow 0 2\n# chara 202611\n# face 202611 \"sad\"\n# voice 2026 \"miuna_0015\"\n@ミウナ\n…で、でも…\n…アタシの打った…剣のせいで… \n\n# textflame 0 0\n@\nまずは悔しさが先に立ったミウナだが\n次第に仲間が傷ついてしまったことに\n責任を感じ、落ち込んでいった…"
	}
]