[
	{
		"ID": 20281121,
		"script": ";;■デュリン・キャラクエ\n;;【ＥＰ１】\n# script \"lisp\"\n# background \"town\"\n# bgm \"bgm002\" 0\n# body 202811\n# pos 202811 4\n# scale 202811 0.8 0\n# alpha 202811 1 0\n# face 202811 \"normal\"\n# body 24\n# pos 24 2\n# scale 24 0.8 0\n# alpha 24 1 0\n# face 24 \"surprise\"\n# mask 202811 off\n# mask 24 off\n# textflame 1 1\n# textboxarrow 0 3\n# voice 9999 \"durin_0043\"\n@デュリン\nほら、ティルフィング！\n早く、早く！\n\n# textboxarrow 0 1\n# face 24 \"surprise\"\n@ティルフィング\n待ってください\nデュリン\n\n# alpha 202811 0 0.5\n# alpha 24 0 0.5\n# textflame 0 0\n@\nいつもの如く、今日も\nティルフィングの世話を焼いている\nデュリン\n\n@\nお世話というより、\nどちらかと言うと…\n\n# scale 202811 1 0\n# move 202811 3 0\n# alpha 202811 1 0.5\n# textflame 1 1\n# textboxarrow 0 2\n# face 202811 \"usual\"\n# voice 9999 \"durin_0065\"\n@デュリン\nほら、ティルフィング！\nそろそろご飯の時間よ！\n準備しなきゃ！\n\n# textboxarrow 0 0\n# alpha 202811 0 0.5\n# waitandnext 1\n\n# textboxarrow 0 2\n# alpha 202811 1 0.5\n# face 202811 \"normal\"\n# voice 9999 \"durin_0064\"\n@デュリン\nさあ、ティルフィング！\n食後の休憩を取ったら、\n早速鍛錬よ！！\n\n# textboxarrow 0 0\n# alpha 202811 0 0.5\n# waitandnext 1\n\n# textflame 0 0\n@\n周りから見れば、\nティルフィングに口やかましく\n指示しているように見える\n\n@\n少し気になったマスターが\nデュリンにそのことを話してみるも…\n\n# alpha 202811 1 0.5\n# textflame 1 1\n# textboxarrow 0 2\n# face 202811 \"usual\"\n# voice 9999 \"durin_0009\"\n@デュリン\nなに言ってんのよ！\nアタシはティルフィングのためを\n思って言ってんだから！\n\n@デュリン\n常に強くあり続けるには、\n必要なことでしょ！？\n\n# face 202811 \"normal\"\n# voice 9999 \"durin_0007\"\n@デュリン\nさ、ティルフィング！\n鍛錬が終わったら\nお風呂に入るわよ！\n\n# alpha 202811 0 0.5\n# textflame 0 0\n@\n確かに彼女はティルフィングのことを\n大切に思っているし、\n\n@\nティルフィングも\nデュリンを信頼しているので\n問題はないか…と思うマスター\n\n@\nしかし、そんなある日、\nデュリンに対し…\n\n# alpha 202811 1 0.5\n# textflame 1 1\n# textboxarrow 0 2\n# face 202811 \"surprise\"\n# voice 9999 \"durin_0044\"\n@デュリン\n…ん？\n\n# textflame 0 0\n@\nちょっとティルフィングが\n可哀そうじゃない？\n…といった声や、\n\n@\nもう少し、自由にさせてあげたら\nといった声が\n他の姫から上がり始めたのだ\n\n# textflame 1 1\n# textboxarrow 0 2\n# face 202811 \"angry\"\n# voice 9999 \"durin_0050\"\n@デュリン\nうっさいわね！\n\n@デュリン\nアタシの方がティルフィングとは\n付き合いが長いんだから！\nアンタたちに何がわかんのよ！\n\n# textflame 0 0\n@\nと、反論\n\n@\n言い返された姫も\nそんなこと言って、苦労するのは\nティルフィングじゃん！\n\n@\nあなたは小さいから戦闘でも\n苦労するし、よくティルフィングに\n助けられてるし！と、\n\n@\nつい言ってしまい…\n\n# textflame 1 1\n# textboxarrow 0 2\n# face 202811 \"surprise\"\n# voice 9999 \"durin_0022\"\n@デュリン\n！！\n\n# face 202811 \"sad\"\n# voice 9999 \"durin_0015\"\n@デュリン\nなんですって…\n\n# textflame 0 0\n@\nご、ごめん…\nデュリンを傷つけてしまったと、\n自分の言葉に後悔する姫\n\n@\n……が、\n\n# textflame 1 1\n# textboxarrow 0 2\n# face 202811 \"angry\"\n# voice 9999 \"durin_0061\"\n@デュリン\nアタシのこと…\nチビって言いたいの！？\nアンタがデカイのよ！\n\n@デュリン\nアタシだってアンタたちくらい\nデカければ、もっともっと敵を\n倒しまくってるんだから～！！\n\n# textflame 0 0\n@\n傷ついたどころか、\nむしろ強気でその姫の頭を\nポカポカと殴る\n\n# textflame 1 1\n# textboxarrow 0 2\n# voice 9999 \"durin_0029\"\n@デュリン\nこの～！ふざけんな～！！\n\n# textflame 0 0\n@\nごめん！ごめんって！\nと謝る姫\n\n# alpha 202811 0 0.5\n# move 24 3 0\n# alpha 24 1 0.5\n# textflame 1 1\n# textboxarrow 0 2\n@ティルフィング\nや、やめてください、デュリン！\n\n# textflame 0 0\n@\n見かねたティルフィングが\n仲裁に入るも、\nデュリンの怒りは収まらず、\n\n# alpha 24 0 0.5\n# alpha 202811 1 0.5\n# textflame 1 1\n# textboxarrow 0 2\n# voice 9999 \"durin_0050\"\n@デュリン\n鼻にナッツつっこむわよ！！\n\n# textflame 0 0\n@\n暴れ回るデュリン\n\n# textflame 0 0\n@\n…と、そこにマスターが\nなにやらブツブツ言いながら、\nやってきた\n\n# textflame 1 1\n# textboxarrow 0 2\n# voice 9999 \"durin_0029\"\n@デュリン\nふんぬ～！！\n\n# alpha 202811 0 0.5\n# alpha 24 1 0.5\n@ティルフィング\nマスター、なんとかしてください！\n\n# alpha 24 0 0.5\n# alpha 202811 1 0.5\n# voice 9999 \"durin_0009\"\n@デュリン\nなによ、ティルフィングまで！\nだって、コイツが…！\n\n# textflame 0 0\n@\nう～ん…でもデュリンは\n小さいからなぁ\nとマスター\n\n# textflame 1 1\n# textboxarrow 0 2\n# face 202811 \"surprise\"\n# voice 9999 \"durin_0022\"\n@デュリン\nなっ！！\n\n# textflame 0 0\n@\nブチィッ！\n彼女の血管が切れる音がした\n\n# textflame 1 1\n# textboxarrow 0 2\n# face 202811 \"usual\"\n@デュリン\nアンタになんか…\n\n# shake 1 2\n# se \"SE_0650\"\n# textwindow \"toge\"\n# textboxarrow 0 0\n# face 202811 \"angry\"\n@デュリン\n言われたくないわよ～っ！！\n\n# textwindow \"nomal\"\n# textflame 0 0\n@\nものすごい勢いで\nマスターの頭を\nポカポカ殴るデュリン\n\n# textflame 0 0\n@\nな、なんだ～！？\nと焦るマスター\n\n# alpha 202811 0 0.5\n# alpha 24 1 0.5\n# textflame 1 1\n# textboxarrow 0 2\n@ティルフィング\nデュリン！やめてください！\n\n# alpha 24 0 0.5\n# alpha 202811 1 0.5\n# voice 9999 \"durin_0061\"\n@デュリン\nもう！みんなで\nアタシをバカにして～！\n\n# textboxarrow 0 0\n# alpha 202811 0 1\n# waitandnext 1\n\n# textflame 0 0\n@\n怒り心頭\n\n# textflame 0 0\n@\n真っ赤な顔で、\nどこかに飛び去ってしまった"
	}
]