[
	{
		"ID": 210031102,
		"script": ";;EP2\n# script \"lisp\"\n# background \"sea_jungle_day\"\n# bgmfile \"bgm230\" \"BgmSeaEvent\" 0\n# body 2100311\n# pos 2100311 3\n# mask 2100311 off\n# scale 2100311 0.8 0\n# face 2100311 \"usual\"\n# eye 2100311 \"close\"\n# textflame 1 1\n# textboxarrow 0 2\n@デュランダル\n紅茶とぴったしのマカロンに\nマスターからいただいた\nティーカップ…\n\n# face 2100311 \"smile\"\n# eye 2100311 \"normal\"\n# voice 1003 \"durandaru_0020\"\n@デュランダル\nはぁ～、なんて幸せな時間…♪\n\n@デュランダル\nマスターも\nよろしければ\nおひとつどうぞ♪\n\n# select \"そんなに食べたら太るよ\" \"select_label_01\" \"じゃあ頂こうかな\" \"select_label_02\" \"せっかくだし泳がない？\" \"select_label_03\"\nマスターも\nよろしければ\nおひとつどうぞ♪\n\n# label \"select_label_01\"\n# labeljump \"select_label_end\"\n# face 2100311 \"sad\"\n# textflame 1 1\n# textboxarrow 0 2\n@デュランダル\nななな、なんてことをいうのです！\nだからといって\n今日は運動しないのです！\n\n# label \"select_label_02\"\n# labeljump \"select_label_end\"\n# face 2100311 \"usual\"\n# textflame 1 1\n# textboxarrow 0 2\n@デュランダル\nどうですか、マスター！\nえ？食べたら動いたほうがいい？\n今日は身を慎む日なのですよ？\n\n# label \"select_label_03\"\n# labeljump \"select_label_end\"\n# face 2100311 \"sad\"\n# textflame 1 1\n# textboxarrow 0 2\n@デュランダル\n今日はもう泳がないと決めたのです！\n\n# label \"select_label_end\"\n# face 2100311 \"usual\"\n# textflame 0 0\n@\n意地でも水に入ろうとしない彼女\nそんなに日焼けが嫌なのだろうか\n\n@\nあんなにはしゃいで\n遊んでる子供たちもいるのに\n\n@\n…あれ？\n\n# textflame 1 1\n# face 2100311 \"sad\"\n@デュランダル\n…！\nなにか様子がおかしいですわ\n\n# textflame 0 0\n@\nよくみると子供たちは\nはしゃいでるのではなく\n困って焦っているようだ\n\n# textflame 1 1\n@デュランダル\n大変！\nあんなに遠くまでビーチボールが\n風で流されているのです！\n\n# textflame 0 0\n@\n湖の中央の方まで流されている\nあれだけ遠くまでいったら\nもう取り戻すのは相当大変そうだ\n\n# textflame 1 1\n# voice 1003 \"durandaru_0015\"\n@デュランダル\nそんな…\nさっきまであんなに楽しく\n遊んでいたのに…\n\n# textflame 0 0\n@\n「せっかく遊びに来たのに…」\n遠くから子供たちの悲しそうな声が\n響いてくる\n\n@\nその声を聞いて\nデュランダルは決断した\n\n# face 2100311 \"angry\"\n# textflame 1 1\n@デュランダル\n人が悲しんでいる姿は\n見過ごせないのです\n\n@デュランダル\nええ、そうです…\nだって、わたくしは\n淑女なのですもの！\n\n# eye 2100311 \"close\"\n# face 2100311 \"usual\"\n# textflame 0 0\n@\nデュランダルはぎゅっと拳を握り\n軽く身体を動かして深呼吸をする\n\n# eye 2100311 \"normal\"\n# textflame 1 1\n@デュランダル\n…マスター\nマカロンが風で落ちないよう\nしっかり見張ってて欲しいのです！\n\n# textflame 0 0\n@\n彼女はそういいながら\n気品あふれる凛々しい一歩を\nパラソルの外へ踏み出す\n\n@\nそして\n目にも止まらぬ速さで駆け抜けると\n颯爽と湖へ飛び込んだ\n"
	}
]