[
	{
		"ID": 210081103,
		"script": ";;【EP3】\n# script \"lisp\"\n# background \"sea_resort_day\"\n# bgmfile \"bgm234\" \"BgmSeaEventBattle\" 0\n# body 2100811\n# pos 2100811 3\n# mask 2100811 off\n# textflame 1 1\n# textboxarrow 0 2\n# chara 2100811\n# voice 1008 \"guramu_0017\"\n# face 2100811 \"sad\"\n@グラム\nせっかくプールに来たのに\n異族が出てくるなんて…\n\n# face 2100811 \"normal\"\n@グラム\nでも、今ので大体は倒せたね\nこれで安心…\n\n@グラム\n…ううん、まだ油断はできないよね\nどこかに残ってるかも…\nちゃんと確認しないと\n\n# serif 1\n# textwindow \"nomal\"\n# textboxarrow 1 0\n@女の子\nきゃあっ！　助けてー！\n\n# serif 1\n# textwindow \"close\"\n# serif 0\n# textwindow \"nomal\"\n# textflame 1 1\n# textboxarrow 0 2\n# chara 2100811\n# voice 1008 \"guramu_0023\"\n# face 2100811 \"sad\"\n@グラム\n悲鳴！？\nやっぱり異族が残って…！\n\n@グラム\nえ、あれって…\nさっきマスターと話してた女の子！？\n\n# textflame 0 0\n@\n女の子に、異族の残党が迫る\nマスターは助けに行こうとするが\n距離があって間に合いそうにない\n\n# textflame 1 1\n# textboxarrow 0 2\n# chara 2100811\n@グラム\nマスターじゃ無理だけど\n私の位置からなら…\n\n# voice 1008 \"guramu_0028\"\n@グラム\nでも…マスターが私をだまして\n内緒で会ってたような子を…\n\n# serif 1\n# textwindow \"nomal\"\n# textboxarrow 1 0\n@女の子\nきゃあああっ！\n\n# serif 1\n# textwindow \"close\"\n# serif 0\n# textwindow \"nomal\"\n# textflame 0 0\n@\n異族が、女の子に襲いかかろうと\n近づいていく\n\n# textflame 1 1\n# textboxarrow 0 2\n# chara 2100811\n# face 2100811 \"angry\"\n@グラム\n…ううん！\nどんな相手でも、放っておけない！\n助けなきゃ！\n\n# textflame 0 0\n@\nしかし、グラムが動き出した時には\n異族はもう女の子のすぐ\n目の前まで迫っていた\n\n# textflame 1 1\n# textboxarrow 0 2\n# chara 2100811\n# face 2100811 \"sad\"\n@グラム\n間に合わない…！？\n私が助けるのをためらったから…\n\n# voice 1008 \"guramu_0037\"\n# face 2100811 \"angry\"\n@グラム\nでも、ここで助けられなかったら\n絶対に後悔する…！\n\n@グラム\nだから\n私のありったけの力で…っ！\n\n# bgmfile \"bgm255\" \"BgmSeaDate\" 0\n# se \"SE_0602\"\n# voice 1008 \"guramu_0029\"\n@グラム\nいくよ…『水激竜昇』！\n\n;;//攻撃エフェクト\n# fadein \"white\" 0.5\n# shake 1 0.5\n# waitandnext 1\n\n# face 2100811 \"smile\"\n@グラム\nや…やったー！\nマスターのために頑張ったら\nなんとかなったよ！\n\n# voice 1008 \"guramu_0001\"\n@グラム\nマスター、見ててくれた！？\n\n# textflame 0 0\n@\n声をかけられたマスターだが、\n新技の威力に驚きすぎて\n固まっていた\n\n# textflame 1 1\n# textboxarrow 0 2\n# chara 2100811\n# face 2100811 \"sad\"\n@グラム\nあれ？　マスター、聞いてる？\n…返事してくれないなら、\nこうしちゃうからね\n\n# se \"SE_5647\"\n# textflame 0 0\n@\nバシャッ\n\n# textflame 0 0\n@\nグラムはマスターの顔に\n水をかけてきた\n\n# imageset 0 \"c2100811\"\n# imagealpha 0 0 0\n# textflame 0 0\n@\nそうしてマスターは\nやっと我に返って\nグラムの活躍をねぎらった\n\n# frameout 0 0.5\n# buttonsout 0 0.5\n# imagealpha 0 1 0\n# imagepos 0 0 0 \n# fadein \"white\" 3\n# textwindow \"close\"\n# voice 1008 \"guramu_unit_1013\"\n;;私がやるしかないじゃない！"
	}
]