[
	{
		"ID": 210041103,
		"script": ";;草薙剣_海上編_EP3\n;;背景:プール\n# script \"lisp\"\n# background \"sea_resort_day\"\n# bgmfile \"bgm234\" \"BgmSeaEventBattle\" 0\n# body 2100411\n# pos 2100411 3\n# mask 2100411 off\n# textflame 1 1\n# textboxarrow 0 2\n# chara 2100411\n# face 2100411 \"angry\"\n# voice 1004 \"kusanagi_0010\"\n@草薙剣\nまったく…\nまったく、マスターは！\n\n@草薙剣\n余に関する事なのに\n余が必死に葛藤しておったのに\n欠伸なんぞ…っ！\n\n# voice 1004 \"kusanagi_0014\"\n@草薙剣\nマスターは…\n余を敬う心が\n足りておらぬ！！\n\n# face 2100411 \"sad\"\n@草薙剣\nむ…なんじゃマスターか\nなにしに来たのじゃ？\n遊びはもういいと言ったはずじゃ\n\n# textflame 0 0\n@\nマスターは\n機嫌の悪い草薙剣に\nいい物を持ってきたと言う\n\n# textflame 1 1\n# textboxarrow 0 2\n# chara 2100411\n# face 2100411 \"angry\"\n# voice 1004 \"kusanagi_0013\"\n@草薙剣\nいい物じゃと？\nふん、そう言って\nどうせロクでもない物じゃろ\n\n@草薙剣\n人間なんてみんなそうじゃ\n本当に余が欲しい物なんて\n誰一人として…\n\n# textflame 0 0\n@\nまぁまぁと言って\n浮輪を取り出すマスター\n\n# textflame 1 1\n# textboxarrow 0 2\n# chara 2100411\n# face 2100411 \"sad\"\n# voice 1004 \"kusanagi_0023\"\n@草薙剣\n…なんじゃそれは？\n妙な形の風船か？\n\n# face 2100411 \"angry\"\n@草薙剣\nそんな物でいい物とは\n余も見くびられたものよの\n\n# voice 1004 \"kusanagi_0027\"\n@草薙剣\nまったく、マスターは…\n要件は終わりかの？\nじゃったら去るがいい\n\n# textflame 0 0\n@\n冷たく突き放す草薙剣に\n待ったをかける\n\n# textflame 1 1\n# textboxarrow 0 2\n# chara 2100411\n@草薙剣\nなんじゃ？\nまだ、なにか用があるのかの？\n\n# textflame 0 0\n@\nマスターは浮輪を使う事で\n水に浮く事ができるという\n説明をする\n\n# textflame 1 1\n# textboxarrow 0 2\n# chara 2100411\n# face 2100411 \"sad\"\n@草薙剣\nな、なんじゃと…？\nそれを、余のために\n持ってきたのかの？\n\n# textflame 0 0\n@\nもちろんだと草薙剣の\n発言を肯定するマスター\n\n;;文字小さく\n# bgmfile \"bgm255\" \"BgmSeaDate\" 0\n# textsize 18\n# textflame 1 1\n# textboxarrow 0 2\n# chara 2100411\n# face 2100411 \"smile\"\n@草薙剣\nマスターが余のために…\nそうかそうか…\n\n# textsize 24\n# face 2100411 \"normal\"\n# voice 1004 \"kusanagi_0021\"\n@草薙剣\nいや、なんでもないのじゃ\nそれにしても水に浮くとは\n凄いの！\n\n# textflame 0 0\n@\n水が怖いって\nたいがい溺れることへの\n恐怖心かなって思って\n\n# textflame 0 0\n@\nこれがあれば大丈夫だよ\n草薙剣に浮輪を手渡す\n\n# textflame 1 1\n# textboxarrow 0 2\n# chara 2100411\n# face 2100411 \"sad\"\n@草薙剣\nほ、ほんとうなのか…？\nこれがあれば…溺れない？\n水に…浮く…？\n\n# textflame 0 0\n@\nさっきは怒らせちゃってゴメン\nでも、信じてくれないかな？\nマスターがじっと見つめる\n\n# se \"SE_0602\"\n# textflame 1 1\n# textboxarrow 0 2\n# chara 2100411\n# face 2100411 \"normal\"\n# voice 1004 \"kusanagi_0029\"\n@草薙剣\nうう、余は…余は\nそちを信じるのじゃー！！\n『夏越烈風行軍』！\n\n# textflame 0 0\n@\nそれはまさしく\n彼女が新たなるスキルに\n目覚めた瞬間だった\n\n# textflame 0 0\n@\n…………\n\n# textflame 0 0\n@\nドーンと飛び込んでいくと思った\n草薙剣はまだプールサイドにいた\n\n# textflame 1 1\n# textboxarrow 0 2\n# chara 2100411\n# voice 1004 \"kusanagi_0036\"\n# face 2100411 \"normal\"\n@草薙剣\nコホン…では、マスター\nまた先に入っていてほしいのじゃ\n余をしっかり見守るためにじゃ！\n\n# textflame 0 0\n@\n了解、とマスターは\n草薙剣に言われた通りに\n先にプールに飛び込んだ！\n\n;;SE:ザバーン\n# se \"SE_0655\"\n# fadein \"white\" 0.5\n# shake 1 0.5\n# face 2100411 \"sad\"\n# textflame 0 0\n@\n勢いよく飛び込んだせいで\n大量の水しぶきが\n草薙剣にかかってしまった！！\n\n# imageset 0 \"c2100411\"\n# imagealpha 0 0 0\n# textflame 1 1\n# textboxarrow 0 2\n# chara 2100411\n# face 2100411 \"sad\"\n# voice 1004 \"kusanagi_0016\"\n@草薙剣\nぎゃあああああ！！\nやはり水は嫌なのじゃぁ！\n\n;;「水中用装備…!?よ、余は水が苦手…って、おい！手を引っ張るでない！」\n# frameout 0 0.5\n# buttonsout 0 0.5\n# voice 1004 \"kusanagi_event_0008\"\n# imagealpha 0 1 0\n# imagepos 0 0 0\n# fadein \"white\" 3\n# textwindow \"close\"\n"
	}
]