[
	{
		"ID": 210141104,
		"script": ";;■EP4\n# script \"lisp\"\n# background \"sea_beach_day\"\n# bgmfile \"bgm227\" \"BgmSeaEvent\" 0\n# body 2101411\n# pos 2101411 3\n# mask 2101411 off\n# textboxarrow 0 2\n# chara 2101411\n# alpha 2101411 0 0\n# textflame 0 0\n@\n数日後\nマスターはあるものを握りしめて\nティルフィングの元へ走っていた\n\n# face 2101411 \"sad\"\n# alpha 2101411 1 1\n# textflame 1 1\n# voice 1014 \"tyrufing_0001\"\n@ティルフィング\nマスター？\nどうしたんですか\nそんなに急いで…\n\n# textflame 0 0\n@\nマスターは手を開いて\nティルフィングにそれを見せる\n\n# textflame 1 1\n@ティルフィング\nこれは…！\n\n# textflame 0 0\n@\nさっきビーチを歩いていたら\nこの「願いがかなう貝殻」を\n見つけたのだ、とマスターは話す\n\n# face 2101411 \"smile\"\n# textflame 1 1\n# voice 1014 \"tyrufing_0021\"\n@ティルフィング\nすごいです…！\nまた見つかるなんて…！\n\n# textflame 0 0\n@\nマスターは、驚いている彼女に\n願い事があるんだろ？と\n貝殻を手渡す\n\n# textflame 1 1\n# voice 1014 \"tyrufing_0030\"\n@ティルフィング\nわ…！\nありがとうございます…！\n\n# face 2101411 \"normal\"\n# textflame 1 1\n@ティルフィング\nじゃあ、一緒にこの貝殻を\n海に投げ入れましょう！\n\n# textflame 0 0\n@\nマスターは、投げ入れる？と\n首を傾げる\n\n# textflame 1 1\n# voice 1014 \"tyrufing_0002\"\n@ティルフィング\nはい。この貝殻は\n願い事をして海に投げると\n願いがかなうと言われているんです\n\n# textflame 0 0\n@\nマスターは、なるほど、と納得\n二人で願い事をして\n貝殻を海に投げ入れることにする\n\n# face 2101411 \"smile\"\n# textflame 1 1\n@ティルフィング\nマスター、何を願いますか？\n\n# select \"みんなが幸せでいられるように\" \"select_label_01\" \"みんなが元気でいられるように\" \"select_label_02\" \"二人でまたいい思い出が作れるように\" \"select_label_03\"\nマスター、何を願いますか？\n\n# label \"select_label_01\"\n# labeljump \"select_label_end\"\n# textflame 1 1\n# textboxarrow 0 2\n@ティルフィング\nはい…！それが一番です…\n\n# face 2101411 \"normal\"\n# label \"select_label_02\"\n# labeljump \"select_label_end\"\n# textflame 1 1\n# textboxarrow 0 2\n@ティルフィング\nそうですね。怪我なく元気に…\n\n# label \"select_label_03\"\n# labeljump \"select_label_end\"\n# textflame 1 1\n# textboxarrow 0 2\n@ティルフィング\nマスター…！はい、そうですね…！\n\n# label \"select_label_end\"\n# textflame 0 0\n@\nマスターも、ティルフィングに\nどんな願い事をするの、と\n聞いてみる\n\n# eye 2101411 \"close\"\n# textflame 1 1\n# voice 1014 \"tyrufing_0003\"\n@ティルフィング\n私の願いは…\n\n# textflame 0 0\n@\nティルフィングは\nおずおずと口を開き…\n\n# eye 2101411 \"normal\"\n# face 2101411 \"normal\"\n# textflame 1 1\n@ティルフィング\nわ、私はマスターのことが…\n\n;;//ＳＥ：波音\n# se \"SE_5580\"\n# textflame 0 0\n@\nティルフィングが打ち明けようとした\nその時、大きな波音がして\n声がかき消されてしまう\n\n# textflame 0 0\n@\nマスターは\n願い事を聞き返すが…\n\n# face 2101411 \"sad\"\n# textflame 1 1\n@ティルフィング\nも…もういいじゃないですか\nさぁ、早く貝殻を投げましょう…！\n\n# textflame 0 0\n@\nティルフィングはそう言うと\n神妙な顔で大きく深呼吸をする\n\n# face 2101411 \"smile\"\n# textflame 1 1\n@ティルフィング\n私たちの願いが…\nどうかかないますように…！\n\n# textflame 0 0\n@\nティルフィングは真剣な面持ちで\n力いっぱい貝殻を投げる\n\n# se \"SE_0602\"\n# textflame 0 0\n@\nその時、ティルフィングの身体が光り\n新たな技『海浜ビーチ帝国の誇り』を\n会得した…！\n\n# face 2101411 \"normal\"\n# textflame 1 1\n# voice 1014 \"tyrufing_0001\"\n@ティルフィング\nマスター…\n\n# textflame 0 0\n@\nティルフィングは\nマスターに向き直ると\nまっすぐに見上げてくる\n\n# textflame 1 1\n# voice 1014 \"tyrufing_0003\"\n@ティルフィング\nこの力は…\n私の叶えたかった願いが\n届いたからかもしれません\n\n# textflame 1 1\n@ティルフィング\n私はこれからも\nアナタのそばで\nずっとアナタを守ります\n\n# face 2101411 \"smile\"\n# textflame 1 1\n@ティルフィング\nこの力で守り続けます！\n\n# textflame 0 0\n@\n誇らしげに話す彼女に\nマスターは\n頼りにしてるよ、と伝える\n\n# face 2101411 \"normal\"\n# textflame 1 1\n@ティルフィング\nお任せください\n以前も今も、この先もずっと…\n\n# imageset 0 \"c2101411\"\n# imagealpha 0 0 0\n# textflame 1 1\n@ティルフィング\n私はアナタの剣ですから…！\n\n;;【ボイス】\n;;ファイル名：tyrufing_kyara_0027\n;;「私…マスターが…私のマスターで本当によかったです」\n# voice 1014 \"tyrufing_kyara_0027\"\n# frameout 0 0.5\n# buttonsout 0 0.5\n# imagealpha 0 1 0\n# imagepos 0 0 0\n# fadein \"white\" 3\n# textwindow \"close\"\n"
	}
]