[
	{
		"ID": 210290071,
		"script": ";;2018エイプリルイベント_07《三国》戦闘前\n# script \"lisp\"\n# background \"sea_jungle_day\"\n# bgmfile \"bgm238\" \"BgmSeaEventBattle\" 0\n;;ムラマサ\n# body 41025001\n# pos 41025001 3\n# scale 41025001 0.8 0\n# alpha 41025001 0 0\n;;シャルウル\n# body 42007001\n# pos 42007001 3\n# scale 42007001 0.8 0\n# alpha 42007001 0 0\n;;フォルカス\n# body 43018001\n# pos 43018001 3\n# scale 43018001 0.8 0\n# alpha 43018001 0 0\n;;カラドボルグ\n# body 41026001\n# pos 41026001 4\n# scale 41026001 0.8 0\n# alpha 41026001 0 0\n;;ケラウノス\n# body 45001001\n# pos 45001001 3\n# scale 45001001 0.8 0\n# alpha 45001001 0 0\n;;アスカロン\n# body 41023001\n# pos 41023001 2\n# scale 41023001 0.8 0\n# alpha 41023001 0 0\n;;マサムネ\n# body 41001001\n# pos 41001001 4\n# scale 41001001 0.8 0\n# alpha 41001001 0 0\n;;メギド\n# body 45006001\n# pos 45006001 4\n# scale 45006001 0.8 0\n# alpha 45006001 0 0\n;;シストルム\n# body 46013001\n# pos 46013001 3\n# scale 46013001 0.8 0\n# alpha 46013001 0 0\n;;ティルフィング\n# body 41014095\n# pos 41014095 3\n# scale 41014095 0.8 0\n# alpha 41014095 0 0\n;;パラシュ\n# body 42004001\n# pos 42004001 5\n# scale 42004001 0.8 0\n# alpha 42004001 0 0\n# mask 41025001 off\n# mask 42007001 off\n# layer 43018001 5\n# layer 41023001 4\n# layer 41025001 3\n# layer 46013001 5\n# layer 41014095 1\n# layer 45006001 2\n# imageset 0 \"bg_black\"\n# imagelayer 0 1\n# imagealpha 0 0 0\n# imagescale 0 2 0\n# textflame 0 0\n@\nふくよか連合の一角、\n盟主の拠点にて―\n\n# imagepos 0 0 0\n# alpha 41025001 1 0.5\n# textflame 0 0\n@\n三国会談を行うべく\nマサムネを王国への使者とする\nムラマサ\n\n# textflame 0 0\n@\n共存の道を進むふくよか連合\nしかし、ダイナマイト帝国の進軍が\n始まる\n\n# textflame 1 1\n# textboxarrow 0 2\n@ムラマサ\nただちに国境の守りを固めて下さい\nただし、こちらから討って出ないよう\n\n# alpha 41025001 0 0.5\n# alpha 42007001 1 0.5\n# textflame 1 1\n# textboxarrow 0 2\n# voice 2007 \"sharuuru_0032\"\n@シャルウル\n承知しました\n\n;;//早送り演出\n;;//背景：ジャングル\n# se \"SE_0748\"\n# se \"bgm238_speedup\"\n# serif 0\n# textwindow \"close\"\n# envbody 1000 19 0\n# effectstart 1000\n# imagealpha 0 1 0.3\n# waitandnext 0.3\n\n# alpha 42007001 0 0\n# alpha 43018001 1 0\n# waitandnext 0.1\n\n# se \"SE_0749\"\n# se \"bgm238_default\"\n# imagealpha 0 0 0.3\n# waitandnext 0.3\n\n# bgmfile \"bgm236\" \"BgmSeaEventBattle\" 0\n# effectskip 1000\n# serif 0\n# textwindow \"normal\"\n# textflame 0 0\n@\n一方、連合へ攻め入ろうと考えていた\nフォルカスは\nムラマサからの書状に混乱していた\n\n# textflame 1 1\n# textboxarrow 0 2\n# voice 3018 \"forcas_0028\"\n@フォルカス\n会合ですか…\nそうですね\n受けましょう\n\n# alpha 42004001 1 0.5\n# move 42004001 4 0.5\n# move 43018001 2 0.5\n# textflame 1 1\n# textboxarrow 0 3\n# voice 2004 \"parashu_0011\"\n@パラシュ\nボクは反対だよ、陛下\n\n# textflame 1 1\n# textboxarrow 0 1\n@フォルカス\n…あなたの気持ちも分かるけれど、\n話し合いの余地は―\n\n# textflame 1 1\n# textboxarrow 0 3\n# voice 2004 \"parashu_0037\"\n@パラシュ\nそんな悠長なことを言っていたら\n…そうだ…この島は滅ぶんだよ！\n\n# se \"SE_0751\"\n# rightout 42004001 0.5\n# textflame 1 1\n# textboxarrow 0 1\n# voice 3018 \"forcas_0023\"\n@フォルカス\nパラシュッ！？\n\n# textflame 0 0\n@\n正気を失ったかのように\n走り去るパラシュ\n\n# alpha 41026001 1 0.5\n# textflame 1 1\n# textboxarrow 0 3\n@カラドボルグ\n大変よ、陛下！\nパラシュが隊を率いて突撃をっ！\n\n# textflame 1 1\n# textboxarrow 0 1\n# voice 3018 \"forcas_0009\"\n@フォルカス\n仕方ありませんっ…！\nこのまま攻撃を仕掛けます！\n\n;;//早送り演出\n;;//背景：プール\n# se \"SE_0748\"\n# se \"bgm236_speedup\"\n# serif 0\n# textwindow \"close\"\n# envbody 1001 19 0\n# effectstart 1001\n# imagealpha 0 1 0.3\n# waitandnext 0.3\n\n# background \"sea_resort_day\"\n# alpha 41026001 0 0\n# alpha 43018001 0 0\n# waitandnext 0.6\n\n# se \"SE_0749\"\n# se \"bgm236_default\"\n# imagealpha 0 0 0.3\n# waitandnext 0.3\n\n# bgmfile \"bgm234\" \"BgmSeaEventBattle\" 0\n# effectskip 1001\n# serif 0\n# textwindow \"normal\"\n# textflame 0 0\n@\n一方のぽっちゃり王国にも\n連合からの使者がやってくる\n\n# mask 45001001 off\n# alpha 45001001 1 0.5\n# textflame 1 1\n# textboxarrow 0 2\n# voice 5001 \"keraunosu_0002\"\n@ケラウノス\n盛り上がってるとこごめんね～\n連合からの使者が来たよ～？\n\n# alpha 45001001 0 0.5\n# alpha 41023001 1 0.5\n# alpha 41001001 1 0.5\n# textflame 0 0\n@\nケラウノスに連れられてきた\n連合の使者マサムネは、\n連合との同盟を打診する\n\n# textflame 0 0\n@\n対価は連合の食料\n\n# textflame 1 1\n# textboxarrow 0 1\n@アスカロン\n…わかりました\nそのかわり\n一つだけ約束してください\n\n# textflame 1 1\n# textboxarrow 0 1\n@アスカロン\n帝国への攻め方は\n私達が決めます\n\n# textflame 1 1\n# textboxarrow 0 3\n@マサムネ\n…それは当然のこと\n一切口を挟まぬ\n\n;;//マサムネ退場\n# se \"SE_0751\"\n# serif 0\n# textwindow \"close\"\n# move 41001001 5 0.5\n# alpha 41001001 0 0.5\n# waitandnext 1.5\n\n# alpha 45006001 1 0.5\n# serif 0\n# textwindow \"normal\"\n# textflame 1 1\n# textboxarrow 0 3\n# voice 5006 \"megido_0028\"\n@メギド\nよろしいのですか、陛下\nマサムネにはなにか企みが\nありそうですわ\n\n# textflame 1 1\n# textboxarrow 0 1\n# voice 1023 \"ascalon_0003\"\n@アスカロン\nはい…なので、\n急いで呼んできて欲しい方が…\n\n# mask 46013001 off\n# alpha 45006001 0 0.5\n# alpha 41023001 0 0.5\n# alpha 46013001 1 0.5\n# textflame 1 1\n# textboxarrow 0 2\n# voice 6013 \"sistrum_0005\"\n@シストルム\nボクがお役に立てると\n思うのにゃ！\n\n# alpha 45006001 1 0.5\n# alpha 41023001 1 0.5\n# alpha 46013001 0 0.5\n# textflame 1 1\n# textboxarrow 0 1\n# voice 1023 \"ascalon_0023\"\n@アスカロン\nシストルム！？\nどうして本棚の隙間に？\n\n# mask 46013001 on\n# alpha 46013001 1 0.5\n# move 45006001 5 0.5\n# move 41023001 1 0.5\n# textflame 1 1\n# textboxarrow 0 2\n# voice 6013 \"sistrum_0003\"\n@シストルム\nご主人様はなんでも\nお見通しなのにゃ\n\n;;//早送り演出\n;;//ここはフォントを変えて\n# textflame 0 0\n@\n※早送りの範囲が広いですが、\nバグではありません\n# se \"SE_0748\"\n# se \"bgm234_speedup\"\n# envbody 1002 19 0\n# effectstart 1002\n# imagealpha 0 1 0.3\n# waitandnext 0.3\n\n# background \"006_jail\"\n# alpha 45006001 0 0\n# alpha 41023001 0 0\n# alpha 46013001 0 0\n# alpha 43018001 1 0\n# move 43018001 3 0\n# move 41023001 5 0\n# move 41025001 1 0\n# waitandnext 0.6\n\n# imagealpha 0 0 0.3\n# waitandnext 0.3\n\n# se \"SE_0749\"\n# se \"bgm234_default\"\n# alpha 41025001 1 0.2\n# alpha 41023001 1 0.2\n# leftin 41025001 0.2\n# rightin 41023001 0.2\n# waitandnext 0.2\n\n# bgm \"bgm029\" 0\n# mask 41014095 off\n# effectskip 1002\n# textflame 0 0\n@\n三国入り乱れての戦闘が続き、\nついに決着の時が訪れる\n\n# alpha 43018001 0 0.5\n# alpha 41025001 0 0.5\n# alpha 41023001 0 0.5\n# alpha 41014095 1 0.5\n# textflame 1 1\n# textboxarrow 0 2\n@ティルフィング\n三国統一を果たし頂点に立った者は\n島のために生贄になります\nそれでも良いですね？\n\n# alpha 43018001 1 0.5\n# alpha 41025001 1 0.5\n# alpha 41023001 1 0.5\n# alpha 41014095 0 0.5\n# textflame 1 1\n# textboxarrow 0 2\n# voice 3018 \"forcas_0032\"\n@フォルカス\n覚悟は出来ています\n私が食べられなくても\n皆がお腹いっぱいになれば！\n\n# textflame 1 1\n# textboxarrow 0 1\n@ムラマサ\n食料のために命を掛ける…\n武士として誉れに思います\n\n;;//バトル\n;;//フォルカス視点で、ムラマサ、アスカロンが敵\n# textflame 1 1\n# textboxarrow 0 3\n@アスカロン\n私が生贄になって\n皆に食料をっ！\n\n"
	}
]