[
	{
		"ID": 210300021,
		"script": ";;【EP.1】イースターってなぁに？\n;;//背景：街の中\n# script \"lisp\"\n# background \"town\"\n# bgm \"bgm002\" 0\n;;カラドボルグ\n# body 102611\n# pos 102611 2\n# scale 102611 0.8 0\n# mask 102611 off\n;;ソラス\n# body 102711\n# pos 102711 4\n# scale 102711 0.8 0\n# textwindow \"nomal\"\n# face 102711 \"surprise\"\n# face 102611 \"surprise\"\n# textflame 0 0\n@\nイースターを知らないマスターに\n驚いて顔を見合わせる\nカラドボルグとクラウ・ソラス\n\n# emotionbody 1026 2 102611 20 280\n# effectpattern 1026 1 0\n# effectstart 1026\n# face 102611 \"worry\"\n# textflame 1 1\n# textboxarrow 0 1\n# voice 1026 \"caladbolg_0028\"\n@カラドボルグ\nイースターを知らないなんて\nどういうことなのかしら？\n\n# effectskip 1026\n# face 102711 \"happy\"\n# textflame 1 1\n# textboxarrow 0 3\n# voice 1027 \"solais_0003\"\n@クラウ・ソラス\nいや、逆にいい機会かもしれない\n今から正しい知識を\n身につけてもらえばいいのさ\n\n# textflame 1 1\n# textboxarrow 0 3\n@クラウ・ソラス\nカラドボルグでは力不足だろう\nだから私が一通り\n解説をしてあげよう\n\n# face 102611 \"surprise\"\n# textflame 1 1\n# textboxarrow 0 1\n# voice 1026 \"caladbolg_0024\"\n@カラドボルグ\nちょ、ちょっと！\n\n# face 102611 \"angry\"\n# textflame 1 1\n# textboxarrow 0 3\n# voice 1027 \"solais_0001\"\n@クラウ・ソラス\nいいかい、マスター？\nイースターというのは、ある聖者が\n死後に復活したことを記念する祭でな\n\n# textflame 1 1\n# textboxarrow 0 3\n@クラウ・ソラス\nイースターには卵とうさぎのモチーフ\nが多く登場する、これは死と復活、\n豊穣のシンボルとされているんだが…\n\n# textflame 1 1\n# textboxarrow 0 3\n@クラウ・ソラス\n卵は『イースターエッグ』、うさぎは\n『イースターバニー』と呼ばれていて\nイースターには欠かせない要素でね、\n\n# textflame 1 1\n# textboxarrow 0 3\n@クラウ・ソラス\nイースターの帽子や仮装で楽しむ\n『ボンネットパーティー』にも、卵や\nうさぎが登場する\n\n# textflame 1 1\n# textboxarrow 0 3\n@クラウ・ソラス\nそしてパーティーでは…\n\n# textflame 1 1\n# textboxarrow 0 3\n@クラウ・ソラス\n特別な料理を用意するだけじゃなく、\n『エッグハント』や『卵転がし』と\nいったゲームもあって…\n\n# textflame 1 1\n# textboxarrow 0 1\n# voice 1026 \"caladbolg_0012\"\n@カラドボルグ\nちょっと！\nいつまで続けるつもり？\nマスターは私とお話をしていたのよ？\n\n# face 102711 \"normal\"\n# textflame 1 1\n# textboxarrow 0 3\n# voice 1027 \"solais_0013\"\n@クラウ・ソラス\nマスターがイースターを知らないと\n言うから、簡単に解説しただけだが？\n\n# textflame 1 1\n# textboxarrow 0 1\n# voice 1026 \"caladbolg_0009\"\n@カラドボルグ\nだから、それが長いっていうの！\nそれよりもマスター、\n話を聞くよりもっと良い方法があるわ\n\n# face 102611 \"happy\"\n# textflame 1 1\n# textboxarrow 0 1\n# voice 1026 \"caladbolg_0004\"\n@カラドボルグ\n初めてのイースターですもの、\n今みたいな退屈な解説じゃなくて、\n実践的に楽しみましょうよ！\n\n# textflame 0 0\n@\nそうだね、初めてのイースターを\nみんなと一緒に楽しみたいな\nとマスター\n\n# emotionbody 1027 10 102711 -80 245\n# effectpattern 1027 4 0\n# effectstart 1027\n# face 102711 \"happy\"\n# textflame 1 1\n# textboxarrow 0 3\n# voice 1027 \"solais_0040\"\n@クラウ・ソラス\nそれは良い考えだ、マスター！\n仲間たちも招待して、みんなで一緒に\nパーティーを楽しもうじゃないか！\n\n# bgm \"stop\"\n# effectskip 1027\n# face 102611 \"angry\"\n# textflame 1 1\n# textboxarrow 0 1\n# voice 1026 \"caladbolg_0013\"\n@カラドボルグ\nちょっと、\n私はマスターと二人で\n楽しむつもりだったんだけど？\n\n# textflame 0 0\n@\nでも、みんなとのパーティーも\nきっと楽しいと思うよ、と\nマスターはのんきに返事をする\n\n# face 102711 \"normal\"\n# textflame 1 1\n# textboxarrow 0 3\n@クラウ・ソラス\nそうだぞ、カラドボルグ\nマスターがそう望むのならば、\n願いを叶えるのが私たちの役目では？\n\n# bgm \"bgm005\" 0\n# face 102611 \"sad\"\n# textflame 1 1\n# textboxarrow 0 1\n# voice 1026 \"caladbolg_0019\"\n@カラドボルグ\nはぁ…みんなと一緒じゃ面白くないわ\n勝手にやってちょうだい\n私はパーティーには出なくってよ\n\n# face 102711 \"sad\"\n# textflame 1 1\n# textboxarrow 0 3\n# voice 1027 \"solais_0028\"\n@クラウ・ソラス\n…マスターのためのパーティーなのに\n参加しないとはね\nマスターへの気持ちはその程度か？\n\n# emotionbody 2026 6 102611 48 194\n# effectpattern 2026 2 0\n# effectstart 2026\n# face 102611 \"angry\"\n# textflame 1 1\n# textboxarrow 0 1\n# voice 1026 \"caladbolg_0013\"\n@カラドボルグ\n今のは聞き捨てならないわね\n私のマスターへの想いを\n侮辱されては、黙っていられないわ！\n\n# effectskip 2026\n# face 102711 \"angry\"\n# textflame 0 0\n@\nそういってクラウ・ソラスの前に立ち\n剣に手をかけるカラドボルグ\n\n# textflame 1 1\n# textboxarrow 0 3\n# voice 1027 \"solais_0007\"\n@クラウ・ソラス\nフッ…\nここで決着をつけようというのかい？\nいいだろう！\n\n# textflame 0 0\n@\nクラウ・ソラスも、カラドボルグを\n正面に見据え、剣に手をかけた\n\n# textflame 0 0\n@\nちょっと！二人とも！と\nマスターがあわてて間に入る\n\n# textflame 1 1\n# textboxarrow 0 3\n@クラウ・ソラス\nマスター！\n止めないでくれたまえ！\n\n# textflame 1 1\n# textboxarrow 0 1\n@カラドボルグ\nマスター！\nこれは私たちの問題ですわ！\n\n# face 102611 \"surprise\"\n# face 102711 \"surprise\"\n# textflame 0 0\n@\nそうじゃなくて、ほら、あれ！と\nマスターが指さした先では、異族の\n出現により人々が避難を始めていた\n\n# textflame 0 0\n@\n散り散りに逃げていく街の人たちを\n異族が追いかける様子が見える\n\n# face 102711 \"angry\"\n# textflame 1 1\n# textboxarrow 0 3\n# voice 1027 \"solais_battle_0005\"\n@クラウ・ソラス\nくっ！\nいくぞ、カラドボルグ！\n\n# face 102611 \"angry\"\n# textflame 1 1\n# textboxarrow 0 1\n@カラドボルグ\nあなたに言われなくたって、\nわかってるわよ！"
	}
]