[
	{
		"ID": 210400021,
		"script": ";;【EP1】幸せな花嫁\n# bgm \"bgm002\" 0\n# background \"plain\"\n# body 400711\n# pos 400711 2\n# scale 400711 0.8 0\n# body 401711\n# pos 401711 4\n# scale 401711 0.8 0\n# face 401711 \"happy\"\n# face 400711 \"happy\"\n# textwindow \"nomal\"\n# textflame 0 0\n@\n幸せそうな結婚式を見ながら\nスイハとシェキナーの会話も\nいっそう弾んでいるようだ\n\n# textflame 1 1\n# textboxarrow 0 3\n# voice 4017 \"suiha_0004\"\n@スイハ\nおおぉ〜\nシェキナー…さんは、博学ですね\nなるほど…\n\n# textflame 1 1\n# textboxarrow 0 1\n# voice 4007 \"shekina_0004\"\n@シェキナー\nふふっ\nシェキナー、でいいですよ、\nスイハさん♪\n\n# face 401711 \"shy\"\n# textflame 1 1\n# textboxarrow 0 3\n@スイハ\n…………\n\n# serif 0\n# move 400711 2 0\n# textwindow \"moya\"\n# textflame 1 1\n# textboxarrow 0 0\n# face 400711 \"surprise\"\n@シェキナー\n（あれっ、馴れ馴れしかったかな？）\n\n# textflame 1 1\n# serif 0\n# textwindow \"nomal\"\n# textboxarrow 0 3\n@スイハ\nスイハ…\n\n# textflame 1 1\n# textboxarrow 0 1\n@シェキナー\nえ？\n\n# textflame 1 1\n# textboxarrow 0 3\n# voice 4017 \"suiha_0002\"\n@スイハ\nわたくしのことも、その…\nスイハ…とお呼びください\n\n# face 400711 \"happy\"\n# textflame 1 1\n# textboxarrow 0 1\n# voice 4007 \"shekina_0005\"\n@シェキナー\nふふっ、わかりました！\nスイハ、ですね！\n\n# face 401711 \"happy\"\n# textflame 1 1\n# textboxarrow 0 3\n# voice 4017 \"suiha_0005\"\n@スイハ\nわたくし、結婚式をもっと\n知りたいです\nもう少し近くに行ってみます\n\n# textwindow \"close\"\n# se \"SE_0719\"\n# alpha 401711 0 0.5\n# waitandnext 0.5\n\n# textwindow \"nomal\"\n# textflame 1 1\n# textboxarrow 0 1\n@シェキナー\nマスター…\nあの、スイハって、意外と素直で\nかわいくないですか…？\n\n# textflame 1 1\n# textboxarrow 0 1\n@シェキナー\n私も、スイハと一緒に\n結婚式を見てきますね！\n\n# textwindow \"close\"\n# se \"SE_0719\"\n# alpha 400711 0 0.5\n# waitandnext 0.5\n\n# textwindow \"nomal\"\n# textflame 0 0\n@\nうんうん…と、うなずき二人が\n仲良くなりつつあるのを喜ばしく\n思いながらマスターも後を追う\n\n;;演出：場面転換\n;;【指定】bgm003\n# fadeout \"black\" 0.5\n# waitandnext 0.5\n\n# background \"flower_garden\"\n# bgm \"bgm003\" 0\n# waitandnext 0.5\n\n# fadein \"black\" 0.5\n# waitandnext 0.5\n\n# alpha 401711 1 0.5\n# alpha 400711 1 0.5\n# face 401711 \"normal\"\n# textflame 1 1\n# textboxarrow 0 1\n# voice 4007 \"shekina_0020\"\n@シェキナー\n…それにしてもあのドレス、\n宝石が輝いていて美しいですね\nいつか私も着てみたいなぁ〜…\n\n# textflame 1 1\n# textboxarrow 0 3\n# voice 4017 \"suiha_0002\"\n@スイハ\nシェキナーも憧れがあるのですか？\nもしかして…愛するお相手が？\n\n# face 400711 \"surprise\"\n# textflame 1 1\n# textboxarrow 0 1\n# voice 4007 \"shekina_0023\"\n@シェキナー\nそ、そんな相手はいません！\nただ、ドレスに憧れているだけです！\n\n# face 400711 \"shy\"\n# textflame 1 1\n# textboxarrow 0 1\n# voice 4007 \"shekina_0042\"\n@シェキナー\n純白できらびやかで…その、ドレスも\n着ている花嫁も、すごく綺麗ですし！\nね、そう思いませんか？\n\n# textflame 1 1\n# textboxarrow 0 3\n# face 401711 \"happy\"\n# voice 4017 \"suiha_0005\"\n@スイハ\nそうですね\n弾けるような笑顔もあいまって…\n花嫁も、とても綺麗ですね\n\n# textflame 1 1\n# textboxarrow 0 1\n# voice 4007 \"shekina_0004\"\n@シェキナー\n愛と宝石って女の子の憧れですよね〜\n\n# face 401711 \"shy\"\n# textflame 1 1\n# textboxarrow 0 3\n# voice 4017 \"suiha_0028\"\n@スイハ\n愛、ですか…わたくしには、\nまだ理解できませんが、幸せそうな\nあの姿に憧れるのが理解できます\n\n# face 401711 \"angry\"\n# face 400711 \"angry\"\n# textflame 0 0\n@\nシェキナーは、きっと派手な\nウェディングドレスを着るんだろうな\nスイハは…と、想像するマスター\n\n# bgm \"stop\"\n# textflame 1 1\n# textboxarrow 0 1\n# voice 4007 \"shekina_0001\"\n@シェキナー\nマスター？\n…マスター！\nちょっと、ちゃんと聞いてます？\n\n# textflame 0 0\n@\nえ？ええと、どうしたの？と\nマスターが慌てて応える\n\n# bgm \"bgm005\" 0\n# textflame 1 1\n# textboxarrow 0 1\n@シェキナー\nですから、あの女性です！\nちょっと様子がおかしいんです…\n\n# textflame 0 0\n@\nシェキナーの指す方向には\n女性がひとり立っていて、\n思いつめた顔で結婚式を見ている\n\n# face 400711 \"surprise\"\n# textflame 1 1\n# textboxarrow 0 1\n# voice 4007 \"shekina_0013\"\n@シェキナー\nああっ、女性が橋から落ちました！\n\n# textflame 1 1\n# textboxarrow 0 3\n# voice 4017 \"suiha_0013\"\n@スイハ\nくっ！\n\n# textwindow \"close\"\n# face 400711 \"surprise\"\n# move 401711 5 0.3\n# alpha 401711 0 0.3\n# waitandnext 0.3\n\n# textwindow \"nomal\"\n# textflame 0 0\n@\nスイハは超人的な速さで駆けて飛び、\n空中で女性を捕まえると、\n一緒に橋の下へと落ちていった\n\n# textwindow \"close\"\n# fadeout \"black\" 0.5\n# waitandnext 0.5\n\n# mask 400711 off\n# move 400711 3 0\n# waitandnext 0.5\n\n# fadein \"black\" 0.5\n# waitandnext 0.5\n\n# textwindow \"nomal\"\n# textflame 1 1\n# textboxarrow 0 2\n@シェキナー\nスイハ！\n\n# textflame 0 0\n@\nマスターたちが\nあわてて橋の下をのぞくと\nスイハが手を振って無事を伝えている\n\n# imageset 3 \"black\"\n# imagealpha 3 0 0\n# imagelayer 3 1\n# textflame 1 1\n# textboxarrow 0 2\n@シェキナー\nマスター！\nスイハのところへ行きましょう！\n\n;;演出：場面転換\n# imagealpha 3 1 0\n# imagepos 3 0 30\n# imageleftin 3 0.5\n# textwindow \"close\"\n# waitandnext 0.5\n\n# move 400711 2 0\n# move 401711 4 0\n# alpha 401711 1 0\n# waitandnext 0.2\n\n# imagealpha 3 0 0.5\n# imagerightout 3 0.5\n# waitandnext 0.5\n\n# serif 0\n# textwindow \"nomal\"\n# textflame 1 1\n# textboxarrow 0 1\n@シェキナー\n気を失っていた女性の\n意識が戻ったようです\n大丈夫ですか？\n\n# textflame 0 0\n@\nどうして生きているのか\nせっかく勇気を出して身投げしたのに\nと、泣き出す女性\n\n# face 401711 \"sad\"\n# face 400711 \"sad\"\n# textflame 1 1\n# textboxarrow 0 3\n# voice 4017 \"suiha_0013\"\n@スイハ\n…どうやら、この方は身投げを\n図られたようですね\n\n# textflame 1 1\n# textboxarrow 0 1\n# voice 4007 \"shekina_0019\"\n@シェキナー\n身投げなんて、\nどうしてそんなことを？\n\n# face 400711 \"angry\"\n# face 401711 \"angry\"\n# textflame 1 1\n# textboxarrow 0 3\n@スイハ\nはっ！\n…マスター、異族の気配がします\n\n# textflame 0 0\n@\n式の歓声と女性の鳴き声に\n呼び寄せられたのか\n上空には異族の姿があった\n\n# textflame 1 1\n# textboxarrow 0 3\n# voice 4017 \"suiha_0036\"\n@スイハ\nマスター、\nその女性と物陰に隠れて！\n"
	}
]