[
	{
		"ID": 210410033,
		"script": ";;-----------------------------------------\n;;ファントムオブキル　ハロウィンイベント2018\n;;【EP.2】おばあさんのお家に行こう！\n;;【EP2】戦闘後\n;;スクリプト最後の背景：森\n;;-----------------------------------------\n# script \"lisp\"\n# background \"forest\"\n# bgmfile \"bgm071\" \"BgmHalloween001\" 0\n;;-----------------------------------------\n;;ハロウィンベガルタ\n# body 3104171\n# pos 3104171 3\n# scale 3104171 0.8 0\n# alpha 3104171 0 0\n;;-----------------------------------------\n# move 3104171 3 0\n# face 3104171 \"usual\"\n# alpha 3104171 1 0\n# mask 3104171 off\n# textflame 1 1\n# textboxarrow 0 2\n@ベガルタ\nだからね、赤ずきんは\n森の中のおばあさんのお家に\nお使いに行くの\n\n# textflame 0 0\n;;モノローグ\n@\nトレイセーマ兵を退けたあと\n『おばあさんのお家』の意味について\nベガルタから話を聞いたマスター\n\n@\nふたりは衣装を身に着けたことで\n赤ずきんのお話の\n登場人物になりきっているらしい\n\n# face 3104171 \"normal\"\n# textflame 1 1\n# textboxarrow 0 2\n@ベガルタ\nでね、おばあさんを殺して\n狼がおばあさんの振りをするの\nそれで、赤ずきんを食べちゃうの\n\n# textflame 0 0\n@\n物騒な言葉にマスターは\n頬を引きつらせるが、\n二人の言葉はどんどん続く\n\n# serif 1\n# textwindow \"nomal\"\n# voice 1040 \"morallta_0002\"\n@モラルタ\nおばあさん、おばあさん\nいらっしゃるのかしら？\n\n# serif 1\n# textwindow \"close\"\n# serif 0\n# textwindow \"nomal\"\n# textflame 1 1\n# face 3104171 \"surprise\"\n# textboxarrow 0 2\n@ベガルタ\n赤ずきんが来ちゃった！\nおばあさんの振りするから\nマスターは隠れてて！\n\n# alpha 3104171 0 0.5\n# textflame 0 0\n@\nモラルタとベガルタ\n二人の世界に、マスターは\nただ巻き込まれるしかなかった…"
	}
]