[
	{
		"ID": 210400031,
		"script": ";;【EP2】謀略の花嫁\n# script \"lisp\"\n# background \"flower_garden\"\n# bgm \"bgm004\" 0\n# body 400771\n# pos 400771 4\n# scale 400771 0.8 0\n# alpha 400771 0 0\n# body 401721\n# pos 401721 2\n# scale 401721 0.8 0\n# alpha 401721 0 0\n# body 400711\n# pos 400711 2\n# scale 400711 0.8 0\n# alpha 400711 1 0\n# body 401711\n# pos 401711 4\n# scale 401711 0.8 0\n# alpha 401711 1 0\n# textflame 1 1\n# textwindow \"nomal\"\n# textboxarrow 0 1\n# voice 4007 \"shekina_0003\"\n@シェキナー\nなるほど…恋人との交際を\nご両親に反対されている\n\n# voice 4017 \"suiha_0013\"\n# textboxarrow 0 3\n@スイハ\nしかも、急に親が決めた婚約者との\n結婚式がもうすぐ行われる、と\n\n# face 400711 \"angry\"\n# textboxarrow 0 1\n@シェキナー\n…許せない\n\n# face 401711 \"surprise\"\n# voice 4017 \"suiha_0023\"\n# textboxarrow 0 3\n@スイハ\nシェキナー！？\n\n# voice 4007 \"shekina_0009\"\n# textboxarrow 0 1\n@シェキナー\n貴方の事情はわかったけど、\n愛する人がいるのに、\nひとりで死ぬなんて許せない！\n\n# textboxarrow 0 3\n# face 401711 \"normal\"\n@スイハ\n…………！\n\n# textflame 0 0\n@\n同情ではないシェキナーの強い口調に\n女性は目を丸くし、\nスイハはそれを黙って聞いている\n\n# textflame 1 1\n# textboxarrow 0 1\n@シェキナー\nいま結婚式を挙げている二人だって\n愛する人が大切だから離れないって\n誓い合っているんですよ！？\n\n# textboxarrow 0 3\n@スイハ\n…………\n\n# textboxarrow 0 1\n# voice 4007 \"shekina_0010\"\n@シェキナー\n貴方がしたことは自分勝手です！\n愛する人に苦しみを残すだけの、\n残酷な行為でしかありません！\n\n# voice 4017 \"suiha_0032\"\n# face 401711 \"angry\"\n# textboxarrow 0 3\n@スイハ\nわたくしも、シェキナーの意見に\n同意します\n\n# face 400711 \"happy\"\n# textboxarrow 0 1\n@シェキナー\n…………！\n\n# textboxarrow 0 3\n@スイハ\nあなたは困難から目を背け、同時に\n愛する人からも目を背けました\n決して看過できません\n\n# face 401711 \"normal\"\n@スイハ\nわたくしには愛というものが\nまだ理解できませんが…\nそれは卑怯な逃げ方だと思います\n\n@スイハ\n勇気を持ち困難と戦うべきです\nこの場合なら、一緒に新天地を探す\n戦い方もあるのでは？\n\n# textboxarrow 0 1\n@シェキナー\n駆け落ち、ということですね！\n決して簡単ではありませんが、\n身投げよりは意義があると思います\n\n# textflame 0 0\n@\nはっとした表情を浮かべる女性\n\n# face 400711 \"normal\"\n# textflame 1 1\n# textboxarrow 0 1\n@シェキナー\n…愛のために\n戦う覚悟ができたんですね？\n\n# textflame 0 0\n@\n女性は、うなずき\n私の駆け落ちに協力してほしい、と\nマスターたちに頭を下げた\n\n# face 400711 \"happy\"\n# textflame 1 1\n# voice 4007 \"shekina_0033\"\n# textboxarrow 0 1\n@シェキナー\n乗りかかった船ですから、\nこうなれば最善を尽くします！\n\n# face 401711 \"happy\"\n# voice 4017 \"suiha_0033\"\n# textboxarrow 0 3\n@スイハ\nわたくしも、できる限り努めましょう\n\n# face 400711 \"surprise\"\n# face 401711 \"sad\"\n# textflame 0 0\n@\n事情を聞くと、女性と恋人の家には\n深い因縁があり、二人は会話も\n許されない間柄だったそうだ\n\n# face 401711 \"happy\"\n# textflame 1 1\n# voice 4017 \"suiha_0041\"\n# textboxarrow 0 3\n@スイハ\nそれでも恋人同士になるのですから、\n愛の力とは偉大なのですね…\n\n# face 400711 \"angry\"\n# voice 4007 \"shekina_0011\"\n# textboxarrow 0 1\n@シェキナー\nそんなに愛し合っているんだから\nその人と結婚しなきゃダメですよ！\n\n# face 401711 \"normal\"\n# textboxarrow 0 3\n@スイハ\n恋人の男性は、あなたの結婚を\n知っているのですか？\n\n# textflame 0 0\n@\n式には恋人も招待されている\n花嫁姿をこんな形で見せるとは…\nと、女性は再び泣き出す\n\n# textflame 1 1\n# face 400711 \"normal\"\n# voice 4007 \"shekina_0006\"\n# textboxarrow 0 1\n@シェキナー\n結婚式に恋人が来るなら、式の日に\n一緒に逃げる\nというのは、どうでしょうか\n\n# voice 4017 \"suiha_0028\"\n# textboxarrow 0 3\n@スイハ\nなるほど。その日までに\n恋人と会うのは難しい…\nチャンスは当日のみですね\n\n# textboxarrow 0 1\n@シェキナー\nはい！\nそこで、マスターに準備して\nほしいものがあるんです！\n\n;;時間経過\n;;ここからウェディング姿立ち絵を使用\n# textwindow \"close\"\n# fadeout \"black\" 1\n# waitandnext 1\n\n# bgm \"bgm003\" 0\n# alpha 400711 0 0\n# alpha 401711 0 0\n# alpha 400771 1 0\n# face 400771 \"shy\"\n# alpha 401721 1 0\n# fadein \"black\" 1\n# waitandnext 1\n\n# textwindow \"nomal\"\n# voice 4007 \"shekina_0042\"\n# textboxarrow 0 3\n@シェキナー\nど、どうですか？ \nその…ドレスは、違和感なく\n着こなせているでしょうか…？\n\n# textflame 0 0\n@\nうん、よく似合っているよ\nと言うマスター\n\n# face 400771 \"angry\"\n# textflame 1 1\n# voice 4007 \"shekina_0026\"\n@シェキナー\nそ、そうじゃなく、\nブライズメイドとして紛れ込むのに\n十分かと聞いているんですっ\n\n# face 401721 \"shy\"\n# voice 4017 \"suiha_0008\"\n# textboxarrow 0 1\n@スイハ\nまさか、このような形で\nウェディングドレスに\n身を包むことになるとは…\n\n# textflame 0 0\n@\nスイハもすごく似合ってるよ\nと微笑むマスター\n\n# voice 4017 \"suiha_0042\"\n# textflame 1 1\n@スイハ\nあ、あまり見ないでください！\nごほん…\n作戦の内容を確認しますよ\n\n# face 400771 \"normal\"\n# face 401721 \"usual\"\n@スイハ\nわたくしは花嫁衣装を着て待機し、\n入場した女性と途中で入れ替わります\n\n# textboxarrow 0 3\n# voice 4007 \"shekina_0032\"\n@シェキナー\n私はブライズメイドとして式に参列し、\nスイハと花嫁を援護しますね\n\n# textboxarrow 0 1\n@スイハ\nわたくしと、花嫁の背格好や髪の色が\n似ているのは幸運でした\n\n# textboxarrow 0 3\n@シェキナー\nマスターは、\n式の前に恋人に手紙を渡す\n\n@シェキナー\nあと、スイハの合図が出たら\n式で騒ぎを起こして\nスイハを逃す役をお願いします\n\n;;時間経過\n;;以降、通常の服装のシェキナーとスイハ\n# textwindow \"close\"\n# fadeout \"black\" 1\n# waitandnext 1\n\n# alpha 400771 0 0\n# alpha 401721 0 0\n# alpha 400711 1 0\n# face 400711 \"normal\"\n# alpha 401711 1 0\n# face 401711 \"normal\"\n# fadein \"black\" 1\n# waitandnext 1\n\n# textwindow \"nomal\"\n# voice 4017 \"suiha_0003\"\n# textboxarrow 0 3\n@スイハ\n女性を無事に自宅に送れて\nよかったですね\n\n# voice 4007 \"shekina_0013\"\n# textboxarrow 0 1\n@シェキナー\n結婚式の作戦、\nうまくいくといいのですが\n\n# bgm \"bgm023\" 0\n# textboxarrow 0 3\n@スイハ\nおや？\nなんだか、街道の方が騒がしいですね\n\n# face 400711 \"angry\"\n# textboxarrow 0 1\n@シェキナー\nどうやら異族が現れたらしいです！\nマスター、スイハ！行きましょう！\n"
	}
]