[
	{
		"ID": 221041031,
		"script": ";;-----------------------------------------\n;;【ファンキル　クリスマスイベント2018　FB修正版2018.11.26\n;;【EP2】幸せな食卓\n;;2_1\n;;スクリプト最後の背景：ハルモニア周辺（可能であれば荒野っぽい雰囲気）\n;;-----------------------------------------\n# script \"lisp\"\n# background \"400_angel_town_daytime\"\n# bgm \"bgm032\" 0\n;;-----------------------------------------\n;;カリス（クリスマス用のボイスを鳴らすための呼び出し）\n# body 3602511\n# alpha 3602511 0 0\n;;フォルカス（クリスマス用のボイスを鳴らすための呼び出し）\n# body 3301811\n# alpha 3301811 0 0\n;;カリス（クリスマス）\n# body 3602521\n# pos 3602521 3\n# scale 3602521 0.8 0\n# layer 3602521 2\n# alpha 3602521 0 0\n# mask 3602521 off\n;;フォルカス（クリスマス）\n# body 3301821\n# pos 3301821 3\n# scale 3301821 0.8 0\n# layer 3301821 2\n# alpha 3301821 0 0\n# mask 3301821 off\n;;キプル\n# body 163\n# pos 163 3\n# scale 163 0.6 0\n# layer 163 2\n# alpha 163 0 0\n# mask 163 off\n;;-----------------------------------------\n;;【EP2】幸せな食卓\n;;//背景：ハルモニア擬人区（外）\n# move 3301821 3 0\n# face 3301821 \"angry\"\n# alpha 3301821 1 0\n# mask 3301821 off\n# textflame 1 1\n# textboxarrow 0 2\n# voice 330182 \"forcas_t_0001\"\n@フォルカス\nマスター、カリスです！\nあちらの通りにいました！\n\n# textflame 0 0\n;;モノローグ\n@\nカリスを追っていた\nマスターとフォルカスは、\n夫婦喧嘩の間に入るカリスを発見した\n\n# face 3301821 \"usual\"\n# textflame 1 1\n# textboxarrow 0 2\n# voice 330182 \"forcas_t_0028\"\n@フォルカス\nカリスにあの喧嘩を仲裁することが\n出来るでしょうか…\n\n# textflame 0 0\n;;モノローグ\n@\nマスターも、カリスには難しいかも、\nと言いながらも、\nしばらく様子を見守ることにした\n\n# se \"SE_6508\"\n# emotionbody 1000 5 3602521 10 320\n# effectpattern 1000 1 0\n# effectstart 1000\n# alpha 3301821 0 0.5\n# move 3602521 3 0\n# face 3602521 \"normal\"\n# alpha 3602521 1 0.5\n# mask 3602521 off\n# textflame 1 1\n# textboxarrow 0 2\n# voice 360252 \"chalice_t_0032\"\n@カリス\n…わかった！\nじゃあ、その場所を消しちゃおう！\nそしたら、行かなくていいもんね！\n\n# se \"SE_6500\"\n# emotionbody 1001 1 3301821 10 310\n# effectpattern 1001 1 0\n# effectstart 1001\n# alpha 3602521 0 0.5\n# move 3301821 3 0\n# face 3301821 \"angry\"\n# alpha 3301821 1 0.5\n# mask 3301821 off\n# textboxarrow 0 2\n# voice 330182 \"forcas_t_0023\"\n@フォルカス\n…今、場所を消すと言いましたか？\nマスター、カリスを止めましょう！\n\n# alpha 3301821 0 0.5\n# textflame 0 0\n;;モノローグ\n@\n慌ててカリスの元に行き、\nなぜそうなったのか説明を聞くと…\n\n# move 3602521 3 0\n# face 3602521 \"normal\"\n# alpha 3602521 1 0.5\n# mask 3602521 off\n# textflame 1 1\n# textboxarrow 0 2\n@カリス\nお父さんが急な命令で、\n今から労働に\n行かなくちゃいけないんだって\n\n# face 3602521 \"sad\"\n# textboxarrow 0 2\n# voice 360252 \"chalice_t_0026\"\n@カリス\nそれで、お母さんは\n子供が楽しみにしていた日なのにって\n怒ってるの\n\n# face 3602521 \"normal\"\n# textboxarrow 0 2\n# voice 360252 \"chalice_t_0004\"\n@カリス\nだから、その集合場所を消しちゃえば\nお父さんは行かなくてすむでしょ？\n\n# se \"SE_6513\"\n# emotionbody 1002 8 3301821 80 250\n# effectpattern 1002 1 0\n# effectstart 1002\n# move 3602521 2 0.5\n# mask 3602521 on\n# move 3301821 4 0\n# face 3301821 \"usual\"\n# alpha 3301821 1 0.5\n# mask 3301821 on\n# textboxarrow 0 3\n;;フォルカス（呆れ）\n# voice 330182 \"forcas_t_0027\"\n@フォルカス\nはぁ…\nカリス、それがどれだけの騒ぎに\nなるかわかりますか？\n\n# effectskip 1002\n# textflame 0 0\n;;モノローグ\n@\n確実にハルモニア兵に見つかるし、\nお父さんは別の場所に移されるだけ\nかもねと、マスターも続ける\n\n# se \"SE_6502\"\n# emotionbody 1003 2 3602521 10 270\n# effectpattern 1003 1 1\n# effectstart 1003\n# face 3602521 \"surprise\"\n# textflame 1 1\n# textboxarrow 0 1\n# voice 360252 \"chalice_t_0022\"\n@カリス\nあ…そっか！\nうーん、どうしよ…？\n\n# face 3602521 \"normal\"\n# textboxarrow 0 1\n# voice 360252 \"chalice_t_0002\"\n@カリス\nフォルカスは、なにか思いつかない？\n\n# face 3301821 \"surprise\"\n# textboxarrow 0 3\n# voice 330182 \"forcas_t_0022\"\n@フォルカス\nえ！？　あ、そうですね…\n\n# face 3301821 \"usual\"\n# textboxarrow 0 3\n# voice 330182 \"forcas_t_0028\"\n@フォルカス\n…私達でその労働を手伝って、\n早く終わらせるというのは\nどうですか？\n\n# se \"SE_6504\"\n# emotionbody 1004 10 3602521 -70 200\n# effectpattern 1004 2 3\n# effectstart 1004\n# face 3602521 \"happy\"\n# textboxarrow 0 1\n# voice 360252 \"chalice_t_0033\"\n@カリス\nうん、それがいいかも！\nじゃ、お父さんを手伝ってくるから、\nお母さんは待っててね！\n\n;;//演出：場所移動\n;;//背景：ハルモニア周辺（可能であれば荒野っぽい雰囲気）\n# se \"SE_5575\"\n# textwindow \"close\"\n# fadeout \"black\" 1\n# waitandnext 1.2\n\n# background \"wild\"\n# alpha 3602521 0 0\n# alpha 3301821 0 0\n# move 3602521 3 0\n# face 3602521 \"normal\"\n# alpha 3602521 1 0\n# mask 3602521 off\n# waitandnext 0.1\n\n# fadein \"black\" 1\n# waitandnext 1\n\n# textflame 1 1\n# textboxarrow 0 2\n# textwindow \"normal\"\n@カリス\nよいしょっと！\n\n# face 3602521 \"surprise\"\n# textflame 1 1\n# textboxarrow 0 2\n# textwindow \"normal\"\n# voice 360252 \"chalice_t_0039\"\n@カリス\nみんなはいつもこんなお仕事を\nしてるんだ、大変だね～\n\n# alpha 3602521 0 0.5\n# move 3301821 3 0\n# face 3301821 \"usual\"\n# alpha 3301821 1 0.5\n# mask 3301821 off\n# textboxarrow 0 2\n# voice 330182 \"forcas_t_0003\"\n@フォルカス\n管轄外なので、私も知りませんでした\nなかなか厳しい環境ですね…\n\n# alpha 3301821 0 0.5\n# textflame 0 0\n;;モノローグ\n@\nハルモニアの外周に近い荒野は、\n主に肉体労働をする場所らしい\n\n;;モノローグ\n@\nハルモニア兵の監視を避けながら、\n3人はこっそりとお父さんを手伝い、\n作業時間の大幅な短縮に貢献した\n\n# se \"SE_6504\"\n# emotionbody 1005 10 3602521 -70 200\n# effectpattern 1005 2 3\n# effectstart 1005\n# move 3602521 2 0\n# face 3602521 \"normal\"\n# alpha 3602521 1 0.5\n# mask 3602521 on\n# textflame 1 1\n# textboxarrow 0 1\n# move 3301821 4 0\n# face 3301821 \"smile\"\n# alpha 3301821 1 0.5\n# mask 3301821 on\n# voice 360252 \"chalice_t_0006\"\n@カリス\nこれで、\nみんなも早く帰れるみたい！\nあのお母さんも喜んでくれるよね？\n\n# textboxarrow 0 3\n# voice 330182 \"forcas_t_0004\"\n@フォルカス\nええ、\nきっと子供達も\n喜ぶでしょう\n\n# se \"SE_6504\"\n# emotionbody 1006 3 3602521 10 290\n# effectpattern 1006 3 3\n# effectstart 1006\n# face 3602521 \"happy\"\n# textboxarrow 0 1\n# voice 360252 \"chalice_t_0005\"\n@カリス\nえへへ…\nフォルカスとマスターさんも\n頑張ってたよね～！\n\n# effectskip 1006\n# se \"SE_6509\"\n# emotionbody 1007 6 163 50 180\n# effectpattern 1007 1 1\n# effectstart 1007\n# move 3602521 1 0.5\n# move 163 3 0\n# alpha 163 1 0.5\n# mask 163 on\n# textboxarrow 0 2\n# move 3301821 5 0.5\n# voice 9951 \"kipuru_0054\"\n@キプル\nカリス！フォルカス様に対して\nなんという口の聞き方を…\nあああ、すみませんすみませぇん！\n\n# face 3301821 \"usual\"\n# textboxarrow 0 3\n# voice 330182 \"forcas_t_0002\"\n@フォルカス\nキプル、いいのです\nマスターのもとでは、\n私もカリスも同じ斬ル姫ですから…\n\n# textflame 0 0\n;;モノローグ\n@\nそういえば、カリスとフォルカスは\n同じハルモニアの出身なんだよね\nと、マスター\n\n# face 3602521 \"normal\"\n# textflame 1 1\n# textboxarrow 0 1\n# voice 360252 \"chalice_t_0003\"\n@カリス\nそうだよー！\n\n# textflame 0 0\n# face 3301821 \"sad\"\n;;モノローグ\n@\nその頃から仲良くしていたのかな、と\nマスターが何気なく尋ねると、\nフォルカスの表情がわずかに曇った\n\n# textflame 1 1\n# textboxarrow 0 1\n# voice 360252 \"chalice_t_0004\"\n@カリス\n時々だけど、お話したり、\n助けてもらったりしてたよ！\n\n# textboxarrow 0 2\n@キプル\nカリスとフォルカス様では\n立場が違いましたから、\nそうそう気軽には会えません\n\n# bgm \"bgm031\" 0\n# se \"SE_10131\"\n# face 3301821 \"usual\"\n# textflame 0 0\n;;モノローグ\n@\nその時、フォルカスが急に立ち上がり\n遠くをじっと見つめた\n\n# se \"SE_6502\"\n# emotionbody 1008 2 3602521 10 290\n# effectpattern 1008 1 1\n# effectstart 1008\n# face 3602521 \"surprise\"\n# textflame 1 1\n# textboxarrow 0 1\n# voice 360252 \"chalice_t_0002\"\n@カリス\nフォルカス、どうしたの？\n\n# se \"SE_6500\"\n# emotionbody 1009 1 3301821 10 310\n# effectpattern 1009 1 0\n# effectstart 1009\n# face 3301821 \"angry\"\n# textboxarrow 0 3\n# voice 330182 \"forcas_t_battle_0005\"\n@フォルカス\nあれは、ファントムです！\nカリス、マスター！\nここから離れて迎え討ちましょう！"
	}
]