[
	{
		"ID": 221041260,
		"script": ";;-----------------------------------------\n;;ファンキル お正月イベン2019　シナリオ\n;;【タイトル】振袖に降る雪\n;;【エピローグ】\n;;6_エピローグ\n;;スクリプト最後の背景：室内（宿舎とか本拠地？）\n;;-----------------------------------------\n# script \"lisp\"\n# background \"300_devil_daytime03\"\n# bgmfile \"bgm272\" \"BgmLostRagnarokEvent\" 0\n;;-----------------------------------------\n;;アバリス\n# body 3401011\n# pos 3401011 3\n# scale 3401011 0.8 0\n# layer 3401011 2\n# alpha 3401011 0 0\n# mask 3401011 off\n;;アバリス（正月）\n# body 3401021\n# pos 3401021 3\n# scale 3401021 0.8 0\n# layer 3401021 15\n# alpha 3401021 0 0\n# mask 3401021 off\n;;-----------------------------------------\n;;カーテンフェード\n# imageset 1 \"black\"\n# imagealpha 1 0 0\n# imagelayer 1 5\n;;-----------------------------------------\n;;【エピローグ】\n;;//背景：屋外\n# envbody 2000 2 0\n# effectpattern 2000 1 0\n# effectstart 2000\n# move 3401021 3 0\n# face 3401021 \"usual\"\n# alpha 3401021 1 0\n# mask 3401021 off\n# textflame 1 1\n# textboxarrow 0 2\n;;アバリス（お正月衣装、以下同じ）\n@アバリス\nこれ、どんな味なのか\n気になっていたんですよ！\n\n;;モノローグ\n# textflame 0 0\n@\nマスターとアバリスは本拠地に戻り、\nケイオスリオンの少年にもらった\nご馳走を二人でつまんでいた\n\n# emotionbody 1000 10 3401021 -100 220\n# effectpattern 1000 2 3\n# effectstart 1000\n# voice 340102 \"abaris_a_0005\"\n# face 3401021 \"smile\"\n# textflame 1 1\n# textboxarrow 0 2\n@アバリス\n…うん、意外と甘くておいしいです！\nマスターも食べてみてください\n\n;;モノローグ\n# alpha 3401021 0 0.5\n# textflame 0 0\n@\n食べ物のにおいに誘われて、\n仲間の斬ル姫たちが\n二人の周りに集まってきた\n\n;;モノローグ\n@\n振袖にご馳走、二人だけの外出\nそして、\n\n;;モノローグ\n@\nアバリスの特別扱いを\nうらやむ姫たちに、\nマスターは詰め寄られてしまう\n\n# move 3401021 3 0\n# face 3401021 \"angry\"\n# alpha 3401021 1 0.5\n# mask 3401021 off\n# textflame 1 1\n# textboxarrow 0 2\n@アバリス\nマスター、\nここは…逃げましょう！\n\n;;モノローグ\n# se \"SE_5575\"\n# alpha 3401021 0 0.5\n# textflame 0 0\n@\nアバリスはそう言うと、すばやく\nご馳走をまとめてマスターの手を取り\n囲む姫たちの隙をついて逃げ出した\n\n;;//演出：場所移動\n;;//背景：室内（宿舎とか本拠地？）\n# textwindow \"close\"\n# imagepos 1 0 30\n# imagealpha 1 1 0\n# imageleftin 1 0.6\n# waitandnext 0.6\n\n# effectskip 2000\n# background \"church_room_totaleclipse\"\n# move 3401011 3 0\n# face 3401011 \"angry\"\n# alpha 3401011 1 0\n# mask 3401011 off\n# imagealpha 1 0 0.5\n# imagerightout 1 0.6\n# waitandnext 0.6\n\n# voice 340101 \"abaris_a_0001\"\n# textflame 1 1\n# textboxarrow 0 2\n# textwindow \"normal\"\n@アバリス\nマスター\n私の後ろに隠れてください\n\n;;モノローグ\n# textflame 0 0\n@\nマスターがアバリスの後ろに隠れると\n追いかけてきた斬ル姫たちは\nアバリスの前を通り過ぎて行く\n\n# face 3401011 \"usual\"\n# textflame 1 1\n# textboxarrow 0 2\n@アバリス\nふぅ…\nとりあえず、嵐は去りましたね\n\n;;モノローグ\n# textflame 0 0\n@\n追われているときには\n便利な技だね\nと、マスターが感心する\n\n# face 3401011 \"sad\"\n# textflame 1 1\n# textboxarrow 0 2\n@アバリス\n…でも、\nやっぱり振袖を着てないと\n気づかれないですね\n\n;;モノローグ\n# textflame 0 0\n@\n一瞬、暗い表情になるアバリスに、\nそれなら、また来年も\n一緒に旅してみよう\n\n;;モノローグ\n@\n少しずつでも\n変わっていけるように\nと、マスターが微笑む\n\n# voice 340101 \"abaris_a_0003\"\n# face 3401011 \"usual\"\n# textflame 1 1\n# textboxarrow 0 2\n@アバリス\nはい！そうですね！\nまた来年も、マスターと二人で\n旅がしたいです\n\n;;モノローグ\n# textflame 0 0\n@\nあ、でも…\nとマスターが困った顔をする\n\n;;モノローグ\n@\nアバリスが変わっちゃったら\nまた追いかけられたとき、\n後ろに隠れられなくなるね\n\n;;モノローグ\n@\nマスターがそう言うと\n口を尖らせるアバリス\n\n# voice 340101 \"abaris_a_0005\"\n# face 3401011 \"happy\"\n# textflame 1 1\n# textboxarrow 0 2\n@アバリス\nもう、マスターは\nいじわるですね\n…ふふ\n\n;;モノローグ\n# textflame 0 0\n@\nマスターとアバリスが\n顔を見合わせて\n笑い始める\n\n;;モノローグ\n@\nアバリスの笑顔を見て\n今年もいい年になりそうだ\nそう思うマスターであった"
	}
]