[
	{
		"ID": 221051063,
		"script": ";;-----------------------------------------\n;;ファントム オブ キル\n;;2019ハロウィン：イベントシナリオ\n;;「笑顔をくれなきゃ悪戯しちゃうぞ？」\n;;【EP5】戦闘後\n;;スクリプト最後の背景：街中（夜）\n;;-----------------------------------------\n# script \"lisp\"\n# background \"101_city_night3\"\n# bgmfile \"bgm071\" \"BgmHalloween001\" 0\n;;-----------------------------------------\n;;ハロウィンマサムネ\n# body 3100121\n# pos 3100121 3\n# scale 3100121 0.8 0\n# layer 3100121 2\n# alpha 3100121 0 0\n# mask 3100121 off\n;;ハロウィンアロンダイト\n# body 3100721\n# pos 3100721 3\n# scale 3100721 0.8 0\n# layer 3100721 2\n# alpha 3100721 0 0\n# mask 3100721 off\n;;トレイセーマ隊長\n# body 3830007\n# pos 3830007 3\n# scale 3830007 0.8 0\n# layer 3830007 3\n# alpha 3830007 0 0\n# mask 3830007 off\n;;-----------------------------------------\n;;マサムネとアロンダイトの立ち絵は最初から表示させておいてください\n;;背景：「街中（夜）」のイメージでお願いします\n# move 3100121 2 0\n# face 3100121 \"usual\"\n# alpha 3100121 1 0\n# mask 3100121 on\n# textflame 1 1\n# textboxarrow 0 1\n# move 3100721 4 0\n# face 3100721 \"angry\"\n# alpha 3100721 1 0\n# mask 3100721 on\n@ジャック\nしもべたちを全滅させられたね\n\n# alpha 3100121 0 0.5\n# alpha 3100721 0 0.5\n# alpha 3830007 1 0.5\n# textboxarrow 0 2\n@ルタバガ\n我輩の負けだ\nふふっ、そうか\n\n@ルタバガ\n笑顔でいることが\n悪霊を寄せ付けない\nいちばんの方法だったのだな\n\n@ルタバガ\n町の人々は\nそれを実践していたわけか\n\n# alpha 3100121 1 0.5\n# alpha 3100721 1 0.5\n# alpha 3830007 0 0.5\n# voice 310012 \"masamune_ge_0003\"\n# textboxarrow 0 1\n@マサムネ\n…意識して実践していたのかは\nわからぬがな\n\n# voice 310072 \"arondaito_ge_0032\"\n# textboxarrow 0 3\n@アロンダイト\nですが\nみんなで笑い合って\n疲れも恐怖も吹き飛ばしてしまえば\n\n@アロンダイト\nいつ悪霊が来ても\n人々は戦えるはずです\n\n# emotionbody 1001 10 3100121 40 320\n# effectpattern 1001 3 3\n# effectstart 1001\n# textboxarrow 0 1\n@ジャック\nさぁ、あとはお菓子と笑顔で\n町の人々を\nしもべの憑依を解くだけだよ\n\n;;モノローグ\n# effectskip 1001\n# textflame 0 0\n@\nマスターが\nお菓子を手に取ろうとすると\nマサムネたちがそれを制止した\n\n# voice 310012 \"masamune_ge_0013\"\n# face 3100121 \"sad\"\n# textflame 1 1\n# textboxarrow 0 1\n@マサムネ\n…拙者は笑顔の価値を\n理解していなかったようだ\n\n# voice 310072 \"arondaito_ge_0015\"\n# face 3100721 \"sad\"\n# textboxarrow 0 3\n@アロンダイト\n私もです\n\n# face 3100121 \"usual\"\n# textboxarrow 0 1\n@マサムネ\n武の道に笑いなど不要\nならばこそ\n拙者に笑顔は必要ないと思っていた\n\n# face 3100721 \"angry\"\n# textboxarrow 0 3\n@アロンダイト\nでも、ハロウィンに参加して\n笑顔の大切さを知りました\n\n# textboxarrow 0 3\n@アロンダイト\n…マスターが\nハロウィンに誘ってくれた\n想いも伝わりました\n\n# textboxarrow 0 1\n@マサムネ\n今なら、笑える気がする\n\n# textboxarrow 0 3\n@アロンダイト\nマスターが用意してくれた\nこの衣装もありますからね\n\n;;モノローグ\n# textflame 0 0\n@\nマスターはうなずく\n夜はまだまだこれからだ\n一緒にパーティに参加しよう、と\n\n# textflame 1 1\n# textboxarrow 0 1\n@マサムネ\nああ、ここから楽しもう\nハロウィンを\n\n# voice 310072 \"arondaito_ge_0003\"\n# textboxarrow 0 3\n@アロンダイト\nええ\n素敵な夜を過ごしましょう\n\n;;モノローグ\n# textflame 0 0\n@\nふたりはそう言ってお菓子を手に持ち\n倒れた憲兵の口に\nそっと放り込む\n\n;;演出:できればここでファイル名「masamune_ge_battle_0001」のボイス再生をお願いします\n;;マサムネ・ハロウィンver.の立ち絵を喜の表情で表示。\n# se \"SE_6504\"\n# emotionbody 1002 3 3100121 10 290\n# effectpattern 1002 1 3\n# effectstart 1002\n# voice 310012 \"masamune_ge_battle_0001\"\n# face 3100121 \"happy\"\n# textflame 1 1\n# textboxarrow 0 1\n@マサムネ\nハッピー・ハロウィン！\n\n;;演出:できればここでファイル名「arondaito_ge_battle_0001」のボイス再生をお願いします\n;;アロンダイト・ハロウィンver.の立ち絵を喜の表情で表示。\n# se \"SE_6504\"\n# emotionbody 1003 3 3100721 10 290\n# effectpattern 1003 1 3\n# effectstart 1003\n# voice 310072 \"arondaito_ge_battle_0001\"\n# face 3100721 \"happy\"\n# textboxarrow 0 3\n@アロンダイト\nハッピー・ハロウィン！\n\n;;マサムネのグラフィックを小さく一度ジャンプさせてください。\n# jump 3100121\n# textboxarrow 0 1\n@ジャック\nなんで叫ぶの！\nこの流れで！？\n\n;;モノローグ\n# textflame 0 0\n@\nまだまだ不器用なふたり\nだが、ついに奇跡は起きた\n\n;;モノローグ\n# alpha 3100121 0 0.5\n# alpha 3100721 0 0.5\n@\n倒れた憲兵たちがにこりと笑う\n憑依は解かれた\n笑顔だと認められたのだ\n\n;;モノローグ\n@\n…憲兵たちは起き上がり\nふたりにお礼を言おうとして\n\n;;マサムネ・ハロウィンver.の立ち絵を怒の表情で表示。\n;;アロンダイト・ハロウィンver.の立ち絵を怒の表情で表示。\n# serif 1\n# move 3100121 2 0\n# face 3100121 \"angry\"\n# alpha 3100121 1 0.5\n# mask 3100121 on\n# move 3100721 4 0\n# face 3100721 \"angry\"\n# alpha 3100721 1 0.5\n# mask 3100721 on\n@憲兵たち\nうわ、怖っ！\n\n;;モノローグ\n# se \"SE_5575\"\n# serif 1\n# textwindow \"close\"\n# serif 0\n# textflame 0 0\n@\nと言い残し\n一目散に逃げていってしまった\n\n# voice 310012 \"masamune_ge_0037\"\n# textflame 1 1\n# textboxarrow 0 1\n@マサムネ\nくっ…！\n\n# voice 310072 \"arondaito_ge_0037\"\n# textboxarrow 0 3\n@アロンダイト\nう…く…\n\n;;モノローグ\n# textflame 0 0\n@\nふたりの笑顔は\n一瞬だけのものだったようだ\n\n# face 3100121 \"sad\"\n# face 3100721 \"sad\"\n@\n憲兵たちからも笑顔が怖いと言われ\nさすがにふたりは落ち込んでいる\n\n;;モノローグ\n@\nしかし彼女たちは確かな努力をした\nここは、マスタ－として\n気の利く言葉をかけてやるべきだろう\n\n;;選択肢：\n;;A：…衣装に鬼の角でも足そうか？\n;;B：どんなに怖くても大切な姫だよ\n;;C：僕は好きだよ、ふたりの笑顔\n# select \"…衣装に鬼の角でも足そうか？\" \"select_label_01\" \"どんなに怖くても大切な姫だよ\" \"select_label_02\" \"僕は好きだよ、ふたりの笑顔\" \"select_label_03\"\nしかし彼女たちは確かな努力をした\nここは、マスタ－として\n気の利く言葉をかけてやるべきだろう\n\n;;アンサー：\n;;A：\n# emotionbody 1004 1 3100121 10 310\n# effectpattern 1004 2 0\n# effectstart 1004\n# label \"select_label_01\"\n# labeljump \"select_label_end\"\n# voice 310012 \"masamune_ge_0022\"\n# face 3100121 \"surprise\"\n# textflame 1 1\n# textboxarrow 0 1\n@マサムネ\nなっ、主君っ！？\nこの状況で\n追い討ちをかけてくるのか…\n\n;;B：\n# label \"select_label_02\"\n# labeljump \"select_label_end\"\n# face 3100121 \"usual\"\n# textflame 1 1\n# textboxarrow 0 1\n@マサムネ\n主君も拙者らの笑顔が怖いと\nそう思っているのだな…\n\n;;C：\n# label \"select_label_03\"\n# labeljump \"select_label_end\"\n# face 3100121 \"usual\"\n# voice 310012 \"masamune_ge_0007\"\n# textflame 1 1\n# textboxarrow 0 1\n@マサムネ\n…それでフォローになったと\n思っているのか？ \n\n# label \"select_label_end\"\n# textboxarrow 0 3\n@アロンダイト\nそんな…ひどいです…\n\n# textboxarrow 0 1\n@ジャック\nはははっ！\nでも、ふたりの笑顔が\nこの町を救ったことは確かだよ\n\n@ジャック\n…ありがとう"
	}
]