[
	{
		"ID": 230031104,
		"script": ";;【EP4】\n;;//背景　プール\n# script \"lisp\"\n# background \"sea_resort_day\"\n# bgmfile \"bgm255\" \"BgmSeaDate\" 0\n# body 2300311\n# pos 2300311 3\n# mask 2300311 off\n# textflame 0 0\n@\n異族を退治した後日\nようやくプールの調整が済んだらしい\n\n# textflame 1 1\n# textboxarrow 0 2\n# chara 2300311\n# voice 3003 \"hotengageki_0001\"\n@方天画戟\nやっと思いっきり水につかれるな！\n\n# face 2300311 \"sad\"\n@方天画戟\n…ってなんでとめんだよ\nは？足の怪我が治るまで駄目…？\n\n# face 2300311 \"angry\"\n# voice 3003 \"hotengageki_0007\"\n@方天画戟\nこのくらい、たいしたことねぇだろ\nもう痛みもだいぶ引いたしな\n\n# select \"悪化したらどうするんだ？\" \"select_label_01\" \"方天画戟の事が心配なんだ\" \"select_label_02\" \"今度は反対の足を怪我するかも\" \"select_label_03\"\nこのくらい、たいしたことねぇだろ\nもう痛みもだいぶ引いたしな\n\n# label \"select_label_01\"\n# labeljump \"select_label_end\"\n# textflame 1 1\n# textboxarrow 0 2\n# chara 2300311\n@方天画戟\n…泳いだくらいで悪化しねぇよ\n\n# label \"select_label_02\"\n# labeljump \"select_label_end\"\n# textflame 1 1\n# textboxarrow 0 2\n# chara 2300311\n# face 2300311 \"sad\"\n@方天画戟\nだっ、だからなんでそういうことを…\n\n# label \"select_label_03\"\n# labeljump \"select_label_end\"\n# textflame 1 1\n# textboxarrow 0 2\n# chara 2300311\n@方天画戟\n…そんなわけねーだろ！！\n\n# label \"select_label_end\"\n# textflame 1 1\n# textboxarrow 0 2\n# chara 2300311\n# face 2300311 \"sad\"\n# voice 3003 \"hotengageki_0027\"\n@方天画戟\n…はぁ、そんな心配そうな顔すんなよ\n\n# voice 3003 \"hotengageki_0032\"\n@方天画戟\nわかった\nプールに入るのは\n次の機会までお預けだな\n\n# textflame 0 0\n@\nうん。今日は眺めてるだけ\nおぶってあげるから\nパラソルへ行こう、とマスター\n\n# textflame 1 1\n# textboxarrow 0 2\n# chara 2300311\n# face 2300311 \"sad\"\n# voice 3003 \"hotengageki_0024\"\n@方天画戟\nな…！　なに言ってんだよ、お前…！\n\n# face 2300311 \"angry\"\n@方天画戟\nえ、遠慮してるわけじゃねぇよ！\nほかの奴らもみてるし…！\n\n# voice 3003 \"hotengageki_0013\"\n@方天画戟\n…はぁ、しつこいな\nわかったよ\n\n# face 2300311 \"sad\"\n@方天画戟\nお前ってほんと、変なやつだな…\n\n@方天画戟\nよい、しょっと…\n落としたらただじゃおかないからな\n\n# bgmfile \"bgm256\" \"BgmSeaDate\" 0\n# textflame 0 0\n@\n方天画戟を背負い\nゆっくり歩き出すマスター\n\n# textflame 0 0\n@\n怪我は残念だけど\n無事に異族退治できてよかったね\n\n# textflame 0 0\n@\nけど、無理はだめだよ\nマスターは背中に向かって告げる\n\n# textflame 1 1\n# textboxarrow 0 2\n# chara 2300311\n@方天画戟\nだから、そう…\nお前は優しすぎんだよ\n\n# face 2300311 \"smile\"\n# voice 3003 \"hotengageki_0030\"\n@方天画戟\nでも…\n今日はその…ありがとうな\n\n# face 2300311 \"sad\"\n@方天画戟\nあと…変なこと言ったのは\n本気じゃねぇから…\n\n@方天画戟\n足手まといでも…主君のことは\n見捨てねぇよ\n\n# textflame 0 0\n@\n方天画戟が本気じゃないことは\nわかっていたとマスター\n\n# textflame 1 1\n# textboxarrow 0 2\n# chara 2300311\n# face 2300311 \"smile\"\n# voice 3003 \"hotengageki_0004\"\n@方天画戟\nそうなのか…ははっ\nなんでもお見通しなんだな\n\n# textflame 0 0\n@\n仲間だからね\nマスターは告げる\n\n# textflame 1 1\n# textboxarrow 0 2\n# chara 2300311\n# face 2300311 \"normal\"\n@方天画戟\n信頼でつながる仲間か…\nそういうのもいいな\n\n# fadein \"white\" 1\n# alpha 2300311 0 0\n# textflame 0 0\n@\nその時\nマスターの背後から光がこぼれた\n\n# se \"SE_0602\"\n# textflame 0 0\n@\nそれはまさしく\n彼女が新たなるスキルに\n目覚めた瞬間だった\n\n# alpha 2300311 1 0.5\n# textflame 1 1\n# textboxarrow 0 2\n# chara 2300311\n# face 2300311 \"smile\"\n# voice 3003 \"hotengageki_0001\"\n@方天画戟\n今日は…いろいろ世話になったな\n\n# imageset 0 \"c2300311\"\n# imagealpha 0 0 0\n# voice 3003 \"hotengageki_0005\"\n@方天画戟\n今日の借りは\n…新しい技「神聖プール王国の誓い」で\n返してやるからな\n\n;;「最強になるのはオレだけだが、最強になるにはお前が必要なんだ。これからも頼んだぜ」\n# frameout 0 0.5\n# buttonsout 0 0.5\n# voice 3003 \"hotengageki_kyara_0026\"\n# imagealpha 0 1 0\n# imagepos 0 0 0\n# fadein \"white\" 3\n# textwindow \"close\""
	}
]