[
	{
		"ID": 230031103,
		"script": ";;【EP3】//背景　プール\n# script \"lisp\"\n# background \"sea_resort_day\"\n# bgmfile \"bgm234\" \"BgmSeaEventBattle\" 0\n# body 2300311\n# pos 2300311 3\n# mask 2300311 off\n# textflame 1 1\n# textboxarrow 0 2\n# chara 2300311\n# face 2300311 \"angry\"\n# voice 3003 \"hotengageki_0029\"\n@方天画戟\nうおぉぉぉっ！！\n\n# textflame 0 0\n@\n方天画戟が振るった槍は\nたやすく異族を倒していった\n\n# textflame 0 0\n@\n自分もなにか手伝おう\nマスターがそう告げると…\n\n# textflame 1 1\n# textboxarrow 0 2\n# chara 2300311\n# voice 3003 \"hotengageki_0009\"\n@方天画戟\nはぁ？なに言ってんだ？\nオレはお前まで守ってやれねぇぞ？\n\n@方天画戟\nこんな奴らには負けねぇが\n今の状態じゃお前を守る余裕はない！\n\n# voice 3003 \"hotengageki_0007\"\n@方天画戟\nわかったら、さっさとどっかに\n隠れてるんだな！\n\n# select \"逃げるわけにはいかない！\" \"select_label_01\" \"ついに奥義を見せるときがきたか…\" \"select_label_02\" \"守ってもらう必要なんかないよ\" \"select_label_03\"\nわかったら、さっさとどっかに\n隠れてるんだな！\n\n# label \"select_label_01\"\n# labeljump \"select_label_end\"\n# textflame 1 1\n# textboxarrow 0 2\n# chara 2300311\n@方天画戟\nそれがお前のためだろ！\n\n# label \"select_label_02\"\n# labeljump \"select_label_end\"\n# textflame 1 1\n# textboxarrow 0 2\n# chara 2300311\n@方天画戟\nハッタリはきかねぇよ\n\n# label \"select_label_03\"\n# labeljump \"select_label_end\"\n# textflame 1 1\n# textboxarrow 0 2\n# chara 2300311\n@方天画戟\nは？お前がどうやって異族と戦うんだ\n\n# label \"select_label_end\"\n# textflame 0 0\n@\nとにかく方天画戟だけおいて\n逃げられない\nマスターは告げる\n\n# textflame 1 1\n# textboxarrow 0 2\n# chara 2300311\n# face 2300311 \"sad\"\n# voice 3003 \"hotengageki_0009\"\n@方天画戟\n…さっきから主君の言っていることが\nぜんぜんわかんねぇよ！\n\n@方天画戟\nオレの心配したり―\n\n@方天画戟\nわざわざ危険な戦いに\n加勢しようとしたり―\n\n# face 2300311 \"angry\"\n# voice 3003 \"hotengageki_0023\"\n@方天画戟\nなんでそこまでして\nオレの手助けをしようとするんだよ！\n\n# textflame 0 0\n@\nだって仲間じゃないか一緒に戦うよ\nマスターは告げる\n\n# bgm \"stop\"\n# textflame 1 1\n# textboxarrow 0 2\n# chara 2300311\n# face 2300311 \"sad\"\n@方天画戟\n…………へ？\n\n# voice 3003 \"hotengageki_0028\"\n@方天画戟\n…仲間？　仲間、か…\n\n# bgmfile \"bgm255\" \"BgmSeaDate\" 0\n# face 2300311 \"smile\"\n# voice 3003 \"hotengageki_0005\"\n@方天画戟\nクククっなるほどな…\nもう難しいこと考えんのはヤメだっ！\n\n# face 2300311 \"normal\"\n# voice 3003 \"hotengageki_0006\"\n@方天画戟\n一緒に戦うぞ主君！！\n\n# textflame 0 0\n@\nそう言って笑う方天画戟は輝いていた\n\n# textflame 0 0\n@\nそれはまさしく\n彼女が新たなるスキルに\n目覚めた瞬間だった\n\n# textflame 1 1\n# textboxarrow 0 2\n# chara 2300311\n# face 2300311 \"smile\"\n# voice 3003 \"hotengageki_0032\"\n@方天画戟\nうむ…！新しい技を会得したぜ！\n\n# face 2300311 \"normal\"\n# voice 3003 \"hotengageki_0036\"\n@方天画戟\n…おい、主君！\nオレの身体をささえろ！\n\n# textflame 0 0\n@\nマスターは、方天画戟の足に\n負担がかからないように身体を支える\n\n# se \"SE_0602\"\n# textflame 1 1\n# textboxarrow 0 2\n# chara 2300311\n# face 2300311 \"angry\"\n@方天画戟\n行くぞッ！！\nこれぞ覇道を征す最強の一振り\n『猛火一双画戟』なりぃぃぃーーっ！\n\n# se \"SE_5620\"\n# fadein \"red\" 1\n# shake 1 1\n# textflame 0 0\n@\n方天画戟の一撃は残っていた異族を\n一掃した\n\n# textflame 1 1\n# textboxarrow 0 2\n# chara 2300311\n# face 2300311 \"normal\"\n# voice 3003 \"hotengageki_0001\"\n@方天画戟\n…ふぅ、骨のない奴らだったな\nなぁ、主君？\n\n# face 2300311 \"sad\"\n# voice 3003 \"hotengageki_0012\"\n@方天画戟\n…って、なにオレの事見てんだよ！\n\n# textflame 0 0\n@\n怪我しているみたいだし\n心配なんだ\nと告げるマスター\n\n# bgmfile \"bgm256\" \"BgmSeaDate\" 0\n# textflame 1 1\n# textboxarrow 0 2\n# chara 2300311\n@方天画戟\nな…なんでお前は…\n\n# textflame 0 0\n@\n方天画戟の顔が赤いな…\nマスターは様子のおかしい\n彼女の顔を覗きこむ\n\n# textflame 1 1\n# textboxarrow 0 2\n# chara 2300311\n# face 2300311 \"angry\"\n# voice 3003 \"hotengageki_0024\"\n@方天画戟\nな、なんでもねぇ！\nこっち見んな！\n\n# imageset 0 \"c2300311\"\n# imagealpha 0 0 0\n# textflame 0 0\n@\n…そうか。でも少し休もう\nマスターが肩を貸し\nふたりはパラソルの下へ向かう\n\n;;「天下無双のこのオレが、どうしてお前と目が合わせられねぇんだ…」\n# frameout 0 0.5\n# buttonsout 0 0.5\n# voice 3003 \"hotengageki_kyara_0028\"\n# imagealpha 0 1 0\n# imagepos 0 0 0\n# fadein \"white\" 3\n# textwindow \"close\""
	}
]