[
	{
		"ID": 230101104,
		"script": ";;【ＥＰ４】\n# script \"lisp\"\n# background \"sea_jungle_day\"\n# bgmfile \"bgm230\" \"BgmSeaEvent\" 0\n# body 2301011\n# pos 2301011 3\n# mask 2301011 off\n# scale 2301011 0.8 0\n# alpha 2301011 0 0\n# textflame 0 0\n# textboxarrow 0 2\n@\nあれから数日経って\nロンゴミアントとマスターは\n再びジャングルを散策していた\n\n# alpha 2301011 1 0.5\n# textflame 1 1\n# voice 3010 \"rhongomiant_0001\"\n@ロンゴミアント\nマスター\nそこは足場が濡れていて\n滑りやすいので注意してください\n\n# textflame 1 1\n@ロンゴミアント\n暑くないですか？\n熱中症は危険ですからね\n\n;;モノローグ\n# textflame 0 0\n@\nロンゴミアントは今日もせわしなく\nマスターのお世話をしていく\nその張り切りようは今まで以上だった\n\n# select \"なにか、いいことでもあった？\" \"select_label_01\" \"張り切りすぎてケガしないようにね\" \"select_label_02\" \"ロンゴミアントはこうじゃなきゃ\" \"select_label_03\"\nロンゴミアントは今日もせわしなく\nマスターのお世話をしていく\nその張り切りようは今まで以上だった\n\n# label \"select_label_01\"\n# labeljump \"select_label_end\"\n# face 2301011 \"smile\"\n# textflame 1 1\n# textboxarrow 0 2\n@ロンゴミアント\nはい！\nあなたをお守りできる…\nそれだけで幸せなんです！\n\n# label \"select_label_02\"\n# labeljump \"select_label_end\"\n# face 2301011 \"sad\"\n# textflame 1 1\n# textboxarrow 0 2\n@ロンゴミアント\nもぅ！\n守られる側はあの時で終わりですよ\n\n# label \"select_label_03\"\n# labeljump \"select_label_end\"\n# face 2301011 \"smile\"\n# textflame 1 1\n# textboxarrow 0 2\n@ロンゴミアント\nお待たせいたしました\nこれからもあなたのことを守ります\n\n# label \"select_label_end\"\n# face 2301011 \"normal\"\n# textflame 1 1\n@ロンゴミアント\n私、あの一件で学びました\n物理的なことだけではなく\n健康の面でもサポートするべきだと！\n\n# textflame 1 1\n@ロンゴミアント\nのどが渇いていませんか？\nちょうどフルーツがありますよ\n\n# textflame 1 1\n@ロンゴミアント\nあ、少しお待ちください\nまずは私が毒見をしてからです\n\n# face 2301011 \"smile\"\n# textflame 1 1\n# voice 3010 \"rhongomiant_0020\"\n@ロンゴミアント\n…うん、美味しい！\nこれはぜひとも\n食べていただかないと\n\n# face 2301011 \"normal\"\n# textflame 1 1\n@ロンゴミアント\nさぁ、口を開けてください\nあーん…\n\n;;モノローグ\n# textflame 0 0\n@\nロンゴミアントにいわれるがままに\nマスターは大きく口を開け\n彼女が運ぶフルーツを口にする\n\n;;モノローグ\n# face 2301011 \"sad\"\n# textflame 0 0\n@\nすると突然\n急にロンゴミアントの顔が\n真っ赤になった\n\n;;モノローグ\n# textflame 0 0\n@\nまさか、また熱病か？\n心配するマスターだったが\nロンゴミアントは慌てて否定する\n\n# textflame 1 1\n@ロンゴミアント\nち、違います！\nなんでもないのです！\nただ、その、ちょっと…\n\n# face 2301011 \"normal\"\n# textflame 1 1\n@ロンゴミアント\nなんでもないのですが…\nただ、こうやって過ごせることが\n嬉しいって思っただけです\n\n# eye 2301011 \"close\"\n# textflame 1 1\n@ロンゴミアント\nこうやってこれからも\nこんな風に過ごせたらって…\n思っただけです\n\n;;モノローグ\n# se \"SE_0602\"\n# textflame 0 0\n@\nこれが新スキル\n『ジャングル連合の絆』を\n獲得した瞬間だった\n\n# eye 2301011 \"normal\"\n# textflame 1 1\n@ロンゴミアント\n時には張り切りすぎて\n空回りしてしまうことも\nあるかもしれません\n\n# textflame 1 1\n@ロンゴミアント\nそれがこの前みたいなことに\nなってしまうことも\nあるかもしれません…\n\n# textflame 1 1\n@ロンゴミアント\nだけど、わたしはあなたのお側から\n離れたくありません…いいですか？\n\n;;モノローグ\n# textflame 0 0\n@\nマスターは、もちろんと答え頷く\n\n# face 2301011 \"smile\"\n# imageset 0 \"c2301011\"\n# imagealpha 0 0 0\n# textflame 0 0\n@\nロンゴミアントの瞳は\nその姿を捉えながら\nさらに熱っぽく潤むのだった\n\n;;【ボイス】\n「マスターのことを考えていると、胸が熱くなるのです…」\n# voice 3010 \"rhongomiant_kyara_0028\"\n# frameout 0 0.5\n# buttonsout 0 0.5\n# imagealpha 0 1 0\n# imagepos 0 0 0\n# fadein \"white\" 3\n# textwindow \"close\"\n"
	}
]