[
	{
		"ID": 230181103,
		"script": ";;【EP3】\n# script \"lisp\"\n# background \"sea_beach_day\"\n# bgmfile \"bgm234\" \"BgmSeaEventBattle\" 0\n# body 2301811\n# pos 2301811 3\n# mask 2301811 off\n# body 301851\n# pos 301851 3\n# alpha 301851 0 0\n# textflame 0 0\n@\nあまりの異族の多さに\n徐々にフォルカスは\n圧され始めてしまう\n\n# textflame 0 0\n@\n居ても立っても\nいられなくなったマスターは\n近くに落ちていた石を投げつけた\n\n# textflame 1 1\n# textboxarrow 0 2\n# chara 2301811\n# face 2301811 \"sad\"\n# voice 3018 \"forcas_0022\"\n@フォルカス\n…！\nマスター！？\n\n# face 2301811 \"angry\"\n# voice 3018 \"forcas_battle_0003\"\n@フォルカス\n…っ…たぁぁ！\n\n# textflame 0 0\n@\n異族の意識がマスターに向いた隙に\nフォルカスは自分の周囲の異族を倒し窮地を切り抜けた\n\n# textflame 0 0\n@\nしかし、マスターに\n意識を向けた異族が\nマスターの方へと向かって来る\n\n# textflame 1 1\n# textboxarrow 0 2\n# chara 2301811\n# face 2301811 \"sad\"\n# voice 3018 \"forcas_0018\"\n@フォルカス\nあっ…！\nマスター！！\n\n# face 2301811 \"angry\"\n# voice 3018 \"forcas_0009\"\n@フォルカス\nくっ…\nここからでは直接届かない！\nなにか方法は…！？\n\n@フォルカス\n…っ！\nこの浮き輪を足場に！！\n\n@フォルカス\nどうか…間に合って…\n\n# textflame 0 0\n@\nフォルカスは助走をつけると\n浮き輪を飛び石にして\n大きくジャンプした\n\n# textflame 1 1\n# textboxarrow 0 2\n# chara 2301811\n# voice 3018 \"forcas_battle_0004\"\n@フォルカス\nはあああああああああっ！！\n\n# fadein \"white\" 1\n# textflame 0 0\n@\n彼女の槍がジャンプの勢いを受けて\n大きな光を放つ\n\n# se \"SE_0602\"\n# textflame 1 1\n# textboxarrow 0 2\n# chara 2301811\n@フォルカス\n新奥義…『フロートシースピア』\n\n@フォルカス\nマスターには\n決して手出しさせません！！\n\n# face 2301811 \"usual\"\n@フォルカス\n…マスター！\n間に合ってよかった…\n\n;;//背景：暗転\n;;//背景：海\n# fadeout \"black\" 2\n# waitandnext 2.5\n\n# bgmfile \"bgm256\" \"BgmSeaDate\" 0\n# fadein \"black\" 1\n# textflame 0 0\n@\n異族との戦いを終え、二人は\nビーチへと戻ってきていた\n\n# textflame 1 1\n# textboxarrow 0 2\n# chara 2301811\n# voice 3018 \"forcas_0030\"\n@フォルカス\n先ほど…マスターが異族の注意を\n引きつけてくれたおかげで\n助かりました…\n\n# face 2301811 \"angry\"\n# voice 3018 \"forcas_0011\"\n@フォルカス\nけれど…あんな危険なこと…\nもう止めてください…！\n\n# select \"心配かけてごめん…\" \"select_label_01\" \"悪かった…\" \"select_label_02\" \"危険だった…かな？\" \"select_label_03\"\nけれど…あんな危険なこと…\nもう止めてください…！\n\n# label \"select_label_01\"\n# labeljump \"select_label_end\"\n# textflame 1 1\n# textboxarrow 0 2\n# chara 2301811\n# face 2301811 \"smile\"\n@フォルカス\nマスターは…\n大事なマスターなんですから…\n\n# label \"select_label_02\"\n# labeljump \"select_label_end\"\n# textflame 1 1\n# textboxarrow 0 2\n# chara 2301811\n# face 2301811 \"normal\"\n@フォルカス\n…り、理解して\nいただければいいんです\n\n# label \"select_label_03\"\n# labeljump \"select_label_end\"\n# textflame 1 1\n# textboxarrow 0 2\n# chara 2301811\n# face 2301811 \"sad\"\n@フォルカス\nな！\n危険に決まっているじゃないですか！\n\n# label \"select_label_end\"\n# face 2301811 \"normal\"\n@フォルカス\nマスターになにかあったら…\n本当に困るんですから…\n\n# textflame 0 0\n@\nわかった…じゃあ\n今度は自分の番と\nマスターはフォルカスに向き合う\n\n# textflame 0 0\n@\n…さっき避けていた理由を\n教えてほしいな\n\n;;トゲトゲ吹き出し\n# textwindow \"toge\"\n# textflame 1 1\n# textboxarrow 0 0\n# chara 2301811\n# face 2301811 \"sad\"\n# voice 3018 \"forcas_0013\"\n@フォルカス\nそ…それは…！\n\n;;もやもや吹き出し\n# move 2301811 3 0\n# textwindow \"moya\"\n# textboxarrow 0 0\n@フォルカス\n(そうだ…やっぱり…\nマスターしか出会わなかった…\nと、ということは…)\n\n# textwindow \"nomal\"\n# textflame 0 0\n@\n赤くなって目を泳がせるフォルカスを\n不思議に思っていると…\n\n# textflame 1 1\n# textboxarrow 0 2\n# chara 2301811\n# face 2301811 \"normal\"\n# voice 3018 \"forcas_0042\"\n@フォルカス\nあれは、ただ…その…\n占いが当たっただけです！！\n\n# textflame 0 0\n@\nそう言って浮き輪を抱え、\nふいと赤い顔をそむけるフォルカス\n\n# imageset 0 \"c2301811\"\n# imagealpha 0 0 0\n# textflame 0 0\n@\nマスターは答えが理解できぬまま\nただ、首をかしげるのだった…\n\n;;「不思議な感じがします…あ、いえ、嬉しいってことです」\n# voice 30185 \"forcas_kyara_2018\"\n# frameout 0 0.5\n# buttonsout 0 0.5\n# imagealpha 0 1 0\n# imagepos 0 0 0 \n# fadein \"white\" 3\n# textwindow \"close\""
	}
]