[
	{
		"ID": 231040051,
		"script": ";;2019 イースターイベント シナリオ\n;;【エピソード5】Lucky Eggs!\n;;背景：森（昼）\n;;-----------------------------------------\n# script \"lisp\"\n# background \"forest\"\n# bgmfile \"bgm327_328\" \"BgmEaster001\" 0\n;;-----------------------------------------\n;;シユウ\n# body 3201921\n# pos 3201921 3\n# scale 3201921 0.8 0\n# alpha 3201921 1 0\n# mask 3201921 off\n;;ヴァナルガンド\n# body 3601121\n# pos 3601121 3\n# scale 3601121 0.8 0\n# alpha 3601121 0 0\n# mask 3601121 off\n;;-----------------------------------------\n# face 3201921 \"sad\"\n# textflame 0 0\n@\nヴァナルガンドに謝ることを約束した\nシユウとマスターは、\nパーティーの会場へと戻ってきた\n\n# textflame 0 0\n@\n会場はにわかに盛り上がっていた\nどうやらレースの参加者を\n募っているようだ\n\n# se \"SE_5602\"\n# textflame 0 0\n@\nマスターとシユウの帰りに気付いた\nヴァナルガンドは、二人のもとへ\n駆け寄ってくる\n\n# alpha 3201921 0 0.5\n# alpha 3601121 1 0.5\n# textflame 1 1\n# textboxarrow 0 2\n# face 3601121 \"surprise\"\n@ヴァナルガンド\nあ、マスターさん、\n例のエッグレースだそうです～\n\n# textflame 1 1\n# textboxarrow 0 2\n# voice 360112 \"vanargand_t_0004\"\n# face 3601121 \"normal\"\n@ヴァナルガンド\n優勝すると、幸運を呼ぶという\n「伝説のイースターエッグ」が\nもらえるそうですよ～\n\n# textflame 0 0\n@\n先ほどまで大人しかったシユウだが\nその単語をきくやいなや、顔を上げ\n目を輝かせる\n\n# emotionbody 1000 1 3201921 30 210\n# effectpattern 1000 1 0\n# effectstart 1000\n# alpha 3601121 0 0.5\n# alpha 3201921 1 0.5\n# textflame 1 1\n# textboxarrow 0 2\n# voice 320192 \"chihyu_a_0023\"\n# face 3201921 \"surprise\"\n@シユウ\nあの、うわさにきいた、\nでんせつのいーすたーえっぐか！\nよし、えっぐれーすにでるぞ！\n\n# textflame 0 0\n@\nレースは二人一組で出場だって、\nとマスターは出場条件を確認する\n\n# alpha 3601121 1 0.5\n# alpha 3201921 0 0.5\n# textflame 1 1\n# textboxarrow 0 2\n# voice 360112 \"vanargand_t_0003\"\n@ヴァナルガンド\n私が、シユウと一緒に出ます～\n\n# alpha 3601121 0 0.5\n# alpha 3201921 1 0.5\n# textflame 1 1\n# textboxarrow 0 2\n# face 3201921 \"sad\"\n@シユウ\nそ、そうか！\nヴァナルガンドがそういうなら、\nしかたがないな！\n\n# alpha 3601121 1 0.5\n# alpha 3201921 0 0.5\n# textflame 1 1\n# textboxarrow 0 2\n# voice 360112 \"vanargand_t_0004\"\n@ヴァナルガンド\nシユウが騒ぎを起こさないよう、\n私がしっかり見張っておきます～\nマスターさん、応援してくださいね\n\n;;演出：場面転換\n# imageset 0 \"black\"\n# imagealpha 0 0 0\n# imagelayer 0 1\n# waitandnext 0.2\n\n;;暗転挟む\n# imagealpha 0 1 0\n# imagepos 0 0 30\n# imageleftin 0 0.5\n# serif 0\n# textwindow \"close\"\n# serif 1\n# textwindow \"close\"\n# waitandnext 1\n\n# move 3601121 4 0\n# mask 3601121 on\n# alpha 3601121 0 0\n# move 3201921 2 0\n# mask 3201921 on\n# alpha 3201921 0 0\n# imagealpha 0 0 0.5\n# imagerightout 0 0.5\n# serif 0\n# textwindow \"nomal\"\n# textflame 0 0\n@\nエッグレースは、スプーンに卵を\n乗せて運ぶ早さを競うゲームだ\n\n# textflame 0 0\n@\nこのパーティーでは、二人で一つの\n卵をリレー方式で運ぶらしい\n\n# textflame 0 0\n@\nあの二人、仲直りしたかなぁ、と\nマスターはスタート地点に目をやる\n\n;;演出：場面転換\n# imageset 0 \"black\"\n# imagealpha 0 0 0\n# imagelayer 0 1\n# waitandnext 0.2\n\n;;暗転挟む\n# imagealpha 0 1 0\n# imagepos 0 0 30\n# imageleftin 0 0.5\n# serif 0\n# textwindow \"close\"\n# serif 1\n# textwindow \"close\"\n# waitandnext 1\n\n# alpha 3601121 1 0\n# alpha 3201921 1 0\n# imagealpha 0 0 0.5\n# imagerightout 0 0.5\n# serif 0\n# textwindow \"nomal\"\n# textflame 1 1\n# textboxarrow 0 1\n@シユウ\n…………\n\n# textflame 1 1\n# textboxarrow 0 3\n@ヴァナルガンド\n…………\n\n# textflame 0 0\n@\nスタート地点の二人は、それぞれ\n無言で準備を進めていたが、\nヴァナルガンドがその沈黙を破る\n\n# textflame 1 1\n# textboxarrow 0 3\n# voice 360112 \"vanargand_t_0002\"\n@ヴァナルガンド\nシユウ、準備はできましたか～？\nレースでは転ばないように、\n気をつけてくださいね～\n\n# emotionbody 1004 6 3201921 50 140\n# effectpattern 1004 1 0\n# effectstart 1004\n# textflame 1 1\n# textboxarrow 0 1\n# voice 320192 \"chihyu_a_0015\"\n# face 3201921 \"angry\"\n@シユウ\n…うう、こどもあつかいするなぁ！\nおまえこそ、あしをひっぱるなよ！\n\n# textflame 0 0\n@\n謝りたい気持ちはあるのだが、\nうまく言葉にできずにもやもやして、\nシユウはつい乱暴に声をかけてしまう\n\n# emotionbody 1012 8 3601121 -100 160\n# effectpattern 1012 1 0\n# effectstart 1012\n# textflame 1 1\n# textboxarrow 0 3\n# voice 360112 \"vanargand_t_0027\"\n# face 3601121 \"sad\"\n@ヴァナルガンド\nはぁ…\n自分勝手な行動は、\nできるだけ我慢してくださいね～\n\n# textflame 0 0\n@\nヴァナルガンドの方は、\nシユウがまだ怒っていると思い、\n刺激しないように事務的に返す\n\n# effectskip 1012\n# alpha 3601121 0 0.5\n# alpha 3201921 0 0.5\n# textflame 0 0\n@\n二人を心配するマスターが見守る中、\nエッグレースがスタートした"
	}
]