[
	{
		"ID": 240071104,
		"script": ";;【EP4】\n# script \"lisp\"\n# background \"sea_beach_night\"\n# bgmfile \"bgm256\" \"BgmSeaDate\" 0\n# body 2400711\n# pos 2400711 3\n# mask 2400711 off\n# textflame 0 0\n@\n―とある夜。\n水着姿のシェキナーと、\nばったり出会った\n\n# textflame 1 1\n# textboxarrow 0 2\n# chara 2400711\n# face 2400711 \"sad\"\n# voice 4007 \"shekina_0001\"\n@シェキナー\nあ、マスター！\nこんな時間に奇遇ですね\n\n# select \"こんな時間にトレーニングか？\" \"select_label_01\" \"夜なのに泳ぎに行くのか？\" \"select_label_02\" \"敵襲か！？\" \"select_label_03\"\nあ、マスター！\nこんな時間に奇遇ですね\n\n# label \"select_label_01\"\n# labeljump \"select_label_end\"\n# textflame 1 1\n# textboxarrow 0 2\n# chara 2400711\n# face 2400711 \"normal\"\n@シェキナー\nいえ、違いますよ\nトレーニングは54分前に終わりました\n\n# label \"select_label_02\"\n# labeljump \"select_label_end\"\n# textflame 1 1\n# textboxarrow 0 2\n# chara 2400711\n# face 2400711 \"angry\"\n@シェキナー\nまさか！\nこの時間は遊泳禁止です！\nマスターもダメですよ！\n\n# label \"select_label_03\"\n# labeljump \"select_label_end\"\n# textflame 1 1\n# textboxarrow 0 2\n# chara 2400711\n@シェキナー\nあ、いえ…\nこの弓矢はそう言うのではなくて…\n\n# label \"select_label_end\"\n# face 2400711 \"normal\"\n@シェキナー\n実はこれから花火大会の\n打ち上げ係を頼まれているんです\n\n@シェキナー\nこの間ふたりで上げた花火を\n見た人がいたらしくて…\n\n# textflame 0 0\n@\n独りでは大変そうだ…。\n手伝おうか？\n\n# textflame 1 1\n# textboxarrow 0 2\n# chara 2400711\n# face 2400711 \"smile\"\n# voice 4007 \"shekina_0030\"\n@シェキナー\n本当ですか…？\nありがとうございます！\n\n;;//暗転（時間経過）\n# fadeout \"black\" 2\n# waitandnext 2.5\n\n# fadein \"black\" 1\n# face 2400711 \"normal\"\n# textflame 0 0\n@\n花火大会の会場へ行くと、\n多くの人が今か今かと待っていた\n\n# textflame 1 1\n# textboxarrow 0 2\n# chara 2400711\n@シェキナー\n時間が迫っています\nさっそく準備をしましょう\n\n# textflame 0 0\n@\nシェキナーとふたりで、\n矢に花火を付け始める\n\n# textflame 1 1\n# textboxarrow 0 2\n# chara 2400711\n# face 2400711 \"sad\"\n@シェキナー\n…マスター\nこの間の夜のことなんですが―\n\n# voice 4007 \"shekina_0028\"\n@シェキナー\nあれだけ多くの花火を\n勝手に打ち上げて\n私は怒られると思っていました\n\n@シェキナー\n…けれど、怒られるどころか\nこうして皆を喜ばせる催しまで\n任されて…\n\n# face 2400711 \"normal\"\n@シェキナー\n規則を守ることは大切ですが、\nそれがすべてではないのですね\n\n# voice 4007 \"shekina_0004\"\n@シェキナー\nそのことに気づけたのは…\nマスター、あなたのおかげです\n\n# face 2400711 \"smile\"\n@シェキナー\n…さあ、\nそろそろ打ち上げの時間ですね\n\n# textflame 0 0\n@\nシェキナーは立ち上がると、\n花火付きの矢を空へと放っていく\n\n# fadein \"white\" 1.5\n# background \"sea_fireworks\"\n# se \"SE_0605\"\n# sedelay \"SE_0605\" 1\n# textflame 0 0\n@\n打ち上げられた花火は、\n夜空で次々と開花する\n\n# textflame 0 0\n@\n観客達の上げる歓声をききながら\nシェキナーは嬉しそうに微笑んでいた\n\n# fadein \"white\" 2\n# envbody 1701 8 0\n# effectpattern 1701 1 0\n# effectstart 1701\n# textflame 0 0\n@\nその瞬間、\n彼女の身体が光につつまれた\n\n# textflame 0 0\n@\nそれはまさしく、\n彼女が新たなるスキルに\n目覚めた瞬間だった\n\n# se \"SE_0602\"\n# textflame 1 1\n# textboxarrow 0 2\n# chara 2400711\n# voice 4007 \"shekina_0005\"\n@シェキナー\n時には形にとらわれずに矢を放つ…\n新技『海浜ビーチ帝国の誇り』です！\n\n# face 2400711 \"normal\"\n@シェキナー\nこれなら、今まで以上に\nいろんな状況で、いろんな人を\n救えます！\n\n# voice 4007 \"shekina_0001\"\n@シェキナー\nでも…夜空の花火が終わるまで、\nもう少しかかります\n\n# imageset 0 \"c2400711\"\n# imagealpha 0 0 0\n# voice 4007 \"shekina_0042\"\n@シェキナー\nだから…今だけは\n時間を忘れてあなたと…\n\n;;「マスターとなら、私は上手くやっていける。そんな気がするんです。…おかしいですか？」\n# effectskip 1701\n# voice 4007 \"shekina_kyara_0018\"\n# frameout 0 0.5\n# buttonsout 0 0.5\n# imagealpha 0 1 0\n# imagepos 0 0 0 \n# fadein \"white\" 3\n# textwindow \"close\"\n"
	}
]