[
	{
		"ID": 240041103,
		"script": ";;【EP3】背景・川辺\n# script \"lisp\"\n# background \"sea_jungle_day\"\n# bgmfile \"bgm230\" \"BgmSeaEvent\" 0\n# body 2400411\n# pos 2400411 3\n# mask 2400411 off\n# alpha 2400411 0 0\n# textflame 0 0\n# textboxarrow 0 2\n# chara 2400411\n# face 2400411 \"sad\"\n@\n居なくなってしまった\nエロースを探し回り\nやっと見つけることができたマスター\n\n# alpha 2400411 1 1\n# textflame 1 1\n# textboxarrow 0 2\n# chara 2400411\n# voice 4004 \"erosu_0015\"\n@エロース\nうぅ…今日のエロースは\nだめだめですぅ…\n\n# textflame 0 0\n@\n岩場の影に隠れるようにして、\nエロースはうずくまっていた\n\n# textflame 1 1\n# textboxarrow 0 2\n# chara 2400411\n# voice 4004 \"erosu_0019\"\n@エロース\n自分ばっかり楽しんじゃって…\nマスターの疲れも見抜けなくて…\n恋人さん失格ですぅ…\n\n# textflame 1 1\n# textboxarrow 0 2\n# chara 2400411\n@エロース\nあ、でもエロースは本物の\n恋人さんじゃないですけどぉ…\n\n# textflame 0 0\n@\nエロースはそんなことを言いながら、\n足下のサワガニをつついている\n\n# textflame 1 1\n# textboxarrow 0 2\n# chara 2400411\n# voice 4004 \"erosu_0027\"\n@エロース\n思い返せば、\nエロースはいつもこうですぅ…\n\n# textflame 1 1\n# textboxarrow 0 2\n# chara 2400411\n@エロース\n人の恋にばっかり夢中になって、\nすぐ近くのことに気づけなくて…\n今日だってマスターを振り回して…\n\n# textflame 1 1\n# textboxarrow 0 2\n# chara 2400411\n@エロース\nきっと、マスターも\n楽しくなかったはずですぅ…\n\n# textflame 0 0\n@\n悲しげにそう言うエロースを\n見ていられなくなり、マスターは\n彼女に近づく\n\n# textflame 1 1\n# textboxarrow 0 2\n# chara 2400411\n# voice 4004 \"erosu_0023\"\n@エロース\nえっ、ふええ！？\nま、マスター、\nいつからそこにいたんですかぁ！？\n\n# textflame 0 0\n@\n驚く彼女に、\nデートはとても楽しかったと告げる\n\n# textflame 1 1\n# textboxarrow 0 2\n# chara 2400411\n# face 2400411 \"normal\"\n@エロース\nふえっ…！？えぇぇっ！？\n楽しかったなんてそんな…\n\n# textflame 1 1\n# textboxarrow 0 2\n# chara 2400411\n# voice 4004 \"erosu_0008\"\n@エロース\nって、恥ずかしいところを\n見られてしまいましたぁ…！\n\n# textflame 0 0\n@\n慌てる彼女の様子が可愛くて、\n思わず微笑んでしまうマスター\n\n# textflame 1 1\n# textboxarrow 0 2\n# chara 2400411\n# voice 4004 \"erosu_0009\"\n# face 2400411 \"angry\"\n@エロース\nな、なんで笑ってるんですかぁ～？\nもう、マスターの意地悪ぅ～！\n\n# textflame 0 0\n@\n笑われたのが不満なのか、\nぷく～っと頬を膨らませる\nエロース\n\n# textflame 0 0\n@\nそんな彼女に、\n可愛かったから思わず\n笑ってしまったと告げる\n\n# textflame 1 1\n# textboxarrow 0 2\n# chara 2400411\n# face 2400411 \"normal\"\n@エロース\nはぅ…か、可愛かったって…\nそ、それもずるいですよぅ\n\n# textflame 1 1\n# textboxarrow 0 2\n# chara 2400411\n# voice 4004 \"erosu_0042\"\n@エロース\nそんなこと言われたら…\nエロース、ちょっと勘違い\nしちゃうかもですぅ…\n\n# textflame 1 1\n# textboxarrow 0 2\n# chara 2400411\n# face 2400411 \"smile\"\n@エロース\nって、それよりも、ですっ！\nエロースとのでーと、\n楽しかったって…ほんとですかぁ？\n\n# textflame 0 0\n@\n彼女の問いにうなずき、エロースには\n側にいるだけで誰かを楽しくさせる\nような力があるのかもねと、マスター\n\n# textflame 1 1\n# textboxarrow 0 2\n# chara 2400411\n# face 2400411 \"normal\"\n@エロース\n側にいるだけで、誰かを…\n\n# textflame 1 1\n# textboxarrow 0 2\n# chara 2400411\n@エロース\nエロースはマスターをちゃんと\n楽しい気持ちにできてたんですね…\n\n# textflame 1 1\n# textboxarrow 0 2\n# chara 2400411\n@エロース\nエロースにも、\n誰かを楽しませられるって\n気付かせてくれたマスター…\n\n# textflame 1 1\n# textboxarrow 0 2\n# chara 2400411\n# face 2400411 \"smile\"\n@エロース\nエロースはそんな大切なマスターを\n守りたい…\n\n# textflame 1 1\n# textboxarrow 0 2\n# chara 2400411\n# voice 4004 \"erosu_0022\"\n# face 2400411 \"angry\"\n@エロース\nあっ…この感じ、この感覚！\nマスターを守りたいって気持ちが、\n奥義になりましたよぉ！\n\n# se \"SE_0602\"\n# textflame 1 1\n# textboxarrow 0 2\n# chara 2400411\n# voice 4004 \"erosu_0020\"\n# face 2400411 \"smile\"\n@エロース\n題して、『夏空☆恋プレス』ですぅ！\nえへへっ♪\n\n# textflame 1 1\n# textboxarrow 0 2\n# chara 2400411\n# voice 4004 \"erosu_0004\"\n@エロース\nふふっ♪なんだか、\n元気が戻ってきましたよ～\n\n# textflame 1 1\n# textboxarrow 0 2\n# chara 2400411\n# voice 4004 \"erosu_0001\"\n# face 2400411 \"normal\"\n@エロース\nねぇ、マスター！\n疑似でーとの続き、\nしてもいいですか？\n\n;;一枚絵仮\n# imageset 0 \"c2400411\"\n# imagealpha 0 0 0\n# textflame 0 0\n@\n上目づかいでそう聞いてくる彼女に、\nそっとうなづくマスターであった\n\n;;「しかたないなぁ。こういうのをしてあげるのはマスターだけなんだからねっ」\n# voice 4004 \"erosu_kyara_0026\"\n# frameout 0 0.5\n# buttonsout 0 0.5\n# imagealpha 0 1 0\n# imagepos 0 0 0\n# fadein \"white\" 3\n# textwindow \"close\"\n"
	}
]