[
	{
		"ID": 240031102,
		"script": ";;アポロン_海上編_ＥＰ２\n# script \"lisp\"\n# background \"sea_jungle_day\"\n# bgmfile \"bgm230\" \"BgmSeaEvent\" 0\n# body 2400311\n# pos 2400311 3\n# mask 2400311 off\n# face 2400311 \"sad\"\n# textflame 1 1\n# textboxarrow 0 2\n# chara 2400311\n@アポロン\n…………\n\n# face 2400311 \"angry\"\n# textflame 1 1\n# textboxarrow 0 2\n# chara 2400311\n# voice 4003 \"aporon_0014\"\n@アポロン\nあーもー！！\n全然物足りないー！！\n\n# face 2400311 \"sad\"\n# textflame 1 1\n# textboxarrow 0 2\n# chara 2400311\n@アポロン\nアルテミスお姉ちゃんがいないと…\n全然楽しくないよぉ…\n\n# face 2400311 \"angry\"\n# textflame 1 1\n# textboxarrow 0 2\n# chara 2400311\n# voice 4003 \"aporon_0017\"\n@アポロン\nしかもマスターってば、軟弱すぎ！\nジャングルの中を探索しただけで\nもう疲れちゃったの？\n\n# face 2400311 \"normal\"\n# textflame 1 1\n# textboxarrow 0 2\n# chara 2400311\n@アポロン\nもう、これだから…\nしょうがないなあ…\nどこかでちょっと休もうか…\n\n# textflame 0 0\n@\nごめん、と謝りながら\n彼女を追いかけるマスター\n\n# eye 2400311 \"close\"\n# textflame 1 1\n# textboxarrow 0 2\n# chara 2400311\n# voice 4003 \"aporon_0013\"\n@アポロン\nべつに…謝らなくていいし…\n\n# eye 2400311 \"normal\"\n# textflame 1 1\n# textboxarrow 0 2\n# chara 2400311\n@アポロン\nよっと…この辺がいいかな…\n\n# textflame 1 1\n# textboxarrow 0 2\n# chara 2400311\n@アポロン\nって、うん？\nなんだろ水の流れる音、かな？\nたしかこっちから…\n\n# textflame 0 0\n@\n水の音に引かれて\nその方向へと歩いていくアポロン\n\n# textflame 0 0\n@\nそして急に立ち止まった彼女に\nぶつかってしまったが\nアポロンは気にせず前を見ていた\n\n# textflame 1 1\n# textboxarrow 0 2\n# chara 2400311\n@アポロン\nすごい…\n\n# textflame 0 0\n@\nそう呟いた彼女に\nどうしたの？と問いかけながら\n彼女の視線の先を見ると…\n\n# voice 4003 \"aporon_0041\"\n# textflame 1 1\n# textboxarrow 0 2\n# chara 2400311\n@アポロン\nこんなにきれいな湖\n初めて見たかも…\n\n# textflame 0 0\n@\n目が釘付けになるくらいに\n滝の流れる綺麗な湖が\nそこにはあった\n\n# eye 2400311 \"close\"\n# textflame 1 1\n# textboxarrow 0 2\n# chara 2400311\n@アポロン\n鳥の声に…気持ちのいい風…\n滝の音と、湖を照らす日の光…\n\n# textflame 1 1\n# textboxarrow 0 2\n# chara 2400311\n@アポロン\nうん、なんだろ…\n少しだけ、満たされてくみたいな…\n\n# eye 2400311 \"normal\"\n# face 2400311 \"smile\"\n# textflame 1 1\n# textboxarrow 0 2\n# chara 2400311\n# voice 4003 \"aporon_0004\"\n@アポロン\nさっきまでの変な気分が\nウソみたいにすっきりしちゃったよ…\n\n# select \"うん、疲れが癒されるみたいだね\" \"select_label_01\" \"これはいいところを見つけたね\" \"select_label_02\" \"ここなら楽しめそう？\" \"select_label_03\"\nさっきまでの変な気分が\nウソみたいにすっきりしちゃったよ…\n\n# label \"select_label_01\"\n# labeljump \"select_label_end\"\n# textflame 1 1\n# textboxarrow 0 2\n# chara 2400311\n# voice 4003 \"aporon_0021\"\n@アポロン\nマスターもこういうのわかるんだ…\nうんうん、まさに神秘の泉\nみたいな感じだよね♪\n\n# label \"select_label_02\"\n# labeljump \"select_label_end\"\n# textflame 1 1\n# textboxarrow 0 2\n# chara 2400311\n# voice 4003 \"aporon_0021\"\n@アポロン\nジャングル探索の成果としては\nかなりいい感じだし…\nここまで来た甲斐があったかも♪\n\n# label \"select_label_03\"\n# labeljump \"select_label_end\"\n# face 2400311 \"angry\"\n# textflame 1 1\n# textboxarrow 0 2\n# chara 2400311\n# voice 4003 \"aporon_0013\"\n@アポロン\n楽しめそう…だけど！\nマスターだけとじゃ、まだ全然！\n物足りないって言ってるじゃん！\n\n# label \"select_label_end\"\n# face 2400311 \"normal\"\n# textflame 1 1\n# textboxarrow 0 2\n# chara 2400311\n# voice 4003 \"aporon_0028\"\n@アポロン\nけどそうだなー\nここでなにをしたら\n楽しくなりそうかな…\n\n# textflame 1 1\n# textboxarrow 0 2\n# chara 2400311\n@アポロン\nここでやったら楽しいこと…\nうう～ん…そうだ！\n\n# textflame 0 0\n@\n真剣に悩み始めたアポロンは\nなにかを思いついたように手を叩いた\n\n# face 2400311 \"smile\"\n# textflame 1 1\n# textboxarrow 0 2\n# chara 2400311\n# voice 4003 \"aporon_0039\"\n@アポロン\n音楽とかよさそうかも！\n\n# textflame 1 1\n# textboxarrow 0 2\n# chara 2400311\n@アポロン\nここで音楽を奏でたら\nきっと楽しいんじゃない？\n\n# face 2400311 \"sad\"\n# textflame 1 1\n# textboxarrow 0 2\n# chara 2400311\n@アポロン\nあーでも、楽器がないんだった…\n\n# textflame 1 1\n# textboxarrow 0 2\n# chara 2400311\n@アポロン\n楽器がなかったら\nそもそも演奏もできないし\nまあしょうがないかな～\n\n# textflame 0 0\n@\n残念そうにする彼女は\nため息をつきながら\n別のことをしようと湖に背を向ける\n\n# face 2400311 \"normal\"\n# textflame 1 1\n# textboxarrow 0 2\n# chara 2400311\n# voice 4003 \"aporon_0006\"\n@アポロン\nさーってと！それじゃあまた\nジャングル探索でもしよーっと\n\n# textflame 1 1\n# textboxarrow 0 2\n# chara 2400311\n@アポロン\nマスターはあんまり無理せずに\nここで休んでてもいいよ？\n本気で疲れてるっぽいし…\n\n# face 2400311 \"sad\"\n# textflame 1 1\n# textboxarrow 0 2\n# chara 2400311\n# voice 4003 \"aporon_0034\"\n@アポロン\n大丈夫って…\n全然そうはみえないけど…\n\n# face 2400311 \"normal\"\n# textflame 1 1\n# textboxarrow 0 2\n# chara 2400311\n@アポロン\nもお、そんなに元気なら\nアルテミスお姉ちゃんを呼んできてよ\n\n# textflame 0 0\n@\nそんなこと言われてもなぁと、\n少し困ってしまうのだが\nふと、あることを思いつく\n\n# textflame 0 0\n@\n楽器があればと\n湖を見つめていた彼女のために\n自分にもなにかできるのでは、と…"
	}
]