[
	{
		"ID": 240081103,
		"script": ";;■EP3\n# script \"lisp\"\n# background \"sea_beach_day\"\n# bgmfile \"bgm227\" \"BgmSeaEvent\" 0\n# body 2400811\n# pos 2400811 3\n# mask 2400811 off\n# textboxarrow 0 2\n# chara 2400811\n# alpha 2400811 0 0\n# textflame 0 0\n@\nマスターは砂浜に体育座りをした\nオティヌスを見つけ、声をかけた\n\n# alpha 2400811 1 1\n# face 2400811 \"sad\"\n# textflame 1 1\n# voice 4008 \"otyinusu_0009\"\n@オティヌス\n…放っておいてよ\nマスターの顔なんて\n見たくもないんだから\n\n# textflame 0 0\n@\n顔を見るは必要ないと\nマスターは用意してきたものを\nそっと差し出す\n\n# textflame 1 1\n# voice 4008 \"otyinusu_0007\"\n@オティヌス\n…なに？手紙？\n\n# textflame 0 0\n@\nオティヌスは不思議そうに\nマスターが書いた手紙に目を落とした\n\n# face 2400811 \"angry\"\n# textflame 1 1\n# voice 4008 \"otyinusu_0042\"\n@オティヌス\nな、な、なんなの！\nこの恥ずかしい手紙は！\n\n# textflame 0 0\n@\n手紙の内容はマスターから\nオティヌスへ向けた素直な気持ちや\nいかに大事な存在かが書かれていた\n\n# textflame 0 0\n@\nマスターは、これで伝わったかな？\nと問いかける\n\n# face 2400811 \"sad\"\n# textflame 1 1\n# voice 4008 \"otyinusu_0001\"\n@オティヌス\nマスター…\nあたしのために\nこんなに長い手紙を…？\n\n# textflame 0 0\n@\nマスターは照れながら\n自分にとってオティヌスは\nどんな存在なのか…\n\n# textflame 0 0\n@\nそれを再確認する意味も込めて\n書いてみたのだと口にする\n\n# eye 2400811 \"close\"\n# textflame 1 1\n# voice 4008 \"otyinusu_0004\"\n@オティヌス\nそっか…伝わったよ\nうん。文字の一つ一つから\nあたしへの気持ちが伝わってくる\n\n# eye 2400811 \"normal\"\n# face 2400811 \"smile\"\n# textflame 1 1\n# voice 4008 \"otyinusu_0031\"\n@オティヌス\nあたしも反省しなきゃね！\n勝手に勘違いして、大声あげて…\n\n# face 2400811 \"angry\"\n# textflame 1 1\n# voice 4008 \"otyinusu_0008\"\n@オティヌス\nあー、もう！\n情けないったらありゃしない！\n\n# textflame 0 0\n@\nオティヌスがいつもの元気を\n取り戻したようで\nマスターもホッとする\n\n# face 2400811 \"normal\"\n# textflame 1 1\n# voice 4008 \"otyinusu_0003\"\n@オティヌス\nあたし、今回のことでわかったよ！\n本音と本音でぶつかりあっても\nすれ違っちゃうこともあるんだね\n\n# textflame 1 1\n@オティヌス\nそれならあたしは\nちゃんと気持ちを理解できるように\nもっと相手のことを考える！\n\n# textflame 1 1\n@オティヌス\nそうすれば、きっとあたしは変わる！\nもう、陰口なんてたたかせない！\n\n# textflame 0 0\n@\n本音を相手にぶつけるだけではなく\n相手を理解することを学んだ\nオティヌス\n\n# se \"SE_0602\"\n# textflame 0 0\n@\n心の成長により\nオティヌスは新たなスキル\n『弩級マイハート』を会得する\n\n# face 2400811 \"sad\"\n# textflame 1 1\n# voice 4008 \"otyinusu_0001\"\n@オティヌス\nねえマスター\n遅くなっちゃったけど\n今から遊びの続きをしてくれる？\n\n# textflame 1 1\n# face 2400811 \"smile\"\n# voice 4008 \"otyinusu_0020\"\n@オティヌス\nあたし、かき氷食べに行きたいな\n\n# imageset 0 \"c2400811\"\n# imagealpha 0 0 0\n# textflame 0 0\n@\nマスターがもちろんと答えると\nオティヌスは手を取る\n一緒に砂浜を駆け出した\n\n;;【ボイス】\n;;「ねぇ、マスター。カキ氷食べよ！\n;;イチゴがいいかな？　メロン？　迷っちゃうな～…。\n;;バラバラなの頼んで、取り替えっこしよう！」\n# voice 4008 \"otyinusu_event_0009\"\n# frameout 0 0.5\n# buttonsout 0 0.5\n# imagealpha 0 1 0\n# imagepos 0 0 0\n# fadein \"white\" 3\n# textwindow \"close\""
	}
]