[
	{
		"ID": 241402641,
		"script": ";;-----------------------------------------\n;;モラベガサイド『オーディトリアを抜け』 \n;;【EP1『コロスは歌う』】\n;;-----------------------------------------\n# script \"lisp\"\n# background \"wild\"\n# bgmfile \"bgm263\" \"BgmLostRagnarok001\" 0\n;;-----------------------------------------\n;;リサナウト\n# body 3203011\n# pos 3203011 3\n# scale 3203011 0.8 0\n# layer 3203011 3\n# mask 3203011 off\n# alpha 3203011 0 0\n;;モラベガ\n# body 3104211\n# pos 3104211 3\n# scale 3104211 0.8 0\n# layer 3104211 3\n# mask 3104211 off\n# alpha 3104211 0 0\n;;アルマス（13章）\n# body 172\n# pos 172 3\n# scale 172 0.8 0\n# layer 172 2\n# mask 172 off\n# alpha 172 0 0\n;;兵\n# body 3810001\n# pos 3810001 2\n# scale 3810001 0.8 0\n# layer 3810001 3\n# alpha 3810001 0 0\n# body 3820001\n# pos 3820001 3\n# scale 3820001 0.8 0\n# layer 3820001 5\n# mask 3820001 off\n# alpha 3820001 0 0\n# body 3830001\n# pos 3830001 4\n# scale 3830001 0.8 0\n# layer 3830001 3\n# alpha 3830001 0 0\n# reversal 3830001 0\n;;-----------------------------------------\n# imageset 0 \"bg_white_circle\"\n# imagealpha 0 0 0\n# imagelayer 0 1\n# imagescale 0 1.5 0\n# imageset 1 \"black\"\n# imagealpha 1 0 0\n# imagelayer 1 1\n;;-----------------------------------------\n;;背景：紙芝居のような舞台\n# textwindow \"close\"\n# fadeout \"black\" 0.2\n# imageset 2 \"st_thickcurtain_left\"\n# imagealpha 2 0 0 \n# imageset 3 \"st_thickcurtain_right\"\n# imagealpha 3 0 0 \n# imageset 4 \"st_thickcurtain_top\"\n# imagealpha 4 0 0 \n# frameout 0 0.5\n# waitandnext 0.7\n\n# imagepos 2 -180 0\n# imagepos 3 180 0\n# imagepos 4 0 450\n# imagealpha 2 1 0\n# imagealpha 3 1 0\n# imagealpha 4 1 0\n# waitandnext 0.3\n\n# fadein \"black\" 0.5\n# waitandnext 0.5\n\n# imagemoveto 2 -640 0 2\n# imagemoveto 3 640 0 2\n# waitandnext 2.2\n\n# imagealpha 2 0 0\n# imagealpha 3 0 0\n;;-----------------------------------------\n# alpha 3203011 1 0.5\n# waitandnext 0.5\n\n# face 3203011 \"normal\"\n# voice 2030 \"risanautr_l_0002\"\n# textwindow \"nomal\"\n# textflame 1 1\n# textboxarrow 0 2\n@リサナウト\n知ってるかしら？\n\n# textboxarrow 0 2\n@リサナウト\n付け焼き刃\nという言葉があるわ\n\n# textboxarrow 0 2\n@リサナウト\nなまくらの刀に\nその場しのぎの焼き刃を付け足して\nそれらしく繕ったモノのことね\n\n# textboxarrow 0 2\n@リサナウト\n一見切れそうに見えるけれど\nそんな間に合わせの品では\nすぐに使い物にならなくなるらしいわ\n\n# voice 2030 \"risanautr_l_0003\"\n# textboxarrow 0 2\n@リサナウト\nつまりは、そういうことよ\n\n# textboxarrow 0 2\n@リサナウト\nこれは予言ではない\n確定事象の報告に過ぎないの\n\n# face 3203011 \"smile\"\n# voice 2030 \"risanautr_l_0004\"\n# textboxarrow 0 2\n@リサナウト\nこんな運命\n不愉快よね\n\n# fadeout \"black\" 1\n# waitandnext 1\n\n;;背景：大穴\n# background \"101_hole\"\n# bgmfile \"bgm276\" \"BgmLostRagnarokEvent\" 0\n# alpha 3203011 0 0\n# textwindow \"close\"\n# imagealpha 4 0 0\n# framein 0 0\n# waitandnext 0.2\n\n# fadein \"black\" 1\n# waitandnext 1\n\n# move 3104211 3 0\n# mask 3104211 off\n# alpha 3104211 1 0.5\n# face 3104211 \"angry\"\n# voice 310421 \"morabeaga_l_battle_0004\"\n# textwindow \"nomal\"\n# textboxarrow 0 2\n@モラベガ\n巻きで行くよっ！！\n\n;;複数の斬撃、連合軍兵士達が撃退される\n# textwindow \"close\"\n# alpha 3104211 0 0.5\n# alpha 3810001 1 0.5\n# alpha 3830001 1 0.5\n# waitandnext 0.8\n\n# fadein \"red\" 0.5\n# se \"SE_10588\"\n# waitandnext 0.8\n\n# se \"SE_3001\"\n# alpha 3810001 0 0.5\n# alpha 3830001 0 0.5\n# waitandnext 0.5\n\n;;モノローグ\n# textwindow \"nomal\"\n# textflame 0 0\n@\n大穴周辺戦線\n\n# alpha 3104211 1 0.5\n# voice 310421 \"morabeaga_l_0029\"\n# textwindow \"nomal\"\n# textflame 1 1\n# textboxarrow 0 2\n@モラベガ\nはああああぁぁっ！！\n\n# textwindow \"close\"\n# alpha 3104211 0 0.5\n# alpha 3820001 1 0.5\n# waitandnext 0.8\n\n;;モラベガが猛スピードで突進。それを押されながらも止める連合軍兵士達\n# move 3104211 2 0\n# mask 3104211 on\n# alpha 3104211 1 0\n# leftin 3104211 0.3\n# waitandnext 0.2\n\n# se \"SE_9092\"\n# fadein \"white\" 0.5\n# move 3820001 4 0.2\n# mask 3820001 on\n# waitandnext 0.5\n\n# voice 310421 \"morabeaga_l_battle_0007\"\n# textwindow \"nomal\"\n# textboxarrow 0 1\n@モラベガ\n攻め切れない…！！\n\n;;モラベガと連合軍兵士、弾き合う。\n# se \"SE_3006\"\n# fadein \"white\" 0.5\n# move 3820001 3 0.2\n# move 3104211 1 0.2\n# textboxarrow 0 0\n# waitandnext 0.5\n\n# move 3104211 2 0.4\n# move 3820001 4 0.4\n# textboxarrow 0 1\n@モラベガ\nどうして\n進むルートを先回りされてるの…！？\n\n# alpha 3104211 0 0.5\n# alpha 3820001 0 0.5\n;;モノローグ\n# textflame 0 0\n@\nピスカとの妖精結合を終え\nアルマス達の元へと急ぐモラベガは、\n三国連合軍兵士に足止めされていた\n\n# move 3104211 3 0\n# mask 3104211 off\n# alpha 3104211 1 0.5\n# textflame 1 1\n# textboxarrow 0 2\n@モラベガ\n早く進まないと囲まれちゃう…！！\nでも…！\n\n# face 3104211 \"sad\"\n# move 3104211 3 0\n# textwindow \"moya\"\n# textboxarrow 0 0\n@モラベガ\n剣がうまく\n言うことをきいてくれない…？\n\n# move 3104211 3 0\n# textwindow \"moya\"\n@モラベガ\nピスカもお休み中…！！\nこれじゃあ…！\n\n;;演出：連合軍兵士がモラベガを取り囲む\n# se \"SE_0777\"\n# alpha 3104211 0 0.5\n# move 3810001 1 0\n# alpha 3810001 1 0.5\n# move 3820001 3 0\n# mask 3820001 on\n# alpha 3820001 1 0.5\n# move 3830001 5 0\n# alpha 3830001 1 0.5\n# textwindow \"close\"\n# waitandnext 1.5\n\n# alpha 3104211 1 0.5\n# alpha 3810001 0 0.5\n# alpha 3820001 0 0.5\n# alpha 3830001 0 0.5\n# face 3104211 \"angry\"\n# textwindow \"nomal\"\n# textboxarrow 0 2\n@モラベガ\n…！\n\n;;演出：回想（13章第2話）\n# se \"SE_0742\"\n# fadeout \"white\" 1\n# waitandnext 1\n\n# background \"bg_black\"\n# bgmfile \"bgm263\" \"BgmLostRagnarok001\" 0\n# alpha 3104211 0 0\n# textwindow \"close\"\n# imagealpha 0 1 0\n# imagepos 0 0 30\n# waitandnext 0.2\n\n# fadein \"white\" 1\n# waitandnext 1\n\n# alpha 172 1 0.5\n# face 172 \"angry\"\n# textwindow \"nomal\"\n# textboxarrow 0 2\n@アルマス\nうううあああああああああ！\n届けぇぇぇっ！！\n\n;;※立ち絵なし\n# textboxarrow 0 0\n@モラベガ\n進んで先陣を切って\nたとえひとりでも\n真っ先に斬り込んで\n\n;;演出：回想（13章第2話）\n# se \"SE_0742\"\n# imagealpha 1 1 0\n# imagepos 1 0 30\n# imageleftin 1 0.5\n# textwindow \"close\"\n# waitandnext 0.5\n\n# background \"ground_surface_break\"\n# waitandnext 0.2\n\n# imagealpha 1 0 0.5\n# imagerightout 1 0.5\n# waitandnext 0.5\n\n# textwindow \"nomal\"\n# textboxarrow 0 2\n@アルマス\nこんなことで挫ける私じゃない！\nモラルタとベガルタを必ず解放して\nみせるわ！\n\n;;※立ち絵なし\n# textboxarrow 0 0\n@モラベガ\nいつだって前に、前に………！！\n\n;;演出：回想（13章第2話）\n# se \"SE_0742\"\n# imagealpha 1 1 0\n# imagepos 1 0 30\n# imageleftin 1 0.5\n# textwindow \"close\"\n# waitandnext 0.7\n\n# imagealpha 1 0 0.5\n# imagerightout 1 0.5\n# waitandnext 0.5\n\n# textwindow \"nomal\"\n# textboxarrow 0 2\n@アルマス\nそんなことさせない！\nあなた達は生きるの！\n生き残るのよ！\n\n;;※立ち絵なし\n# textboxarrow 0 0\n@モラベガ\n私達も決めたんだ\n前に進むって\n\n;;演出：回想（13章第3話）\n# se \"SE_0742\"\n# imagealpha 1 1 0\n# imagepos 1 0 30\n# imageleftin 1 0.5\n# textwindow \"close\"\n# waitandnext 0.5\n\n# background \"red_corridor\"\n# waitandnext 0.2\n\n# imagealpha 1 0 0.5\n# imagerightout 1 0.5\n# waitandnext 0.5\n\n# face 172 \"normal\"\n# textwindow \"nomal\"\n# textboxarrow 0 2\n@アルマス\nこれからは好きに生きるといいわ\n二人、仲良くね！\n\n;;演出：回想終わり\n# fadeout \"white\" 1\n# waitandnext 1\n\n# background \"101_hole\"\n# bgmfile \"bgm264_265\" \"BgmLostRagnarokBattle001\" 0\n# alpha 172 0 0\n# textwindow \"close\"\n# imagealpha 0 0 0\n# imagepos 0 0 30\n# waitandnext 0.2\n\n# fadein \"white\" 1\n# waitandnext 1\n\n# alpha 3104211 1 0.5\n# face 3104211 \"normal\"\n# voice 310421 \"morabeaga_l_0003\"\n# textwindow \"nomal\"\n# textboxarrow 0 2\n@モラベガ\nそっか\nいつもこうだったんだね\nアルマス\n\n# face 3104211 \"angry\"\n# textboxarrow 0 2\n@モラベガ\n私達、好きに生きるよっ！！\n\n# textboxarrow 0 2\n@モラベガ\n待ってて…！\nアルマスっ！！"
	}
]