[
	{
		"ID": 250061104,
		"script": ";;メギド_海上編_EP4\n;;背景：プール\n# script \"lisp\"\n# background \"sea_resort_day\"\n# bgmfile \"bgm226\" \"BgmSeaEvent\" 0\n# body 2500611\n# pos 2500611 3\n# mask 2500611 off\n# textflame 0 0\n@\n後日\n再びプールにやってきた\nマスターとメギド\n\n# textflame 1 1\n# textboxarrow 0 2\n# chara 2500611\n# voice 5006 \"megido_0022\"\n@メギド\n今日はいつもより人が多いように\n思えたけど、どうしたのかしらね\n\n# textflame 0 0\n@\n苦手な人混みに付き合わせてごめんと\n謝るマスター\n\n# textflame 1 1\n# textboxarrow 0 2\n# chara 2500611\n# voice 5006 \"megido_0032\"\n@メギド\nかまわないわ\n貴方と過ごす些末な時間に価値を\n見出してしまったのだから\n\n# face 2500611 \"smile\"\n# voice 5006 \"megido_0004\"\n@メギド\n人混みくらいどうってことないのよ\nむしろ、貴方がどう私をかばって\n歩いてくれるのかに興味があったわ\n\n# textflame 0 0\n@\nマスターはそんな細々としたところを\n見られていたのかと顔が引きつる\n\n# textflame 0 0\n@\n自分との休息は楽しかったかと\nメギドに聞くマスター\n\n# textflame 1 1\n# textboxarrow 0 2\n# chara 2500611\n# face 2500611 \"sad\"\n# voice 5006 \"megido_0013\"\n@メギド\nばかね。私が今日一日\n機嫌が良かったこと\n知ってるでしょう？\n\n# face 2500611 \"angry\"\n@メギド\nこの短い間に気づきはあったし\n意義もあったのかもしれないわね…\nもちろんそれは、お互いに…\n\n# textflame 0 0\n@\nマスターが先日のことを引き合いに\n出すと、少しむくれるメギド\n\n# textflame 1 1\n# textboxarrow 0 2\n# chara 2500611\n# face 2500611 \"normal\"\n@メギド\n貴方といる時間に意味を見出して\nしまったのだから、仕方がないわ\n\n# voice 5006 \"megido_0004\"\n@メギド\nふふ、こうして話しているだけで\nなんだか、新しい発見が\nあるのかもしれないわね\n\n# textflame 0 0\n@\n彼女のなかで生まれた\nマスターとの会話を求める\n新たな感情…\n\n# textflame 0 0\n# se \"SE_0602\"\n@\n芽生えた絆は\nメギドに新スキル―\n『神聖プール王国の誓い』をもたらす\n\n# textflame 0 0\n@\nもうじき日が暮れてしまう\nマスターが寂しく思っていると\nメギドがこちらを向く\n\n# textflame 1 1\n# textboxarrow 0 2\n# chara 2500611\n# face 2500611 \"smile\"\n# voice 5006 \"megido_0042\"\n@メギド\nそう寂しがらなくても、\nまた来れるじゃない\nその時まで、楽しみにしてるわ…\n\n# imageset 0 \"c2500611\"\n# imagealpha 0 0 0\n# textflame 0 0\n@\nメギドは微かに、笑うのだった\n\n;;「いいわね…」\n# frameout 0 0.5\n# buttonsout 0 0.5\n# voice 5006 \"megido_0020\"\n# imagealpha 0 1 0\n# imagepos 0 0 0\n# fadein \"white\" 3\n# textwindow \"close\""
	}
]