[
	{
		"ID": 250021103,
		"script": "# script \"lisp\"\n# background \"sea_jungle_day\"\n# bgmfile \"bgm230\" \"BgmSeaEvent\" 0\n# body 2500211\n# pos 2500211 3\n# mask 2500211 off\n# textflame 0 0\n# face 2500211 \"sad\"\n@\n森に現れた黒い影は\nフライクーゲルの攻撃によって\n退散していくのだった\n\n# textflame 1 1\n# textboxarrow 0 2\n# chara 2500211\n@フライクーゲル\nはぁ…はぁ…\nあ～怖かった…\n\n# textflame 1 1\n# textboxarrow 0 2\n# chara 2500211\n# face 2500211 \"angry\"\n# voice 5002 \"furaikugeru_0009\"\n@フライクーゲル\n…ヘイ、なに？\nそんなニヤニヤして…\n\n# textflame 0 0\n@\nいつもハイテンションな\nフライクーゲルに弱点があったとは！\n\n# textflame 0 0\n@\nしかも\nそれが「お化け」だなんて\nと、面白がるマスター\n\n# textflame 1 1\n# textboxarrow 0 2\n# chara 2500211\n# voice 5002 \"furaikugeru_0023\"\n@フライクーゲル\nワット！？\n子供っぽいとでも\n言いたいわけ！？\n\n# select \"何者をも恐れないんじゃなかったの？\" \"select_label_01\" \"最強無敵じゃなかったっけ？\" \"select_label_02\" \"素直に怖いって言えばいいじゃん\" \"select_label_03\"\nワット！？\n子供っぽいとでも\n言いたいわけ！？\n\n# label \"select_label_01\"\n# labeljump \"select_label_end\"\n# textflame 1 1\n# textboxarrow 0 2\n# chara 2500211\n# face 2500211 \"sad\"\n@フライクーゲル\nそ、それは…\n\n# label \"select_label_02\"\n# labeljump \"select_label_end\"\n# textflame 1 1\n# textboxarrow 0 2\n# chara 2500211\n# face 2500211 \"sad\"\n@フライクーゲル\nだ、だから…\n\n# label \"select_label_03\"\n# labeljump \"select_label_end\"\n# textflame 1 1\n# textboxarrow 0 2\n# chara 2500211\n# face 2500211 \"sad\"\n@フライクーゲル\nそ、そんなこと…\n\n# label \"select_label_end\"\n# textflame 1 1\n# textboxarrow 0 2\n# chara 2500211\n# face 2500211 \"angry\"\n# voice 5002 \"furaikugeru_0010\"\n@フライクーゲル\nもう、なによ～！\n意地悪なこと、言っちゃってさ！\nホント、ソーバッドなマスター！\n\n# textflame 1 1\n# textboxarrow 0 2\n# chara 2500211\n@フライクーゲル\n誰にでもあるでしょ！？\n隠してたいシ～クレットな\n弱点くらい！\n\n# textflame 0 0\n@\n珍しく弱気な顔を見せる彼女に\nマスターは言った\n\n# textflame 1 1\n# textboxarrow 0 2\n# chara 2500211\n# face 2500211 \"sad\"\n# voice 5002 \"furaikugeru_0022\"\n@フライクーゲル\n！！\n\n# textflame 1 1\n# textboxarrow 0 2\n# chara 2500211\n@フライクーゲル\n…弱点を乗り越えてこそ…\n真の強さを手に入れられる…？\n\n# textflame 1 1\n# textboxarrow 0 2\n# chara 2500211\n@フライクーゲル\nうぅ…そんなこと言っても…\n\n# textflame 1 1\n# textboxarrow 0 2\n# chara 2500211\n# face 2500211 \"angry\"\n# voice 5002 \"furaikugeru_0016\"\n@フライクーゲル\n怖いものは怖いんだもん！\n\n# textflame 0 0\n@\n…と、その時だった\n\n# shake 0 0.5\n# textflame 0 0\n@\n『ガサガサガサッ！！』\n\n# textflame 1 1\n# textboxarrow 0 2\n# chara 2500211\n# voice 5002 \"furaikugeru_0024\"\n@フライクーゲル\nぎゃぁぁぁぁっ！！\n\n# textflame 0 0\n@\nまたも現れる黒い影…\n\n# textflame 1 1\n# textboxarrow 0 2\n# chara 2500211\n# face 2500211 \"sad\"\n@フライクーゲル\nあわわわ…！\n来ないでーっ！\nお化けーーーっ！！\n\n# shake 0 0.3\n# fadein \"white\" 0.3\n# waitandnext 0.3\n\n# shake 0 0.3\n# fadein \"white\" 0.3\n# waitandnext 0.3\n\n# shake 0 0.3\n# fadein \"white\" 0.3\n# waitandnext 0.3\n\n# textflame 0 0\n@\n魔弾を連射するも\n恐怖心からあらぬ方向へばかり\n飛んでいく\n\n# textflame 1 1\n# textboxarrow 0 2\n# chara 2500211\n# face 2500211 \"angry\"\n# voice 5002 \"furaikugeru_0015\"\n@フライクーゲル\nうぅ…もうヤダ～！！\n\n# textflame 0 0\n@\nへたる彼女にマスターが告げる\n\n# textflame 0 0\n@\n大丈夫！恐怖には…\n恐怖に対する恐怖というものしか\nないから！\n\n# textflame 1 1\n# textboxarrow 0 2\n# chara 2500211\n# face 2500211 \"sad\"\n@フライクーゲル\n！！\n\n# textflame 1 1\n# textboxarrow 0 2\n# chara 2500211\n@フライクーゲル\n恐怖には…\n恐怖に対する恐怖しか…？\n\n# textflame 1 1\n# textboxarrow 0 2\n# chara 2500211\n@フライクーゲル\nちょっと難解だけど…\n\n# textflame 1 1\n# textboxarrow 0 2\n# chara 2500211\n# face 2500211 \"usual\"\n# voice 5002 \"furaikugeru_0004\"\n@フライクーゲル\n…グッドなこと言うじゃん、\nマスター！\n\n# textflame 1 1\n# textboxarrow 0 2\n# chara 2500211\n@フライクーゲル\n…ふぅぅぅ\n\n# textflame 0 0\n@\n精神を落ち着かせる彼女\n…と、\n\n# textflame 1 1\n# textboxarrow 0 2\n# chara 2500211\n# face 2500211 \"angry\"\n@フライクーゲル\n…！\n今のは…！\n\n# textflame 1 1\n# textboxarrow 0 2\n# chara 2500211\n# face 2500211 \"normal\"\n# voice 5002 \"furaikugeru_0033\"\n@フライクーゲル\n正体…見ちゃったよ☆\n…ショータイム！\n\n# textflame 0 0\n@\n両の腕から放たれる\n強力な魔弾\n\n# textflame 0 0\n# se \"SE_0602\"\n@\nそれは彼女が新たなるスキル\n『フローティングバレット』に\n目覚めた瞬間だった\n\n# textflame 1 1\n# textboxarrow 0 2\n# chara 2500211\n# face 2500211 \"smile\"\n# voice 5002 \"furaikugeru_0032\"\n@フライクーゲル\nよし！手応えアリ！！\n\n# textflame 0 0\n@\n捉えた先を見に行く\nフライクーゲルとマスター\n\n# textflame 0 0\n@\nそこには…\n\n# serif 1\n# textboxarrow 1 0\n@異族\nグギャギャ…\n\n# serif 1\n# textwindow \"close\"\n# serif 0\n# textflame 0 0\n@\n頭から葉っぱを被った\n一体の異族が倒れていた\n\n# textflame 1 1\n# textboxarrow 0 2\n# chara 2500211\n# face 2500211 \"usual\"\n@フライクーゲル\n面白がって、\n怖がらせに来てた\nバチが当たったんだよ！\n\n# textflame 1 1\n# textboxarrow 0 2\n# chara 2500211\n# voice 5002 \"furaikugeru_0004\"\n@フライクーゲル\nこのフライクーゲルちゃんに…\n怖いものなし！！\n\n# textflame 0 0\n@\nさっきまで\nあんなに怖がってたのに\nと、笑うマスター\n\n# textflame 1 1\n# textboxarrow 0 2\n# chara 2500211\n@フライクーゲル\nなんか言った？\n\n# textflame 0 0\n@\nいいえ\n\n# textflame 1 1\n# textboxarrow 0 2\n# chara 2500211\n# face 2500211 \"smile\"\n@フライクーゲル\nともあれ…\nマスターの言葉のおかげで、\n乗り越えられた！\n\n# textflame 1 1\n# textboxarrow 0 2\n# chara 2500211\n# voice 5002 \"furaikugeru_0003\"\n@フライクーゲル\n心に潜む“恐怖”と言う名の\nモンスターに勝てたよ！\n\n# textflame 1 1\n# textboxarrow 0 2\n# chara 2500211\n# face 2500211 \"usual\"\n@フライクーゲル\nこれからは…\n幽霊でも何でも\nドンと来いっての！\n\n# imageset 0 \"c2500211\"\n# imagealpha 0 0 0\n# textflame 0 0\n@\n自信たっぷりに言い放つ彼女が、\n妙にいじらしく可愛く感じられた\n\n# voice 5002 \"furaikugeru_kyara_0007\"\n# frameout 0 0.5\n# buttonsout 0 0.5\n# imagealpha 0 1 0\n# imagepos 0 0 0\n# fadein \"white\" 3\n# textwindow \"close\"\n;;まだまだ、いけるいけるぅ～！Ｇｏｉｎｇ Ｍｙ Ｗａｙ（ゴーインマイウェーーイ）！\n"
	}
]