[
	{
		"ID": 250041103,
		"script": ";;EP3\n# script \"lisp\"\n# background \"sea_jungle_day\"\n# bgmfile \"bgm230\" \"BgmSeaEvent\" 0\n# body 2500411\n# pos 2500411 3\n# mask 2500411 off\n# scale 2500411 0.8 0\n# alpha 2500411 0 0\n# eye 2500411 \"close\"\n# textflame 0 0\n# textboxarrow 0 2\n@\nブラフマーストラに訪れた\nナンパ男以上の危機、\nそれはマスターだった\n\n;;//モヤモヤ吹き出し\n# alpha 2500411 1 0.5\n# move 2500411 3 0\n# serif 0\n# textwindow \"close\"\n# serif 1\n# textwindow \"moya\"\n# textboxarrow 1 0\n# voice 5004 \"burafumasutora_0040\"\n@ブラフマーストラ\nなるほど…\nこれも試練ってヤツだね…\n\n# eye 2500411 \"normal\"\n# face 2500411 \"smile\"\n# serif 1\n# textwindow \"close\"\n# serif 0\n# textwindow \"normal\"\n# textflame 1 1\n@ブラフマーストラ\nおもしろいじゃない！\n\n# textflame 1 1\n# voice 5004 \"burafumasutora_0001\"\n@ブラフマーストラ\nマスター！遠慮しないで！\nあいつらがまた寄ってきちゃうから\nもっと近づいて！\n\n# textflame 0 0\n@\nえっ？いいの？\n瞑想の邪魔にならない？\nと、心配するマスター\n\n# face 2500411 \"usual\"\n# textflame 1 1\n@ブラフマーストラ\nなんでアタシが？\n全然平気平気！超余裕系だから！\nほら、寄って寄って！\n\n# textflame 0 0\n@\n言われるがまま、\n彼女にさらに密着するマスター\n\n# textflame 1 1\n# voice 5004 \"burafumasutora_0003\"\n@ブラフマーストラ\nそうそう！よしっ！\nこれでさらに\n瞑想を続けちゃうよ～！\n\n# textflame 0 0\n@\nより集中力を高めるブラフマーストラ\nそんな彼女にこれまでにないような\n最高の境地が訪れる\n\n# face 2500411 \"sad\"\n# textflame 1 1\n# voice 5004 \"burafumasutora_0022\"\n@ブラフマーストラ\nな、なにこれ…？\nまるで蝶みたいな\nフワフワ系で…\n\n# textflame 1 1\n@ブラフマーストラ\nまるで天地を\n舞い踊ってるみたいな！？\n\n# face 2500411 \"usual\"\n# textflame 1 1\n@ブラフマーストラ\n自分が自分でないかのような…\nあっ、これ！これじゃない！？\n\n# se \"SE_0602\"\n# textflame 0 0\n@\nそれは彼女が煩悩を克服し、\n新たな奥義『無我無双解脱の極』に\n目覚めた瞬間だった\n\n# face 2500411 \"smile\"\n# textflame 1 1\n# voice 5004 \"burafumasutora_0020\"\n@ブラフマーストラ\nアタシってば天才かも！\nマスターのおかげで\nまた新たな奥義を手に入れたよ～\n\n# textflame 0 0\n@\n役に立てたなら良かった…\nまたなにかあったら守るから！\nそう気合いを入れるマスター\n\n# textflame 1 1\n# voice 5004 \"burafumasutora_0005\"\n@ブラフマーストラ\nあっはっは！\nそりゃ心強いね！\nまた頼むよ～\n\n# imageset 0 \"c2500411\"\n# imagealpha 0 0 0\n# textflame 0 0\n@\nまた強い絆が生まれたと感じる\nマスターと\nブラフマーストラだった\n\n;;【ボイス】\n;;検証と推察を重ねた結果たどり着いた、紛れもない真実…。\n;;必ずこの手で突き止めてみせますわ！\n# voice 5004 \"burafumasutora_unit_0010\"\n# frameout 0 0.5\n# buttonsout 0 0.5\n# imagealpha 0 1 0\n# imagepos 0 0 0\n# fadein \"white\" 3\n# textwindow \"close\"\n"
	}
]