[
	{
		"ID": 250241103,
		"script": ";;雑賀_海上編_EP3 背景:ジャングル\n# script \"lisp\"\n# background \"sea_jungle_day\"\n# bgmfile \"bgm230\" \"BgmSeaEvent\" 0\n# body 2502411\n# pos 2502411 3\n# mask 2502411 off\n# face 2502411 \"sad\"\n# alpha 2502411 0 0\n# textflame 0 0\n@\n雑賀のアンドロイドの調子は\n日を追う毎に\n悪くなっていくようだった\n\n# textflame 0 0\n@\n雑賀は必死に修理を試みるのだが\n補修部品が手元にないため\n上手く行かないようだった\n\n# textflame 0 0\n@\n口調を聞かれるのが嫌なためか\nすっかり口数は減り\n雑賀自身も落ち込んでいる\n\n;;もやもやメッセージウィンドウ\n# move 2502411 3 0\n# serif 0\n# textwindow \"close\"\n# serif 1\n# textwindow \"moya\"\n# textboxarrow 1 0\n# alpha 2502411 1 0.5\n# chara 2502411\n# voice 5024 \"saika_0015\"\n@雑賀\n…こんなはずやなかった…\nマスターに、でんでん楽しんで\nもらえへんやないか…\n\n;;もやもやメッセージウィンドウ\n# move 2502411 3 0\n# serif 0\n# textwindow \"close\"\n# serif 1\n# textwindow \"moya\"\n# textboxarrow 1 0\n# chara 2502411\n@雑賀\nなっとうすりゃええの…\nやっぱ、いったん去んだほうが\nええんやろか…\n\n# serif 1\n# textwindow \"close\"\n# serif 0\n# textwindow \"normal\"\n# textflame 0 0\n@\nオレンジ型アンドロイドを抱えて\nなにやら一人呟いている雑賀に\nかける言葉がないマスター\n\n;;もやもやメッセージウィンドウ\n# move 2502411 3 0\n# serif 0\n# textwindow \"close\"\n# serif 1\n# textwindow \"moya\"\n# textboxarrow 1 0\n# chara 2502411\n# voice 5024 \"saika_0027\"\n@雑賀\nほんま…\nこんなはずやなかった…\nうち…どないしよ…\n\n# serif 1\n# textwindow \"close\"\n# serif 0\n# textwindow \"normal\"\n# textflame 0 0\n@\n肩を落としてうずくまる雑賀\nそんな彼女を見て\nマスターはあることを閃いた…\n\n;;演出：時間経過演出。ブラックアウト/インなど\n# serif 0\n# textwindow \"close\"\n# fadeout \"black\" 1.5\n# waitandnext 2\n\n# alpha 2502411 0 0\n# waitandnext 0.1\n# fadein \"black\" 1\n# waitandnext 1\n\n# face 2502411 \"normal\"\n# serif 0\n# textwindow \"normal\"\n# textflame 0 0\n@\n翌朝\n相変わらず元気のない雑賀に\n小箱を差し出したマスター\n\n;;もやもやメッセージウィンドウ\n# move 2502411 3 0\n# alpha 2502411 1 0.5\n# serif 0\n# textwindow \"close\"\n# serif 1\n# textwindow \"moya\"\n# textboxarrow 1 0\n# chara 2502411\n# voice 5024 \"saika_0022\"\n@雑賀\n…マスター？\nこれ、なんや…？\n開けたらいいん…？\n\n# serif 1\n# textwindow \"close\"\n# serif 0\n# textwindow \"normal\"\n# textflame 0 0\n@\n小箱の中には、果物のオレンジと竹串\nそれに葉っぱで作られた\n小さな人形が入っていた\n\n;;もやもやメッセージウィンドウ\n# move 2502411 3 0\n# serif 0\n# textwindow \"close\"\n# serif 1\n# textwindow \"moya\"\n# textboxarrow 1 0\n# chara 2502411\n@雑賀\nこ、これ…アンドロイドの人形？\nお、おまはんが…作りはったん？\nう、うちの…ために？\n\n;;もやもやメッセージウィンドウ\n# face 2502411 \"smile\"\n# move 2502411 3 0\n# serif 0\n# textwindow \"close\"\n# serif 1\n# textwindow \"moya\"\n# textboxarrow 1 0\n# chara 2502411\n# voice 5024 \"saika_0004\"\n@雑賀\n…ぷっ！\nな、なにこれ…ぶ、ブサイクやわ\nマスター、ぶ、不器用やね…！\n\n;;もやもやメッセージウィンドウ\n# move 2502411 3 0\n# serif 0\n# textwindow \"close\"\n# serif 1\n# textwindow \"moya\"\n# textboxarrow 1 0\n# chara 2502411\n# voice 5024 \"saika_0005\"\n@雑賀\nぷ、プロペラなんか…\n葉っぱがこんなヘロヘロで…\nは、あはは…え？\n\n;;もやもやメッセージウィンドウ\n# face 2502411 \"normal\"\n# move 2502411 3 0\n# serif 0\n# textwindow \"close\"\n# serif 1\n# textwindow \"moya\"\n# textboxarrow 1 0\n# chara 2502411\n# voice 5024 \"saika_0022\"\n@雑賀\n人形と一緒になにか…\nこ、これ、メモ…？\n\n# serif 1\n# textwindow \"close\"\n# serif 0\n# textwindow \"normal\"\n# textflame 0 0\n@\nメモには\nマスターの手書きで一言…\n\n;;もやもやメッセージウィンドウ\n# move 2502411 3 0\n# serif 0\n# textwindow \"close\"\n# serif 1\n# textwindow \"moya\"\n# textboxarrow 1 0\n# chara 2502411\n@雑賀\nげ、『元気出して』…\nマスター…おまはん…！\n\n# serif 1\n# textwindow \"close\"\n# serif 0\n# textwindow \"normal\"\n# textflame 0 0\n@\n雑賀は感極まった様子でメモと\nアンドロイド人形を見つめる\n\n;;もやもやメッセージウィンドウ\n# move 2502411 3 0\n# serif 0\n# textwindow \"close\"\n# serif 1\n# textwindow \"moya\"\n# textboxarrow 1 0\n# chara 2502411\n@雑賀\nマスター…うちは\nありのままでええの？\n…うちの…そのままで…\n\n;;もやもやメッセージウィンドウ\n# face 2502411 \"smile\"\n# move 2502411 3 0\n# serif 0\n# textwindow \"close\"\n# serif 1\n# textwindow \"moya\"\n# textboxarrow 1 0\n# chara 2502411\n# voice 5024 \"saika_0004\"\n@雑賀\n嬉しいわ…\nうち、マスターの優しさに…\nドキドキしてまう…\n\n;;もやもやメッセージウィンドウ\n# move 2502411 3 0\n# serif 0\n# textwindow \"close\"\n# serif 1\n# textwindow \"moya\"\n# textboxarrow 1 0\n# chara 2502411\n@雑賀\nこんな優しいマスターやから\nうちは、きっと…\n\n# serif 1\n# textwindow \"close\"\n# serif 0\n# textwindow \"normal\"\n# textflame 0 0\n@\n自分の中のマスターの存在を\n改めて認識する雑賀\n\n# se \"SE_0602\"\n# textflame 0 0\n@\nその胸の高まりは\n新スキル『一極八咫烏』を\n目覚めさせる！\n\n# textflame 0 0\n@\nメモを裏返してなにかを書き込み\nそれをマスターに見せる雑賀\n\n;;もやもやメッセージウィンドウ\n# move 2502411 3 0\n# serif 0\n# textwindow \"close\"\n# serif 1\n# textwindow \"moya\"\n# textboxarrow 1 0\n# chara 2502411\n@雑賀\n…これ…今のうちの気持ち…\nこっちも…メモでお返しや\n\n# serif 1\n# textwindow \"close\"\n# serif 0\n# textwindow \"normal\"\n# textflame 0 0\n@\nメモには『ありがとう』と\n書かれている\n\n# textflame 0 0\n@\n雑賀の素直な気持ちに喜ぶマスター\nでも…もしかしてこれからずっと\n筆談でやりとりするの？\n\n# textflame 1 1\n# textboxarrow 0 2\n# chara 2502411\n# voice 5024 \"saika_0005\"\n@雑賀\nぷっ、そんなわけあるかいな！\nこのアンドロイド人形もあるし…\nもうええわ、素で喋るわ！\n\n# face 2502411 \"normal\"\n# textflame 1 1\n# textboxarrow 0 2\n# chara 2502411\n@雑賀\n非常時やからな…\nもう…しゃあないわ\nこの人形があれば、いけるやろ…\n\n# textflame 0 0\n@\nやっと聞くことができた雑賀の声に\nマスターの顔は自然とほころぶ\n\n# textflame 1 1\n# textboxarrow 0 2\n# chara 2502411\n# voice 5024 \"saika_0042\"\n@雑賀\nす、素で喋るうちがかわいい…？\nアホ言わんといて…\n\n# textflame 1 1\n# textboxarrow 0 2\n# chara 2502411\n@雑賀\nそんなん…\n面と向かって言われたら\n…恥ずかしいやんか\n\n# face 2502411 \"smile\"\n# textflame 1 1\n# textboxarrow 0 2\n# chara 2502411\n# voice 5024 \"saika_0004\"\n@雑賀\nでも…そんなこと\n言ってくれるの\nマスターだけや…\n\n;;一枚絵仮\n# imageset 0 \"c2502411\"\n# imagealpha 0 0 0\n# textflame 1 1\n# textboxarrow 0 2\n# chara 2502411\n@雑賀\n…ありがと、マスター\nおまはんは\nほんま、どてらい男やで…\n\n;;「マスターはのとろ優しかねぇ…あっ!!」\n# voice 5024 \"saika_kyara_0017\"\n# frameout 0 0.5\n# buttonsout 0 0.5\n# imagealpha 0 1 0\n# imagepos 0 0 0\n# fadein \"white\" 3\n# textwindow \"close\"\n"
	}
]