[
	{
		"ID": 251217001,
		"script": ";;-----------------------------------------\n;;ファントムオブキル　この素晴らしい世界に祝福を！コラボ2019水着　シナリオ後半\n;;【EP.10】\n;;10_1\n;;スクリプト最後の背景：ビーチ\n;;-----------------------------------------\n# script \"lisp\"\n# background \"sea_beach_day\"\n# bgmfile \"bgm351_352\" \"BgmKScollabo002\" 0\n;;-----------------------------------------\n;;アクア\n# body 2601711\n# pos 2601711 3\n# scale 2601711 0.8 0\n# layer 2601711 3\n# alpha 2601711 0 0\n# mask 2601711 off\n;;ダクネス\n# body 2103411\n# pos 2103411 3\n# scale 2103411 0.8 0\n# layer 2103411 2\n# alpha 2103411 0 0\n# mask 2103411 off\n;;水着ティルフィング\n# body 2101411\n# pos 2101411 3\n# scale 2101411 0.8 0\n# layer 2101411 2\n# alpha 2101411 0 0\n# mask 2101411 off\n;;めぐみん\n# body 2502511\n# pos 2502511 3\n# scale 2502511 0.8 0\n# layer 2502511 2\n# alpha 2502511 0 0\n# mask 2502511 off\n;;ゆんゆん\n# body 2502611\n# pos 2502611 3\n# scale 2502611 0.8 0\n# layer 2502611 2\n# alpha 2502611 0 0\n# mask 2502611 off\n;;ウィズ\n# body 2601811\n# pos 2601811 3\n# scale 2601811 0.8 0\n# layer 2601811 2\n# alpha 2601811 0 0\n# mask 2601811 off\n;;-----------------------------------------\n;;【EP.10】\n;;背景：ビーチ\n;;演出：異族に追い回されるゆんゆん\n# se \"SE_0617\"\n# textwindow \"close\"\n# move 2502611 1 0\n# face 2502611 \"sad\"\n# alpha 2502611 1 0\n# mask 2502611 off\n# waitandnext 0.5\n\n# rightout 2502611 0.5\n# waitandnext 0.5\n\n# alpha 2502611 0 0\n# waitandnext 0.2\n\n# move 2502611 3 0\n# face 2502611 \"sad\"\n# alpha 2502611 1 0.5\n# mask 2502611 off\n# textflame 1 1\n# textboxarrow 0 2\n# textwindow \"normal\"\n# voice 250261 \"yunyun_battle_0006\"\n@ゆんゆん\nどうして急に\n私ばかり狙われるように！？\n\n;;モノローグ\n# textflame 0 0\n@\n異族の動きの変化に合わせ\nマスターはダクネスに\nゆんゆんを守るように指示を出す\n\n# alpha 2502611 0 0.5\n# move 2103411 3 0\n# face 2103411 \"normal\"\n# alpha 2103411 1 0.5\n# mask 2103411 off\n# textflame 1 1\n# textboxarrow 0 2\n# voice 210341 \"dakunesu_0003\"\n@ダクネス\n的確な指示だ\nさすがだな、マスター！\nこっちは任せてくれ！\n\n# alpha 2103411 0 0.5\n# move 2502511 3 0\n# face 2502511 \"angry\"\n# alpha 2502511 1 0.5\n# mask 2502511 off\n# textboxarrow 0 2\n# voice 250251 \"megumin_0027\"\n@めぐみん\nそこでにやけ顔じゃなければ\nクルセイダーらしく締まるのに\n\n;;モノローグ\n# textflame 0 0\n@\nそう言うめぐみんは次々と\n襲い来る異族を前に爆裂魔法を\n撃てるタイミングがなく苦戦している\n\n# alpha 2502511 0 0.5\n# move 2101411 3 0\n# face 2101411 \"angry\"\n# alpha 2101411 1 0.5\n# mask 2101411 off\n# textflame 1 1\n# textboxarrow 0 2\n@ティルフィング\n私もダクネスさんと\nゆんゆんさんの援護にまわります！\n\n# move 2103411 2 0\n# face 2103411 \"sad\"\n# alpha 2103411 1 0.5\n# mask 2103411 on\n# textboxarrow 0 1\n# move 2101411 4 0.5\n# mask 2101411 on\n@ダクネス\nああ、ありがとう\nティルフィング…\n\n;;モノローグ\n# textflame 0 0\n@\nダクネスがなぜ残念そうな\n顔をしたのかわからないが\nおかげで態勢を立て直せそうだ\n\n# face 2103411 \"usual\"\n# textflame 1 1\n# textboxarrow 0 1\n@ダクネス\n相手の数が多いときに\n散らばるのは得策ではないからな\n\n# textboxarrow 0 3\n# voice 1014 \"tyrufing_0003\"\n@ティルフィング\nはい！\nでも、何か打開策がないと\nどうしようもないのも事実です\n\n# alpha 2103411 0 0.5\n# alpha 2101411 0 0.5\n# move 2502511 2 0\n# face 2502511 \"normal\"\n# alpha 2502511 1 0.5\n# mask 2502511 on\n# textboxarrow 0 1\n# move 2502611 4 0\n# face 2502611 \"usual\"\n# alpha 2502611 1 0.5\n# mask 2502611 on\n# voice 250251 \"megumin_0001\"\n@めぐみん\nそれにしてもゆんゆんは\n異族の怒りを買うようなことでも\nしたんですか？\n\n# emotionbody 1000 6 2502611 -70 160\n# effectpattern 1000 1 0\n# effectstart 1000\n# face 2502611 \"angry\"\n# textboxarrow 0 3\n@ゆんゆん\nそんなことしてないわよ！\n心当たりもまったくないし…\n\n;;モノローグ\n# textflame 0 0\n@\n原因がわからないままだが\n対処しないとゆんゆんが危険だ\n焦るマスター\n\n# emotionbody 1002 1 2601711 10 240\n# effectpattern 1002 1 0\n# effectstart 1002\n# alpha 2502511 0 0.5\n# alpha 2502611 0 0.5\n# move 2601711 3 0\n# face 2601711 \"normal\"\n# alpha 2601711 1 0.5\n# mask 2601711 off\n# textflame 1 1\n# textboxarrow 0 2\n# voice 260171 \"akua_0043\"\n@アクア\nあっ、いいこと思いついたわ！\n\n# alpha 2601711 0 0.5\n# move 2502511 3 0\n# face 2502511 \"sad\"\n# alpha 2502511 1 0.5\n# mask 2502511 off\n# textboxarrow 0 2\n@めぐみん\nアクアがそんな風に\n思いつくときは大抵ロクなことじゃ\nない気がするんですけど…\n\n# alpha 2502511 0 0.5\n# move 2601711 3 0\n# face 2601711 \"normal\"\n# alpha 2601711 1 0.5\n# mask 2601711 off\n# textboxarrow 0 2\n@アクア\nこの状況にぴったりの\nナイスな作戦よ！\n\n;;モノローグ\n# textflame 0 0\n@\n自信満々のアクアに\n期待を込めて、作戦を聞くマスター\n\n# textflame 1 1\n# textboxarrow 0 2\n# voice 260171 \"akua_0046\"\n@アクア\n簡単よ\nゆんゆんが狙われているんだから\nゆんゆんを囮にすればいいの！\n\n# textboxarrow 0 2\n@アクア\nそれで集まってきた異族を\nめぐみんの爆裂魔法で一網打尽！\nバッチリだと思わない？\n\n;;モノローグ\n# textflame 0 0\n@\nひどい策だがアクアの案も一理ある\nマスターはアクアの作戦を元に\n二手に分かれることを提案する\n\n# alpha 2601711 0 0.5\n# move 2101411 3 0\n# face 2101411 \"normal\"\n# alpha 2101411 1 0.5\n# mask 2101411 off\n# textflame 1 1\n# textboxarrow 0 2\n@ティルフィング\n私とダクネスさんがそれぞれ\n盾として分かれて\n\n# alpha 2101411 0 0.5\n# move 2502611 3 0\n# face 2502611 \"usual\"\n# alpha 2502611 1 0.5\n# mask 2502611 off\n# textboxarrow 0 2\n@ゆんゆん\n私を中心にした囮になるチームと\n\n# alpha 2502611 0 0.5\n# move 2601711 3 0\n# face 2601711 \"usual\"\n# alpha 2601711 1 0.5\n# mask 2601711 off\n# textboxarrow 0 2\n@アクア\n異族が離れたその隙に、\nあのデュラハンを叩くチームね\n\n# emotionbody 1003 2 2502511 10 250\n# effectpattern 1003 1 1\n# effectstart 1003\n# alpha 2601711 0 0.5\n# move 2502511 3 0\n# face 2502511 \"normal\"\n# alpha 2502511 1 0.5\n# mask 2502511 off\n# textboxarrow 0 2\n@めぐみん\nでも、私の爆裂魔法で\n異族を一掃する手もありますよ？\nなぜ先にデュラハンを攻めるんです？\n\n;;モノローグ\n# textflame 0 0\n@\n以前デュラハンが自分を倒せば\n異族も大人しくなると言っていたと\nマスターは思い出したのだ\n\n# alpha 2502511 0 0.5\n# move 2101411 3 0\n# face 2101411 \"normal\"\n# alpha 2101411 1 0.5\n# mask 2101411 off\n# textflame 1 1\n# textboxarrow 0 2\n# voice 1014 \"tyrufing_0040\"\n@ティルフィング\nなるほど…\n試してみる価値はありますね！\n\n# alpha 2101411 0 0.5\n# move 2502511 2 0\n# face 2502511 \"normal\"\n# alpha 2502511 1 0.5\n# mask 2502511 on\n# textboxarrow 0 1\n# move 2502611 4 0\n# face 2502611 \"usual\"\n# alpha 2502611 1 0.5\n# mask 2502611 on\n# voice 250251 \"megumin_0003\"\n@めぐみん\nあとはゆんゆんの覚悟次第、ですね\n\n# face 2502611 \"happy\"\n# textboxarrow 0 3\n# voice 250261 \"yunyun_0004\"\n@ゆんゆん\n私は…大丈夫！\nだってみんなが、\n仲間が一緒に戦ってくれるから！\n\n# alpha 2502511 0 0.5\n# alpha 2502611 0 0.5\n# move 2601811 2 0\n# face 2601811 \"usual\"\n# alpha 2601811 1 0.5\n# mask 2601811 on\n# move 2601711 4 0\n# face 2601711 \"angry\"\n# alpha 2601711 1 0.5\n# mask 2601711 on\n# textboxarrow 0 3\n@アクア\nウィズも手伝いなさいよ！\n\n# emotionbody 1005 9 2601811 -30 200\n# effectpattern 1005 6 0\n# effectstart 1005\n# face 2601811 \"sad\"\n# textboxarrow 0 1\n# voice 260181 \"wizu_0026\"\n@ウィズ\nえっと、私は…\n\n# textboxarrow 0 3\n# voice 260171 \"akua_0053\"\n@アクア\n緊急事態よ！？\nもう見学なんて言わせないわ！\n\n# textboxarrow 0 1\n@ウィズ\nいろいろと事情がありまして…\n\n;;モノローグ\n# textflame 0 0\n@\nクエストではないが\nデュラハン討伐を依頼するよう\nマスターもウィズへ伝える\n\n# effectskip 1005\n# textboxarrow 0 1\n# textflame 1 1\n# voice 260181 \"wizu_0022\"\n@ウィズ\n依頼、ですか…？\n\n;;モノローグ\n# textflame 0 0\n@\nウィズへの依頼の報酬は\nまだ貰っていない前回の報酬と\n相殺するってことでどう？とマスター\n\n# face 2601711 \"sad\"\n# textflame 1 1\n# textboxarrow 0 3\n# voice 260171 \"akua_0065\"\n@アクア\nえっ、それはちょっと…\n\n# face 2601811 \"normal\"\n# textboxarrow 0 1\n@ウィズ\n本当ですかマスターさん！\nそれにアクア様も！\n\n# emotionbody 1006 8 2601711 -60 220\n# effectpattern 1006 1 0\n# effectstart 1006\n# textboxarrow 0 3\n# voice 260171 \"akua_0051\"\n@アクア\nううう…\n緊急事態には違いないし…\nわかったわ、それで手を打ちましょう\n\n# effectskip 1006\n# alpha 2601811 0 0.5\n# alpha 2601711 0 0.5\n# move 2502511 3 0\n# face 2502511 \"sad\"\n# alpha 2502511 1 0.5\n# mask 2502511 off\n# textboxarrow 0 2\n@めぐみん\nあのアクアが報酬を手放すとは…\n\n# alpha 2502511 0 0.5\n# move 2601811 2 0\n# face 2601811 \"usual\"\n# alpha 2601811 1 0.5\n# mask 2601811 on\n# move 2601711 4 0\n# face 2601711 \"angry\"\n# alpha 2601711 1 0.5\n# mask 2601711 on\n# textboxarrow 0 3\n@アクア\nその代わり！\n全力出しなさいよ！\n手を抜いたら許さないから！\n\n# face 2601811 \"angry\"\n# textboxarrow 0 1\n@ウィズ\nわ、わかりました…\n頑張ってみます！\n\n# se \"SE_0617\"\n# serif 1\n@異族\nギャアアアアアアオオオオオ\n\n# serif 1\n# textwindow \"close\"\n# serif 0\n# alpha 2601811 0 0.5\n# alpha 2601711 0 0.5\n# move 2101411 3 0\n# face 2101411 \"angry\"\n# alpha 2101411 1 0.5\n# mask 2101411 off\n# textboxarrow 0 2\n# voice 1014 \"tyrufing_0037\"\n@ティルフィング\nそろそろ抑えるのも限界です！\nみなさん、準備はいいですか！？\n\n;;演出：めぐみんゆんゆん、ダクネスアクアウィズを表示し頷いているイメージ\n# textwindow \"close\"\n# alpha 2101411 0 0.5\n# move 2502511 2 0\n# face 2502511 \"angry\"\n# alpha 2502511 1 0.5\n# mask 2502511 on\n# move 2502611 4 0\n# face 2502611 \"angry\"\n# alpha 2502611 1 0.5\n# mask 2502611 on\n# waitandnext 1.5\n\n# alpha 2502511 0 0.5\n# alpha 2502611 0 0.5\n# move 2103411 1 0\n# face 2103411 \"normal\"\n# alpha 2103411 1 0.5\n# mask 2103411 on\n# move 2601711 3 0\n# face 2601711 \"angry\"\n# alpha 2601711 1 0.5\n# mask 2601711 on\n# move 2601811 5 0\n# face 2601811 \"usual\"\n# alpha 2601811 1 0.5\n# mask 2601811 on\n# waitandnext 1.5\n\n# textboxarrow 0 2\n# textwindow \"normal\"\n@アクア\nいざ、デュラハン討伐！"
	}
]