[
	{
		"ID": 260051104,
		"script": ";;EP4\n;;背景　砂浜（リゾート）\n# script \"lisp\"\n# background \"sea_beach_day\"\n# bgmfile \"bgm227\" \"BgmSeaEvent\" 0\n# body 2600511\n# pos 2600511 3\n# mask 2600511 off\n# textboxarrow 0 2\n# chara 2600511\n# alpha 2600511 0 0\n# textflame 0 0\n@\n数日後\nマスターは再び、ケーリュケイオンに\n連れられて海に来ていた\n\n# voice 6005 \"keryukeion_0004\"\n# face 2600511 \"smile\"\n# alpha 2600511 1 1\n# textflame 1 1\n@ケーリュケイオン\nふふふっ\n今日はこれをあげる\n\n# textflame 0 0\n@\nマスターが渡されたのは\n『貸切チケット』と書かれた一枚の紙\n\n# textflame 0 0\n@\nいったい何を貸し切れるのかと\n首を傾げるマスター\n\n# textflame 1 1\n@ケーリュケイオン\nそれは、世界で一枚しか手に入らない\n超絶レアなチケット\n\n# voice 6005 \"keryukeion_0029\"\n# textflame 1 1\n@ケーリュケイオン\n私のことを\nずーっと好きにできるチケットよ\n\n# textflame 1 1\n@ケーリュケイオン\nこの前助けてくれたお礼！\n一緒に遊んだだけじゃ足りないから\nもっとお礼をと思ってね♪\n\n# face 2600511 \"sad\"\n# textflame 1 1\n@ケーリュケイオン\nほら、私を好きにしていいんだよ？\n\n# face 2600511 \"smile\"\n# textflame 1 1\n@ケーリュケイオン\n対価が大きすぎるって？\n私を助けてくれたんだから\nこれでも足りないくらいよ\n\n# face 2600511 \"sad\"\n# textflame 1 1\n@ケーリュケイオン\nせっかくのチャンスなのに\n本当に私を好きにしなくていいのー？\n\n# textflame 0 0\n@\n今こうして一緒にいるだけで\n充分好きにできている、と\nマスターは語る\n\n# face 2600511 \"normal\"\n# textflame 1 1\n@ケーリュケイオン\n…マスターって、対価や損得で\n語れないくらい優しいよね\nそういう優しさが好きなんだけど\n\n# voice 6005 \"keryukeion_0003\"\n# face 2600511 \"sad\"\n# textflame 1 1\n@ケーリュケイオン\nこれはね、そんな優しいマスターへ\n私からの精一杯の恩返しなんだよ？\n\n# textflame 1 1\n@ケーリュケイオン\nほら、私の心…\nマスターのことを考えるだけで\nこーんなに温かくなってる\n\n# face 2600511 \"smile\"\n# se \"SE_0602\"\n# textflame 1 1\n@ケーリュケイオン\nこの温かさが私に力をくれるんだよ？\nこの新スキル『海浜ビーチ帝国の誇り』が\n\n# textflame 0 0\n@\nケーリュケイオンの\n妖艶な瞳がきらりと光る\n\n# face 2600511 \"sad\"\n# textflame 1 1\n@ケーリュケイオン\nほら、マスター…もっと見て…\n\n# voice 6005 \"keryukeion_0004\"\n# textflame 1 1\n@ケーリュケイオン\n私の力もだし、私自身のことも、ね？\n\n# textflame 0 0\n@\nじりじりと少しずつ距離を詰めてくる\n間近で見る彼女は確かに魅力的…\n\n# imageset 0 \"c2600511\"\n# imagealpha 0 0 0\n# textflame 0 0\n@\nそれをどう止めようかと\n困り果てるマスターだった\n\n;;【ボイス】\n;;「せっかくのチャンス、逃したら損だよ？」\n# voice 6005 \"keryukeion_unit_0012\"\n# frameout 0 0.5\n# buttonsout 0 0.5\n# imagealpha 0 1 0\n# imagepos 0 0 0\n# fadein \"white\" 3\n# textwindow \"close\"\n"
	}
]