[
	{
		"ID": 260051101,
		"script": ";;ケーリュケイオン　海上編シナリオ\n;;■EP1\n;;背景　砂浜（リゾート）\n# script \"lisp\"\n# background \"sea_beach_day\"\n# bgmfile \"bgm227\" \"BgmSeaEvent\" 0\n# body 2600511\n# pos 2600511 3\n# mask 2600511 off\n# textboxarrow 0 2\n# chara 2600511\n# textflame 1 1\n# face 2600511 \"angry\"\n# voice 6005 \"keryukeion_kyara_1023\"\n@ケーリュケイオン\nマスター、やっと来た！\n私をどれだけ待たせるつもり？\n\n# textflame 0 0\n@\n日差し照り付けるビーチの一角\nマスターはケーリュケイオンに\n呼び出されて、この場に来ていた\n\n# voice 6005 \"keryukeion_0027\"\n# face 2600511 \"sad\"\n# textflame 1 1\n@ケーリュケイオン\nはぁ…まあ、いっか\nせっかく遊びに来たんだから\nこんなことで時間無駄にしたくないし\n\n# face 2600511 \"smile\"\n# textflame 1 1\n@ケーリュケイオン\nさ、マスター横になって\n私が日焼け止めを塗ってあげる♪\n\n# textflame 0 0\n@\nケーリュケイオンの言葉に\nマスターは、自分は必要ない、と断る\n\n# textflame 0 0\n@\nむしろ、自分がケーリュケイオンに\n塗ってあげようか、と提案する\n\n# face 2600511 \"sad\"\n# textflame 1 1\n@ケーリュケイオン\n日差しを甘く見ちゃ駄目よ？\nそれともマスターは…\n\n# voice 6005 \"keryukeion_0007\"\n# face 2600511 \"smile\"\n# textflame 1 1\n@ケーリュケイオン\n私のスベスベ肌に\n日焼け止めを塗りたくて\n仕方ないのかなー？\n\n# textflame 0 0\n@\nいたずらな笑みを浮かべながら、\nケーリュケイオンが\nマスターに接近する\n\n# textflame 0 0\n@\n素肌がくっつきそうになる寸前\nマスターは慌てて\nケーリュケイオンから離れた\n\n# voice 6005 \"keryukeion_0009\"\n# face 2600511 \"sad\"\n# textflame 1 1\n@ケーリュケイオン\nそんなつもりじゃないって？\nもう、遠慮することないのに！\n\n# textflame 0 0\n@\nわかった、遠慮はしない\nそう言ってマスターは\n日焼け止めを渡した\n\n# face 2600511 \"smile\"\n# textflame 1 1\n@ケーリュケイオン\nやっぱり塗ってほしいんだ\nわかったわ、ばっちり塗ってあげる♪\n\n# textflame 1 1\n@ケーリュケイオン\n腕も背中も足も隅から隅まで…\nふふふ…\nこれでマスターは私の思いのまま…\n\n# textflame 1 1\n@ケーリュケイオン\nあ、ううん、なんでもないよ！\nただの独り言！\n\n;;時間経過（一旦暗転\n# fadeout \"black\" 1.5\n# waitandnext 2\n\n# voice 6005 \"keryukeion_unit_1010\"\n# fadein \"black\" 1\n# textflame 1 1\n@ケーリュケイオン\nさっ、塗り終わったわ！\n\n# textflame 1 1\n@ケーリュケイオン\nありがとうって？\nこれくらいお安いご用よ♪\n\n# face 2600511 \"sad\"\n# textflame 1 1\n@ケーリュケイオン\n…それで、マスター？\nまさか私が、報酬も無しに\n働いてるなんて思ってないわよね？\n\n# textflame 0 0\n@\nしたり顔で笑うケーリュケイオン\nそれを見たマスターは\nしまった、と後悔する\n\n# textflame 0 0\n@\nそうだ、こういう子だった…\n半ばあきらめるかのように\nマスターは彼女の話を聞くことにする\n\n# voice 6005 \"keryukeion_0004\"\n# face 2600511 \"sad\"\n# textflame 1 1\n@ケーリュケイオン\n報酬は何かって？\nふふっ、マスターの物分かりの良さ\n大好き！\n\n# textflame 1 1\n@ケーリュケイオン\n行きたい場所があるの\n私に日焼け止めを塗ってもらった\nマスターは…\n\n# face 2600511 \"smile\"\n# textflame 1 1\n@ケーリュケイオン\n当然、ついてきてくれるよね？\n\n# textflame 0 0\n@\nそれが報酬というのなら仕方ない\nマスターはケーリュケイオンと共に\n出発するのだった\n"
	}
]