[
	{
		"ID": 260081101,
		"script": ";;【EP1】\n# script \"lisp\"\n# background \"sea_resort_day\"\n# bgmfile \"bgm255\" \"BgmSeaDate\" 0\n# body 2600811\n# pos 2600811 3\n# mask 2600811 off\n# textflame 1 1\n# textboxarrow 0 2\n# chara 2600811\n# voice 6008 \"guridavoru_0006\"\n# face 2600811 \"smile\"\n@グリダヴォル\nわぁ！　おっきいプール！！\n\n# voice 6008 \"guridavoru_0030\"\n@グリダヴォル\nマスター、今日は\n付き合ってくれてありがとうね！\n\n@グリダヴォル\nマスターと一緒に\nプールに来れてよかった！\n\n# textflame 0 0\n@\n嬉しそうなグリダヴォルに、\nまず何して遊ぼうか？\nとマスターは尋ねる\n\n# textflame 1 1\n# textboxarrow 0 2\n# chara 2600811\n# face 2600811 \"angry\"\n@グリダヴォル\nあ、だめだめ！\n今日はプールに来たのは\nマスターを癒すためでもあるの！\n\n# voice 6008 \"guridavoru_0033\"\n# face 2600811 \"smile\"\n@グリダヴォル\nだから遠慮しないで\nマスターがやりたいことを\n言ってよ！\n\n# textflame 0 0\n@\n自然に他人を気遣うところが\nグリダヴォルらしいと、\nマスターは笑う\n\n# textflame 0 0\n@\nそれじゃあ、さっそく泳ごう\nマスターがそう促すが、\nグリダヴォルはうなずかなかった\n\n# textflame 1 1\n# textboxarrow 0 2\n# chara 2600811\n# face 2600811 \"angry\"\n@グリダヴォル\nダメだよ！　泳ぐ前に、\nちゃんと準備運動しないと！\n\n@グリダヴォル\nいきなり泳いだら\nおぼれちゃうんだから！\n\n@グリダヴォル\n準備運動、私が手伝ってあげる！\nまずはストレッチを一時間ね！\n\n# textflame 0 0\n@\n長くないかな？\nとマスターは困惑してしまう\n\n# textflame 1 1\n# textboxarrow 0 2\n# chara 2600811\n@グリダヴォル\nだってマスターがおぼれたら\n大変でしょ！\n念には念を入れないとね！\n\n# voice 6008 \"guridavoru_0004\"\n# face 2600811 \"smile\"\n@グリダヴォル\nそれでもおぼれちゃった時は\n私が助けてあげるから安心してね！\n\n# textflame 0 0\n@\n助けてもらえるなら\n準備運動しなくてもいいような…\nと、マスターは言うが――\n\n# textflame 1 1\n# textboxarrow 0 2\n# chara 2600811\n# face 2600811 \"angry\"\n@グリダヴォル\nそれはそれ！　これはこれ！\n君だって、おぼれたくないでしょ？\n\n@グリダヴォル\n浅いプールでも\nおぼれる時にはおぼれちゃう…\n\n# bgm \"stop\"\n# face 2600811 \"sad\"\n@グリダヴォル\n…あ、あれ？\n\n# textflame 0 0\n@\nプールのほうを見たグリダヴォルは\nある一点を見つめていた\n\n# textflame 0 0\n@\nどうしたの？\nマスターの問いに\nグリダヴォルは慌てだす\n\n# bgmfile \"bgm234\" \"BgmSeaEventBattle\" 0\n# textflame 1 1\n# textboxarrow 0 2\n# chara 2600811\n# voice 6008 \"guridavoru_0024\"\n@グリダヴォル\nあの子たち、\n水の中に潜ったまま\n全然浮いてこないの！\n\n# face 2600811 \"angry\"\n@グリダヴォル\nおぼれちゃったのかも！\n助けなきゃ！\n\n# se \"SE_5575\"\n# alpha 2600811 0 0.3\n# textflame 0 0\n@\n言うやいなや、グリダヴォルは\nすさまじい速さで駆け出す\n\n# se \"SE_9130\"\n# textflame 0 0\n@\nそして、あっという間に\n少年たちを引き上げた\n\n# alpha 2600811 1 0.5\n# textflame 1 1\n# textboxarrow 0 2\n# chara 2600811\n# face 2600811 \"sad\"\n@グリダヴォル\n大丈夫だった！？\nもう安心だからね！\n\n# serif 1\n# textwindow \"nomal\"\n@少年\nぷはっ！\n…おい、なにすんだよ！\nお前のせいで、全部台無しだよ！\n\n# serif 1\n# textwindow \"close\"\n# serif 0\n# textwindow \"nomal\"\n# textflame 1 1\n# textboxarrow 0 2\n# chara 2600811\n# voice 6008 \"guridavoru_0022\"\n@グリダヴォル\n…え？\nど、どういうこと…？\n"
	}
]