[
	{
		"ID": 260201201,
		"script": ";;-------------------------------------------\n;;●ネス　水着シナリオ\n;;【EP1】\n;;背景：ビーチ\n;;-------------------------------------------\n# script \"lisp\"\n# background \"sea_beach_day\"\n# bgmfile \"bgm224\" \"BgmSeaEvent\" 0\n# body 2602011\n# pos 2602011 3\n# scale 2602011 0.8 0\n# alpha 2602011 0 0\n# mask 2602011 off\n# face 2602011 \"angry\"\n;;◆背景：ビーチ（昼）----------------------\n# textflame 0 0\n# textboxarrow 0 2\n@\n夏と来れば海！\n海と来れば…海の家！\n\n@\nバカンス期間中\nマスターが皆のために開いた\n海の家は、連日大盛況だった\n\n# alpha 2602011 1 0.5\n# textflame 1 1\n# voice 6020 \"ness_0010\"\n@ネス\n会計するなら、一列に並びなさい\nみんないい大人なのに\n規律がないです\n\n# face 2602011 \"sad\"\n@ネス\nはぁ…麺やジュースやかき氷…？\nみんな際限なく飲み食いをして\n節制の『せ』の字もないですね…\n\n# textflame 0 0\n@\nその日、ネスは海の家のそばで\nお客達にびしびしと規律と節制を\n説き続けていた\n\n# textflame 1 1\n@ネス\n…まったく、マスターは\n調理に会計、片付けと\nてんやわんやなんですから\n\n# face 2602011 \"angry\"\n@ネス\n少しはお客のほうが\n規律に気を使うべきです\nあと、節制も\n\n# face 2602011 \"sad\"\n@ネス\n節制も…\n\n# textboxarrow 0 0\n# voice 6020 \"ness_0015\"\n# move 2602011 3 0\n# textwindow \"moya\"\n;;モヤモヤ\n@ネス\n…あんなに飲み食いしているのに\nなんであんなに細いのですか\n他の子達は…\n\n# textflame 0 0\n# textwindow \"normal\"\n@\n色とりどりの水着の中で\n美しいラインを描く肌色達を\n横目で見つつ…\n\n@\nネスは自分の水着のお腹のあたりを\n指でぷにぷにつっついた\n\n# textflame 1 1\n# textboxarrow 0 2\n# textwindow \"normal\"\n# face 2602011 \"angry\"\n@ネス\nくっ…\n食事は控えているはずなのに\nこの感触はなんですか！\n\n@ネス\nこれではいつまでたっても\nかっこいい体型になれません！\n\n@ネス\nもっと…\nもっときびしく節制しなければ…！\n\n# textflame 0 0\n@\nビーチに出現した異族にも\n気が付かないほど真剣に\nネスは節制を誓うのだった\n"
	}
]