[
	{
		"ID": 260251212,
		"script": ";;-----------------------------------------\n# script \"lisp\"\n# background \"sea_beach_day\"\n# bgmfile \"bgm224\" \"BgmSeaEvent\" 0\n;;-----------------------------------------\n;;カリス\n# body 2602511\n# pos 2602511 3\n# scale 2602511 0.8 0\n# layer 2602511 2\n# alpha 2602511 1 0\n# mask 2602511 off\n# body 163\n# pos 163 2\n# scale 163 0.6 0\n# layer 163 3\n# alpha 163 0 0\n# mask 163 off\n;;-----------------------------------------\n;;カーテンフェード\n# imageset 1 \"black\"\n# imagealpha 1 0 0\n# imagelayer 1 5\n;;-----------------------------------------\n# face 2602511 \"sad\"\n# textflame 0 0\n@\nあれから数時間後――\n\n# textboxarrow 0 2\n# textflame 1 1\n@カリス\n………\n\n# textflame 0 0\n@\nマスターと話して以来、\n物憂げな表情のカリス\n\n# textboxarrow 0 2\n# textflame 1 1\n@カリス\n………\n\n# textflame 0 0\n@\nビーチボールを膝に置き、\n三角座りの体勢で\n座っている\n\n# textboxarrow 0 2\n# textflame 1 1\n@カリス\n……キプル、元気？\n\n# textflame 0 0\n@\n時折、傍らで眠る\n機械小獣のキプルの\n頭を撫でている\n\n# textflame 0 0\n@\nその時……\n\n# face 2602511 \"angry\"\n# textboxarrow 0 2\n# textflame 1 1\n@カリス\nきゃっ！\n\n# textflame 0 0\n@\n突然の強風に、\n彼女が持っていたビーチボールは\n海の方へと飛ばされてしまった\n\n# face 2602511 \"sad\"\n# voice 260251 \"chalice_t_0028\"\n# textboxarrow 0 2\n# textflame 1 1\n@カリス\nど、どうしよう…\n\n# textflame 0 0\n@\n水に濡れるのがイヤ、波が苦手…\nそう言っていた彼女は、\n取りに行くのを躊躇する\n\n# textflame 0 0\n@\nそうこうしているうちに、\nボールはどんどん沖へと流されていく\n\n# textflame 0 0\n@\n――と、\n\n# face 2602511 \"angry\"\n# voice 260251 \"chalice_t_0023\"\n# textboxarrow 0 2\n# textflame 1 1\n@カリス\nあっ！！\n\n# textflame 0 0\n@\nなんと、\nマスターが海に飛び込み、\n拾ってくれたのだ\n\n# textflame 0 0\n@\n海から上がり、\n彼女にビーチボールを渡すマスター\n\n# face 2602511 \"sad\"\n# textboxarrow 0 2\n# textflame 1 1\n@カリス\nマスターさん、具合悪そうなのに\nありがとう…\n\n# textflame 0 0\n@\nお礼を言う彼女に、\nマスターは…\n\n# textflame 0 0\n@\n大丈夫だよ、それより\nさっきは、笑ってゴメンね\nと返す\n\n# textboxarrow 0 2\n# textflame 1 1\n@カリス\nう、うぅん\n\n# textflame 0 0\n@\nマスターは彼女に尋ねる\n水に濡れるのがイヤなわけ…\nなにか重大な理由があるのかな？と\n\n# textboxarrow 0 2\n# textflame 1 1\n@カリス\n！！\n\n# textflame 0 0\n@\n驚いた顔を見せるカリス\n\n# textflame 0 0\n@\nやっぱり、なにかあるんだね？\n良かったら、話してよ\nそう言ってくれるマスターに彼女は…\n\n# textboxarrow 0 2\n# textflame 1 1\n@カリス\n………実は\n\n# textflame 0 0\n@\nうつむきながら、\nポツポツと事情を語り始めた\n\n# textboxarrow 0 2\n# textflame 1 1\n@カリス\nわたしが水を嫌がるのはね…\n\n# textboxarrow 0 2\n# textflame 1 1\n@カリス\nキラーズである聖杯の影響があるの\n\n# textboxarrow 0 2\n# textflame 1 1\n@カリス\n神の罰として、\n大洪水を起こされた\nアザゼルの記憶…\n\n# textboxarrow 0 2\n# textflame 1 1\n@カリス\nそれに、もし海水で錆びてしまったら\n聖杯がもつ神秘の力が\n失われてしまうかもしれない…\n\n# textboxarrow 0 2\n# textflame 1 1\n@カリス\n色んなことが影響し合って…\n海はどうも好きになれないの\n\n# textflame 0 0\n@\nそれはキラーズに基づく、\nどこかトラウマにも似た\n感覚なのだろうか…\n\n# textflame 0 0\n@\nそんな理由があったなんて…\n笑ってしまってゴメンね\nマスターが頭を下げる\n\n# textboxarrow 0 2\n# textflame 1 1\n@カリス\nう、うぅん！\nい、いいよ、もう\n\n# face 2602511 \"usual\"\n# voice 260251 \"chalice_t_0004\"\n# textboxarrow 0 2\n# textflame 1 1\n@カリス\nそれに、今まで\n誰にも言ってなかったから、\nちょっとスッキリしたし\n\n# textflame 0 0\n@\n物憂げだったカリスの表情が\n晴れていく\n\n# textflame 0 0\n@\nだが、そのとき、\nマスターの目が虚ろになり\n体を大きく揺らす\n\n# voice 260251 \"chalice_t_0002\"\n# textboxarrow 0 2\n# textflame 1 1\n@カリス\nマスターさん\n大丈夫…？\n\n# textboxarrow 0 2\n# textflame 1 1\n@カリス\nさっきよりも顔色、\nすっごく悪いけ――\n\n# fadeout \"black\" 0.5\n# waitandnext 0.5\n\n# fadein \"black\" 0.5\n# waitandnext 0.5\n\n# textflame 0 0\n@\n――と、言葉の途中で、\nマスターがその場に倒れてしまった\n\n# face 2602511 \"angry\"\n# textboxarrow 0 2\n# textflame 1 1\n@カリス\nマ、マスターさん！\n\n# textflame 0 0\n@\nごめん…、ちょっと目まいが…\n青白い顔で答えるマスター\n\n# textboxarrow 0 2\n# textflame 1 1\n@カリス\n熱中症かも…！\n早く日陰に…！\n\n# textflame 0 0\n@\nカリスはマスターを移動させようと\n手を伸ばす\nその時…\n\n# bgm \"stop\"\n# textboxarrow 0 2\n# textflame 1 1\n@カリス\n！！\n\n# textflame 0 0\n@\n突然、何者かの攻撃が被弾した！\n\n# bgmfile \"bgm271\" \"BgmLostRagnarokEvent\" 0\n# voice 260251 \"chalice_t_battle_0008\"\n# textboxarrow 0 2\n# textflame 1 1\n@カリス\nきゃあっ！！\n\n# alpha 163 1 0.5\n# voice 9951 \"kipuru_0025\"\n# textboxarrow 0 1\n@キプル\nぎゃぁぁぁっ！\nななな、なんですか！\n\n# textflame 0 0\n@\n爆風で吹き飛ばされる\nカリスと目を覚ましたキプル\nそしてマスター\n\n# voice 260251 \"chalice_t_0037\"\n# textboxarrow 0 2\n# textflame 1 1\n@カリス\nうぅ…\n\n# textflame 0 0\n@\n見ると、攻撃してきたのは\n異族の大群だった\n\n# textboxarrow 0 2\n# textflame 1 1\n@カリス\nマ、マスターさんは…？\n\n# textboxarrow 0 1\n@キプル\nあ、あそこです\n\n# textflame 0 0\n@\nキプルが指した方向、そこには\nさっきの衝撃で、\n海に放り出されてしまったマスター\n\n# voice 260251 \"chalice_t_0015\"\n# textboxarrow 0 2\n# textflame 1 1\n@カリス\nこのままじゃ波に流されて、\n溺れちゃう…！\n\n# textboxarrow 0 2\n# textflame 1 1\n@カリス\n誰か…！\n\n# textflame 0 0\n@\nだが、助けを呼ぼうにも、\n仲間の姫は近くにはいない\n\n# textboxarrow 0 2\n# textflame 1 1\n@カリス\nど、どうすればいいの…！？\n\n# textflame 0 0\n@\nカリスの顔に、\n焦りの色が浮かぶ"
	}
]