[
	{
		"ID": 2740022,
		"script": "# script \"lisp\"\n# body 601611\n# mask 601611 off\n# pos 601611 3\n# scale 601611 0.8 0\n# textflame 1 1\n# textboxarrow 0 2\n# chara 601611\n# face 601611 \"angry\"\n# voice 6016 \"rena_unit_0008\"\n@レナ\nむき出しの感情を見せて！"
	}
]