[
	{
		"ID": 2750009,
		"script": ";;【PUNK】真エンド\n;;//背景白\n;;//真理の扉が浮かんでいる\n# script \"lisp\"\n# background \"dimensions\"\n# bgm \"bgm004\" 0\n# imageset 0 \"bg_white\"\n# imagescale 0 10 0\n# imagealpha 0 1 0\n# imagepos 0 0 0\n# imageset 1 \"e170201_5\"\n# imagescale 1 0.75 0\n# imagealpha 1 0 0\n# body 103211\n# pos 103211 1\n# alpha 103211 0 0\n# body 601211\n# pos 601211 1\n# scale 601211 0.8 0\n# mask 601211 off\n# layer 601211 4\n# alpha 601211 0 0\n# textwindow \"close\"\n# waitandnext 1.2\n\n# se \"SE_4779\"\n# fadein \"white\" 2\n# imagealpha 1 1 1\n# imagepos 1 0 0\n# alpha 601211 1 1\n# waitandnext 2.5\n\n# textwindow \"nomal\"\n# textflame 1 1\n# textboxarrow 0 1\n# voice 6012 \"uroboros_0021\"\n# chara 601211\n# face 601211 \"surprise\"\n@ウロボロス\nほう\n人間の身でありながら、\nここに辿り着いたか\n\n# voice 6012 \"uroboros_kyara_1001\"\n# chara 601211\n# face 601211 \"smile\"\n@ウロボロス\nまた会うたな\n我はウロボロス\n運命の見届け人じゃ\n\n# chara 601211\n# face 601211 \"normal\"\n@ウロボロス\nここまで来た、うぬの意志の\n強さは認めてやろう\n願いはなんじゃ？\n\n# select \"レナを助けたい\" \"select_label_01\" \"全てを守りたい\" \"select_label_02\"\nここまで来た、うぬの意志の\n強さは認めてやろう\n願いはなんじゃ？\n\n# label \"select_label_01\"\n# labeljump \"select_label_end\"\n# textboxarrow 0 1\n# chara 601211\n# face 601211 \"amazed\"\n@ウロボロス\nやはりそれか…\n\n# label \"select_label_02\"\n# labeljump \"select_label_end\"\n# textboxarrow 0 1\n# chara 601211\n# face 601211 \"surprise\"\n@ウロボロス\n随分と大きく出たのう\n\n# label \"select_label_end\"\n# serif 0\n# textwindow \"nomal\"\n# voice 6012 \"uroboros_0003\"\n# chara 601211\n# face 601211 \"normal\"\n@ウロボロス\nそうじゃな\n今のうぬならこの扉を開くことも\nできよう\n\n# chara 601211\n@ウロボロス\n行って、せいぜいあがいて\nみるが良い\nその願いを叶えるために\n\n# voice 6012 \"uroboros_0007\"\n# chara 601211\n# face 601211 \"smile\"\n@ウロボロス\n餞別じゃ\n一つ良いことを教えてやる\n\n# chara 601211\n# face 601211 \"normal\"\n@ウロボロス\nこの先にあるのは、うぬが旅した\n三つの世界が一時的に重なっておる\n世界じゃ\n\n# chara 601211\n@ウロボロス\nそこでなら、うぬの大それた願いも\n叶えることができるやもしれん\n\n# body 24\n# pos 24 1\n# scale 24 0.8 0\n# body 95\n# pos 95 5\n# scale 95 0.8 0\n# body 103311\n# pos 103311 1\n# scale 103311 0.8 0\n# body 601611\n# pos 601611 5\n# scale 601611 0.8 0\n# alpha 24 0 0\n# alpha 95 0 0\n# alpha 103311 0 0\n# alpha 601611 0 0\n# chara 601211\n# voice 6012 \"uroboros_0004\"\n# face 601211 \"smile\"\n@ウロボロス\nゆめゆめ忘れるでないぞ\nでは、行くが良い！\n\n# bgm \"stop\"\n# se \"SE_4779\"\n# fadeout \"white\" 2\n# waitandnext 3\n\n;;//扉が開く演出\n;;//背景次元の狭間\n;;出だし、各アプリで上手く繋がるように調整お願いします。\n;;ファンキル版\n# imagealpha 1 0 0\n# imagealpha 0 0 0\n# alpha 601211 0 0\n# alpha 601611 1 0\n# alpha 24 1 0\n# textflame 1 1\n# textboxarrow 0 3\n# bgmfile \"bgm193\" \"Bgm3Tcollabo002\" 1.5\n# fadein \"white\" 0.5\n# chara 601611\n# face 601611 \"angry\"\n# face 24 \"sad\"\n@レナ\nお願い…私を斬って！\n\n# select \"レナ！望みを捨てるなっ\" \"select_label_03\" \"レナ！助かる方法はあるっ\" \"select_label_04\"\nお願い…私を斬って！\n\n# label \"select_label_03\"\n# labeljump \"select_label_end2\"\n# textboxarrow 0 3\n# chara 601611\n# face 601611 \"sad\"\n@レナ\n%(userName)s\n…そんなの…辛いだけだよ\n\n# label \"select_label_04\"\n# labeljump \"select_label_end2\"\n# textboxarrow 0 3\n# chara 601611\n# face 601611 \"sad\"\n@レナ\n%(userName)s\n…そんなの…あるわけない\n\n# label \"select_label_end2\"\n# textboxarrow 0 1\n# chara 101411\n# face 24 \"mad2\"\n@ティルフィング\n%(userName)s\n下がって！…私がやります！\n\n;;//大きな揺れ\n# se \"SE_0637\"\n# textboxarrow 0 1\n# shakeloop 1\n# chara 101411\n# face 24 \"surprise\"\n@ティルフィング\nえっ…？空間が歪んで――\n\n# bgm \"stop\"\n# textboxarrow 0 3\n# chara 601611\n@レナ\nどうして…私はもう…終わりに――\n\n;;ファンキル版ここまで\n;;レイヴナー体内のもう一段深いところに落ちています。ここでティル、クロエ、サクラ以外とは別れることに。\n;;//暗転\n;;//背景次元の狭間（セピア調にできれば）\n# se \"SE_5670\"\n# fadeout \"white\" 2\n# waitandnext 3\n\n# shakestop\n# background \"dimensions-sepia\"\n# waitandnext 0.1\n\n;;//レナ\n# bgmfile \"bgm197\" \"Bgm3Tcollabo002\" 0\n# mask 601611 off\n# alpha 24 0 0\n# move 601611 3 0\n# fadein \"white\" 0.5\n# textboxarrow 0 2\n# chara 601611\n# face 601611 \"normal\"\n@？？？\n私が自我を持つようになったのは\nいつのことだったろう…\n\n# textboxarrow 0 2\n# chara 601611\n@？？？\nほんの数日前のような気もするし\n遙か昔のことのようにも思う…\n\n# textboxarrow 0 2\n# chara 601611\n@？？？\nどっちにしろ、私は一人だった\n一人きりだった\n\n# textboxarrow 0 2\n# chara 601611\n@？？？\nたった一人でここにいた\nそれが当たり前だったし寂しいという\n感情すら知らなかった\n\n# textboxarrow 0 2\n# chara 601611\n# face 601611 \"sad\"\n@？？？\nでも…あるとき小さな穴が開いた\n針の穴のように小さな小さな穴…\n\n# textboxarrow 0 2\n# chara 601611\n@？？？\nそんな小さな穴だったのに、私は\nそこから“外”を覗いてしまったんだ\n\n# textboxarrow 0 2\n# chara 601611\n@？？？\n“外”ではたくさんの人達が楽しそう\nに暮らしていた\n\n# textboxarrow 0 2\n# chara 601611\n@？？？\n色んな人がいて色んな繋がりがあった\nそれを見ているうちに私の胸にも\nポッカリ穴が開いてしまった\n\n# textboxarrow 0 2\n# chara 601611\n@？？？\n私は初めて“寂しい”と感じた\n“孤独”を知った\nだから願ってしまった\n\n# textboxarrow 0 2\n# chara 601611\n@？？？\n誰かと繋がりたいって\n\n# textboxarrow 0 2\n# chara 601611\n@？？？\nそれが決して許されないことだとも\n知らずに――\n\n# fadeout \"black\" 2\n# imageset 2 \"black\"\n# imagescale 2 10 0\n# imagealpha 2 0 0\n# imagepos 2 0 0\n# waitandnext 2\n\n;;//背景黒\n# fadein \"black\" 0.5\n# imagealpha 2 1 0\n# move 24 3 0\n# alpha 95 1 0\n# alpha 103311 1 0\n# alpha 24 1 0\n# alpha 601611 0 0\n# layer 24 6\n# layer 95 5\n# layer 103311 4\n# face 24 \"sad\"\n# face 103311 \"surprise2\"\n# textboxarrow 0 3\n# chara 103211\n# face 95 \"surprise\"\n@サクラ\nあれーっ？\nせっかくハオウマルの召喚に成功した\nのに、どこ行っちゃったの！？\n\n# textboxarrow 0 3\n# voice 1032 \"sakura_0013\"\n# chara 103211\n# face 95 \"angry\"\n@サクラ\nあの不良もちっこい子も\nいなくなってるし…\nどうなってんのよー！\n\n# textboxarrow 0 1\n# chara 103311\n@クロエ\nサクラ！ティルフィングも！\n元に戻ったんですね！\nでも…ここはどこなんでしょう…？\n\n# textboxarrow 0 2\n# chara 101411\n@ティルフィング\nレナの…さらに深いところまで飲み\n込まれたようです…\n\n# textboxarrow 0 2\n# chara 101411\n@ティルフィング\n%(userName)s\nどうしてあんなことを？\n\n# select \"これまでのことを話す\" \"select_label_05\" \"ウロボロスとの話を伝える\" \"select_label_06\"\n%(userName)s\nどうしてあんなことを？\n\n# label \"select_label_05\"\n# labeljump \"select_label_end3\"\n# textboxarrow 0 2\n# face 103311 \"usual\"\n# chara 101411\n# face 24 \"surprise\"\n@ティルフィング\nそんなことが…\n\n# label \"select_label_06\"\n# labeljump \"select_label_end3\"\n# textboxarrow 0 3\n# face 103311 \"usual\"\n# chara 103211\n# face 95 \"surprise\"\n@サクラ\nあの、ちっこいの\nそんなすごい力持ってたの！？\n\n# label \"select_label_end3\"\n# textboxarrow 0 1\n# chara 103311\n@クロエ\nにわかには信じがたい話ですけれど…\nこの状況がそもそも信じがたいもの\nですし…\n\n# textboxarrow 0 1\n# chara 103311\n@クロエ\n貴方の話を信じるしかなさそうですね\n\n# textboxarrow 0 2\n# chara 101411\n# face 24 \"angry\"\n@ティルフィング\nそれで…レナを助けるにはどうしたら\n良いんですかっ？\n\n;;大きな揺れ\n# se \"SE_0637\"\n# shake 1 2\n# textwindow \"close\"\n# face 24 \"surprise\"\n# face 95 \"surprise\"\n# face 103311 \"surprise2\"\n# waitandnext 2.5\n\n# fadein \"black\" 0.5\n# bgmfile \"bgm195\" \"Bgm3Tcollabo002\" 0\n# alpha 24 0 0\n# alpha 95 0 0\n# alpha 103311 0 0\n# layer 601611 4\n# alpha 601611 1 0.5\n# textwindow \"nomal\"\n# textboxarrow 0 2\n# chara 601611\n# face 601611 \"mad\"\n@レナ\nコンナトコロニイタ\n早ク終ワリニシヨウヨ…\n\n# textboxarrow 0 2\n# chara 601611\n@レナ\nアナタ達ガ殺シテクレナイナラ…\n私ガ、アナタ達ヲ殺スカラ！\n\n# alpha 24 1 0.5\n# alpha 95 1 0.5\n# alpha 103311 1 0.5\n# alpha 601611 0 0.3\n# face 24 \"angry\"\n# face 95 \"usual\"\n# textboxarrow 0 1\n# voice 1033 \"chloe_battle_0006\"\n# chara 103311\n# face 103311 \"irregular\"\n@クロエ\nいけない！\nここは応戦するしかありませんっ"
	}
]