[
	{
		"ID": 2764007,
		"script": ";;-----------------------------------------\n;;【このすばEP4･戦闘前】\n;;スクリプトID:\n;;スクリプト最後の背景：sea_beach_day\n;;背景：プール ※無いのでリゾートで代用\n;;-----------------------------------------\n# script \"lisp\"\n# background \"sea_resort_day\"\n# bgmfile \"bgm208\" \"BgmKScollabo001\" 0\n;;海上編ティルフィング\n# body 2101411\n# pos 2101411 3\n# scale 2101411 0.8 0\n# alpha 2101411 1 0\n# mask 2101411 off\n;;デュリン\n# body 0\n# pos 0 2\n# scale 0 0.8 0\n# alpha 0 0 0\n# layer 0 3\n# mask 0 off\n;;水着アスクレピオス\n# body 2600111\n# pos 2600111 2\n# scale 2600111 0.8 0\n# alpha 2600111 0 0\n;;水着シタ\n# body 2201611\n# pos 2201611 4\n# scale 2201611 0.8 0\n# alpha 2201611 0 0\n# face 2201611 \"angry\"\n;;水着めぐみん\n# body 2502511\n# pos 2502511 2\n# scale 2502511 0.8 0\n# alpha 2502511 0 0\n# face 2502511 \"worry\"\n;;水着ダクネス\n# body 2103411\n# pos 2103411 4\n# scale 2103411 0.8 0\n# alpha 2103411 0 0\n# face 2103411 \"usual\"\n;;◆背景：リゾート（昼）---------------------\n# textflame 0 0\n# textboxarrow 0 2\n@\n異族の動向をうかがいつつも\nカエル討伐が\nクエストに加わった、マスター達\n\n# emotionbody 1001 1 2101411 0 300\n# effectpattern 1001 1 0\n# effectstart 1001\n# voice 1014 \"tyrufing_0001\"\n# textflame 1 1\n@ティルフィング\nマスター、カエルの棲息地を\n捜しましょう\n\n@ティルフィング\n“海の家”からも正式に追加依頼が\n出ましたし、シタとアスクレピオスも\n引き続き護衛についてくれるそうです\n\n# textflame 0 0\n@\n「念のためだけど…海の向こうから\nカエルがやってきてるわけでは\nないんだよね？」とマスター\n\n# textflame 1 1\n# voice 1014 \"tyrufing_0003\"\n@ティルフィング\nええ…目撃情報や噂を信じるなら\n島の奥のどこかにカエルがいっぱい\n棲んでいるところがあるはずです\n\n# textflame 0 0\n@\n「じゃあ、カエルが出る原因調査の\nためにも、そこに向かってみようか」\nマスターはそう言い…\n\n;;//移動描写\n# se \"SE_0700\"\n# bgm \"stop\"\n# effectbody 600 21 0 0\n# effectstart 600\n# serif 0\n# textwindow \"close\"\n# serif 1\n# textwindow \"close\"\n# waitandnext 2\n\n;;◆背景：ビーチ（昼）-------------------------------\n# effectskip 600\n# background \"sea_beach_day\"\n# bgmfile \"bgm208\" \"BgmKScollabo001\" 0\n# alpha 2101411 0 0\n# alpha 2103411 1 0\n# alpha 2502511 1 0\n# textflame 0 0\n# textwindow \"normal\"\n@\n全員でラグーナ島の奥地を\n目指すことになった\n\n# textflame 1 1\n# textboxarrow 0 1\n# voice 250251 \"megumin_0001\"\n@めぐみん\nダクネス、あれは\nもしかすると思うのですが\n\n# textboxarrow 0 3\n# voice 210341 \"dakunesu_0003\"\n@ダクネス\n例のカエルのことだろう？\nそうだな、もしかすると…\nいや、間違いない\n\n# face 2502511 \"normal\"\n# textboxarrow 0 1\n@めぐみん\nはい、あのカエルは\nジャイアントトードですよ\n私達の世界にいたものです\n\n# emotionbody 1002 1 2103411 0 300\n# effectpattern 1002 1 0\n# effectstart 1002\n# textboxarrow 0 3\n@ダクネス\nしかし、ジャイアントトードが\nどうしてこの島にいる？\n\n# textboxarrow 0 1\n# voice 250251 \"megumin_0022\"\n@めぐみん\nそれは…私達がどうして\nここにいるのか、と\n同じ問いになると思われます…\n\n# textboxarrow 0 3\n@ダクネス\nふむ…私達と同じ原因で\nこちらに来た可能性もあるか…\n\n# textboxarrow 0 1\n# voice 250251 \"megumin_0026\"\n@めぐみん\nええ\nでも、それが分からない以上\nカエルが来た理由も分かりませんね\n\n# emotionbody 1003 8 2103411 0 260\n# effectpattern 1003 1 0\n# effectstart 1003\n# textboxarrow 0 3\n@ダクネス\nそうだな…\n\n# effectskip 1003\n# face 2502511 \"happy\"\n# textboxarrow 0 1\n@めぐみん\nそれはそうと、おいしいですよね\nジャイアントトードのから揚げは\n\n# face 2103411 \"smile\"\n# textboxarrow 0 3\n# voice 210341 \"dakunesu_0003\"\n@ダクネス\nああ、そういえば\nこっちに来てから食べていないな…\n\n# bgm \"bgm023_024\" 0\n# alpha 2103411 0 0.5\n# alpha 2502511 0 0.5\n# alpha 2201611 1 0.5\n# alpha 2600111 1 0.5\n# textboxarrow 0 3\n# voice 2016 \"shita_0012\"\n@シタ\n皆さんお静かに\nあそこ、異族がいます\n\n# emotionbody 1004 2 2600111 0 300\n# effectpattern 1004 1 0\n# effectstart 1004\n# textboxarrow 0 1\n@アスクレピオス\n本当だ…あら？\nなにか探してるようね\n\n# alpha 2201611 0 0.5\n# alpha 2600111 0 0.5\n# alpha 2103411 1 0.5\n# alpha 2502511 1 0.5\n# face 2103411 \"usual\"\n# face 2502511 \"normal\"\n# textboxarrow 0 3\n@ダクネス\nやはり、カエルか？\n\n# textboxarrow 0 1\n@めぐみん\n異族もカエルを\n食べるんですかね？\n\n# alpha 2103411 0 0.5\n# alpha 2502511 0 0.5\n# move 2101411 4 0\n# alpha 2101411 1 0.5\n# alpha 2600111 1 0.5\n# mask 2101411  on\n# face 2101411 \"angry\"\n# face 2600111 \"angry\"\n# voice 6001 \"asukurepiosu_0028\"\n# textboxarrow 0 1\n@アスクレピオス\nどうかしら…縄張りに入られて\n気が立っているだけかも\nしれないわよ…\n\n# emotionbody 1005 1 2101411 0 260\n# effectpattern 1005 1 0\n# effectstart 1005\n# textboxarrow 0 3\n@ティルフィング\n…！気をつけてください、マスター\n前方からなにかが大量に\n迫ってきます…あれは…！\n\n# textboxarrow 0 1\n@アスクレピオス\nまるで大河のように押し寄せる…\nカエルの群れだわ！！\n"
	}
]