[
	{
		"ID": 277000463,
		"script": ";;-----------------------------------------\n;;◆2019 海上編 9月中旬（6章）シナリオ\n;;【タイトル：パラディーゾ幻想襲来編Ⅵ】\n;;EP2_3\n;;スクリプト最後の背景：プール\n;;-----------------------------------------\n# script \"lisp\"\n# background \"sea_landmark_day\"\n# bgm \"stop\"\n;;-----------------------------------------\n;;水着アルマス\n# body 2103811\n# pos 2103811 3\n# scale 2103811 0.8 0\n# layer 2103811 2\n# alpha 2103811 0 0\n# mask 2103811 off\n;;水着レーヴァテイン\n# body 2100231\n# pos 2100231 3\n# scale 2100231 0.8 0\n# layer 2100231 2\n# alpha 2100231 0 0\n# mask 2100231 off\n;;水着カシウス\n# body 2303111\n# pos 2303111 3\n# scale 2303111 0.8 0\n# layer 2303111 2\n# alpha 2303111 0 0\n# mask 2303111 off\n;;-----------------------------------------\n# voice 210023 \"revatein_ge_0029\"\n# move 2100231 3 0\n# face 2100231 \"angry\"\n# alpha 2100231 1 0\n# mask 2100231 off\n# textflame 1 1\n@レーヴァテイン\nたあああっ！\n\n# textwindow \"close\"\n# alpha 2100231 0 0.5\n# move 2303111 3 0\n# face 2303111 \"angry\"\n# alpha 2303111 1 0.5\n# mask 2303111 off\n# waitandnext 0.8\n\n# se \"SE_4830\"\n# shake 0 0.5\n# fadein \"white\" 0.5\n# waitandnext 0.5\n\n# voice 230311 \"cassius_ge_battle_0007\"\n# textwindow \"normal\"\n@カシウス\nうっ…\n\n;;//演出：カシウス倒れる\n# se \"SE_3001\"\n# textwindow \"close\"\n# alpha 2303111 0 0.5\n# waitandnext 0.5\n\n# move 2100231 3 0\n# face 2100231 \"angry\"\n# alpha 2100231 1 0.5\n# mask 2100231 off\n# textwindow \"normal\"\n@レーヴァテイン\nはぁはぁ…\n勝負、あったわね\n\n# alpha 2100231 0 0.5\n# move 2103811 3 0\n# face 2103811 \"angry\"\n# alpha 2103811 1 0.5\n# mask 2103811 off\n@アルマス\nカシウスッ！\n\n# se \"SE_5575\"\n# textwindow \"close\"\n# leftout 2103811 0.3\n# waitandnext 0.3\n\n;;ナレーション\n# bgmfile \"bgm273\" \"BgmLostRagnarokEvent\" 0\n# alpha 2103811 0 0\n# textflame 0 0\n# textwindow \"normal\"\n@\nアルマスは倒れたカシウスに\n駆け寄り、助け起こす\n\n# move 2303111 2 0\n# face 2303111 \"normal\"\n# alpha 2303111 1 0.5\n# mask 2303111 on\n# move 2103811 4 0\n# face 2103811 \"angry\"\n# alpha 2103811 1 0.5\n# mask 2103811 on\n# textflame 1 1\n@アルマス\nカシウス！\nこんなこと、本当に必要だったの？\n私達が戦う必要なんて…\n\n@カシウス\nこの世すべては…円環の因子…\n巡り廻る…運命の輪…\n\n@カシウス\nわたし達は、この島を守る王として…\n神を阻む盾となるために立った…\n\n@カシウス\nそれが神を倒した、わたしの責務…\n強き者としての…王の責務だと…\n\n# voice 210381 \"almace_0015\"\n# face 2103811 \"sad\"\n@アルマス\nカシウス…\n\n# face 2103811 \"angry\"\n@アルマス\n勝手に重い責務を背負って、\n勝手に島まで移転させて…\n\n@アルマス\n勝手なことばっかりして、\n許さないんだから…\n\n@アルマス\n私があとの二人も止めるから…\n終わったら、\nみんなまとめてお説教よ！\n\n;;ナレーション\n# face 2303111 \"smile\"\n# textflame 0 0\n@\nアルマスの言葉に\nカシウスは微かに笑い返し、\nそれからマスターに目を向ける\n\n# textwindow \"close\"\n# alpha 2303111 0 0.5\n# alpha 2103811 0 0.5\n# waitandnext 0.5\n\n# move 2303111 3 0\n# face 2303111 \"normal\"\n# alpha 2303111 1 0.5\n# mask 2303111 off\n# textflame 1 1\n# textwindow \"normal\"\n@カシウス\nあなたの存在が、\n彼女達に変革をもたらしたのね…\n\n;;ナレーション\n# textflame 0 0\n@\n守ることと支配することは違う、\n一緒にいればわかるはずだ\nと、マスターはカシウスに話す\n\n# textflame 1 1\n@カシウス\nそう…\nそれが真実なら…\n私も見てみたい\n\n# voice 230311 \"cassius_ge_battle_0007\"\n@カシウス\nこの眼で、変革の時を…\nうっ…\n\n# move 2303111 2 0.5\n# mask 2303111 on\n# move 2103811 4 0\n# face 2103811 \"angry\"\n# alpha 2103811 1 0.5\n# mask 2103811 on\n@アルマス\nカシウス！\nもういいから、少し休んで…\n\n@カシウス\nティファレトは…\nきっと…ジャングルにいるわ…\n\n# voice 210381 \"almace_0030\"\n# face 2103811 \"usual\"\n@アルマス\nわかった…\nありがとう、カシウス…"
	}
]