[
	{
		"ID": 27700282,
		"script": ";;15幕戦闘後\n;;【指定】bgm023\n# script \"lisp\"\n# background \"sea_resort_day\"\n# bgm \"bgm023\" 0\n# subfillrect 0 \"red\" 0 0 0.3\n# envbody 1501 6 0\n# effectpattern 1501 1 0\n# effectstart 1501\n# body 2500611\n# pos 2500611 2\n# scale 2500611 0.8 0\n# body 2102711\n# pos 2102711 4\n# scale 2102711 0.8 0\n# body 2100811\n# pos 2100811 1\n# scale 2100811 0.8 0\n# alpha 2100811 0 0\n# face 2500611 \"angry\"\n# face 2102711 \"angry\"\n# textflame 1 1\n@クラウ・ソラス\nやめろ、メギド！\nそれ以上は…自分自身をも\n焼き払うことになるぞ！\n\n# voice 5006 \"megido_0007\"\n@メギド\nそれがどうしたの？\nそこの羽虫達を全て焼き払えるなら\n私がどうなろうと構わない\n\n@メギド\n私は陛下のために存在しているの\n陛下が生き存えていて下されば、\nそれでいいの\n\n# leftin 2100811 0.5\n# alpha 2100811 1 0\n# move 2102711 5 0.5\n# move 2500611 3 0.5\n# layer 2102711 1\n# layer 2100811 2\n# layer 2500611 3\n# face 2100811 \"sad\"\n# voice 1008 \"guramu_0017\"\n@グラム\n嘘でしょ…\nこの人、本当にやばいよ\n\n# face 2102711 \"sad\"\n# voice 1027 \"solais_0015\"\n@クラウ・ソラス\n陛下への忠誠心だけは、\nずば抜けて高いのだ…\n\n# face 2102711 \"angry\"\n@クラウ・ソラス\nいや、もはやそれこそが\n存在理由となっている\n\n# body 2102311\n# pos 2102311 1\n# scale 2102311 0.8 0\n# alpha 2102311 0 0\n# voice 5006 \"megido_0012\"\n@メギド\nさあ、皆、裁定の火に焼かれて\n私もろとも…陛下のために…\n\n# se \"SE_5575\"\n# leftin 2102311 0.5\n# alpha 2102311 1 0\n# alpha 2100811 0 0.3\n# face 2102311 \"angry\"\n# voice 1023 \"ascalon_0013\"\n@アスカロン\nそんなの…そんなの違います！\nメギド様は、王様のことを全然、\n見てないじゃないですか！\n\n# body 2300111\n# pos 2300111 4\n# scale 2300111 0.8 0\n# alpha 2300111 0 0\n# face 2500611 \"sad\"\n@メギド\nなんですって…？\n\n;;【指定】SE_0675\n;;//ロンギヌスがメギドに抱きつく\n;;【指定】bgm198\n# bgmfile \"bgm198\" \"Bgm3Tcollabo002\" 0\n# fadein \"white\" 0.5\n# subfillrect 0 \"red\" 0.5 0.3 0.15\n# effectstart 1501\n# effectskip 1501\n# se \"SE_0675\"\n# rightin 2300111 0.5\n# alpha 2300111 1 0\n# alpha 2102711 0 0.3\n# alpha 2102311 0 0.3\n# face 2300111 \"angry\"\n# voice 3001 \"ronginusu_0013\"\n@ロンギヌス\nそうだよ、メギドっ…\nちゃんと私を見て！\n\n@メギド\n陛下…\n\n# face 2300111 \"sad\"\n# voice 3001 \"ronginusu_0009\"\n@ロンギヌス\n…ごめんなさい、メギド\n\n@ロンギヌス\nあなたをこんなふうに\nしてしまったのは私…\n私の弱さ…\n\n# voice 3001 \"ronginusu_0017\"\n@ロンギヌス\n全て私が悪いの…\n私が弱かったから…\nなにも決断できなかったから…\n\n@ロンギヌス\nアスカロン…皆さん…\n本当にごめんなさい…\n\n# pos 2102711 1\n# leftin 2102711 0.5\n# alpha 2102711 1 0\n# face 2102711 \"sad\"\n# voice 1027 \"solais_0024\"\n@クラウ・ソラス\n陛下！？\n頭をお下げにならないで下さいっ\n\n# pos 2102311 1\n# body 2100911\n# pos 2100911 1\n# scale 2100911 0.8 0\n# alpha 2100911 0 0\n# alpha 2102711 0 0.3\n# alpha 2102311 1 0.5\n# face 2102311 \"sad\"\n@アスカロン\nあのあのあのっ…\n私、ただ王様とお話しがしたくて…\nあああなんだかすみません！\n\n# emotionbody 5831 9 2100911 55 235\n# effectpattern 5831 1 0\n# effectstart 5831\n# alpha 2102311 0 0.3\n# alpha 2100911 1 0.5\n# voice 1009 \"barumunku_0008\"\n@バルムンク\nあはは…\nアスカロン、動揺しすぎだよ\n\n;;//暗転挟む\n# fadeout \"black\" 2\n# waitandnext 2.5\n\n# fadein \"black\" 1\n# subfillrect 0 \"red\" 0 0.15 0\n# pos 2300111 3\n# alpha 2300111 1 0\n# alpha 2102711 1 0\n# alpha 2100911 0 0\n# layer 2300111 3\n# layer 2500611 2\n# layer 2102711 1\n# move 2500611 5 0\n@ロンギヌス\n元々、この国はマナが豊富とは\nいえませんでした…\n\n# voice 3001 \"ronginusu_0009\"\n@ロンギヌス\nそれなのに、\n少し前からマナが減り始めて…\n\n# face 2102711 \"angry\"\n@クラウ・ソラス\nもう少し細かく言うと、\n水中に含まれるマナの絶対量が減り\n元の量に戻らなくなったのだ\n\n# voice 5006 \"megido_0015\"\n@メギド\nしかも、その量は減る一方よ\n\n# voice 3001 \"ronginusu_0027\"\n@ロンギヌス\n減った分を補うには\n余所から奪うしかありません…\n\n@ロンギヌス\nクラウ・ソラス達は他国への\n侵攻を進言してくれました…\nでも…\n\n@メギド\n心優しい陛下は、それを良しと\nしなかったの…\n\n# face 2102711 \"sad\"\n# voice 1027 \"solais_0015\"\n@クラウ・ソラス\nそれで、国内のマナを\nやりくりして凌いではきたんだ…\n\n# pos 2102311 5\n# pos 2100811 3\n# alpha 2300111 0 0.3\n# alpha 2102711 0 0.3\n# alpha 2500611 0 0.3\n# alpha 2102311 1 0.5\n# alpha 2100811 1 0.5\n# alpha 2100911 1 0.5\n# face 2100811 \"angry\"\n# face 2102311 \"usual\"\n# voice 1008 \"guramu_0007\"\n@グラム\nその割を食ったのは私達、\n下級民だったけどね\n\n# alpha 2300111 1 0.5\n# alpha 2102711 1 0.5\n# alpha 2500611 1 0.5\n# alpha 2102311 0 0.3\n# alpha 2100811 0 0.3\n# alpha 2100911 0 0.3\n@クラウ・ソラス\n…苦渋の選択だったというのは\n信じて欲しい\n\n# face 2102711 \"angry\"\n@クラウ・ソラス\nところが、さらに状況が悪化した\n帝国が三国統一の兵を起こしたのだ\n\n# face 2300111 \"angry\"\n# voice 3001 \"ronginusu_0013\"\n@ロンギヌス\nこれ以上マナを奪われたら\nオシマイです\nそれなのに私はなにもできずに…\n\n# pos 2102311 1\n# leftin 2102311 0.5\n# alpha 2102311 1 0\n# alpha 2500611 0 0.3\n# move 2102711 3 0.5\n# move 2300111 5 0.5\n# face 2102311 \"angry\"\n# voice 1023 \"ascalon_0022\"\n@アスカロン\nなにか！\nなにか方法があるはずですっ\n\n# face 2102311 \"sad\"\n@アスカロン\nマナ減少の原因を突き止めるとか\n…帝国と話し合いをするとか…\n\n# face 2102711 \"angry\"\n# voice 1027 \"solais_0007\"\n@クラウ・ソラス\n…悪いが、\nそういうことは\n全てやった上での現状だ\n\n# voice 1023 \"ascalon_0015\"\n@アスカロン\nあうぅ…\n\n# face 2300111 \"angry\"\n# voice 3001 \"ronginusu_0002\"\n@ロンギヌス\n…一つだけあるんです\nこの国を…いいえ、\nこの島全体を救う方法が\n\n# emotionbody 5170 1 2102311 10 270\n# effectpattern 5170 2 0\n# effectstart 5170\n# face 2102311 \"angry\"\n# voice 1023 \"ascalon_0022\"\n@アスカロン\n本当ですか！？\n教えて下さいっ\n\n@ロンギヌス\n…ある方が私に教えてくれました\n\n@ロンギヌス\nこの島を統一した者に\n「バイブス」という秘宝が\nもたらされる\n\n@ロンギヌス\nそれがあれば島は救われる…\nそんなお話しでした\n\n# face 2300111 \"sad\"\n# voice 3001 \"ronginusu_0009\"\n@ロンギヌス\nでも、私は…\n決意できませんでしたっ…\n\n# pos 2500611 1\n# alpha 2500611 1 0.5\n# alpha 2102311 0 0.3\n# layer 2500611 1\n# layer 2102711 2\n# face 2500611 \"angry\"\n# voice 5006 \"megido_0007\"\n@メギド\nその者はティルフィングと名乗った\nそうよ…聞き覚えのない名前…\n怪しすぎるわ\n\n@クラウ・ソラス\n不審な者からの曖昧な情報になど\nとても乗ることはできなかったのだ\n\n# alpha 2100911 1 0.5\n# alpha 2500611 0 0.3\n# face 2100911 \"sad\"\n@バルムンク\n確かに…バイブスという秘宝が\nなんなのかも分かりませんし…\n\n# pos 2102311 3\n# alpha 2102311 1 0.5\n# alpha 2102711 0 0.3\n@アスカロン\nでも、可能性はあるんですよね\n\n# emotionbody 6001 11 2100811 90 250\n# effectpattern 6001 1 0\n# effectstart 6001\n# pos 2100811 1\n# alpha 2100811 1 0.5\n# alpha 2100911 0 0.3\n# layer 2102311 3\n# layer 2300111 2\n# layer 2100811 1\n# face 2100811 \"sad\"\n# voice 1008 \"guramu_0023\"\n@グラム\nえっ…\nアスカロン、まさか？\n\n# face 2102311 \"usual\"\n@アスカロン\nもし、\nそれでみんなが幸せになれるのなら…\n私はバイブスを手に入れたい\n\n@ロンギヌス\nそのためには…三国を統一する\n必要があるんですよ…？\nきっと、たくさんの困難があります\n\n# face 2102311 \"angry\"\n@アスカロン\nはい。だけど、\nなにもせず諦めたくないんです\nほんの少しでも可能性があるのなら\n\n@ロンギヌス\n…………\n\n# face 2300111 \"smile\"\n# voice 3001 \"ronginusu_0004\"\n@ロンギヌス\nアスカロン…\n私、やっと決めることができました\n\n# pos 2102711 1\n# alpha 2102711 1 0.5\n# alpha 2100811 0 0.3\n# layer 2102311 3\n# layer 2300111 2\n# layer 2102711 1\n# face 2102711 \"angry\"\n@クラウ・ソラス\n陛下、それでは私達も\n三国統一の戦を始めるのですねっ？\n\n# face 2300111 \"normal\"\n@ロンギヌス\nそれを決めるのは、アスカロン\nあなたです！\n\n# face 2300111 \"smile\"\n# voice 3001 \"ronginusu_0036\"\n@ロンギヌス\nどうか、\n新たな国王になって下さい！\n\n# emotionbody 5806 9 2102311 -40 160\n# effectpattern 5806 6 0\n# effectstart 5806\n# face 2102311 \"sad\"\n# voice 1023 \"ascalon_0023\"\n@アスカロン\nえ…えええええ！？\n私が王様だなんてっ\n\n# voice 1023 \"ascalon_0015\"\n@アスカロン\n私はただ、\nみんなのお役に立ちたくて\nみんなで幸せに暮らしたくて\n\n# effectskip 5806\n# body 2302411\n# pos 2302411 5\n# scale 2302411 0.8 0\n# alpha 2302411 0 0\n@ロンギヌス\n私も同じ気持ちです\nそしてあなたには、\n私にはない決断力があります\n\n# pos 2100811 3\n# alpha 2300111 0 0.3\n# alpha 2102311 0 0.3\n# alpha 2102711 0 0.3\n# alpha 2100811 1 0.5\n# alpha 2100911 1 0.5\n# alpha 2302411 1 0.5\n# face 2302411 \"smile\"\n# face 2100811 \"normal\"\n# face 2100911 \"smile\"\n# voice 1009 \"barumunku_0005\"\n@バルムンク\nうん、アスカロンならきっと良い\n王様になれるよっ\n\n# voice 1008 \"guramu_0004\"\n@グラム\nここまでみんなが\n誰についてきたと思ってるの？\n\n# body 2300811\n# pos 2300811 1\n# scale 2300811 0.8 0\n# alpha 2300811 0 0\n# voice 3024 \"tonbokiri_0004\"\n@蜻蛉切\nそなたが皆を動かし、\n変えてきたのよ\n\n# alpha 2100911 0 0.3\n# alpha 2300811 1 0.5\n# face 2300811 \"usual\"\n# voice 3008 \"gunguniru_0004\"\n@グングニル\nそなたは我にも臆さず\nものを言ってみせたではないか\n\n# pos 2102711 1\n# pos 2500611 5\n# pos 2300111 3\n# alpha 2300811 0 0.3\n# alpha 2302411 0 0.3\n# alpha 2100811 0 0.3\n# alpha 2300111 1 0.5\n# alpha 2500611 1 0.5\n# alpha 2102711 1 0.5\n# layer 2300111 3\n# layer 2500611 2\n# layer 2102711 1\n# face 2102711 \"normal\"\n# face 2500611 \"normal\"\n# voice 3001 \"ronginusu_0005\"\n@ロンギヌス\nメギドもクラウ・ソラスも、\nいいですよね？\n\n# eye 2500611 \"close\"\n# voice 5006 \"megido_0004\"\n@メギド\n私は陛下、いえ、ロンギヌス様の\n仰せのままに\n\n# voice 1027 \"solais_0004\"\n@クラウ・ソラス\nアスカロンが新国王…\nはい、私はこの者を認めています\n\n# pos 2102311 3\n# alpha 2102311 1 0.5\n# alpha 2300111 0 0.3\n# alpha 2500611 0 0.3\n# alpha 2102711 0 0.3\n# body 2101111\n# pos 2101111 1\n# scale 2101111 0.8 0\n# alpha 2101111 0 0\n# voice 1023 \"ascalon_0022\"\n@アスカロン\n皆さん！？\n…私は\n\n;;//回想シーン\n# fadein \"black\" 1\n# background \"sea_jungle_day\"\n# subfillrect 1 \"pink\" 0 0 0.4\n# alpha 2101111 1 0\n# move 2102311 5 0\n# face 2101111 \"angry\"\n# face 2102311 \"angry\"\n# voice 1011 \"excalibur_0004\"\n@エクスカリバー\n決断するのです、アスカロン\n\n;;//回想終了\n# bgm \"stop\"\n# fadein \"black\" 0.5\n# background \"sea_resort_day\"\n# subfillrect 1 \"pink\" 0 0 0\n# move 2102311 3 0\n# alpha 2101111 0 0\n# face 2102311 \"sad\"\n@アスカロン\n…！\n\n;;//もやもや吹き出し\n# textwindow \"moya\"\n@アスカロン\n私の決断…\n臆せず踏み出す一歩…\n\n# bgmfile \"bgm240\" \"BgmSeaEventBattle\" 0\n# textwindow \"nomal\"\n@アスカロン\n…戦は嫌いです\n奪い合うんじゃなくて分け合って、\nみんなで生きていきたい\n\n# face 2102311 \"angry\"\n@アスカロン\nでも、そのために今、戦うべきなら\n私は困難な道を進みます\n\n# envbody 2001 11 0\n# effectpattern 2001 2 0\n# effectstart 2001\n@アスカロン\n未熟な私ですけど、\n国王として精一杯務めますので\nよろしくお願い致します！\n\n# pos 2300111 4\n# alpha 2300111 1 0.5\n# move 2102311 2 0.5\n# face 2300111 \"normal\"\n# voice 3001 \"ronginusu_0030\"\n@ロンギヌス\nありがとうございます、\nアスカロン…\nいいえ、国王陛下\n\n# face 2102311 \"smile\"\n# voice 1023 \"ascalon_unit_0005\"\n@アスカロン\nでは、新国王として宣言します！\n今ここに、神聖プール王国は\n三国統一の戦いを始めます！ \n"
	}
]