[
	{
		"ID": 277001183,
		"script": ";;-----------------------------------------\n;;■□■新・海上編 8 月中旬シナリオ■□■\n;;【第2幕】信愛のエンシェント・戦闘後\n;;スクリプト最後の背景：sea_jungle_day\n;;-----------------------------------------\n# script \"lisp\"\n# background \"sea_jungle_day\"\n# bgm \"bgm005\" 0\n;;ラース（マサムネ）\n# body 2100121\n# pos 2100121 2\n# scale 2100121 0.8 0\n# layer 2100121 2\n# alpha 2100121 0 0\n;;水着ダモクレス\n# body 2103511\n# pos 2103511 2\n# scale 2103511 0.8 0\n# layer 2103511 2\n# alpha 2103511 1 0\n;;ラスト（アルテミス）\n# body 2400121\n# pos 2400121 4\n# scale 2400121 0.8 0\n# alpha 2400121 0 0\n;;水着フライシュッツ\n# body 2502711\n# pos 2502711 4\n# scale 2502711 0.8 0\n# face 2502711 \"happy\"\n;;-----------------------------------------\n;;カーテンフェード\n# imageset 0 \"black\"\n# imagealpha 0 0 0\n# imagelayer 0 1\n;;◆背景：密林（昼）-\n# textflame 1 1\n# voice 1035 \"damocles_0002\"\n@ダモクレス\nよっと…これで全部かなぁ？\nマスターは無事？生きてる？\n\n# voice 5027 \"freischotz_0004\"\n@フライシュッツ\nおねーちゃんが\nしっかり守りました！\nマスターくんは大丈夫だよ〜\n\n# alpha 2103511 0 0.5\n# alpha 2502711 0 0.5\n# alpha 2100121 1 0.5\n# alpha 2400121 1 0.5\n# voice 210012 \"masamune_k_0007\"\n@ラース\nこれほどの異族が出現するとは…\nこの島はどうなっているのだ？\n\n# voice 240012 \"arutemisu_k_0003\"\n@ラスト\n神々は異族を\n送り続けているのです\n\n@ラスト\nグリードは任務達成後に\n報告するだけのこと、\nと言っていましたが…\n\n# alpha 2100121 0 0.5\n# alpha 2400121 0 0.5\n# alpha 2103511 1 0.5\n# alpha 2502711 1 0.5\n@フライシュッツ\nミネルヴァちゃんが調べているから、\nそろそろなにか教えてくれるかも〜\n\n@ダモクレス\nこの子たち、\nどこから来たのかなぁ？\n\n# mask 2100121 off\n# alpha 2103511 0 0.5\n# alpha 2502711 0 0.5\n# alpha 2100121 1 0.5\n# move 2100121 3 0\n@ラース\n森の奥から来たのか？\nまた邪魔をされては面倒でござる、\n残党がおるようなら斬ってしまおう\n\n# se \"SE_0719\"\n;;//演出：場所移動（背景そのまま）\n# imagepos 0 0 30\n# imagescale 0 1.2 0\n# imagealpha 0 1 0\n# imageleftin 0 0.5\n# textwindow \"close\"\n# waitandnext 0.6\n\n# mask 2100121 on\n# move 2100121 2 0\n# alpha 2400121 1 0\n# alpha 2100121 1 0\n# waitandnext 0.3\n\n# imagealpha 0 0 0.5\n# imagerightout 0 0.5\n# waitandnext 0.5\n\n# textwindow \"nomal\"\n# voice 210012 \"masamune_k_0003\"\n@ラース\nずいぶん遠くまで来たが、\n異族の痕跡はまだ続くようだな\n\n@ラスト\nラース…私達に\n異族を倒す理由はないのですよ？\nもうやめませんか？\n\n@ラース\n拙者の邪魔をする者は斬る！\nそれだけだ！\n\n# face 2400121 \"sad\"\n# voice 240012 \"arutemisu_k_0014\"\n@ラスト\nはぁ…\nマスターを取り返しにきただけなのに\n面倒なことになりましたね…\n\n# alpha 2100121 0 0.5\n# alpha 2400121 0 0.5\n# alpha 2103511 1 0.5\n# alpha 2502711 1 0.5\n# face 2502711 \"normal\"\n# voice 5027 \"freischotz_0002\"\n@フライシュッツ\nほら、あそこに遺跡があるよー\n異族はあそこから来たみたいだね〜\n\n# textflame 0 0\n@\nフライシュッツが指差した先には、\n木々に囲まれて見えにくいが\n確かに建造物のようなものがある\n\n# textflame 1 1\n# voice 1035 \"damocles_0005\"\n@ダモクレス\nあ！\nラグナロクたちだ！\nおーい！\n\n# alpha 2103511 0 0.5\n# alpha 2100121 1 0.5\n# move 2100121 2 0\n@ラース\nグリード達もおるようだな…\nなぜこのような場所に？\n\n# face 2502711 \"sad\"\n@フライシュッツ\nなんだか、\nみんな怖い顔してる…\nどうしたのかなぁ？\n\n# alpha 2100121 0 0.5\n# move 2400121 2 0\n# alpha 2400121 1 0.5\n@ラスト\nあまり、いい予感はしませんね…\n"
	}
]