[
	{
		"ID": 277000481,
		"script": ";;-----------------------------------------\n;;◆2019 海上編 9月中旬（6章）シナリオ\n;;【タイトル：パラディーゾ幻想襲来編Ⅵ】\n;;EP4_1\n;;スクリプト最後の背景：ジャングル\n;;-----------------------------------------\n# script \"lisp\"\n# background \"sea_jungle_day\"\n# bgmfile \"bgm271\" \"BgmLostRagnarokEvent\" 0\n;;-----------------------------------------\n;;水着アルマス\n# body 2103811\n# pos 2103811 3\n# scale 2103811 0.8 0\n# layer 2103811 2\n# alpha 2103811 0 0\n# mask 2103811 off\n;;水着フェイルノート\n# body 2401911\n# pos 2401911 3\n# scale 2401911 0.8 0\n# layer 2401911 2\n# alpha 2401911 0 0\n# mask 2401911 off\n;;水着モラベガ\n# body 2104211\n# pos 2104211 3\n# scale 2104211 0.8 0\n# layer 2104211 2\n# alpha 2104211 0 0\n# mask 2104211 off\n;;-----------------------------------------\n;;【EP4】妖精は魔の王を剋する\n;;//背景：中央の島（なければジャングル？）\n;;ナレーション\n# textflame 0 0\n@\nガ・ジャルグ達がティファレトと\n雌雄を決している頃―\n\n# voice 210381 \"almace_0039\"\n# move 2103811 3 0\n# face 2103811 \"usual\"\n# alpha 2103811 1 0.5\n# mask 2103811 off\n# textflame 1 1\n@アルマス\nこれが例の施設ね…\nこの島に、こんなのがあるなんて\n知らなかったわ…\n\n# alpha 2103811 0 0.5\n# move 2104211 3 0\n# face 2104211 \"sad\"\n# alpha 2104211 1 0.5\n# mask 2104211 off\n@モラベガ\n私達も知らなかったよ！\nこっちは来たことないからねぇ\n\n# voice 210381 \"almace_0001\"\n# alpha 2104211 0 0.5\n# move 2103811 3 0\n# face 2103811 \"usual\"\n# alpha 2103811 1 0.5\n# mask 2103811 off\n@アルマス\nマスターは、見覚えある？\nラグーナ島に同じようなのがあるとか\n\n;;ナレーション\n# textflame 0 0\n@\n島にはいろんな建造物があったが、\nこれはマスターも初めて見る\n\n# textflame 1 1\n@アルマス\n今は特に変わった様子はないわね\nモラベガは何か感じる？\n\n# voice 210421 \"morabeaga_l_0028\"\n# alpha 2103811 0 0.5\n# move 2104211 3 0\n# face 2104211 \"sad\"\n# alpha 2104211 1 0.5\n# mask 2104211 off\n@モラベガ\nう〜ん…\nなんにも…\n\n;;//フェイルノート登場\n# bgm \"stop\"\n# alpha 2104211 0 0.5\n# move 2401911 3 0\n# face 2401911 \"normal\"\n# alpha 2401911 1 0.5\n# mask 2401911 off\n@フェイルノート\nここは、かつて私達が神と戦い、\nそして神を打ち倒した場所…\n\n# voice 240191 \"failnaught_a_0026\"\n# face 2401911 \"angry\"\n@フェイルノート\nお前達ごときが\n立ち入れる場所ではない…\n不敬だわ\n\n# alpha 2401911 0 0.5\n# move 2103811 3 0\n# face 2103811 \"angry\"\n# alpha 2103811 1 0.5\n# mask 2103811 off\n@アルマス\nフェイルノートッ！\n\n# bgmfile \"bgm271\" \"BgmLostRagnarokEvent\" 0\n# alpha 2103811 0 0.5\n# move 2401911 3 0\n# face 2401911 \"normal\"\n# alpha 2401911 1 0.5\n# mask 2401911 off\n@フェイルノート\nゴッドキラーズであり、\n魔を統べる王である私が、\n島を支配する…\n\n# face 2401911 \"angry\"\n@フェイルノート\nそのことになんの異論が\nあるというの？\n私の存在に、感謝するがいいわ\n\n;;ナレーション\n# textflame 0 0\n@\n君達が島を支配しようとする理由は、\nみんなを守りたいからなんだろう？\nと、マスターは声をかける\n\n# face 2401911 \"normal\"\n# textflame 1 1\n@フェイルノート\n…………\n\n;;ナレーション\n# textflame 0 0\n@\nラグーナ島のキル姫達は\n神を怖がっていないし、弱くもない\n君が守る必要はないんだ、と続ける\n\n# voice 210381 \"almace_0009\"\n# alpha 2401911 0 0.5\n# move 2103811 3 0\n# face 2103811 \"angry\"\n# alpha 2103811 1 0.5\n# mask 2103811 off\n# textflame 1 1\n@アルマス\n私達だって、前とは違う！\nカシウスは私達の力を認めたわよ！\n\n@アルマス\nティファレトも、ガ・ジャルグと\nソロモン、ヘレナと戦っている…\nきっと私達が勝つわ！\n\n@アルマス\nあとはフェイルノート…あなただけ！\nいい加減に目を覚ましなさい！\n\n# voice 240191 \"failnaught_a_0007\"\n# alpha 2103811 0 0.5\n# move 2401911 3 0\n# face 2401911 \"angry\"\n# alpha 2401911 1 0.5\n# mask 2401911 off\n@フェイルノート\nふんっ…\n私に対して、その不遜な物言い…\n許されるとでも？\n\n@フェイルノート\nそれに、お前の言葉に価値はない\nいいえ…お前に限らず、\n誰の言葉も、もはや無意味よ\n\n@フェイルノート\nその時は近いわ…\n一刻の猶予も許されはしない…\n\n@フェイルノート\nお前達には、\n私の前に立ったことを\n後悔させてあげましょう…\n\n# se \"SE_9156\"\n@フェイルノート\nさあ、私の前にひれ伏すがいいわっ！\n\n;;ナレーション\n# textflame 0 0\n@\n強烈な威圧感が\nフェイルノートから放たれる\n\n;;ナレーション\n@\nそれに耐えつつ、マスターが\nアルマス達を見ると、彼女達は\nしっかりと頷いた\n\n# alpha 2401911 0 0.5\n# move 2103811 3 0\n# face 2103811 \"angry\"\n# alpha 2103811 1 0.5\n# mask 2103811 off\n# textflame 1 1\n@アルマス\n絶対に、あなたは私が止める！\nそっちこそ覚悟しなさいっ！\n\n# alpha 2103811 0 0.5\n# move 2104211 3 0\n# face 2104211 \"angry\"\n# alpha 2104211 1 0.5\n# mask 2104211 off\n@モラベガ\n私達だって、負けないんだからっ！\nアルマスの力になってみせるよっ！"
	}
]