[
	{
		"ID": 27800282,
		"script": ";;【指定】Bgm3Tcollabo002 bgm198\n;;第15幕　タイトル：真相のビーチ\n;;//背景：ビーチ\n# script \"lisp\"\n# background \"sea_beach_day\"\n# bgmfile \"bgm198\" \"Bgm3Tcollabo002\" 0\n# textflame 1 1\n# body 2500711\n# pos 2500711 2\n# scale 2500711 0.8 0\n# body 2301811\n# pos 2301811 4\n# scale 2301811 0.8 0\n# voice 5007 \"buryunaku_0005\"\n@ブリューナク\n…見事だ\n\n# face 2301811 \"angry\"\n# textflame 1 1\n# voice 3018 \"forcas_0013\"\n@フォルカス\nブリューナク、\nあなたには相応の罰を与えます\n\n;;//ダーインスレイヴ\n# serif 1\n@？？？？\n待ってくれ、フォルカス\nいや、皇帝陛下\n\n# body 2102811\n# pos 2102811 3\n# scale 2102811 0.8 0\n# alpha 2102811 0 0\n# face 2301811 \"sad\"\n# textflame 1 1\n# voice 3018 \"forcas_0022\"\n@フォルカス\nえっ…？\nその声、ダーインスレイヴ様！？\nご無事だったんですかっ？\n\n# body 2600111\n# pos 2600111 1\n# scale 2600111 0.8 0\n# alpha 2600111 0 0\n# serif 1\n# textwindow \"close\"\n# serif 0\n# textwindow \"normal\"\n# move 2500711 1 0.5\n# move 2301811 5 0.5\n# alpha 2102811 1 0.5\n# layer 2102811 4\n# face 2102811 \"usual\"\n@ダーインスレイヴ\nまだ一人ではまともに歩くことも\nできない身だけれどね\n\n# alpha 2500711 0 0.5\n# alpha 2600111 1 0.5\n# textflame 1 1\n@アスクレピオス\n私が事情を話して\n陛下を連れて来るって言ったのに\n\n# face 2600111 \"angry\"\n# body 2501711\n# pos 2501711 5\n# scale 2501711 0.8 0\n# alpha 2501711 0 0\n# textflame 1 1\n# voice 6001 \"asukurepiosu_0013\"\n@アスクレピオス\n自分から出向くって言って\n聞かないのよ！\n\n# face 2501711 \"angry\"\n# alpha 2301811 0 0.5\n# alpha 2501711 1 0.5\n# textflame 1 1\n@グリモワール\nなにがどうなってるのよ！？\n処刑されたって、嘘だったの…！\n\n# face 2102811 \"sad\"\n# textflame 1 1\n# voice 1028 \"dainsleif_0031\"\n@ダーインスレイヴ\n混乱させてすまない\n全てはわたしが仕組んだことだ\n\n# face 2301811 \"sad\"\n# alpha 2301811 1 0.5\n# alpha 2501711 0 0.5\n# textflame 1 1\n@フォルカス\nダーインスレイヴ様が？\n…なんで、こんなことを\n\n# face 2102811 \"usual\"\n# textflame 1 1\n@ダーインスレイヴ\n理由の大半はブリューナクが\n言ってくれたようだけれどね\nフォルカス…\n\n# textflame 1 1\n# voice 1028 \"dainsleif_0019\"\n@ダーインスレイヴ\nおぬしのわたしに対する忠誠心は\n嬉しく思う\nけれど、それだけでは足りないのだ\n\n# textflame 1 1\n@ダーインスレイヴ\n皇帝として三国統一を果たすためには\nおぬし自身の意志と願望を持って\n進まなくてはならない\n\n# textflame 1 1\n# voice 1028 \"dainsleif_0003\"\n@ダーインスレイヴ\nそれに気づいて欲しくてね\nブリューナクに手伝ってもらって\n一芝居打ったということだ\n\n# face 2301811 \"sad\"\n# textflame 1 1\n# voice 3018 \"forcas_0002\"\n@フォルカス\n…でも、ブリューナクは私のことを\n認めていなかったのでは？\n\n# face 2501711 \"angry\"\n# alpha 2301811 0 0.5\n# alpha 2501711 1 0.5\n# textflame 1 1\n@グリモワール\nそうよ…！\n初めて会ったときも感じ悪かったし\n\n# face 2500711 \"normal\"\n# alpha 2600111 0 0.5\n# alpha 2500711 1 0.5\n# textflame 1 1\n# voice 5007 \"buryunaku_0027\"\n@ブリューナク\nその記憶には齟齬がある\nブリューナクは「良い噂は聞いて\nいない」と言ったのだ\n\n# textflame 1 1\n# voice 5007 \"buryunaku_0003\"\n@ブリューナク\nだから、この目で確かめたかった\nそして噂とは違い、\n帝位を継ぐに値する者と見なした\n\n# face 2301811 \"sad\"\n# alpha 2301811 1 0.5\n# alpha 2501711 0 0.5\n# textflame 1 1\n# voice 3018 \"forcas_0022\"\n@フォルカス\nそれでは、すでに認めて下さって\nいたんですか…？\n\n# textflame 1 1\n@ブリューナク\n同時にダーインスレイヴ様の\n懸念も理解した\nだから試した\n\n# face 2500711 \"angry\"\n# textflame 1 1\n@ブリューナク\n改めて誓おう。ブリューナクは\nフォルカス陛下に仕え、\n必ずや勝利をもたらす\n\n# face 2102811 \"normal\"\n# textflame 1 1\n# voice 1028 \"dainsleif_0004\"\n@ダーインスレイヴ\nそれにしても、思いがけない副産物に\n恵まれたようだ\nまさか穏健派まで取り込むとは\n\n# face 2501711 \"smile\"\n# alpha 2301811 0 0.5\n# alpha 2501711 1 0.5\n# textflame 1 1\n# voice 5017 \"grimoire_0004\"\n@グリモワール\nそれはフォルカスの人柄よね！\n\n# face 2600111 \"normal\"\n# alpha 2500711 0 0.5\n# alpha 2600111 1 0.5\n# textflame 1 1\n@アスクレピオス\nはいはい\nところで、外の連中をそろそろ\n止めた方が良いんじゃないの\n\n# face 2301811 \"sad\"\n# alpha 2301811 1 0.5\n# alpha 2501711 0 0.5\n# textflame 1 1\n@フォルカス\nそうでした！\n早くパラシュ達に連絡を\nあ！シェキナー隊が寝返ったのも…\n\n# face 2102811 \"normal\"\n# body 2400711\n# pos 2400711 1\n# scale 2400711 0.8 0\n# alpha 2400711 0 0\n# textflame 1 1\n# voice 1028 \"dainsleif_0003\"\n@ダーインスレイヴ\nあれは途中でイシューリエルが\nブリューナクの真意を見抜いたのだ\nなかなか鋭い子だよ\n\n# face 2400711 \"sad\"\n# alpha 2600111 0 0.5\n# alpha 2400711 1 0.5\n# textflame 1 1\n# voice 4007 \"shekina_0031\"\n@シェキナー\nですから、私達も陛下の度量を\n見せていただこうと考えたのです\nご無礼をお許し下さい\n\n# face 2301811 \"sad\"\n# body 2200411\n# pos 2200411 1\n# scale 2200411 0.8 0\n# alpha 2200411 0 0\n# textflame 1 1\n@フォルカス\nシェキナー！\nあなたがここにいるということは\n戦いは終わったんですか\n\n# face 2200411 \"usual\"\n# body 2102611\n# pos 2102611 1\n# scale 2102611 0.8 0\n# alpha 2102611 0 0\n# alpha 2400711 0 0.5\n# alpha 2200411 1 0.5\n# textflame 1 1\n# voice 2004 \"parashu_0003\"\n@パラシュ\nリットゥに真相を聞かされたからね\nトリシューラが暴れ足りないって\nまだ騒いでいるよ\n\n# face 2102611 \"smile\"\n# alpha 2200411 0 0.5\n# alpha 2102611 1 0.5\n# textflame 1 1\n# voice 1026 \"caladbolg_0005\"\n@カラドボルグ\n私達は勝ったわよ！\nフォルカス陛下の作戦がはまったわね\n\n;;【指定】BGM停止\n# bgm \"stop\" 0\n# textflame 1 1\n# face 2102811 \"angry\"\n@ダーインスレイヴ\n皇帝陛下\n今一度、即位の言葉を聞かせて欲しい\n\n;;【指定】bgm039\n# bgmfile \"bgm039\" \"BgmColosseum\" 0\n# face 2301811 \"usual\"\n# textflame 1 1\n# voice 3018 \"forcas_0003\"\n@フォルカス\nはい\n…五星将は揃っていますか？\n\n# alpha 2102611 0 0.5\n# alpha 2102811 0 0.5\n# alpha 2301811 0 0.5\n# move 2600111 3 0\n# alpha 2600111 1 0.5\n# face 2600111 \"sad\"\n# textflame 1 1\n# voice 6001 \"asukurepiosu_0003\"\n@アスクレピオス\nそこから？まあ、良いわよ\n五等星将兼研究室長のアスクレピオス\nここにいるわ\n\n# move 2400711 3 0\n# alpha 2600111 0 0.5\n# alpha 2400711 1 0.5\n# face 2400711 \"normal\"\n# textflame 1 1\n# voice 4007 \"shekina_0033\"\n@シェキナー\n四等星将シェキナー\nここに\n\n# move 2102611 3 0\n# alpha 2102611 1 0.5\n# alpha 2400711 0 0.5\n# face 2102611 \"angry\"\n# textflame 1 1\n# voice 1026 \"caladbolg_0003\"\n@カラドボルグ\n三等星将カラドボルグ\n控えています\n\n# move 2200411 3 0\n# alpha 2200411 1 0.5\n# alpha 2102611 0 0.5\n# textflame 1 1\n# voice 2004 \"parashu_0002\"\n@パラシュ\n二等星将パラシュ\nいるよ\n\n# move 2500711 3 0\n# alpha 2500711 1 0.5\n# alpha 2200411 0 0.5\n# face 2500711 \"normal\"\n# textflame 1 1\n@ブリューナク\n一等星将ブリューナク\n陛下の仰せのままに\n\n# move 2301811 3 0\n# alpha 2301811 1 0.5\n# alpha 2500711 0 0.5\n# face 2301811 \"usual\"\n# textflame 1 1\n@フォルカス\n私が海浜ビーチ帝国新皇帝、\nフォルカスです\nいまだ若輩者ですが…\n\n# face 2301811 \"angry\"\n# textflame 1 1\n# voice 3018 \"forcas_0036\"\n@フォルカス\n必ず三国統一を果たし、\n皆が幸せに暮らせる世界を作ります\nどうか、力を貸して下さい！\n\n# serif 1\n# textwindow \"toge\"\n@一同\nおおおおおおおおおっ！\n\n# face 2301811 \"smile\"\n# serif 1\n# textwindow \"close\"\n# serif 0\n# textwindow \"normal\"\n# layer 2301811 4\n# textflame 1 1\n# voice 3018 \"forcas_0030\"\n@フォルカス\nありがとう\n\n# face 2600111 \"normal\"\n# move 2600111 1 0\n# alpha 2600111 1 0.5\n# textflame 1 1\n@アスクレピオス\n陛下、手始めにジャングル連合を\n攻めたらどう？\n\n# face 2301811 \"sad\"\n# textflame 1 1\n@フォルカス\nなぜですか、\nアスクレピオス？\n\n# face 2600111 \"sad\"\n# textflame 1 1\n# voice 6001 \"asukurepiosu_0028\"\n@アスクレピオス\nダーインスレイヴに言われて\nいろいろと観測してたんだけどね…\n\n# textflame 1 1\n@アスクレピオス\nあそこの地下に、得体の知れない\n強い反応があったのよ\n心当たりがあるんじゃない？\n\n# face 2102811 \"usual\"\n# alpha 2102811 1 0.5\n# move 2102811 5 0\n# textflame 1 1\n# voice 1028 \"dainsleif_0003\"\n@ダーインスレイヴ\n調べる価値はあると、\nわたしも思うよ\n\n# face 2301811 \"usual\"\n# textflame 1 1\n@フォルカス\nそうですか…\n\n# face 2501711 \"sad\"\n# alpha 2102811 0 0.5\n# alpha 2501711 1 0.5\n# textflame 1 1\n# voice 5017 \"grimoire_0022\"\n@グリモワール\nフォルカス？\n\n# face 2301811 \"angry\"\n# textflame 1 1\n# voice 3018 \"forcas_0003\"\n@フォルカス\n決めました\n私達はまず、ジャングル連合を\n手中に収めます\n"
	}
]