[
	{
		"ID": 278010141,
		"script": "# script \"lisp\"\n# body 503511\n# pos 503511 3\n# scale 503511 0.8 0\n# layer 503511 2\n# face 503511 \"normal\"\n# alpha 503511 1 0\n# mask 503511 off\n# voice 5035 \"kaya_unit_0012\"\n# textflame 1 1\n# textboxarrow 0 2\n@カヤ\n気抜いてたでしょ？"
	}
]