[
	{
		"ID": 28000120,
		"script": ";;第12幕　タイトル：勇者のジャングル/背景：ジャングル\n# script \"lisp\"\n# background \"sea_jungle_day\"\n# bgm \"bgm005\" 0\n# body 2102511\n# pos 2102511 2\n# scale 2102511 0.8 0\n# alpha 2102511 0 0\n# body 2100111\n# pos 2100111 4\n# scale 2100111 0.8 0\n# alpha 2100111 0 0\n# textflame 0 0\n@\nアスカロンが追撃を止めに出た後\n同盟軍本陣にて――\n\n# alpha 2102511 1 0.5\n# alpha 2100111 1 0.5\n# textflame 1 1\n# face 2102511 \"angry\"\n# setname \"ムラマサ\" 3\nお待ち下さい、姉様！\nどちらに行かれるのですか！？\n\n# setname \"マサムネ\" 3\n# face 2100111 \"sad\"\n許せ、ムラマサ…\n拙者は行かねばならんのだ\nようやく思い出した\n\n# face 2102511 \"sad\"\n# setname \"ムラマサ\" 3\nなにを思い出されたのですっ？\n\n# face 2100111 \"angry\"\n# setname \"マサムネ\" 3\n拙者の…拙者達の使命だ\nもうじき、バイブスが発現する\n\n# emotionbody 1035 1 2102511 20 280\n# effectpattern 1035 2 0\n# effectstart 1035\n# voice 1025 \"muramasa_0023\"\n# setname \"ムラマサ\" 3\n！？\n\n# effectskip 1035\n# body 2300111\n# pos 2300111 1\n# scale 2300111 0.8 0\n# alpha 2300111 0 0\n# body 2400111\n# pos 2400111 5\n# scale 2400111 0.8 0\n# alpha 2400111 0 0\n# body 2100211\n# pos 2100211 3\n# scale 2100211 0.8 0\n# alpha 2100211 0 0\n# body 2500211\n# pos 2500211 4\n# scale 2500211 0.8 0\n# alpha 2500211 0 0\n# setname \"ムラマサ\" 3\nこの感覚は…\n以前、地下遺跡で感じたもの…\nでも、あれよりずっと強い…\n\n# alpha 2300111 1 0.5\n# alpha 2400111 1 0.5\n# alpha 2100211 1 0.5\n# alpha 2102511 0 0.5\n# alpha 2100111 0 0.5\n# face 2300111 \"sad\"\n# face 2100211 \"usual\"\n# layer 2100211 1\n# setname \"ロンギヌス\" 1\n皆さんのキラーズに\n反応しているんですね…\n\n# face 2400111 \"angry\"\n# setname \"アルテミス\" 1\nまた、あそこに行って…\n私達は繰り返すんですね\n今度こそ成功させましょう\n\n# body 2500211\n# pos 2500211 5\n# scale 2500211 0.8 0\n# alpha 2500211 0 0\n# setname \"レーヴァテイン\" 3\n…ねえ、\n人数が足りないんじゃない？\n\n# alpha 2500211 1 0.5\n# alpha 2400111 0 0.5\n# face 2500211 \"smile\"\n# setname \"フライクーゲル\" 3\nノープロブレム！\nティルフィングもすぐに来るよ☆\nパラシュはきっと先に行ってる♪\n\n# alpha 2500211 0 0.5\n# alpha 2300111 0 0.5\n# alpha 2100211 0 0.5\n# alpha 2100111 1 0.5\n# alpha 2102511 1 0.5\n# layer 2100111 1\n# voice 1025 \"muramasa_0022\"\n# setname \"ムラマサ\" 3\nえっ？えっ？\n皆さん、お体の具合は\nもうよろしいのですか…？\n\n# setname \"マサムネ\" 3\nさあ、参ろう！\n再び「儀式」のときが来た！\n\n# voice 1025 \"muramasa_0011\"\n# face 2102511 \"angry\"\n# setname \"ムラマサ\" 3\nなりません！\n\n# setname \"ムラマサ\" 3\n今の姉様は正気ではありません！\nあの地下遺跡へは決して――\n\n# setname \"マサムネ\" 3\nご免！\n\n;;マサムネがムラマサに当て身を食らわせる\n# se \"SE_4602\"\n# fadein \"red\" 0.5\n# shake 0 0.5\n# move 2100111 3 0.1\n# waitandnext 1\n\n# face 2102511 \"sad\"\n# move 2100111 4 0.5\n# setname \"ムラマサ\" 3\nそんなっ…\n姉様…！\n\n# alpha 2102511 0 0.5\n# se \"SE_3001\"\n# waitandnext 1.5\n\n# imageset 0 \"black\"\n# face 2102511 \"sad\"\n# imagealpha 0 0 0\n# imagescale 0 10 0\n# imagelayer 0 1\n# setname \"マサムネ\" 3\n許せ、ムラマサ\nそなたが目覚めたときには、\n島は平穏を取り戻しておるよ\n\n;;背景：黒\n# fadeout \"black\" 3\n# waitandnext 3\n\n# bgm \"stop\"\n# imagealpha 0 1 0\n# fadein \"black\" 1\n# serif 0\n# textwindow \"close\"\n# serif 1\n@？？？\n…様！\n……様！…マサ様！\n\n# alpha 2100111 0 0\n# body 2502411\n# pos 2502411 4\n# scale 2502411 0.8 0\n# alpha 2502411 0 0\n# serif 1\n# textwindow \"close\"\n# serif 0\n# textwindow \"nomal\"\n# setname \"ムラマサ\" 3\nん…私は…ああ！！\n\n;;背景：ジャングル\n# bgmfile \"bgm238_239\" \"BgmSeaEventBattle\" 0\n# fadein \"white\" 1\n# imagealpha 0 0 0\n# alpha 2502411 1 0\n# alpha 2102511 1 0\n# face 2502411 \"smile\"\n# setname \"雑賀\" 3\nやっと気がついたっすね\n良かったっすよ\n\n# setname \"ムラマサ\" 3\n雑賀！\n…ごめんなさい、\nまた一人で勝手に行動してしまって\n\n# body 2301711\n# pos 2301711 3\n# scale 2301711 0.8 0\n# alpha 2301711 0 0\n# voice 5024 \"saika_0004\"\n# eye 2502411 \"close\"\n# setname \"雑賀\" 3\nああ、気にしなくて良いっす\nムラマサ様は急に消えるもんだと\n想定して行動することにしたっすから\n\n# body 2502011\n# pos 2502011 5\n# scale 2502011 0.8 0\n# alpha 2502011 0 0\n# move 2102511 1 0.5\n# move 2502411 5 0.5\n# alpha 2301711 1 0.5\n# layer 2301711 1\n# setname \"ヴォータン\" 3\n私に世話をかけさせるとは\nいい度胸だ！\n手の掛かる盟主だなっ\n\n# alpha 2502011 1 0.5\n# alpha 2502411 0 0.5\n# face 2502011 \"angry\"\n# setname \"タスラム\" 3\nみんな心配したんだぞ！\nって、それどころじゃなくて\n帝国が攻めてきたんだよ！\n\n# emotionbody 1045 1 2102511 20 280\n# effectpattern 1045 2 0\n# effectstart 1045\n# setname \"ムラマサ\" 3\n帝国が！？\nそう…結局、戦は止められず、\n姉様達も行ってしまわれた…\n\n# effectskip 1045\n# voice 1025 \"muramasa_0017\"\n# setname \"ムラマサ\" 3\n拙者は、あまりにも無力です…\n\n# body 2201911\n# pos 2201911 3\n# scale 2201911 0.8 0\n# alpha 2201911 0 0\n# body 2401311\n# pos 2401311 5\n# scale 2401311 0.8 0\n# alpha 2401311 0 0\n# body 2100711\n# pos 2100711 1\n# scale 2100711 0.8 0\n# alpha 2100711 0 0\n# body 2601111\n# pos 2601111 1\n# scale 2601111 0.8 0\n# alpha 2601111 0 0\n# voice 3017 \"wotan_0027\"\n# eye 2301711 \"close\"\n# setname \"ヴォータン\" 3\nははん！それがどうした？\nお前にはこのヴォータン様が\nついているだろうが！\n\n# alpha 2201911 1 0.5\n# alpha 2401311 1 0.5\n# alpha 2100711 1 0.5\n# alpha 2502011 0 0.5\n# alpha 2301711 0 0.5\n# alpha 2102511 0 0.5\n# face 2201911 \"smile\"\n# voice 2019 \"chihyu_unit_0009\"\n# setname \"シユウ\" 3\nここからみんなでだいぎゃくてん\nするとすごくかっこいいのだ！\nシユウはぜっこうちょうだぞー！\n\n# eye 2401311 \"close\"\n# setname \"アフロディーテ\" 3\nわたしを魅了した、\nあの凛とした美しさを\nもう一度見せて下さいな\n\n# face 2100711 \"smile\"\n# setname \"アロンダイト\" 3\n準備は整っています\nあとはあなたの命令あるのみ\n\n# face 2601111 \"smile\"\n# alpha 2100711 0 0.5\n# alpha 2601111 1 0.5\n# setname \"ヴァナルガンド\" 3\n怪我しても～\nみんな、お手当して\nあげますからね～\n\n# move 2102511 3 0\n# alpha 2201911 0 0.5\n# alpha 2102511 1 0.5\n# layer 2102511 2\n# face 2102511 \"smile\"\n# setname \"ムラマサ\" 3\nああ、そうでした…\n拙者は“七人の勇者”とともにある\nまだ、終わってはいませんね\n\n# face 2102511 \"angry\"\n# setname \"ムラマサ\" 3\nこれより拙者は戦を止め、\nアスカロン殿、フォルカス殿と\n会合を行います！\n\n# setname \"ムラマサ\" 3\n皆さん！\n拙者がお二人の下に辿り着けるよう\n支援をお願い致します\n\n# eye 2401311 \"normal\"\n# face 2401311 \"angry\"\n# face 2601111 \"angry\"\n# serif 1\n# textwindow \"toge\"\n@一同\nおおーーーーーーっ！\n"
	}
]