[
	{
		"ID": 290302040,
		"script": ";;-----------------------------------------\n;;3_2_4_0\n;;-----------------------------------------\n# script \"lisp\"\n# background \"006_jail\"\n# bgmfile \"bgm400\" \"BgmIntegralNoahEvent\" 0\n;;-----------------------------------------\n;;カミト\n# body 210\n# pos 210 2\n# scale 210 0.8 0\n# alpha 210 1 0\n;;アスカロン\n# body 3102311\n# pos 3102311 3\n# scale 3102311 0.8 0\n# mask 3102311 off\n# alpha 3102311 0 0\n;;タスラム\n# body 3502011\n# pos 3502011 4\n# scale 3502011 0.8 0\n# alpha 3502011 1 0\n;;-----------------------------------------\n# face 3502011 \"angry\"\n# textflame 1 1\n# textboxarrow 0 3\n@タスラム\nでな～\nちょっとつまみ食いしただけなのに\nすごい怒ってな～\n\n# voice 350201 \"tasuramu_ge_0002\"\n# textboxarrow 0 3\n@タスラム\nそんな怒んなくてもいいのにな\nおまえもそう思うだろっ？\n\n# voice 9936 \"kamito_0003\"\n# textboxarrow 0 1\n@カミト\nあ、うん…\nそうだね…\n\n;;カミト（独白）\n# move 210 2 0\n# textwindow \"moya\"\n# textboxarrow 0 0\n@カミト\nこの子、すごく喋るな…\n他人を避けてるように見えたのに…\n\n# face 3502011 \"surprise\"\n# voice 350201 \"tasuramu_ge_0031\"\n# textwindow \"nomal\"\n# textflame 1 1\n# textboxarrow 0 3\n@タスラム\nあ！\nわるいな…\nあたしばっかり喋っちゃって\n\n# face 210 \"happy\"\n# voice 9936 \"kamito_0004\"\n# textboxarrow 0 1\n@カミト\nううん\n楽しそうに話してくれるから、\n僕も少し気が晴れたよ\n\n# face 3502011 \"shy\"\n# voice 350201 \"tasuramu_ge_0042\"\n# textboxarrow 0 3\n@タスラム\nう、うるせ～…！\nあたしのご機嫌取ろうとしても\nダメだからなっ\n\n# face 3502011 \"angry\"\n# voice 350201 \"tasuramu_ge_0007\"\n# textboxarrow 0 3\n@タスラム\nあたしと関わると不幸になるんだ！\nだから、あんま近寄んなっ\n\n# face 210 \"sad\"\n# textboxarrow 0 1\n@カミト\nタスラムは\n他人を不幸になんかしないよ…\n僕の方がよっぽど…\n\n# face 3502011 \"normal\"\n# voice 350201 \"tasuramu_ge_0019\"\n# textboxarrow 0 3\n@タスラム\n…何があったか知らないけど、\n多分、おまえのせいじゃないぞ\n\n# textboxarrow 0 3\n@タスラム\nちょっと前から変な感じなんだ\nあたし、死を予感できるんだけど…\n\n# textboxarrow 0 3\n@タスラム\n誰にも会ってないのに涙が出たり\n急に死を感じたり…\n霧が出てからおかしいんだよ\n\n# face 210 \"surprise\"\n# voice 9936 \"kamito_0042\"\n# textboxarrow 0 1\n@カミト\nああ…それで目が赤いんだね\n\n# se \"SE_0648\"\n# face 3502011 \"angry\"\n# voice 350201 \"tasuramu_ge_0014\"\n# textboxarrow 0 3\n@タスラム\nだぁぁっ！\nそれを言うんじゃねえ！\n\n# face 210 \"sad\"\n# voice 9936 \"kamito_0033\"\n# textboxarrow 0 1\n@カミト\nご、ごめん…\n\n# textboxarrow 0 3\n@タスラム\nとにかくっ\n世の中がおかしくなってんだ\nお前のせいじゃないよ\n\n# voice 9936 \"kamito_0015\"\n# textboxarrow 0 1\n@カミト\nでも、僕は…\n\n# face 3502011 \"normal\"\n# textboxarrow 0 3\n@タスラム\nだいたい大罪人ってのも変な話だろ\nあたしにマスターはいないけど\n\n# textboxarrow 0 3\n@タスラム\nマスターがいるキル姫は、\n力を良い感じに制御してもらえて\n強くなれるんだろ？\n\n# textboxarrow 0 3\n@タスラム\nそっちの方がいいじゃん\nま、あたしはマスターがいても\n絶対、動かないけどな\n\n# face 210 \"surprise\"\n# voice 9936 \"kamito_0023\"\n# textboxarrow 0 1\n@カミト\nそれなら、どうしてタスラムは\nここにいるの？\n\n# face 3502011 \"happy\"\n# voice 350201 \"tasuramu_ge_0005\"\n# textboxarrow 0 3\n@タスラム\nサボってても誰も文句言わないから\nおまけに三食出るし\n\n# face 210 \"normal\"\n# voice 9936 \"kamito_0043\"\n# textboxarrow 0 1\n@カミト\nここの人達は本当にキル姫を\n敬ってるんだなあ…\n\n# face 3502011 \"normal\"\n# voice 350201 \"tasuramu_ge_0003\"\n# textboxarrow 0 3\n@タスラム\nたまに面倒くさいけどなっ\nそういや、あいつらの聖地って\n知ってるか？\n\n# voice 9936 \"kamito_0036\"\n# textboxarrow 0 1\n@カミト\nいや…知らない…\n\n# textboxarrow 0 3\n@タスラム\nここから見えるかな～？\nあ、無理だ…\n\n# textboxarrow 0 3\n@タスラム\n方角としては\nあっちの方なんだけど、\nすっごく古い建物があるんだよ\n\n# textboxarrow 0 3\n@タスラム\nそこが元祖ラグナロクとか…\n本家だったっけ？\nま、どっちでもいいや\n\n# textboxarrow 0 3\n@タスラム\nとにかく、そこがラグナロク発祥の\n地らしくって、ここの連中は毎日、\n朝と夕方に祈りを捧げてんだ\n\n# face 210 \"surprise\"\n# voice 9936 \"kamito_0042\"\n# textboxarrow 0 1\n@カミト\nへぇ\n聖地か\nどんなところなんだろう…\n\n# textboxarrow 0 3\n@タスラム\nただの古い建物だろ\nその辺は誰も住んでないらしいし\n\n# textboxarrow 0 3\n@タスラム\n誰も住んでないといえば、\n都市部の一画に――\n\n# alpha 3502011 0 0.5\n# alpha 210 0 0.5\n# textwindow \"close\"\n# waitandnext 1\n\n# alpha 3102311 1 0.3\n# se \"SE_5575\"\n# waitandnext 0.5\n\n# se \"SE_0851\"\n# face 3102311 \"angry\"\n# voice 310231 \"ascalon_a_0001\"\n# textwindow \"nomal\"\n# textboxarrow 0 2\n@アスカロン\nマスター！\nご無事で安心しました！\n\n# move 3102311 2 0.5\n# mask 3102311 on\n# alpha 3502011 1 0.5\n# face 3502011 \"angry\"\n# voice 350201 \"tasuramu_ge_0023\"\n# textboxarrow 0 3\n@タスラム\nうおっ！\nいきなり何だ、おまえ！？\n\n# face 3102311 \"surprise\"\n# voice 310231 \"ascalon_a_0031\"\n# textboxarrow 0 1\n@アスカロン\n…ご、ごめんなさい\n他の方がいると思わなくて\n\n# alpha 3502011 0 0.5\n# move 210 4 0\n# alpha 210 1 0.5\n# face 210 \"surprise\"\n# textboxarrow 0 3\n@カミト\nアスカロン！\n助けに来てくれたのっ？\n\n# face 3102311 \"angry\"\n# voice 310231 \"ascalon_a_0003\"\n# textboxarrow 0 1\n@アスカロン\nはい！\n今のうちにマスターを連れ出すよう\nグリモワールに言われて\n\n# textboxarrow 0 3\n@カミト\nあ、そうか…\nレシェフと話している間は、\n処刑を待つって約束だったね…\n\n# se \"SE_5205\"\n# textboxarrow 0 1\n@アスカロン\n今から鉄格子を斬ります！\nマスターは離れて下さいっ\n\n# alpha 3102311 0 0.5\n# move 210 2 0.5\n# alpha 3502011 1 0.5\n# voice 350201 \"tasuramu_ge_0026\"\n# textboxarrow 0 3\n@タスラム\nげっ…\nまさか騒ぎを起こす気じゃ\nないだろうな\n\n# face 210 \"sad\"\n# voice 9936 \"kamito_0033\"\n# textboxarrow 0 1\n@カミト\nごめん、タスラム…\n僕は逃げないと…\n\n# face 3502011 \"sad\"\n# voice 350201 \"tasuramu_ge_0028\"\n# textboxarrow 0 3\n@タスラム\nどうすっかなぁ…\nこれはあたしだけの秘密なんだけど\n\n# textboxarrow 0 3\n@タスラム\nおまえと喋るのは…\nけっこう楽しかったし…\nしょうがねえな\n\n# face 210 \"surprise\"\n# voice 9936 \"kamito_0023\"\n# textboxarrow 0 1\n@カミト\nタスラム？\n\n# face 3502011 \"normal\"\n# voice 350201 \"tasuramu_ge_0002\"\n# textboxarrow 0 3\n@タスラム\nついてきな\n鉄格子斬るより良い方法があるから"
	}
]