[
	{
		"ID": 2910017,
		"script": ";;第７話　追憶\n;;背景：森\n# script \"lisp\"\n# background \"forest\"\n# bgm \"bgm004\" 0\n# body 100241\n# pos 100241 1\n# alpha 100241 0 0\n# body 100221\n# pos 100221 5\n# scale 100221 0.8 0\n# body 100111\n# pos 100111 1\n# scale 100111 0.8 0\n# textflame 1 1\n# textboxarrow 0 1\n# chara 100111\n# face 100111 \"angry\"\n@マサムネ\n大丈夫か？\n\n# textboxarrow 0 3\n# chara 100221\n# voice 10024 \"revatein2_0003\"\n@レーヴァテイン\nうん、平気\nそれより…\n\n# textboxarrow 0 3\n# chara 100221\n@レーヴァテイン\nやっぱり、\nこの欠片は\n私がもっておくべきだと思う\n\n# textboxarrow 0 3\n# chara 100221\n# face 100221 \"sad\"\n@レーヴァテイン\nあなたは危険だから戻って…\n\n# textboxarrow 0 1\n# chara 100111\n# face 100111 \"nutual\"\n# voice 1001 \"masamune_0011\"\n@マサムネ\nいや、ならばなおさらだ\n\n# textflame 0 0\n@\n遮るように答えるマサムネ\n\n# textflame 1 1\n# textboxarrow 0 3\n# chara 100221\n# face 100221 \"normal\"\n# voice 10024 \"revatein2_event_1002\"\n@レーヴァテイン\n…そういうと思ったよ\nじゃあ、\nもう一度手分けして探す\n\n# textboxarrow 0 3\n# chara 100221\n@レーヴァテイン\nこれで良い？\n\n# textboxarrow 0 1\n# chara 100111\n# face 100111 \"happy\"\n# voice 1001 \"masamune_0003\"\n@マサムネ\nああ…\nだが、なにかあったら\nすぐに呼んでくれ\n\n;;マサムネ退場\n# textflame 0 0\n# alpha 100111 0 0.5\n# mask 100221 off\n@\nそう言ってマサムネは\nまた姿を消した\n\n# textflame 0 0\n# move 100221 3 0.5\n@\nそしてそれを確認した後、\nレーヴァテインは\n手に入れた欠片を組み合わせた\n\n;;一瞬白く光らせる演出\n# bgm \"stop\"\n# se \"SE_9148\"\n# fadein \"white\" 2\n# textflame 0 0\n@\n組み合わさった欠片は\n一瞬光ると、\n赤色のネックレスになっていた\n\n# textflame 1 1\n# textboxarrow 0 2\n# chara 100221\n# face 100221 \"surprise\"\n# voice 10024 \"revatein2_0018\"\n@レーヴァテイン\nうっそ…\n\n# textflame 0 0\n@\n半信半疑のまま、\n錬成されたネックレスを\n手にとった\n\n# textflame 0 0\n@\nその瞬間――\n\n# se \"SE_4823\"\n# shake 0 0.3\n# textflame 1 1\n# textboxarrow 0 2\n# chara 100221\n# voice 10024 \"revatein2_kyara_2012\"\n@レーヴァテイン\nきゃあっ！\n\n# bgm \"bgm103\" 0\n# chara 100221\n# voice 10024 \"revatein2_battle_0007\"\n# face 100221 \"sad\"\n@レーヴァテイン\nま、また…\nまた記憶が…\n\n# chara 100221\n@レーヴァテイン\nしかも、\nまた知らない記憶が\n断片的に…\n\n# textflame 0 0\n@\nレーヴァテインが見たもの\n\n# textflame 0 0\n@\n海のような赤い空…\n\n# textflame 0 0\n@\n見たことない怪物…\n\n# textflame 0 0\n@\nなにもかもが大きい\n研究着を着たデュリン…\n\n# textflame 0 0\n@\nそして…\n\n# textflame 1 1\n# textboxarrow 0 2\n# chara 100221\n# face 100221 \"surprise\"\n@レーヴァテイン\n兄さん…\n\n# chara 100221\n# face 100221 \"normal\"\n# voice 10024 \"revatein2_0022\"\n@レーヴァテイン\nえ？\n“兄さん”ってなに…？\n\n# textflame 0 0\n@\n自分の口から出てきた言葉に\n疑問を通り越して\nちょっとした恐怖を覚える\n\n# textflame 1 1\n# textboxarrow 0 2\n# chara 100221\n@レーヴァテイン\nちゃんと光景が見えた\n\n# chara 100221\n# face 100221 \"sad\"\n@レーヴァテイン\nでも、あんな景色知らないし、\n私が知っているデュリンは\nあんなに大きくない\n\n# chara 100221\n@レーヴァテイン\nそれに…\n\n# chara 100221\n@レーヴァテイン\nなにに対しての\n“兄さん”なの…？\n\n# textflame 0 0\n@\n様々な疑問が頭を駆け巡る\nその時――\n\n# textflame 1 1\n# textboxarrow 0 2\n# chara 100221\n# face 100221 \"angry\"\n@レーヴァテイン\n…なにか来る\n\n# textflame 0 0\n@\nその方向を見ると、\n暴走したイミテーションが\nこちらに全速力で向かっていた\n\n# textflame 0 0\n@\nそして同時に\nその胸元には\n青色のネックレスがかかっていた\n\n# textflame 1 1\n# textboxarrow 0 2\n# chara 100221\n# face 100221 \"surprise\"\n@レーヴァテイン\n青…？\n他にも種類があるの！？\n"
	}
]