[
	{
		"ID": 30011302,
		"script": "# script \"lisp\"\n# background \"foot_mountain_village\"\n# bgm \"bgm002\" 0\n# body 300113\n# mask 300113 off\n# pos 300113 3\n# textboxarrow 0 2\n# face 300113 \"angry\"\n# chara 300113\n# voice 3001 \"ronginusu_0027\"\n@ロンギヌス\n…わかりました\n…マスターの必死さは、\nよく伝わりました…\n\n# chara 300113\n@ロンギヌス\n…でも謝るくらいなら、\nどうしてあんな罪深いことを\nしたのですか…？\n\n# chara 300113\n@ロンギヌス\nお…女の子に…不用意に触ってふぁ、\nい…いけないと…教わらなかった、\nのでふかぁ？\n\n# voice 3001 \"ronginusu_0023\"\n# chara 300113\n@ロンギヌス\nし、しかも…人の…じゃく、\n弱点を突くなんて…\nあ、あまりにもひ、ひど…\n\n# face 300113 \"normal\"\n# voice 3001 \"ronginusu_0016\"\n# chara 300113\n@ロンギヌス\nふ…ふぇぇぇぇぇえ……！\n\n# textflame 0 0\n@\nとうとう泣き出してしまった\nロンギヌス\n\n# select \"そんな…泣かなくてもいいじゃないか\" \"select_label_01\" \"そ…そんなにイヤだったの？\" \"select_label_02\" \"な…泣くほどの理由を教えてよ？\" \"select_label_03\"\nとうとう泣き出してしまった\nロンギヌス\n\n# label \"select_label_01\"\n# labeljump \"select_label_end\"\n# textflame 1\n# chara 300113\n@ロンギヌス\nだって…\n相手をいたぶる行為はいけません\n\n# label \"select_label_02\"\n# labeljump \"select_label_end\"\n# textflame 1\n# chara 300113\n@ロンギヌス\n弱点を突かれると…\n思い出してしまって…\n\n# label \"select_label_03\"\n# labeljump \"select_label_end\"\n# textflame 1\n# chara 300113\n@ロンギヌス\n理由は…\n遠い私の過去にさかのぼります…\n\n# label \"select_label_end\"\n# chara 300113\n# voice 3001 \"ronginusu_0015\"\n@ロンギヌス\nごめんなさい…取り乱してしまって…\nつい昔を思い出してしまったから…\n\n# textflame 0 0\n@\nロンギヌスは己の過去を語り始めた"
	}
]