[
	{
		"ID": 30061302,
		"script": "# script \"lisp\"\n# background \"town\"\n# bgm \"bgm002\" 0\n# body 300613\n# mask 300613 off\n# pos 300613 3\n# textboxarrow 0 2\n# textflame 1 0\n# chara 300613\n# face 300613 \"amazed\"\n@トリシューラ\nまぁた、あんたかい！？\nもう、いいよ\n前ので分かったからさ\n\n# textflame 1 0\n# face 300613 \"sad\"\n@トリシューラ\n所詮、あたしは戦闘以外には\n向かない女ってことさ\n\n# textflame 1 0\n# face 300613 \"amazed\"\n@トリシューラ\n…ったく、しつこいね\n今日はなんだってんだい？\n# voice 3006 \"torisyula_kyara_1011\"\n\n# textflame 1 0\n# face 300613 \"shy\"\n# voice 3006 \"torisyula_0009\"\n@トリシューラ\n…あ？\n料理！？\n\n# textflame 1 0\n# face 300613 \"amazed\"\n# voice 3006 \"torisyula_0034\"\n@トリシューラ\nまた、あたいに\n一番向かなさそうなことを…\n\n# textflame 1 0\n# face 300613 \"angry\"\n@トリシューラ\n言ったろ！？\nまだるっこしいのは\n嫌いだって\n\n# textflame 1 0\n# face 300613 \"angry\"\n@トリシューラ\n料理なんて、ちまちましたこと…\nあたいができるわけないだろ！？\n# voice 3006 \"torisyula_0035\"\n\n# select \"そんなこと言わずに一度だけ\" \"select_label_01\" \"騙されたと思って一度だけ\" \"select_label_02\" \"意外と楽しいかも知れないよ\" \"select_label_03\"\n料理なんて、ちまちましたこと…\nあたいができるわけないだろ！？\n\n# label \"select_label_01\"\n# labeljump \"select_label_end\"\n# textflame 1 0\n# chara 300613\n# face 300613 \"amazed\"\nほんとしつこいね…一度だけだよ！\n\n# label \"select_label_02\"\n# labeljump \"select_label_end\"\n# textflame 1 0\n# chara 300613\n# face 300613 \"amazed\"\n騙されたと思ったら、怒るからね？\n\n# label \"select_label_03\"\n# labeljump \"select_label_end\"\n# textflame 1 0\n# chara 300613\n# face 300613 \"amazed\"\nどうだかねぇ…でもまあ、\n一度くらいなら…\n\n# label \"select_label_end\"\n# voice 3006 \"torisyula_0032\"\n# textflame 1 0\n# face 300613 \"amazed\"\n@トリシューラ\nその代わり…\nあたいは手伝わないからね\n見てるだけ！！\n\n# textflame 1 0\n# face 300613 \"sad\"\n@トリシューラ\n…ったく！\n男のくせにそんなせせこましいのが\n楽しいのかね\n\n# textflame 1 0\n# face 300613 \"sad\"\n@トリシューラ\nそりゃ出来りゃいいだろうけどさ…\nキラーズがキラーズだからね\nあきらめたよ、あたいは\n\n# textflame 1 0\n# face 300613 \"sad\"\n# voice 3006 \"torisyula_0027\"\n@トリシューラ\nそれにしても…\n\n# textflame 1 0\n# face 300613 \"amazed\"\n@トリシューラ\nイライラするねぇ…\nちまちまちまちまちまちま…\n\n# textflame 1 0\n# face 300613 \"angry\"\n@トリシューラ\n見てると…\n破壊したい衝動に\n駆られるよ…ったく\n# voice 3006 \"torisyula_kyara_1021\"\n\n# textflame 0 0\n@\n殺気を含んだ目に見据えられ、\n緊張感に晒されるマスターだった"
	}
]