[
	{
		"ID": 30084204,
		"script": ";;【EP4】(オチ)\n# script \"lisp\"\n# background \"highland\"\n# bgm \"bgm002\" 0\n# alpha 300841 0 0\n# body 300841\n# pos 300841 3\n# mask 300841 off\n# textflame 0 0\n# textboxarrow 0 2\n# chara 300841\n@\nあれから数日後─\n\n# alpha 300841 1 0.5\n# textflame 1 1\n# textboxarrow 0 2\n# chara 300841\n# voice 3008 \"gunguniru_0029\"\n# face 300841 \"angry\"\n@グングニル\nはぁぁぁぁっ！\n\n# se \"SE_5771\"\n# fadein \"white\" 0 0.5\n# shake 0 0.5\n# textflame 0 0\n@\nドガァァァァン！！\n\n# textflame 1 1\n# textboxarrow 0 2\n# chara 300841\n# face 300841 \"usual\"\n@グングニル\nマスター、そなたの言う通りだ\n\n# textboxarrow 0 2\n# chara 300841\n@グングニル\n３度目の正直…\n\n# textboxarrow 0 2\n# chara 300841\n# voice 3008 \"gunguniru_0006\"\n# face 300841 \"angry\"\n@グングニル\n雪辱は果たしたぞ！\n\n# textflame 0 0\n@\n今度こそ、\n撃ち漏らすことなく\n異族を仕留めたグングニル\n\n# textflame 0 0\n@\n更に数日後─\n\n# fadeout \"black\" 1.5\n# waitandnext 1.5\n\n# fadein \"black\" 1\n# waitandnext 1\n\n# textflame 1 1\n# textboxarrow 0 2\n# chara 300841\n# face 300841 \"sad\"\n@グングニル\n…………\n\n# textflame 0 0\n@\n高原に一人佇むグングニル\n\n# textflame 1 1\n# textboxarrow 0 2\n# chara 300841\n# face 300841 \"usual\"\n@グングニル\n…あ、マスター\n\n# textboxarrow 0 2\n# chara 300841\n@グングニル\n今…？\n特訓をしてたんだ\n\n# select \"目をつぶってただけじゃない…？\" \"select_label_01\" \"特訓？瞑想じゃなくて…？\" \"select_label_02\" \"本当に…？居眠りじゃなくて？\" \"select_label_03\"\n今…？\n特訓をしてたんだ\n\n# label \"select_label_01\"\n# labeljump \"select_label_end\"\n# textflame 1 1\n# textboxarrow 0 2\n# chara 300841\n# face 300841 \"angry\"\n@グングニル\nち、ちがう！からかうな！\n\n# label \"select_label_02\"\n# labeljump \"select_label_end\"\n# textflame 1 1\n# textboxarrow 0 2\n# chara 300841\n# face 300841 \"usual\"\n@グングニル\n確かに…新たな技への瞑想だな\n\n# label \"select_label_03\"\n# labeljump \"select_label_end\"\n# textflame 1 1\n# textboxarrow 0 2\n# chara 300841\n# face 300841 \"angry\"\n@グングニル\nおい、我をからかうとひどいぞ？\n\n# label \"select_label_end\"\n# textflame 1 1\n# textboxarrow 0 2\n# chara 300841\n# face 300841 \"usual\"\n@グングニル\nマスター、\nこんな言葉を知っているか？\n\n# textboxarrow 0 2\n# chara 300841\n@グングニル\n石の上にも…\n\n# textboxarrow 0 2\n# chara 300841\n# voice 3008 \"gunguniru_0029\"\n# face 300841 \"angry\"\n@グングニル\n３年！\n\n# fadein \"white\" 1\n# textflame 0 0\n@\n突如、光を放つ彼女の身体\n\n# textflame 0 0\n@\nその光に包まれたマスターは、\n癒しのような…\n不思議な感覚を体験していた\n\n# textflame 1 1\n# textboxarrow 0 2\n# chara 300841\n# face 300841 \"usual\"\n@グングニル\n我が体内にて闘気を増幅させていた\n\n# textboxarrow 0 2\n# chara 300841\n@グングニル\n大きくすればするほど…\n戦闘に役立つものになる\n\n# se \"SE_0602\"\n# textboxarrow 0 2\n# chara 300841\n@グングニル\nこれが我の新たなるスキル…\n『スリー☆トレランス』だ\n\n# textflame 0 0\n@\n彼女は更なる力に目覚めていた\n\n# textflame 0 0\n@\n３年って…\n『３』は嫌いじゃなかったの？\n\n# textflame 1 1\n# textboxarrow 0 2\n# chara 300841\n# voice 3008 \"gunguniru_0023\"\n# face 300841 \"angry\"\n@グングニル\nま、前まではな！\n\n# textboxarrow 0 2\n# chara 300841\n@グングニル\nいや、今も嫌いだ！\n古（いにしえ）からの呪い…\nよう易々と好きにはなれん！！\n\n# textflame 0 0\n@\nどっちだよ\n笑いながらマスターがツッコむ\n\n# textflame 1 1\n# textboxarrow 0 2\n# chara 300841\n# face 300841 \"shy\"\n@グングニル\nでも…辛いことでも…\n\n# textboxarrow 0 2\n# chara 300841\n@グングニル\n我慢強く辛抱すれば、\n必ず光は差すと…\n道は拓けると…\n\n# textboxarrow 0 2\n# chara 300841\n# face 300841 \"usual\"\n@グングニル\nそなたに教わった\n\n# textboxarrow 0 2\n# chara 300841\n# voice 3008 \"gunguniru_0007\"\n# face 300841 \"shy\"\n@グングニル\nこ、これでも…\nか…感謝しているのだ！\n\n# textflame 0 0\n@\n腕を組んで、目を逸らす彼女\n\n# textflame 1 1\n# textboxarrow 0 2\n# chara 300841\n# face 300841 \"usual\"\n@グングニル\nだから、これからも…\n\n# textboxarrow 0 2\n# chara 300841\n# face 300841 \"shy\"\n@グングニル\nよろしく頼むゾ！\n\n# imageset 0 \"c300841\"\n# imagealpha 0 0 0\n# textflame 0 0\n# textflame 0 0\n@\n偉そうな口調で礼を述べる彼女は、\nとてもいじらしく、\n以前の３倍は可愛らしかった\n\n# imagealpha 0 1 0\n# imagepos 0 0 0 \n# fadein \"white\" 3\n# voice 3008 \"gunguniru_kyara_0018\"\n# textwindow \"close\"\n;;グングニル「戦場で我はいつも、そなたの顔を思い描いているのだ…」"
	}
]