[
	{
		"ID": 30112401,
		"script": "# script \"lisp\"\n# background \"plain\"\n# bgm \"bgm002\" 0\n# body 301111\n# mask 301111 off\n# pos 301111 3\n# face 301111 \"usual\"\n# textboxarrow 0 2\n# textflame 0 0\n@\nあれから数日後…\n\n# textflame 1 1\n# chara 301111\n@ピンキー\n♪♪♪\n\n# textflame 0 0\n@\n一生懸命、踊っているピンキー\nそんな彼女にマスターは\n声を掛けてみた\n\n# textflame 1 1\n# chara 301111\n# face 301111 \"angry\"\n# voice 3011 \"pinky_kyara_1018\"\n@ピンキー\n…あ！マスター！\n\n# textflame 0 0\n@\nど、どうしたの！？\nマスターが驚く\n\n# textflame 1 1\n# chara 301111\n# face 301111 \"surprise\"\n# voice 3011 \"pinky_1042\"\n@ピンキー\nえ？この傷？\n\n# chara 301111\n# face 301111 \"usual\"\n@ピンキー\n特訓だよ\nピンキーより強いキラープリンセスの\nお姉さん達に挑んだけど負けちゃった\n\n# chara 301111\n# face 301111 \"amazed\"\n# voice 3011 \"pinky_0037\"\n@ピンキー\nあ～、いちちちち…\n\n# textflame 0 0\n@\n全身についた傷をさするピンキー\n\n# select \"こ、これから頑張れば大丈夫だから！\" \"select_label_01\" \"ま、負けても気にすることないよ…！\" \"select_label_02\" \"また…落ち込んじゃった…？\" \"select_label_03\"\n全身についた傷をさするピンキー\n\n# label \"select_label_01\"\n# labeljump \"select_label_end\"\n# textflame 1 1\n# face 301111 \"usual\"\n# chara 301111\n@ピンキー\nあれ…？気を使ってくれてるの…？\n\n# label \"select_label_02\"\n# labeljump \"select_label_end\"\n# textflame 1 1\n# face 301111 \"usual\"\n# chara 301111\n@ピンキー\nあれ…？慰めてくれてるの…？\n\n# label \"select_label_03\"\n# labeljump \"select_label_end\"\n# textflame 1 1\n# face 301111 \"usual\"\n# chara 301111\n@ピンキー\nあれ…？励まそうとしてくれてるの？\n\n# label \"select_label_end\"\n# chara 301111\n# textflame 1 1\n# voice 3011 \"pinky_0007\"\n# face 301111 \"normal\"\n@ピンキー\nへへ～、だいじょぶだよ！！\n\n# chara 301111\n@ピンキー\nピンキー、ヘコんでないから！！\n\n# chara 301111\n# face 301111 \"angry\"\n@ピンキー\nそれどころか、\n今度こそ勝ってやる～！\nって燃えてるの！！\n\n# chara 301111\n@ピンキー\n弱い自分を認めて、\n強い相手にどんどん挑まなくちゃね\n\n# chara 301111\n@ピンキー\n強くなりたいから…\nもっと強い相手と戦いたい！\n\n# chara 301111\n# face 301111 \"usual\"\n@ピンキー\n今までは、もしかしたら\n“強く見られたかった”だけかも\n\n# chara 301111\n@ピンキー\nだから、自分より弱い相手を\n探してた気がするなぁ\n私はあの子よりは強い…って\n\n# chara 301111\n# face 301111 \"angry\"\n@ピンキー\nでも、もう違うよ！\nピンキーは強い相手を、\nどんどん越えていく！\n\n# chara 301111\n@ピンキー\nそうやって\n“弱い自分”は卒業！\n“強い自分”になってくよ！\n\n# textflame 0 0\n@\nその心の変化が、\n彼女の踊りにも変化をもたらした\n\n# textflame 1 1\n# chara 301111\n# face 301111 \"normal\"\n#se \"SE_0602\"\n@ピンキー\nこれがピンキーの\n新しい必殺技\n『白黒☆★二重槍』だ～っ！！\n\n# textflame 0 0\n@\n光を放ち、踊る彼女\n今を越えていこうとする姿は、\nとてもまぶしく力強い\n\n# textflame 1 1\n# chara 301111\n# voice 3011 \"pinky_0001\"\n@ピンキー\nねぇ、マスターも踊ろ！？\n楽しいよ～！！\nイエ～イ！！！\n\n# textflame 0 0\n@\n彼女の体力には\nとても付いていけないが、\n\n# imageset 0 \"c301111\"\n# imagealpha 0 0 0\n@\n今日は一緒に踊りたい…\nそう思うマスターだった\n\n# imagealpha 0 1 0\n# imagepos 0 0 0 \n# voice 3011 \"pinky_kyara_0027\"\n# fadein \"white\" 3\n# textwindow \"close\""
	}
]