[
	{
		"ID": 30121302,
		"script": "# script \"lisp\"\n# background \"tree_cavern\"\n# bgm \"bgm003\" 0\n# body 301211\n# mask 301211 off\n# pos 301211 3\n# textboxarrow 0 2\n# chara 301211\n# textflame 0 0\n@\n数日後の夜─\n暗い森の中を一人、歩くルナリス\n\n# voice 3012 \"lunaris_0001\"\n# textflame 1 0\n# chara 301211\n@ルナリス\nあ、マスター\n追いかけてきたの…？\n\n# voice 3012 \"lunaris_kyara_1011\"\n# chara 301211\n@ルナリス\n…なに？\n\n# chara 301211\n@ルナリス\n洗い物もちゃんとしてきたし…\nお風呂も焚いてきた…\n戦闘で破れたみんなの服も…\n\n# voice 3012 \"lunaris_0003\"\n# chara 301211\n@ルナリス\n全部、やってきたつもりだけど…\n他にもなにか…\n\n# face 301211 \"surprise\"\n# voice 3012 \"lunaris_0022\"\n# chara 301211\n@ルナリス\n…え？\nつ…爪切り？\n\n# face 301211 \"sad\"\n# chara 301211\n@ルナリス\n…………\n\n# voice 3012 \"lunaris_0009\"\n# chara 301211\n@ルナリス\nそんなこと言って…\n本当は私を連れ戻しに来たの？\n\n# voice 3012 \"lunaris_0027\"\n# chara 301211\n@ルナリス\n人のこと言ってるけど…\nマスターも相当な世話焼きだね\nこんな…私を…\n\n# select \"こんな時間に…どこへ行くの？\" \"select_label_01\" \"行く先に…光はあるの？\" \"select_label_02\" \"あの家を…出ていくつもりかい？\" \"select_label_03\"\n人のこと言ってるけど…\nマスターも相当な世話焼きだね\nこんな…私を…\n\n# label \"select_label_01\"\n# labeljump \"select_label_end\"\n# chara 301211\n@ルナリス\n全部お見通し…って感じね…\n\n# label \"select_label_02\"\n# labeljump \"select_label_end\"\n# chara 301211\n@ルナリス\nどうかな…あるのは…闇だけかもね…\n\n# label \"select_label_03\"\n# labeljump \"select_label_end\"\n# chara 301211\n@ルナリス\nみんなには悪いけど…\n私にはやるべき事があるから…\n\n# label \"select_label_end\"　\n# bgm \"bgm004\" 1\n# chara 301211\n@ルナリス\nそれは遠い過去の記憶か…\n私には…“宿命”があるの…\n“あの人”と戦わなければという…\n\n# voice 3012 \"lunaris_unit_1005\"\n\n# textflame 0 0\n@\n槍に気を集中させるルナリス\nどす黒い力が彼女を包んでゆく…\n\n# voice 3012 \"lunaris_kyara_1019\"\n# textflame 1 0\n# chara 301211\n@ルナリス\n私は…闇の魔術師…\n闇の力を磨き…\n闇の道を進んでゆく…\n\n# chara 301211\n@ルナリス\n大きくなった闇はやがて…\n光を飲み込む力へと変貌する…\n\n# textflame 0 0\n@\n彼女の放った黒い気が、\n遠くの大木を破壊した\n\n# textflame 1 0\n# chara 301211\n@ルナリス\n闇を知られるのが嫌で…\n戦闘ではあまり力を\n使ってこなかった…\n\n# face 301211 \"happy\"\n# voice 3012 \"lunaris_0008\"\n# chara 301211\n@ルナリス\nだからかな…\n自然とみんなの世話を\n焼くようになったのは…\n\n# chara 301211\n@ルナリス\n私なりの…罪滅ぼしというか…\n申し訳ない気持ちがあったから…\n\n# face 301211 \"sad\"\n# chara 301211\n@ルナリス\nでも、もうこれ以上は…\nみんなとはいられない…\n\n# voice 3012 \"lunaris_0017\"\n# chara 301211\n@ルナリス\n隠し通すことは出来ない…\n\n# chara 301211\n@ルナリス\nだから…\n行かないと…\n\n# voice 3012 \"lunaris_0031\"\n# chara 301211\n@ルナリス\nそういうわけだから…\nお世話に…なりました\n\n# voice 3012 \"lunaris_event_1015\"\n# chara 301211\n@ルナリス\nマスター…\nみんなのこと…よろしくね\n\n# textflame 0 0\n@\n頭を下げ、去ろうとする彼女…\nが、その時！\nボッ！と向こうの方で光が…\n\n# textflame 1 0\n# chara 301211\n@ルナリス\nっ…！\nあれは…！\n炎…？\n\n# face 301211 \"surprise\"\n# voice 3012 \"lunaris_0023\"\n# chara 301211\n@ルナリス\nまさか…\n異族の襲撃！？\n\n# face 301211 \"angry\"\n# textwindow \"moya\"\n# textboxarrow 0 0\n# chara 301211\n@ルナリス\n引き返すことはできない\n行くと決めたから…\nでも…！\n\n# textwindow \"nomal\"\n# textboxarrow 0 2\n# textflame 0 0\n@\n苦悩の表情を見せる彼女\n\n# voice 3012 \"lunaris_0027\"\n# textflame 1 0\n# chara 301211\n@ルナリス\nまったく…\nしょうがないわね…\n\n# chara 301211\n@ルナリス\nこれが…\n\n# chara 301211\n@ルナリス\n最後の世話焼きよ！！\n\n# textflame 0 0\n@\nルナリスは、マスターと共に\nキラープリンセス達の元へと\n駆け出した"
	}
]