[
	{
		"ID": 30211203,
		"script": "# script \"lisp\"\n# background \"forest\"\n# bgm \"bgm003\" 0\n# textboxarrow 0 2\n# body 302111\n# mask 302111 off\n# pos 302111 3\n# face 302111 \"normal\"\n# textflame 0 0\n@\n飛び立とうとする\nヒナ鳥の姿を目の当たりにし、\n再び槍を握り直したガ・ボー\n\n# voice 3021 \"gaebuide_0003\"\n# face 302111 \"angry\"\n# textflame 1 1\n@ガ・ボー\nボーも…足掻きます…\n少しでも…変わるために…！\n\n# textflame 0 0\n@\n槍を振るガ・ボー\n\n@\n思うような成果はすぐには得られない\nそれでも、彼女は振り続けた\n\n# textflame 1 1\n@ガ・ボー\nはぁ…！はぁ…！\n\n# textflame 0 0\n@\nやがて…\n\n# textflame 1 1\n# textboxarrow 0 0\n# textwindow \"moya\"\n# face 302111 \"surprise\"\n@ガ・ボー\n…！あれは…\n大型の…猛禽類…\nあの子を…食べようと…\n\n# taxtwindow \"nomal\"\n# textflame 0 0\n@\n槍を振り続ける彼女の視界に映る光景\nまだ飛び立てないヒナ鳥を狙う天敵\n\n# textflame 1 1\n# textwindow \"moya\"\n# face 302111 \"normal\"\n@ガ・ボー\nそれも…自然の摂理\nボーが手を差し伸べ、\n助けることはできない…\n\n# textflame 0 0\n#taxtwindow \"nomal\"\n@\n一心に槍を振り続ける彼女\n\n# textflame 1 1\n# textwindow \"nomal\"\n# textboxarrow 1 1\n@ガ・ボー\nでも…\n\n@ガ・ボー\n想いはある…\n\n# face 302111 \"angry\"\n@ガ・ボー\nがんばって…！\n負けないで…！！\n\n# textflame 0 0\n@\n次の瞬間だった\n\n@\n強烈な光を放ち、\n大地を穿つガ・ボー\n\n# voice 3021 \"gaebuide_unit_0005\"\n#se \"SE_0602\"\n# textflame 1 1\n@ガ・ボー\n見えました…\nボーの新技…\n『ストラグルハード』！\n\n\n\n# textflame 0 0\n@\nその突風に驚き、逃げ去る猛禽類\n\n# textflame 1 1\n# face 302111 \"surprise\"\n@ガ・ボー\nヒナちゃんは…！？\n\n# textflame 0 0\n@\n彼女の放った奥義が追い風となり、\nヒナ鳥は見事大空へと\n羽ばたいてゆくのだった\n\n# select \"姉様の力がなくても出来たね\" \"select_label_01\" \"一人でやり遂げられたじゃん\" \"select_label_02\" \"変われたんじゃない？\" \"select_label_03\"\n彼女の放った奥義が追い風となり、\nヒナ鳥は見事大空へと\n羽ばたいてゆくのだった\n\n# label \"select_label_01\"\n# labeljump \"select_label_end\"\n# face 302111 \"happy\"\n# textflame 1 1\n# chara 302111\n@ガ・ボー\n…はい…でも、それは…\n\n# label \"select_label_02\"\n# labeljump \"select_label_end\"\n# face 302111 \"happy\"\n# textflame 1 1\n# chara 302111\n@ガ・ボー\n一人…ではありません\n\n# label \"select_label_03\"\n# labeljump \"select_label_end\"\n# face 302111 \"happy\"\n# textflame 1 1\n# chara 302111\n@ガ・ボー\nそうでしょうか…それは…\n\n# label \"select_label_end\"\n# voice 3021 \"gaebuide_0004\"\n# face 302111 \"shy\"\n# textflame 1 1\n@ガ・ボー\nマスターにヒントをもらったから…\nあのヒナ鳥に…\n頑張る姿を見せてもらったから…\n\n@ガ・ボー\nボー１人では…\n変われませんでした\n\n# textflame 0 0\n# face 302111 \"happy\"\n@\nでも、きっかけはどうあれ\n変わったのは君自身だよ\nマスターが告げる\n\n# textflame 1 1\n@ガ・ボー\n…………\n\n# voice 3021 \"gaebuide_0005\"\n# face 302111 \"shy\"\n@ガ・ボー\nえへへ…\n\n# voice 3021 \"gaebuide_0030\"\n@ガ・ボー\nありがとうございます\n\n# voice 3021 \"gaebuide_0003\"\n# face 302111 \"normal\"\n@ガ・ボー\nもう…姉様と比べて、\n自分を卑下するのはやめます\n\n@ガ・ボー\n姉様が優秀だから\nボーはダメだってのは、\nいいわけですもんね\n\n@ガ・ボー\n一人のキル姫として戦場に立ち、\n一人の戦士として…\n\n# imageset 0 \"c302111\"\n# imagealpha 0 0 0\n# textflame 1 1\n@ガ・ボー\n戦っていきます\n\n# imagealpha 0 1 0\n# imagepos 0 0 0 \n# fadein \"white\" 3\n# voice 3021 \"gaebuide_kyara_0018\"\n# textwindow \"close\"\n\n# textwindow \"nomal\"\n# textflame 0 0\n@\n「魂が半分欠けている」と言われる彼女\nそんなのとんでもない、\nその瞳はらんらんと輝いていた"
	}
]