[
	{
		"ID": 30211207,
		"script": "# script \"lisp\"\n# background \"desert_hill\"\n# bgm \"bgm001\" 0\n# textboxarrow 0 2\n# body 601411\n# mask 601411 off\n# pos 601411 3\n# face 601411 \"mad\"\n#se \"SE_0636\"\n# textflame 0 0\n@\nビュオォォォォォ…！\n\n@\n下がり続ける気温\n吹きすさぶ砂嵐…\n\n# voice 6014 \"ptah_0015\"\n# face 601411 \"surprise\"\n# textflame 1 1\n@プタハ\nこの風では夜のうちに\n砂漠を越えることは不可能…\n\n# voice 6014 \"ptah_0017\"\n@プタハ\nだが、このままでは\nマスターが…！\n\n# textflame 0 0\n@\n悪寒で歯をガチガチと鳴らし、\n震えている\n\n# textflame 1 1\n# face 601411 \"mad\"\n@プタハ\nこの状況でも我は言うぞ、\nマスター\n\n@プタハ\nそなたのことは…\n絶対に守って見せると！\n\n# textflame 0 0\n@\n彼女が大きく柔らかく、\n温かい身体でマスターを\n優しく包み込んだ\n\n# fadein \"white\" 2\n@\n暗い砂漠を照らす、\n彼女から発せられる光\n\n# se \"SE_0602\"\n@\nそれは彼女が新スキル\n『母なる抱擁』に\n目覚めた瞬間だった\n\n# fadeout \"black\" 3\n# waitandnext 3\n\n# bgm \"stop\"\n# fadein \"black\" 1\n# textflame 0 0\n@\n次の日の朝\n\n# bgm \"bgm003\" 0\n# voice 6014 \"ptah_0006\"\n# textflame 1 1\n@プタハ\nお、目が覚めたか、マスター\n\n# textflame 0 0\n@\n嵐はすっかり収まり、\n砂漠は爽やかな太陽の光で\n晴れ渡っている\n\n# select \"ずっとここで…守ってくれてたの？\" \"select_label_01\" \"一晩中、僕を温めてくれてたの…？\" \"select_label_02\" \"寝ないで…ずっと看病を…？\" \"select_label_03\"\n嵐はすっかり収まり、\n砂漠は爽やかな太陽の光で\n晴れ渡っている\n\n# label \"select_label_01\"\n# labeljump \"select_label_end\"\n# face 601411 \"happy\"\n# textflame 1 1\n# chara 601411\n@プタハ\n気に病むことはない\nそれより体力が戻ったようで一安心だ\n\n# label \"select_label_02\"\n# labeljump \"select_label_end\"\n# face 601411 \"happy\"\n# textflame 1 1\n# chara 601411\n@プタハ\nそなたのおかげで我も温かかった\nだから、お互い様だ\n\n# label \"select_label_03\"\n# labeljump \"select_label_end\"\n# face 601411 \"happy\"\n# textflame 1 1\n# chara 601411\n@プタハ\nいいのだ、そなたの元気な顔が\n見られれば、それで\n\n# label \"select_label_end\"\n# face 601411 \"normal\"\n# textflame 0 0\n@\n申し訳ない…僕が大丈夫なんて、\n調子に乗って砂漠に入ったばっかりに\n…と彼女に頭を下げるマスター\n\n# textflame 1 1\n# face 601411 \"sad\"\n@プタハ\nいや、こちらこそすまぬ\n# voice 6014 \"ptah_0031\"\n\n# textflame 0 0\n@\n…え？何が？\n悪いのは全面的にこっち…\nマスターを制し、彼女が話す\n\n# voice 6014 \"ptah_0015\"\n# textflame 1 1\n@プタハ\nそなたに…\n苦しい思いをさせてしまった\n\n@プタハ\n夜までには砂漠を越えようと、\nそなたの変調に気が回らなかった\n\n@プタハ\n我ももっと広い視野を持たねば…\n本当にすまぬ、マスター\n\n# textflame 0 0\n@\n深々と頭を下げる\nどこまで女神なんだ…\nと心打たれるマスター\n\n@\nあの…ところで…\n\n# voice 6014 \"ptah_kyara_1013\"\n# textflame 1 1\n# face 601411 \"normal\"\n@プタハ\nどうした？\n\n# textflame 0 0\n@\n夜中の間…ずっと\nむにゅっと温かかったんだけど…\n何かしてくれたの…？\n\n# voice 6014 \"ptah_1023\"\n# textflame 1 1\n# face 601411 \"surprise\"\n@プタハ\n…！\n\n# voice 6014 \"ptah_0008\"\n@プタハ\n別に…何も…？\n\n# voice 6014 \"ptah_0004\"\n# face 601411 \"mad\"\n@プタハ\nほ、ほら！\n水分が足りておらんだろう！\n\n@プタハ\n摘んできたイチゴだ\n慌てずに食べるのだぞ\n\n# textflame 0 0\n@\nそれは、普段は動じない彼女が、\n初めて少し焦りを見せた瞬間\n\n# voice 6014 \"ptah_0022\"\n# textflame 1 1\n# face 601411 \"normal\"\n@プタハ\n…？\nなんだ？\n自分で食べられるだろう\n\n# voice 6014 \"ptah_0020\"\n# face 601411 \"happy\"\n@プタハ\nほんと、子供みたいだな\n仕方ない…\n\n# voice 6014 \"ptah_0004\"\n# imageset 0 \"c601411\"\n# imagealpha 0 0 0\n# textflame 1 1\n@プタハ\nはい、あ～ん\n\n# imagealpha 0 1 0\n# imagepos 0 0 0 \n# fadein \"white\" 3\n# voice 6014 \"ptah_kyara_0026\"\n# textwindow \"close\"\n\n# textwindow \"nomal\"\n# textflame 0 0\n@\n彼女には、\nついつい甘えてしまう\nマスターだった"
	}
]