[
	{
		"ID": 30221301,
		"script": ";;【もが】\n;;スキル効果：単発想定（HP回復）\n;;【EP1】(フリ)\n# script \"lisp\"\n# background \"forest\"\n# bgm \"bgm002\" 0\n# body 302213\n# mask 302213 off\n# pos 302213 3\n# alpha 302213 0 0\n# textflame 0 0\n@\n今日は、戦闘の合間の休日\n\n@\nマスターは、１人で\n大きな木の根元で座っている\nキラープリンセスを発見する\n\n# alpha 302213 1 0.5\n# textflame 1 1\n# textboxarrow 0 2\n# face 302213 \"sad\"\n# chara 302213\n@もが\n………\n\n# face 302213 \"surprise\"\n# voice 30221 \"moga2_0023\"\n@もが\n…！あ、マスター\n\n# textflame 0 0\n@\n何してたの？\nマスターが尋ねる\n\n# textflame 1 1\n# textboxarrow 0 2\n# face 302213 \"sad\"\n# chara 302213\n# vocie 30221 \"moga2_0028\"\n@もが\nいや…別に…\n\n# textflame 0 0\n@\n目を伏せるもが\n\n@\nまた“１人”で抱え込む気？\n\n# textflame 1 1\n# textboxarrow 0 2\n# face 302213 \"surprise\"\n# chara 302213\n# voice 30221 \"moga2_0022\"\n@もが\n…！\n\n# textflame 0 0\n@\nマスターのその言葉に、\nもがが顔を上げる\n\n# textflame 1 1\n# textboxarrow 0 2\n# chara 302213\n@もが\n…そうだったね\nぼくはもう…\n逃げないって決めたんだった\n\n# face 302213 \"sad\"\n# vocie 30221 \"moga2_0034\"\n@もが\n実は…\n\n# face 302213 \"normal\"\n@もが\n“孤独”から抜け出し、\n人と正面から向き合おうと\n決めたけど…\n\n# face 302213 \"sad\"\n# voice 30221 \"moga2_0019\"\n@もが\nそう、すぐには\n上手くいかなくて…\n\n# face 302213 \"normal\"\n@もが\nマスターとは馴染めたと思うけど、\nまだ隊のみんなとは…\n\n# face 302213 \"sad\"\n# vocie 30221 \"moga2_0028\"\n@もが\n元々…人付き合いが苦手だからね…\n\n# textflame 0 0\n@\nそれで落ち込んでたのか\n…と、心の中で思うマスター\n\n# textflame 1 1\n# textboxarrow 0 2\n# chara 302213\n# vocie 30221 \"moga2_0034\"\n@もが\n…どうすれば\n上手く溶け込めるんだろ\n\n@もが\nみんなから好かれる\nマスターが羨ましいよ\n\n# vocie 30221 \"moga2_0008\"\n@もが\nいっそのこと…\nまた楽な方へ逃げようかとも\n思ったけど…\n\n# face 302213 \"angry\"\n@もが\nそれはやめた\n\n# voice 30221 \"moga2_kyara_1007\"\n@もが\nぼくは…\n\n@もが\nもぅ逃げないよ\n\n# textflame 0 0\n@\nその瞳には、\n並々ならぬ決意が\n表れていた"
	}
]