[
	{
		"ID": 30251202,
		"script": ";;【EP2】(ウケ)\n# script \"lisp\"\n# background \"highland\"\n# bgm \"bgm002\" 0\n# alpha 302511 0 0\n# body 302511\n# pos 302511 3\n# mask 302511 off\n# textflame 0 0\n# chara 302511\n# face 302511 \"sad\"\n@\n七元徳の『知恵・思慮』を\n内包するミネルヴァ\n\n# textflame 0 0\n@\nその彼女の口から\n発せられた言葉\n\n# alpha 302511 1 0.5\n# textflame 1 1\n# textboxarrow 0 2\n# chara 302511\n@ミネルヴァ\nやはり“知恵”や“思慮”だけでは…\n“力”には及ばないのでしょうか？\n\n# select \"なにかあったの？\" \"select_label_01\" \"どうして、そう思うの？\" \"select_label_02\" \"壁にぶち当たってるの？\" \"select_label_03\"\nやはり“知恵”や“思慮”だけでは…\n“力”には及ばないのでしょうか？\n\n# label \"select_label_01\"\n# labeljump \"select_label_end\"\n# textflame 1 1\n# textboxarrow 0 2\n# chara 302511\n@ミネルヴァ\n聞いて…いただけますか？\n\n# label \"select_label_02\"\n# labeljump \"select_label_end\"\n# textflame 1 1\n# textboxarrow 0 2\n# chara 302511\n@ミネルヴァ\nはい…実は…\n\n# label \"select_label_03\"\n# labeljump \"select_label_end\"\n# textflame 1 1\n# textboxarrow 0 2\n# chara 302511\n@ミネルヴァ\nこのままじゃ…ダメなんです…\n\n# label \"select_label_end\"\n# textflame 1 1\n# textboxarrow 0 2\n# chara 302511\n@ミネルヴァ\n私の属性は『雷』…\nもうずっとニケと一緒に\n特訓を重ねているのですが…\n\n# textboxarrow 0 2\n# chara 302511\n# voice 3025 \"minerva_0027\"\n@ミネルヴァ\nある一定の力以上の\n電撃が放てないのです…\n\n# textflame 0 0\n@\n己の限界を感じ、落ち込む彼女\n\n# textflame 0 0\n@\nその様子を察したのか、\nニケが彼女の肩に降り立つ\n\n# textflame 1 1\n# textboxarrow 0 2\n# chara 302511\n# face 302511 \"angry\"\n@ミネルヴァ\n力なきものが\nいくら知恵を絞っても…\n\n# textboxarrow 0 2\n# chara 302511\n# face 302511 \"sad\"\n@ミネルヴァ\nやはり大きな力を持つ者には\n敵わないのでしょうか…？\n\n# textflame 0 0\n@\n次の瞬間…\n\n# se \"SE_5741\"\n# fadein \"white\" 0.5\n# textflame 0 0\n@\nバチッ！\n\n# textflame 0 0\n@\nニケが彼女の肩から飛び立ち、\n再び木の枝に飛び移っていた\n\n# textflame 0 0\n@\nい、今のは静電気…？\nと、マスターが答える\n\n# textflame 1 1\n# textboxarrow 0 2\n# chara 302511\n# voice 3025 \"minerva_0032\"\n# face 302511 \"normal\"\n@ミネルヴァ\nはい、剥離帯電が\nもたらした静電気です\n\n# textflame 0 0\n@\nはくり…たいでん…？\nマスターが聞き返す\n\n# textflame 1 1\n# textboxarrow 0 2\n# chara 302511\n@ミネルヴァ\n剥離帯電は、\n２つの物を引き離したり、\nはがしたりする時に起こります\n\n# textboxarrow 0 2\n# chara 302511\n@ミネルヴァ\n例えば、椅子から立ち上がる時、\n背もたれと背中の服の間で帯電\n\n# textboxarrow 0 2\n# chara 302511\n@ミネルヴァ\nそのままの体で\nドアに触ってしまったら、\n静電気が発生してしまうように\n\n# textflame 0 0\n@\nさすがは『知恵』を司る\nミネルヴァだ\n\n# textflame 1 1\n# textboxarrow 0 2\n# chara 302511\n# face 302511 \"surprise\"\n@ミネルヴァ\n待てよ…\n\n;;文字大きく\n# textsize 36\n# textboxarrow 0 2\n# chara 302511\n# face 302511 \"angry\"\n@ミネルヴァ\nそうか！！\n\n# textsize 24\n# textboxarrow 0 2\n# chara 302511\n# face 302511 \"shy\"\n@ミネルヴァ\n…あ、ごめんなさい\n\n# textflame 0 0\n@\n突然の大きな声を上げた彼女に\nおどろくマスター\n\n# textflame 1 1\n# textboxarrow 0 2\n# chara 302511\n# face 302511 \"normal\"\n@ミネルヴァ\nこの原理を上手く使えば…\n\n# textflame 0 0\n@\nよく分からないが、\n彼女の瞳が光を取り戻し始めた"
	}
]