[
	{
		"ID": 30261201,
		"script": ";;【EP1】(フリ)/背景：町\n# script \"lisp\"\n# background \"town\"\n# bgm \"bgm002\" 0\n# body 302611\n# pos 302611 3\n# mask 302611 off\n# textflame 0 0\n@\n戦闘の合間の休日\n\n# textflame 0 0\n@\nマスターはある姫に連れられ\n街へと来ていた\n\n# textflame 1 1\n# textboxarrow 0 2\n# chara 302611\n# voice 3026 \"grayside_0001\"\n@グラーシーザ\nマスター\nほら、こっちだ\n早く、早く\n\n# textflame 0 0\n@\n彼女の名はグラーシーザ\n最近、新しく隊に入った姫である\n\n# textflame 1 1\n# textboxarrow 0 2\n# chara 302611\n@グラーシーザ\nここだ、ここ！\n\n# textflame 0 0\n@\nやってきたのは洋服屋さん\nキル姫と言えど、そこは女の子\nやはり可愛いものが好き…\n\n# textflame 1 1\n# textboxarrow 0 2\n# chara 302611\n# face 302611 \"irregular\"\n@グラーシーザ\nマスター、どうだ？\nにあってるか、これ？\n\n# textflame 0 0\n@\nいや、ちょっと…\n大きくない？\n正直に答えるマスター\n\n# textflame 1 1\n# textboxarrow 0 2\n# chara 302611\n# voice 3026 \"grayside_0039\"\n# face 302611 \"sad\"\n@グラーシーザ\nそうか\nじゃあ、これはどうだ？\n\n# textflame 0 0\n@\nいや、大き過ぎて\n胸元がゆるゆるだよ\n\n# textflame 1 1\n# textboxarrow 0 2\n# chara 302611\n# voice 3026 \"grayside_0009\"\n# face 302611 \"angry\"\n@グラーシーザ\nあっ！\nどこ見てるんだ、このスケベ！\nちかんはオンナのてきだぞ！\n\n# textflame 0 0\n@\n小さな子供に\n痴漢扱いされた気分になる\nマスター\n\n# textflame 1 1\n# textboxarrow 0 2\n# chara 302611\n# voice 3026 \"grayside_0027\"\n# face 302611 \"normal\"\n@グラーシーザ\nやっぱり、昔の\nかんかくがのこってるんだな\n\n# textflame 0 0\n@\nどういうこと？\n\n# textflame 1 1\n# textboxarrow 0 2\n# chara 302611\n@グラーシーザ\nキラーズのえいきょうだろうな\n\n@グラーシーザ\nぶきだった時代\n“けん”から“やり”に\nちぢめられたことがあったからな\n\n@グラーシーザ\nでも、体は小さくなっても\nせいぎの心は\n小さくなっていないぞ！\n\n@グラーシーザ\nいや！むしろ、今の…\n\n# textflame 0 0\n@\nその時、店の外から聞こえてきた\n「スリよー！つかまえてーっ！」\nという叫び声\n\n# textflame 1 1\n# textboxarrow 0 2\n# chara 302611\n# voice 3026 \"grayside_0034\"\n# face 302611 \"surprise\"\n@グラーシーザ\n！！\n\n# face 302611 \"angry\"\n@グラーシーザ\nさいきん、ちまたで\nおうこうしているスリか！\n\n# face 302611 \"irregular\"\n@グラーシーザ\nあたしがいる時にやるなんて\nなんとおろかな！！\n\n# textflame 0 0\n@\n正義感の塊である彼女は\n目にも止まらぬスピードで\n店を飛び出した\n\n# textflame 0 0\n@\nが…\n\n# textflame 1 1\n# textboxarrow 0 2\n# chara 302611\n# face 302611 \"surprise\"\n@グラーシーザ\n…！\n\n# voice 3026 \"grayside_0026\"\n# face 302611 \"sad\"\n@グラーシーザ\nや、やじうま…！？\nこれじゃ…見えない！！\n\n# textflame 0 0\n@\n人だかりに阻まれた彼女\n\n# textflame 0 0\n@\nその背の低さゆえ\nスリを見つけることが出来ず\nまんまと逃がしてしまうのだった\n\n# textflame 1 1\n# textboxarrow 0 2\n# chara 302611\n# voice 3026 \"grayside_0037\"\n# face 302611 \"angry\"\n@グラーシーザ\nあぁ～、くっそ～～～っ！！\n\n@グラーシーザ\nこのあたしが\n悪をにがしてしまうなんて…！\n\n@グラーシーザ\nく、く、く、くやしい…！！\n\n# textflame 0 0\n@\n七元徳『正義』を司る彼女\nその悔しがり方は尋常ではなかった\n"
	}
]