[
	{
		"ID": 3100221,
		"script": "# script \"lisp\"\n# background \"wild_evening\"\n# bgmfile \"bgm080\" \"BgmFTcollabo001\" 0\n;;ティル準備\n# body 101411\n# pos 101411 3\n# alpha 101411 0 0\n;;デュリン準備\n# body 0\n# pos 0 1\n# alpha 0 0 0\n;;凛準備\n# body 501911\n# pos 501911 3\n;;黒準備\n# imageset 1 \"bg_black\"\n# imagepos 1 0 0\n# imagealpha 1 0 0\n# serif 0\n# textflame 1 1\n# textboxarrow 0 2\n# face 501911 \"angry\"\n@イミテーション凛\n…………\n\n# alpha 501911 0 0.5\n\n# alpha 0 1 0.5\n# alpha 101411 1 0.5\n# move 501911 5 0\n# alpha 501911 1 0.5\n# face 501911 \"normal\"\n\n# serif 0\n# textflame 1 1\n# textboxarrow 0 3\n# voice 5019 \"pok_collabo2_2_0103_rin\"\n@遠坂凛\n…私の、勝ちね。\n文句があるんなら、今度は\nちゃんと喋れる状態で来なさいよね\n\n# serif 0\n# textflame 1 1\n# textboxarrow 0 3\n# face 501911 \"angry\"\n# voice 5019 \"pok_collabo2_2_0104_rin\"\n@遠坂凛\nさて、あとはこの辺りの異族やら\nイミテーションやらを倒して…\n\n;;※エフェクト（Fateエクスカリバーの光条）\n# fadein \"white\" 0.5\n# face 501911 \"surprise\"\n# face 101411 \"surprised\"\n# face 0 \"normal\"\n\n# serif 1\n# textflame 1 1\n# textboxarrow 1 2\n# voice 1014 \"pok_collabo2_2_0105_tyrufing\"\n@ティルフィング\nこれは…？\n\n# serif 0\n# textflame 1 1\n# textboxarrow 0 1\n# voice 9999 \"pok_collabo2_2_0106_durin\"\n@デュリン\nわわっ、一体なんなの！？\n\n# serif 1\n# textflame 1 1\n# textboxarrow 1 3\n# face 501911 \"normal\"\n# voice 5019 \"pok_collabo2_2_0107_rin\"\n@遠坂凛\nほら、向こうから\n居場所を教えてくれるじゃない\n\n;;※エフェクト\n;;※ＳＥ\n# fadein \"white\" 1\n# face 501911 \"angry\"\n# face 101411 \"angry\"\n# face 0 \"angry\"\n\n# serif 0\n# textflame 1 1\n# textboxarrow 0 1\n# voice 9999 \"pok_collabo2_2_0108_durin\"\n@デュリン\nもうっ、どうなって…\n\n# serif 1\n# textflame 1 1\n# textboxarrow 1 3\n# face 501911 \"angry\"\n# voice 5019 \"pok_collabo2_2_0109_rin\"\n@遠坂凛\nみんな、早く立って構えて！\nなにが起こったのかは知らないけど、\n事態が動いた以上なにが起こっても…\n\n# serif 0\n# textflame 1 1\n# textboxarrow 0 2\n# voice 1014 \"pok_collabo2_2_0110_tyrufing\"\n@ティルフィング\n凛さん！あれを\n\n# serif 1\n# textflame 1 1\n# textboxarrow 1 3\n# face 501911 \"surprise\"\n# voice 5019 \"pok_collabo2_2_0111_rin\"\n@遠坂凛\n…嘘でしょ？\nあんな大群、どう捌けってのよ…\n\n# serif 0\n# textflame 1 1\n# textboxarrow 0 2\n# voice 1014 \"pok_collabo2_2_0112_tyrufing\"\n@ティルフィング\n…止めましょう\n\n# serif 1\n# textflame 1 1\n# textboxarrow 1 3\n# face 501911 \"angry\"\n# voice 5019 \"pok_collabo2_2_0113_rin\"\n@遠坂凛\nティルフィング？\n\n# serif 0\n# textflame 1 1\n# textboxarrow 0 2\n# voice 1014 \"pok_collabo2_2_0114_tyrufing\"\n@ティルフィング\n後方にはまだ、\n避難の終わっていない村があります\nだから…\n\n# serif 1\n# textflame 1 1\n# textboxarrow 1 3\n# face 501911 \"amazed\"\n# voice 5019 \"pok_collabo2_2_0115_rin\"\n@遠坂凛\nはぁ、そうね\n私が言い出したことだもの\n\n# serif 1\n# textflame 1 1\n# textboxarrow 1 3\n# face 501911 \"normal\"\n# voice 5019 \"pok_collabo2_2_0116_rin\"\n@遠坂凛\n最後まで付き合うわ\nまあ、無理だと思っても\n意外となんとかなるかもしれないしね\n\n# serif 0\n# textflame 1 1\n# textboxarrow 0 2\n# face 101411 \"normal\"\n# voice 1014 \"pok_collabo2_2_0117_tyrufing\"\n@ティルフィング\nはい！"
	}
]