[
	{
		"ID": 3100216,
		"script": "# script \"lisp\"\n# background \"flower_garden\"\n# bgm \"bgm004\" 0\n;;ティル準備\n# body 101411\n# pos 101411 3\n;;デュリン準備\n# body 0\n# pos 0 1\n;;凛準備\n# body 501911\n# pos 501911 5\n# serif 0\n# textflame 1 1\n# textboxarrow 0 3\n# face 501911 \"angry\"\n# voice 5019 \"pok_collabo2_2_0023_rin\"\n@遠坂凛　\nキル姫、キラーズ、\nそれを律するラグナロク…ね\n大枠は大体、把握したと…\n\n# serif 0\n# textflame 1 1\n# textboxarrow 0 3\n# voice 5019 \"pok_collabo2_2_0024_rin_1\"\n@遠坂凛\nつまり私はなんらかの理由で\nこの世界に流れ着いた\n\n# serif 0\n# textflame 1 1\n# textboxarrow 0 3\n# voice 5019 \"pok_collabo2_2_0024_rin_2\"\n@遠坂凛\n物品のキラーズから生まれた\nキル姫ってことね\n\n# serif 0\n# textflame 1 1\n# textboxarrow 0 3\n# voice 5019 \"pok_collabo2_2_0025_rin\"\n@遠坂凛\n道理で…記憶の中にある戦いと\n勝手が違うわけだわ\n\n# serif 1\n# textflame 1 1\n# textboxarrow 1 1\n# face 0 \"serious2\"\n# voice 9999 \"pok_collabo2_2_0026_durin\"\n@デュリン\nまさかこんなところで\n新しいキル姫と出会うなんて…\nセイバーともはぐれちゃったし\n\n# serif 0\n# textflame 1 1\n# textboxarrow 0 3\n# face 501911 \"surprise\"\n# voice 5019 \"pok_collabo2_2_0027_rin\"\n@遠坂凛\nせい、ばー？\nそれってもしかして、\n銀と青の甲冑を着た金髪の？\n\n# serif 1\n# textflame 1 1\n# textboxarrow 1 1\n# face 0 \"normal\"\n# voice 9999 \"pok_collabo2_2_0028_durin\"\n@デュリン\nそうだけど…\nもしかして知り合い？\n\n# serif 0\n# textflame 1 1\n# textboxarrow 0 3\n# face 501911 \"angry\"\n# voice 5019 \"pok_collabo2_2_0029_rin\"\n@遠坂凛\nええ、多分ね\n\n# serif 1\n# textflame 1 1\n# textboxarrow 1 2\n# face 501911 \"amazed\"\n# voice 1014 \"pok_collabo2_2_0030_tyrufing\"\n@ティルフィング\nだとしたら、早く合流しましょう\n知り合いと会えば曖昧な記憶も、\nはっきりしてくるかも…\n\n# serif 0\n# textflame 1 1\n# textboxarrow 0 3\n# face 501911 \"normal\"\n# voice 5019 \"pok_collabo2_2_0031_rin\"\n@遠坂凛\nいえ、後回しにしましょう\n\n# serif 1\n# textflame 1 1\n# textboxarrow 1 1\n# voice 9999 \"pok_collabo2_2_0032_durin\"\n@デュリン\nええっ！？\nだって自分の記憶のことよ？\n\n# serif 0\n# textflame 1 1\n# textboxarrow 0 3\n# voice 5019 \"pok_collabo2_2_0033_rin\"\n@遠坂凛\nだって貴方達の話が本当なら、\n私は遠坂凛であって、\n遠坂凛ではないわ\n\n# serif 0\n# textflame 1 1\n# textboxarrow 0 3\n# voice 5019 \"pok_collabo2_2_0034_rin\"\n@遠坂凛\nだったら、\n確実性の薄い記憶のことよりも\n優先すべきことがある\n\n# serif 1\n# textflame 1 1\n# textboxarrow 1 2\n# face 101411 \"surprised\"\n# voice 1014 \"pok_collabo2_2_0035_tyrufing\"\n@ティルフィング\n優先すべきこと、ですか？\n\n# serif 0\n# textflame 1 1\n# textboxarrow 0 3\n# face 501911 \"angry\"\n# voice 5019 \"pok_collabo2_2_0036_rin\"\n@遠坂凛\nそう\nここまで来る途中で\n見たんだけど\n\n# serif 0\n# textflame 1 1\n# textboxarrow 0 3\n# voice 5019 \"pok_collabo2_2_0037_rin\"\n@遠坂凛\nこの近くには結構人里があるわね\nその内の幾つかは避難を始めていた\n\n# serif 1\n# textflame 1 1\n# textboxarrow 1 2\n# face 101411 \"angry\"\n# voice 1014 \"pok_collabo2_2_0038_tyrufing\"\n@ティルフィング\nはい。それもあって、\n教会も早期解決のために\nキル姫の投入を\n\n# serif 0\n# textflame 1 1\n# textboxarrow 0 3\n# voice 5019 \"pok_collabo2_2_0039_rin\"\n@遠坂凛\n…気付いてる？\nあのイミテーション達は\n人型のものなら見境なしに襲ってるわ\n\n# serif 0\n# textflame 1 1\n# textboxarrow 0 3\n# voice 5019 \"pok_collabo2_2_0040_rin\"\n@遠坂凛\nそして、戦場は\n徐々に人里に近付いている…\n\n# serif 1\n# textflame 1 1\n# textboxarrow 1 1\n# face 0 \"angry2\"\n# voice 9999 \"pok_collabo2_2_0041_durin\"\n@デュリン\nだから、早く原因を\n見つけなくちゃいけないんでしょ？\n\n# serif 0\n# textflame 1 1\n# textboxarrow 0 3\n# voice 5019 \"pok_collabo2_2_0042_rin\"\n@遠坂凛\n見つけて、それで？力ずくでどうにか\nなるものならいいけど、解決までに\n時間がかかる場合もあるでしょ\n\n# serif 1\n# textflame 1 1\n# textboxarrow 1 1\n# face 0 \"sad\"\n# voice 9999 \"pok_collabo2_2_0043_durin\"\n@デュリン\nそれは、\nそうかもしれないわね…\n\n# serif 0\n# textflame 1 1\n# textboxarrow 0 3\n# voice 5019 \"pok_collabo2_2_0044_rin\"\n@遠坂凛\nならまずは、当座の問題を\n片付けましょう。幸い、ここには\nそれなりの戦力があるようだし\n\n# serif 1\n# textflame 1 1\n# textboxarrow 1 2\n# voice 1014 \"pok_collabo2_2_0045_tyrufing\"\n@ティルフィング\nでは、まず\nセイバーさんと合流してから…\n\n# serif 0\n# textflame 1 1\n# textboxarrow 0 3\n# face 501911 \"normal\"\n# voice 5019 \"pok_collabo2_2_0046_rin\"\n@遠坂凛\nううん、それはしなくていい\n\n# serif 0\n# textflame 1 1\n# textboxarrow 0 3\n# voice 5019 \"pok_collabo2_2_0047_rin\"\n@遠坂凛\n彼女が私の知っている\n『セイバー』なら、大抵のことは\nひとりでなんとか出来るはずよ\n\n# serif 0\n# textflame 1 1\n# textboxarrow 0 3\n# voice 5019 \"pok_collabo2_2_0048_rin\"\n@遠坂凛\nそれに、\nそんなに戦ってるんだったら、\nおのずと居場所もわかるだろうし\n\n# serif 1\n# textflame 1 1\n# textboxarrow 1 1\n# face 0 \"normal\"\n# voice 9999 \"pok_collabo2_2_0049_durin\"\n@デュリン\nそれってどういう…\n\n# serif 0\n# textflame 1 1\n# textboxarrow 0 3\n# voice 5019 \"pok_collabo2_2_0050_rin\"\n@遠坂凛\nさ、そうと決まったら、\nまずは地理を把握しないとね！\n行きましょう！\n\n# serif 1\n# textflame 1 1\n# textboxarrow 1 1\n# voice 9999 \"pok_collabo2_2_0051_durin\"\n@デュリン\nえっ！？\nちょっと、待ちなさいよ！"
	}
]