[
	{
		"ID": 310012211,
		"script": ";;-----------------------------------------\n;;masamune 1-1\n;;-----------------------------------------\n# script \"lisp\"\n# background \"plain_evening\"\n# bgmfile \"bgm069\" \"BgmHalloween001\" 0\n;;-----------------------------------------\n# body 3100121\n# pos 3100121 3\n# scale 3100121 0.8 0\n# layer 3100121 2\n# alpha 3100121 0 0\n# mask 3100121 off\n# body 3830001\n# pos 3830001 3\n# scale 3830001 0.8 0\n# layer 3830001 3\n# alpha 3830001 0 0\n# mask 3830001 off\n;;-----------------------------------------\n;;カーテンフェード\n# imageset 0 \"black\"\n# imagealpha 0 0 0\n# imagelayer 0 1\n;;-----------------------------------------\n;;背景：「平原（夕）」\n# textflame 0 0\n@\n橙色の南瓜が足元に転がるなか\nしゃらんと夜色のドレスをなびかせ\n彼女は姿を現した\n\n;;マサムネの立ち絵を表示させてください（すーっと浮かび上がるような演出もできればお願いします）\n# textwindow \"close\"\n# face 3100121 \"usual\"\n# alpha 3100121 1 0.8\n# waitandnext 1\n\n# textwindow \"nomal\"\n# voice 310012 \"masamune_ge_0001\"\n# textflame 1 1\n# textboxarrow 0 2\n@マサムネ\n待たせたな、主君\n\n# textflame 0 0\n@\nいつもとは違うマサムネの格好に\nマスターは思わず\n驚きの声をあげてしまう\n\n# face 3100121 \"shy\"\n# voice 310012 \"masamune_ge_0042\"\n# textflame 1 1\n# textboxarrow 0 2\n@マサムネ\nな、なんだ？\nこの格好、やはり\nどこかおかしいだろうか？ \n\n# textflame 0 0\n@\n違う、違う\nとてもよく似合っているよ、と\nマスターはマサムネを褒める\n\n# voice 310012 \"masamune_ge_0028\"\n# textflame 1 1\n# textboxarrow 0 2\n@マサムネ\nそ、そうか…\nならばよいのだ\n\n# textflame 0 0\n@\nマサムネは恥ずかしさのあまり\nぷいと視線をそらし\nそのまま喋り始めた\n\n# face 3100121 \"usual\"\n# textflame 1 1\n# textboxarrow 0 2\n@マサムネ\nそれにしても…\n突然こんなドレスを送ってよこすなど\nどういう風の吹き回しなのだ？\n\n# textflame 0 0\n@\nハロウィンの衣装だよ\nみんな仮装しているからマサムネもね\nそう、マスターは伝える\n\n# face 3100121 \"surprise\"\n# textflame 1 1\n# textboxarrow 0 2\n@マサムネ\nハロウィン？\n拙者が？\n\n# face 3100121 \"angry\"\n# voice 310012 \"masamune_ge_0034\"\n# textflame 1 1\n# textboxarrow 0 2\n@マサムネ\nい、いや！拙者は斬ル姫だぞ！\n人前に出ては皆を驚かせてしまう\n街になど行けるはずがなかろう\n\n# textflame 0 0\n@\nそのための仮装じゃないか\nあっけらかんとマスターは言う\n\n# textflame 1 1\n# textboxarrow 0 2\n@マサムネ\nし、しかしだな…\n\n# textflame 0 0\n@\nここのところ戦闘続きで\nさすがのマサムネにも疲れが見える\n\n# textflame 0 0\n@\n買い出しに行く名目で街に連れ出し\n気分をリフレッシュさせてあげたい\nそれがマスターの狙いだ\n\n# textflame 1 1\n# textboxarrow 0 2\n@マサムネ\n買い出しにつき合わせるなら\n誰だっていいだろう\n拙者よりも…\n\n# textflame 0 0\n@\n買いたいものがいっぱいあるから！\nマサムネが言い終わるよりも先に\nマスターは彼女の手を引いて歩き出す\n\n# voice 310012 \"masamune_ge_0022\"\n# textflame 1 1\n# textboxarrow 0 2\n@マサムネ\nま、待たれよ主君！\nせ、拙者これより鍛錬があるゆえ\nやはり買い出しにつき合うのは…\n\n# textflame 0 0\n@\nいいから行こうよ、と\nマスターはマサムネを\n街へと引っ張っていった\n\n;;暗転挟む\n# imagealpha 0 1 0\n# imagepos 0 0 30\n# imageleftin 0 0.5\n# textwindow \"close\"\n# waitandnext 0.5\n\n;;背景：「背景６：街中（夕）」\n# background \"town_evening\"\n# face 3100121 \"usual\"\n# waitandnext 0.2\n\n# imagealpha 0 0 0.5\n# imagerightout 0 0.5\n# waitandnext 0.5\n\n# textwindow \"nomal\"\n# textflame 0 0\n@\n最近の調子はどう？\n歩きながら、マスターは尋ねる\n\n# face 3100121 \"surprise\"\n# textflame 1 1\n# textboxarrow 0 2\n@マサムネ\nどう、とは？\n…体調のことを申しているのか？\n\n# textflame 1 1\n# textboxarrow 0 2\n@マサムネ\n主君のために剣を振るうことが\n斬ル姫の、いや、拙者の務め\nなんということはない\n\n# face 3100121 \"sad\"\n# voice 310012 \"masamune_ge_0028\"\n# textflame 1 1\n# textboxarrow 0 2\n@マサムネ\n…だが\n\n# textflame 0 0\n@\n勇ましく語っていたマサムネの\n表情が曇る\n\n# textflame 1 1\n# textboxarrow 0 2\n@マサムネ\n休息は取っているはずなのだが\nなぜか、胸の辺りが…こう\nもやもやするというか\n\n# textflame 1 1\n# textboxarrow 0 2\n@マサムネ\n錘がついたような感覚を\n覚えることがあるのだ\n\n# textflame 0 0\n@\nそれはもしかしたら\n心が疲れているのかもしれないね\nマスターはそう声をかける\n\n# face 3100121 \"surprise\"\n# textflame 1 1\n# textboxarrow 0 2\n@マサムネ\n心が？\nいや、心の疲れなどと申されても\nいまいち実感がわかぬ\n\n# face 3100121 \"usual\"\n# voice 310012 \"masamune_ge_0003\"\n# textflame 1 1\n# textboxarrow 0 2\n@マサムネ\nなぁに、これしきのこと、すぐ治る\n主君に余計な気苦労を\nかけてしまったな\n\n# textflame 0 0\n@\nじゃあ、今日は戦闘を忘れて\n心を軽くするような日にしようか\n\n# textflame 0 0\n@\nなにかやりたいことはない？\nと、マスターは聞いてみる\n\n# face 3100121 \"surprise\"\n# textflame 1 1\n# textboxarrow 0 2\n@マサムネ\nやりたいこと…？\n\n# textflame 1 1\n# textboxarrow 0 2\n@マサムネ\n賑わう街の中で\n拙者がやりたいこと、か…\n\n# textflame 0 0\n@\n２人の前を手をつないだ子どもたちが\n黒いマントをなびかせて\nじゃれ合いながら走っていく\n\n# face 3100121 \"usual\"\n# textflame 1 1\n# textboxarrow 0 2\n@マサムネ\n…拙者にも\nあのように無邪気な時代が\nあったのだろうか…\n\n# textflame 0 0\n@\n子どもたちの様子に\nマサムネが目を細めていると\n恰幅の良い女性から\n\n# textflame 0 0\n@\nお嬢ちゃん、似合ってるじゃない！\nなどと声をかけられ\nマサムネは気恥ずかしそうにうつむく\n\n# face 3100121 \"shy\"\n# voice 310012 \"masamune_ge_0042\"\n# textflame 1 1\n# textboxarrow 0 2\n@マサムネ\nや、やはり\nこんな格好で街になど\n来るべきではなかったのだ…！\n\n# face 3100121 \"surprise\"\n# textflame 1 1\n# textboxarrow 0 2\n@マサムネ\n…ん？\n\n# textflame 0 0\n@\nマサムネの視線の先には\nお菓子を「あーん」している\nカップルがいる\n\n# face 3100121 \"shy\"\n# voice 310012 \"masamune_ge_0013\"\n# textflame 1 1\n# textboxarrow 0 2\n@マサムネ\nは、破廉恥な…！\n\n# textflame 0 0\n@\nわなわなと\n身を震わせるマサムネ\n\n# textflame 0 0\n@\nそんなマサムネの近くで\n同じくカップルを眺めていた憲兵が\n怒気を帯びた口調で大声をあげた\n\n# alpha 3100121 0 0.5\n# alpha 3830001 1 0.5\n# textflame 1 1\n# textboxarrow 0 2\n@兵士\nイミテーションどもが！\n平等であるべき公共の場を陣取り\n街の風紀を乱すなど羨ま…言語道断！\n\n# textflame 0 0\n@\nなどと理不尽なことを叫びながら\n武器へ手をかける\n\n# alpha 3100121 1 0.5\n# alpha 3830001 0 0.5\n# face 3100121 \"angry\"\n# textflame 1 1\n# textboxarrow 0 2\n@マサムネ\n…主君\n\n# textflame 0 0\n@\nマスターはマサムネへ頷く\n目の前で行われようとしている\n横暴を許すわけにはいかない\n\n# voice 310012 \"masamune_ge_0032\"\n# textflame 1 1\n# textboxarrow 0 2\n@マサムネ\n…承知した\n\n# textflame 0 0\n@\nそう言うとマサムネは\n毅然とした足取りで憲兵の元へと\n歩いていく\n\n# textflame 0 0\n@\nその背中には憲兵への怒りだけでない\nなにか別の感情も\n見えた気がした"
	}
]