[
	{
		"ID": 3101333,
		"script": "# script \"lisp\"\n# body 810004\n# mask 810004 off\n# pos 810004 3\n# scale 810004 0.8 0\n# textflame 1 1\n# textboxarrow 0 2\n# voice 9994 \"izokutaisho_0057\"\n@異族の大将\nあ～もうこっち来んなって～\n今日は戦いたくない気分やねんて～"
	}
]