[
	{
		"ID": 310141212,
		"script": ";;EP2（前半）\n;;//背景：洞穴\n;;リル＝ティルフィングキャラシナリオ\n;;【EP2】（前半）\n# script \"lisp\"\n# background \"101_cave\"\n# bgmfile \"bgm276\" \"BgmLostRagnarokEvent\" 0\n# body 136\n# pos 136 5\n# scale 136 0.8 0\n# alpha 136 1 0\n# face 136 \"normal\"     \n# body 161\n# pos 161 3\n# scale 161 0.6 0\n# alpha 161 1 0\n# body 163\n# pos 163 4\n# scale 163 0.8 0\n# alpha 163 0 0\n# body 3100211\n# pos 3100211 1\n# scale 3100211 0.8 0\n# alpha 3100211 1 0\n# face 3100211 \"normal\"\n# body 3602511\n# pos 3602511 2\n# scale 3602511 0.8 0\n# alpha 3602511 0 0\n# face 3602511 \"normal\"\n# textboxarrow 0 1\n# voice 310021 \"revatein_ge_0028\"\n@レーヴァテイン\nとりあえず、この空間を使って\nあんまり居心地が良いとは言えない\nけれど…\n\n# textboxarrow 0 3\n# face 136 \"sad\"\n# voice 9968 \"nadia_0003\"\n@ナディア\n十分です\nあの…ごめんなさい…\n\n# textboxarrow 0 1\n# voice 310021 \"revatein_ge_0034\"\n@レーヴァテイン\nあなたが謝ることじゃない…\n色々試してみたけど、\n上手くいかなかった…\n\n@レーヴァテイン\n原因を考えてみるわ…\n今日はゆっくり休んで\n\n# textboxarrow 0 3\n# voice 9968 \"nadia_0032\"\n@ナディア\nはい\nありがとうございます\n\n# textboxarrow 0 2\n# voice 9953 \"mwu_0001\"\n@ムー\nお嬢ちゃん、元気出しなって！\n誰でも調子悪いときはあらぁな\n\n@ムー\n朝から歩きっぱなしで疲れてたんだよ\nきっと明日は上手くいくぜ！\nそうだ、よく眠れるように俺が添――\n\n# move 3100211 2 0.3\n# layer 161 3\n# textboxarrow 0 1\n# voice 310021 \"revatein_ge_0085\"\n@レーヴァテイン\n行くわよ、ムー\n\n# move 3100211 2 0.3\n# textboxarrow 0 2\n# voice 9953 \"mwu_0025\"\n@ムー\nぐおぉっ…\n首はっ…首はやめてっ…\n\n# textboxarrow 0 0\n# alpha 161 0 1\n# alpha 3100211 0 1\n# waitandnext 1\n\n# alpha 136 0 0.5\n# waitandnext 0.5\n\n# move 136 3 0\n# alpha 136 1 0.5\n# textboxarrow 0 2\n# face 136 \"surprise\"\n@ナディア\n…どうしてティルフィングを\n目覚めさせることができないの？\n\n# face 136 \"sad\"\n# voice 9968 \"nadia_0017\"\n@ナディア\nアルマス達と別れて、\nここまで来たのにっ…\n\n# alpha 136 0 0.5\n# alpha 3602511 1 0.5\n# alpha 163 1 0.5\n# textboxarrow 0 1\n# voice 6025 \"chalice_t_0077\"\n@カリス\nやっほい！\nカリスちゃんだよ～っ\n\n# alpha 3602511 0 0.5\n# alpha 163 0 0.5\n# alpha 136 1 0.5\n# textboxarrow 0 2\n# face 136 \"surprise\"\n@ナディア\nあ…こんばんは\n\n# alpha 136 0 0.5\n# alpha 3602511 1 0.5\n# alpha 163 1 0.5\n# textboxarrow 0 1\n# face 3602511 \"surprise\"\n# voice 6025 \"chalice_t_0002\"\n@カリス\nね～ね～っ\n寝る前に少しお喋りしようよ～\n\n# face 3602511 \"normal\"\n@カリス\nレーヴァもヘレナもソロモンも\nあんまりお喋りしてくれなくて、\n退屈してたんだ～っ\n\n# textboxarrow 0 3\n# voice 9951 \"kipuru_0031\"\n@キプル\nあああ…すみませぇん…！\nお休みするところをカリスが\n勝手なことを言いましてぇ…\n\n# alpha 3602511 0 0.5\n# alpha 163 0 0.5\n# alpha 136 1 0.5\n# textboxarrow 0 2\n# face 136 \"normal\"\n# voice 9968 \"nadia_0003\"\n@ナディア\n私は構いませんよ\nこちらに座って下さい\n\n# alpha 136 0 0.5\n# alpha 3602511 1 0.5\n# alpha 163 1 0.5\n# textboxarrow 0 1\n# face 3602511 \"happy\"\n# voice 6025 \"chalice_t_0006\"\n@カリス\nやった！\nナディア、大好き～♪\n\n# textboxarrow 0 0\n# alpha 3602511 0 0.5\n# alpha 163 0 0.5\n# waitandnext 0.5\n\n# face 3602511 \"normal\"\n# move 3602511 2 0\n# move 136 4 0\n# alpha 3602511 1 0.5\n# alpha 136 1 0.5\n# waitandnext 0.5\n\n# textboxarrow 0 3\n# voice 9968 \"nadia_0002\"\n@ナディア\nあの…改めてお礼を言わせて下さい\nオベロン様を助けて下さって\n本当にありがとうございました\n\n# textboxarrow 0 1\n# voice 6025 \"chalice_t_0003\"\n@カリス\nいや～、カリスちゃんはマジ天使\nだからね～♪\nでも、助かって良かったよ～\n\n# face 3602511 \"shy\"\n@カリス\n仲の良い人がいなくなっちゃうのは\n辛いもんね\n\n# textboxarrow 0 3\n# face 136 \"sad\"\n# voice 9968 \"nadia_0003\"\n@ナディア\nはい…\nオベロン様は私の封印を解いてから\nずっと匿って下さっていたんです\n\n# face 136 \"surprise\"\n# voice 9968 \"nadia_0014\"\n@ナディア\n運命のときが来るまで…\n今こそ、そのご恩に報いないと\nいけないのにっ…\n\n# textboxarrow 0 1\n# face 3602511 \"surprise\"\n# voice 6025 \"chalice_t_0040\"\n@カリス\nそっか～\nナディアはすごいな～っ\n\n@カリス\nわたしだったら怖くて\n決断できなかっただろうな～…\nだって自分が消えちゃうんでしょ？\n\n# textboxarrow 0 3\n# face 136 \"sad\"\n# voice 9968 \"nadia_0003\"\n@ナディア\nそうなると…聞いています…\nナディアという人格はティルフィング\nに取り込まれてしまうと…\n\n# textboxarrow 0 1\n# face 3602511 \"sad\"\n# voice 6025 \"chalice_t_0026\"\n@カリス\n自分をなくしちゃうなんて…\nやっぱり怖いよ\nわたしはヤだなー…\n\n# textboxarrow 0 3\n# voice 9968 \"nadia_0025\"\n@ナディア\n怖い…\nそう…怖いのですよね…\nああ、そうなんです、きっと…\n\n# textboxarrow 0 1\n# face 3602511 \"surprise\"\n@カリス\nどうしたの、ナディア？\n\n# textboxarrow 0 3\n# face 136 \"surprise\"\n# voice 9968 \"nadia_0040\"\n@ナディア\nいえ…私…私は…覚悟を決めた…\nはずでしたっ…だけどっ…\n\n# face 136 \"sad\"\n@ナディア\n何て情けないんでしょう…\n私は…怖いんですっ…\nやっぱり…怖かったんですっ…！\n\n# voice 9968 \"nadia_0020\"\n@ナディア\n私は失いたくないっ…\n今まで出会ってきた人達との\n思い出をっ…この気持ちをっ…！\n\n# face 136 \"surprise\"\n@ナディア\n決めたはずだったのに…！\nティルフィングを目の前にして…\n怖くなってしまったんです…！\n\n# face 136 \"sad\"\n# voice 9968 \"nadia_0017\"\n@ナディア\n私は…弱いんです…\n\n# textboxarrow 0 1\n# face 3602511 \"shy\"\n# voice 6025 \"chalice_t_0080\"\n@カリス\nナディア…\nよしよし\nもっと泣いて良いよ～っ\n\n# textboxarrow 0 3\n# face 136 \"surprise\"\n@ナディア\nカリス？\n\n# textboxarrow 0 1\n# face 3602511 \"normal\"\n@カリス\nカリスちゃんはマジ天使なので\nナディアの涙をちゃんと受け止め\nられるんだ～\n\n# face 3602511 \"shy\"\n# voice 6025 \"chalice_t_0002\"\n@カリス\nナディアは弱くなんかないよ\n怖いのなんて当たり前だよ\nだって自分が消えちゃうんだよ？\n\n# face 3602511 \"normal\"\n@カリス\nそんなのが平気な人なんていないよ\nここまで来ただけでも、ナディアは\nすごいと思うな！\n\n# textboxarrow 0 3\n# face 136 \"sad\"\n# voice 9968 \"nadia_0014\"\n@ナディア\nですが…私は…\n\n# textboxarrow 0 1\n@カリス\n別にやめちゃってもいいよ！\nごめんねって謝ればレーヴァも\n分かってくれるからっ\n\n# textboxarrow 0 3\n# face 136 \"normal\"\n# voice 9968 \"nadia_0032\"\n@ナディア\nカリス…\nありがとうございます\n少しだけ…勇気が出ました\n\n@ナディア\nもう一度、会ってみます\nティルフィングと"
	}
]