[
	{
		"ID": 3101365,
		"script": ";;ゴーレムと戦闘時\n# script \"lisp\"\n# body 823004\n# pos 823004 3\n# scale 823004 0.8 0\n# mask 823004 off\n# body 900012\n# pos 900012 3\n# alpha 823004 0 0\n# scale 900012 0.8 0\n# mask 900012 off\n# serif 0\n# textwindow \"close\"\n# waitandnext 0.1\n\n;;ゴーレムが大将の位置まで動いて殴ったようにみえる演出\n# serif 1\n# textwindow \"toge\"\n# textflame 1 1\n# textboxarrow 1 2\n# chara 900012\n@ゴーレム\nタアアアアアイショオオオオオオオオ\n\n# se \"SE_5612\"\n# envbody 1000 12 0\n# effectpattern 1000 1 0\n# effectstart 1000\n# shake 0 1\n# waitandnext 1\n\n# leftout 900012 0.5\n# alpha 900012 0 0.5\n# waitandnext 1\n\n# alpha 823004 1 0.5 \n# effectskip 1000\n# serif 1\n# textwindow \"close\"\n# serif 0\n# textwindow \"nomal\"\n# textflame 1 1\n# voice 9994 \"izokutaisho_0086\"\n# textboxarrow 0 2\n@大将\nえ、、めっちゃ本気やんー！\n強そうやの！！\nやけど、タダではやらせへんぞ！\n"
	}
]