[
	{
		"ID": 3132003,
		"script": "# script \"lisp\"\n# background \"colosseum_rise\"\n# bgmfile \"bgm047\" \"BgmRisecollabo001\" 0\n# body 301311\n# pos 301311 5\n# body 24\n# pos 24 1\n# body 0\n# pos 0 3\n# scale 0 0.7 0\n# textboxarrow 0 3\n# face 301311 \"surprise\"\n# voice 3013 \"ildana_0041\"\n# chara 301311\n@イルダーナ\nび、びっくりした…\nキミ達って強いのね！\n\n# face 24 \"happy2\"\n# serif 1\n# textboxarrow 1 1\n# voice 1014 \"tyrufing_0041\"\n# chara 24\n@ティルフィング\nアナタもなかなかやりますね\n\n# face 0 \"occur\"\n# serif 1\n# textboxarrow 1 2\n# voice 9999 \"durin_navi_1108\"\n# chara 0\n@デュリン\nこっちはキラープリンセスだもの\n当たり前でしょ！\nで？アンタ何者なの？\n\n# face 301311 \"normal\"\n# serif 0\n# textboxarrow 0 3\n# voice 3013 \"ildana_kyara_1001\"\n# chara 301311\n@イルダーナ\n私はイルダーナ\n周りを囲まれちゃったから\nみんな敵だと思って…\n\n# voice 3013 \"ildana_0004\"\n# face 301311 \"happy\"\n# chara 301311\n@イルダーナ\nだから、とりあえず\nやっつけようかなーって…えへ\n\n# face 0 \"angry\"\n# serif 1\n# textboxarrow 1 2\n# voice 9999 \"durin_0010\"\n# chara 0\n@デュリン\nはぁ！？\nアタシ達を\n異族と一緒にしないでよね！\n\n# face 301311 \"sad\"\n# serif 0\n# textboxarrow 0 3\n# voice 3013 \"ildana_0031\"\n# chara 301311\n@イルダーナ\nご、ごめんなさい～！\n\n# face 24 \"happy\"\n# serif 1\n# textboxarrow 1 1\n# chara 24\n@ティルフィング\nイルダーナさん\n誤解もとけましたし気にしてませんよ\n大丈夫です！\n\n# face 24 \"normal\"\n# serif 1\n# textboxarrow 1 1\n# voice 1014 \"tyrufing_kyara_1001\"\n# chara 24\n@ティルフィング\nああ、挨拶が遅れましたね\n私はティルフィング\nこっちがデュリンです\n\n# voice 3013 \"ildana_event_1003\"\n# face 301311 \"happy\"\n# serif 0\n# textboxarrow 0 3\n# chara 301311\n@イルダーナ\nティルフィングちゃんに\nデュリンちゃん！\nよろしくね！\n\n# face 301311 \"normal\"\n# voice 3013 \"ildana_0002\"\n# chara 301311\n@イルダーナ\nねぇ、ここらへんにいる幻獣は\nなんなの？\n初めて見たんだけど\n\n# face 24 \"normal\"\n# serif 1\n# textboxarrow 1 1\n# chara 24\n@ティルフィング\n異族のことですね\nこの世界で私達が戦うべき敵です\n\n# face 0 \"normal\"\n# serif 1\n# textboxarrow 1 2\n# chara 0\n@デュリン\n人間に憑りついたりする、\nやっかいなヤツなのよ…\n\n# serif 0\n# textboxarrow 0 3\n# voice 3013 \"ildana_0032\"\n# chara 301311\n@イルダーナ\n異族…か、なるほどね\n\n# face 301311 \"sad\"\n# voice 3013 \"ildana_0036\"\n# chara 301311\n@イルダーナ\nねぇ、お願い！\n私もキミ達の仲間にいれてくれない？\n\n# chara 301311\n@イルダーナ\nこの世界で、\nもうちょっと腕試ししたいんだけど、\nわからないことだらけじゃない…\n\n# voice 3013 \"ildana_0042\"\n# chara 301311\n@イルダーナ\n…ダメかな？\n\n# face 0 \"occur\"\n# serif 1\n# textboxarrow 1 2\n# voice 9999 \"durin_0040\"\n# chara 0\n@デュリン\n…だってさ\nアンタ、どーすんの？\n\n# select \"しょうがない、乗りかかった船だ\" \"select_label_end\" \"困ったときはお互い様だろ？\" \"select_label_end\" \"モチロンさ！協力しよう\" \"select_label_end\"\n…だってさ\nアンタ、どーすんの？\n\n# face 24 \"happy\"\n# label \"select_label_end\"\n# serif 1\n# textboxarrow 1 1\n# voice 1014 \"tyrufing_0005\"\n# chara 24\n@ティルフィング\nマスター…！\n良かったですね、イルダーナさん！\n\n# face 301311 \"happy\"\n# serif 0\n# textboxarrow 0 3\n# voice 3013 \"ildana_0006\"\n# chara 301311\n@イルダーナ\n本当っ！？ありがとう！\nこれからよろしくね！"
	}
]