[
	{
		"ID": 3191001,
		"script": "# script \"lisp\"\n# background \"antiquity\"\n# se \"SE_0630\"\n# bgmfile \"bgm059\" \"BgmMMcollabo001\" 0\n# face 501411 \"surprise\"\n;;マミ準備\n# body 501411\n# pos 501411 1\n;;ほむら準備\n# body 501311\n# pos 501311 3\n# face 501311 \"surprise\"\n;;QB準備\n# body 8\n# pos 8 5\n;;地面揺らす\n# shake 0 3\n# textboxarrow 0 1\n# chara 501411\n# voice 9942 \"fok_collabo1_0189_mami\"\n@巴マミ\nなに？\n\n# serif 0\n# textboxarrow 0 3\n# chara 8\n# voice 9942 \"fok_collabo1_0190_kyube\"\n@キュゥべえ\n…来たか\n\n# serif 1\n# textboxarrow 1 2\n# chara 501311\n# voice 9942 \"fok_collabo1_0191_homura\"\n# face 501311 \"amazed\"\n@暁美ほむら\n？\n\n# fillrect \"blue\" 1 0.1 0.3\n# se \"SE_0621\"\n# shakeloop 1\n# waitandnext 1\n\n# se \"SE_0631\"\n# shakestop\n# fillrect \"blue\" 0 0 0\n# serif 0\n# textboxarrow 0 1\n# chara 501411\n# voice 9942 \"fok_collabo1_0192_mami\"\n@巴マミ\nこれって…\n\n# serif 1\n# textboxarrow 1 2\n# chara 501311\n# voice 9942 \"fok_collabo1_0193_homura\"\n# face 501311 \"surprise\"\n@暁美ほむら\nワルプルギスの…夜！\n\n# serif 0\n# textboxarrow 0 1\n# chara 501411\n# voice 9942 \"fok_collabo1_0194_mami\"\n# face 501411 \"sad1\"\n@巴マミ\nなんで？\n\n# serif 0\n# textboxarrow 0 3\n# chara 8\n# voice 9942 \"fok_collabo1_0195_kyube\"\n@キュゥべえ\n僕は全部見ていた\n君達がこの世界に来たときから\n\n# serif 0\n# textboxarrow 0 3\n# chara 8\n# voice 9942 \"fok_collabo1_0196_kyube\"\n@キュゥべえ\nこの世界に迷い込んだのは\n君達だけじゃない\n\n# serif 0\n# textboxarrow 0 3\n# chara 8\n# voice 9942 \"fok_collabo1_0197_kyube\"\n@キュゥべえ\n君達と同時に、\nワルプルギスの夜も\nこの世界にやってきたんだ\n\n# serif 1\n# textboxarrow 1 1\n# chara 501411\n# voice 9942 \"fok_collabo1_0198_mami\"\n# face 501411 \"sad2\"\n@巴マミ\nそんな…\n\n;;ティルフィングとデュリンがやって来る。\n;;QB退場\n# alpha 8 0 0.5\n;;ティル準備\n# body 101411\n# pos 101411 5\n# layer 101411 4\n# scale 101411 0.9 0\n# rightin 101411 0.5\n# body 0\n# pos 0 4\n# layer 0 1\n# scale 0 0.6 0\n# rightin 0 0.5\n;;ティル台詞\n# serif 0\n# textboxarrow 0 3\n# chara 101411\n# voice 9942 \"fok_collabo1_0199_tyrufing\"\n# face 101411 \"angry\"\n@ティルフィング\n皆さん、大丈夫ですか？\n\n# serif 1\n# textboxarrow 1 1\n# chara 501411\n# voice 9942 \"fok_collabo1_0200_mami\"\n# face 501411 \"sad1\"\n@巴マミ\nええ\n\n# serif 0\n# textboxarrow 0 3\n# chara 0\n# voice 9942 \"fok_collabo1_0202_durin\"\n# face 0 \"sad\"\n@デュリン\nなによあれ…\nあんな異族、見たことない\n\n# serif 1\n# textboxarrow 1 2\n# chara 501311\n# voice 9942 \"fok_collabo1_0202_homura\"\n# face 501311 \"amazed\"\n@暁美ほむら\nあれは異族じゃない\n\n# serif 0\n# textboxarrow 0 1\n# chara 501411\n# voice 9942 \"fok_collabo1_0203_mami\"\n# face 501411 \"sad2\"\n@巴マミ\n最悪で…最強の、魔女よ\n\n# serif 1\n# textboxarrow 1 3\n# chara 101411\n# voice 9942 \"fok_collabo1_0204_tyrufing\"\n@ティルフィング\n魔女？\n\n# serif 0\n# textboxarrow 0 2\n# chara 501311\n# voice 9942 \"fok_collabo1_0205_homura\"\n# face 501311 \"angry\"\n@暁美ほむら\n行きましょう\n\n# serif 1\n# textboxarrow 1 1\n# chara 501411\n# voice 9942 \"fok_collabo1_0206_mami\"\n# face 501411 \"sad1\"\n@巴マミ\nええ"
	}
]