[
	{
		"ID": 3200403,
		"script": ";;背景　plain_evening\n# script \"lisp\"\n# background \"plain_evening\"\n# bgm \"bgm031\" 0\n;;ティル準備\n# body 101411\n# pos 101411 4\n# scale 101411 0.9 0\n# layer 101411 4\n# face 101411 \"sad\"\n;;制服ティル準備\n# body 101441\n# pos 101441 2\n# scale 101441 0.9 0\n# layer 101441 4\n# imageset 2 \"bg_black_circle\"\n# imagepos 2 0 0\n# imagealpha 2 0 0\n# imagescale 2 1.5 0\n# face 101441 \"angry1\"\n# se \"SE_4815\"\n# fadein \"red\" 1.5\n# textwindow \"close\"\n# waitandnext 1\n\n;;消滅する、イミテーションのティルフィング。\n# alpha 101411 0 1\n# se \"SE_0634\"\n# waitandnext 1\n\n# move 101441 3 0.6\n# waitandnext 1\n\n;;それと同時に制服ティルの衣装がノーマルになる（同一化）\n# fadein \"white\" 2.5\n# move 101411 3 0\n# alpha 101411 1 1\n# leftout 101441 0\n# face 101411 \"normal\"\n# se \"SE_0634\"\n# waitandnext 1\n\n# textwindow \"nomal\"\n# move 101411 1 0.5\n# body 501311\n# pos 501311 3\n# rightin 501311 0.5\n# body 501411\n# pos 501411 5\n# rightin 501411 0.5\n# serif 0\n# textboxarrow 0 3\n# chara 501411\n# voice 9940 \"fok_collabo3_0100_mami\"\n# face 501411 \"sad1\"\n# face 501311 \"angry\"\n@巴マミ\nなんてことするの！\n\n# serif 1\n# textboxarrow 1 2\n# chara 501311\n# voice 9940 \"fok_collabo3_0101_homura\"\n@暁美ほむら\n…許せない\nよくも、ティルフィングを！\n\n# move 501311 5 0.5\n# rightout 501411 0.5\n# body 401111\n# pos 401111 3\n# leftin 401111 0.5\n# body 301511\n# pos 301511 1\n# leftin 301511 0.5\n# leftout 101411 0.5\n# serif 0\n# textboxarrow 0 1\n# textboxarrow 1 0\n# chara 301511\n# voice 9940 \"fok_collabo3_0102_kyoko\"\n# face 301511 \"angry\"\n# face 401111 \"worry\"\n@佐倉杏子\nおい！\n\n# serif 1\n# textboxarrow 1 2\n# chara 401111\n# voice 9940 \"fok_collabo3_0103_madoka\"\n@鹿目まどか\n待って！ほむらちゃん！\n\n# serif 0\n# textboxarrow 0 3\n# chara 501311\n# voice 9940 \"fok_collabo3_0104_homura\"\n# face 501311 \"amazed\"\n@暁美ほむら\n…なぜ、邪魔するの？\n\n# serif 1\n# textboxarrow 1 2\n# chara 401111\n# voice 9940 \"fok_collabo3_0105_madoka\"\n@鹿目まどか\nほむらちゃん、思い出して\n私はあなたに呼ばれてきた\nあなたとマミさんは…魔法少女だよ\n\n# serif 0\n# textboxarrow 0 3\n# chara 501311\n# voice 9940 \"fok_collabo3_0106_homura\"\n# face 501311 \"surprise\"\n@暁美ほむら\n魔法少女…\n\n# leftout 301511 0.5\n# move 401111 1 0.5\n# move 501311 3 0.5\n# pos 501411 5\n# rightin 501411 0.5\n# serif 1\n# textboxarrow 1 3\n# textboxarrow 0 0\n# chara 501411\n# voice 9940 \"fok_collabo3_0107_mami\"\n# face 501411 \"sad2\"\n@巴マミ\nなによそれ。\n私達は、キラ…\n\n#se \"SE_0623\"\n;;マミとほむらの脳裏に、かつて魔法少女だった頃の記憶が過ぎる。※何かアニメのキャプチャ\n;;フラッシュ\n# textboxarrow 1 0\n# fadein \"white\" 0.5\n# background \"cake\"\n# imagepos 2 0 0\n# imagealpha 2 1 0\n;;お菓子の魔女準備、表示\n# body 900021\n# pos 900021 3\n# move 501311 1 0\n# move 501411 5 0\n# alpha 401111 0 0\n# textwindow \"close\" \n# face 501411 \"normal\"\n# face 501311 \"angry\"\n# waitandnext 1\n\n# imagepos 2 0 0\n# imagealpha 2 0 0\n# background \"plain_evening\"\n# fadein \"white\" 0.5\n# alpha 401111 1 0\n# alpha 501311 1 0\n# move 501311 3 0\n# move 501411 5 0\n# alpha 900021 0 0\n# serif 1\n# textboxarrow 1 3\n# chara 501411\n# voice 9940 \"fok_collabo3_0108_mami\"\n# face 501311 \"surprise\"\n# face 501411 \"surprise\"\n@巴マミ\n私達は…魔法少女…\n\n# textwindow \"nomal\"\n# serif 0\n# textboxarrow 0 1\n# chara 401111\n# voice 9940 \"fok_collabo3_0109_madoka\"\n# face 401111 \"usual\"\n@鹿目まどか\nそう\n\n# serif 1\n# textboxarrow 1 2\n# chara 501311\n# voice 9940 \"fok_collabo3_0110_homura\"\n# face 501311 \"happy\"\n@暁美ほむら\nまどか…\n\n# serif 0\n# textboxarrow 0 1\n# chara 401111\n# voice 9940 \"fok_collabo3_0111_madoka\"\n# face 401111 \"happy\"\n@鹿目まどか\n思い出してくれたんだね…\n\n# serif 1\n# textboxarrow 1 3\n# chara 501411\n# voice 9940 \"fok_collabo3_0112_mami\"\n# face 501411 \"sad1\"\n@巴マミ\nでも、ティルフィングさんが…"
	}
]