[
	{
		"ID": 320021212,
		"script": ";;-----------------------------------------\n;;アイムール2-1　　　　　　　　　　　　　　　　　　　　\n;;-----------------------------------------\n# script \"lisp\"\n# background \"plain\"\n# bgmfile \"bgm270\" \"BgmLostRagnarokEvent\" 0\n;;-----------------------------------------\n;;アイムール\n# body 3200211\n# pos 3200211 3\n# scale 3200211 0.8 0\n# layer 3200211 3\n# mask 3200211 off\n# alpha 3200211 1 0\n;;-----------------------------------------\n# imageset 0 \"black\"\n# imagealpha 0 0 0\n# imagelayer 0 1\n;;-----------------------------------------\n;;背景：「背景６：平原」\n# textflame 1 1\n# textboxarrow 0 2\n@アイムール\n…私は武器です。\n目の前の敵を駆逐し捕食する\n捕食者とも呼ばれていました\n\n# textflame 0 0\n@\n昔話を終えたアイムールは、\nはっきりとした口調で、\nマスターにそう告げる\n\n# textflame 1 1\n# textboxarrow 0 2\n@アイムール\n戦いの中でしか、\n敵の魂を食らうことでしか、\n私の飢えは満たされません\n\n# voice 320021 \"aimuru_a_0001\"\n# textflame 1 1\n# textboxarrow 0 2\n@アイムール\nですから、マスター\n戦闘のご命令をください\n\n# textflame 1 1\n# textboxarrow 0 2\n@アイムール\n終わることなく繰り返される\n煉獄の中にいれば、\n私は飢えを忘れられるのです\n\n# textflame 0 0\n@\n彼女の言葉から伝わってくるのは、\n冷静ではあるが、どこか悲痛な想い\n\n# textflame 0 0\n@\n話を聞き終えたマスターは\nすっと立ち上がった\n\n# face 3200211 \"surprise\"\n# voice 320021 \"aimuru_a_0023\"\n# textflame 1 1\n# textboxarrow 0 2\n@アイムール\nマスター？\nどうなさったのですか\n急に立ち上がったりして\n\n# textflame 0 0\n@\n小首を傾げるアイムール\nマスターはそんな彼女の手を引いて\nどこかへと歩き始める\n\n# textflame 1 1\n# textboxarrow 0 2\n@アイムール\nま、マスター？\nどこに連れて行くおつもりですか？\n\n# textflame 0 0\n@\n困惑するアイムールに向かって、\n連れて行きたい場所があるんだ\nと、微笑むマスター\n\n# face 3200211 \"sad\"\n# voice 320021 \"aimuru_a_0002\"\n# textflame 1 1\n# textboxarrow 0 2\n@アイムール\nご命令とあれば従いますが…\nあ、あの…お手を繋がなくても\n進めるのでは…\n\n# alpha 3200211 0 0.5\n# textflame 0 0\n@\nアイムールは戸惑いの表情を\n浮べながらも、導かれるままに\nマスターの後ろをついていくのだった\n\n;;背景：「背景８：街中その２」\n# imagealpha 0 1 0\n# imagepos 0 0 30\n# imageleftin 0 0.5\n# textwindow \"close\"\n# waitandnext 0.5\n\n# background \"006_town\"\n# waitandnext 0.2\n\n# imagealpha 0 0 0.5\n# imagerightout 0 0.5\n# waitandnext 0.5\n\n# serif 0\n# textwindow \"nomal\"\n# textflame 0 0\n@\nほどなくして町に着く\nマスターはアイムールに尋ねる\nこの町は何色に見える、と\n\n# alpha 3200211 1 0.5\n# face 3200211 \"normal\"\n# textflame 1 1\n# textboxarrow 0 2\n@アイムール\n…黒と灰色と白色です\nそれが何か…？\n\n# textflame 0 0\n@\nじゃあ、これは何？\n今度は、民家に飾られた\n花壇を示すマスター\n\n# voice 320021 \"aimuru_a_0002\"\n# textflame 1 1\n# textboxarrow 0 2\n@アイムール\n…それは植物です\nあの…さっきから何がしたいのか\nわかりかねます、マスター\n\n# textflame 0 0\n@\n青い色の花、とても綺麗なんだよ\nマスターは小さな花を指して、\nアイムールにそう伝える\n\n# textflame 1 1\n# textboxarrow 0 2\n@アイムール\n…そうですか\n\n# textflame 0 0\n@\nこっちの花は黄色い\n太陽みたいで素敵だと思わない？\nと、続けるマスター\n\n# face 3200211 \"sad\"\n# textflame 1 1\n# textboxarrow 0 2\n@アイムール\nいえ…私はそうは思えません\n\n# textflame 1 1\n# textboxarrow 0 2\n@アイムール\n…なぜこのような場所に\nつれてきたのですか？\n私は斬ル姫、戦う存在です\n\n# voice 320021 \"aimuru_a_0001\"\n# textflame 1 1\n# textboxarrow 0 2\n@アイムール\n戦いをください\n出陣の命令をください、マスター\n\n# textflame 0 0\n@\nそう訴えるアイムールに、\nなおもマスターは\n花を示そうとするが…\n\n# face 3200211 \"angry\"\n# textflame 1 1\n# textboxarrow 0 2\n@アイムール\n無駄です、マスター\n私には、無駄なのです\n\n# textflame 0 0\n@\nアイムールは顔をしかめる\n彼女はマスターの感情に触れて\n嫌悪感を露わにしていた\n\n# textflame 1 1\n# textboxarrow 0 2\n@アイムール\nあなたのような人に出会い\n私はむしろ思い知っております\n\n# face 3200211 \"sad\"\n# textflame 1 1\n# textboxarrow 0 2\n@アイムール\n私の心には、穴があるのです\n暗くて深い、冷たく乾いて\nぽっかりと空いた、穴があるのです\n\n# textflame 1 1\n# textboxarrow 0 2\n@アイムール\nだから相対する敵の魂を奪い\nこの飢えを、乾きを\n満たそうとしてきました\n\n# face 3200211 \"angry\"\n# textflame 1 1\n# textboxarrow 0 2\n@アイムール\nこんな花なんかで\n私の飢えが満たされるわけが…\n\n# textflame 0 0\n@\nかぶりを振るアイムールに向かって\n諭すようにマスターは一輪の花を示す\n\n# textflame 0 0\n@\nこれは赤い色の花だよ\n君の髪の色と同じで\nとても綺麗な色の花なんだ、と\n\n# face 3200211 \"sad\"\n# voice 320021 \"aimuru_a_0015\"\n# textflame 1 1\n# textboxarrow 0 2\n@アイムール\n…キレイ？\nさきほどからマスターがおっしゃる\n「キレイ」がわかりません\n\n# textflame 0 0\n@\nそれでも教える\n「キレイ」とは\n心が満たされることなんだよ、と\n\n# textflame 1 1\n# textboxarrow 0 2\n@アイムール\n心が…満たされる…？\nこの渇きが、飢えが、\n満たされるというのですか…\n\n# alpha 3200211 0 0.5\n# textflame 0 0\n@ \nマスターの言葉を受けて\nアイムールはふと想像する\n\n# textflame 0 0\n@\nもし、もっと前からマスターと\n出会えていたのなら\n\n# textflame 0 0\n@\n血塗られた過去も、\nマスターと一緒ならば\n何か変わったのではないか、と…\n\n# textflame 0 0\n@\nアイムールはそっと目を閉じ、\n過去の闘争を思い出していた"
	}
]