[
	{
		"ID": 3201001,
		"script": ";;背景　wildland\n# script \"lisp\"\n# background \"walpurgis\"\n# bgm \"bgm031\" 0\n;;ティル準備\n# body 101411\n# pos 101411 2\n# scale 101411 0.9 0\n# layer 101411 4\n# face 101411 \"sad\"\n;;デュリン準備\n# body 0\n# pos 0 4\n# layer 0 1\n# face 0 \"sad\"\n;;黒準備\n# imageset 1 \"bg_black\"\n# imagepos 1 0 0\n# imagealpha 1 0 0\n# imagelayer 1 6\n;;デュリン台詞\n# serif 0\n# textboxarrow 0 3\n# chara 0\n# voice 9940 \"fok_collabo3_0183_durin\"\n@デュリン\n見える？\nあの魔女の背負っている呪いと悲しみ\n\n# serif 1\n# textboxarrow 1 1\n# chara 101411\n# voice 9940 \"fok_collabo3_0184_tyrufing\"\n@ティルフィング\nええ\n\n# serif 0\n# textboxarrow 0 3\n# chara 0\n# voice 9940 \"fok_collabo3_0185_durin\"\n@デュリン\n残念だけど…\n魔法少女達はあの魔女に勝てないわ\n\n# rightout 0 0.7\n# rightout 101411 0.7\n# textboxarrow 0 0\n# textboxarrow 1 0\n# waitandnext 1\n\n# body 501411\n# pos 501411 5\n# face 501411 \"sad1\" \n# leftin 501411 0.7\n# body 401111\n# pos 401111 3\n# face 401111 \"sad\"\n# leftin 401111 0.7\n# body 501311\n# pos 501311 1\n# face 501311 \"sad\"\n# leftin 501311 0.7\n# serif 1\n# textboxarrow 1 3\n# chara 501411\n# voice 9940 \"fok_collabo3_0186_mami\"\n@巴マミ\nどうして…勝てないの？\n\n# serif 0\n# textboxarrow 0 2\n# chara 401111\n# voice 9940 \"fok_collabo3_0187_madoka\"\n@鹿目まどか\nほむら、ちゃん…\n\n# pos 101411 5\n# alpha 101411 0 0\n# serif 1\n# textboxarrow 1 1\n# chara 501311\n# voice 9940 \"fok_collabo3_0188_homura\"\n# face 501311 \"angry\"\n@暁美ほむら\n大丈夫よ、まどか…\n\n# alpha 501411 0 0.5\n# alpha 101411 1 0.5\n# serif 0\n# textboxarrow 0 3\n# chara 101411\n# voice 9940 \"fok_collabo3_0189_tyrufing\"\n# face 101411 \"angry\"\n@ティルフィング\n…ようやく分かりました\n\n# serif 1\n# textboxarrow 1 1\n# chara 501311\n# voice 9940 \"fok_collabo3_0190_homura\"\n# face 501311 \"amazed\"\n@暁美ほむら\n…？\n\n# serif 0\n# textboxarrow 0 3\n# chara 101411\n# voice 9940 \"fok_collabo3_0191_tyrufing\"\n@ティルフィング\n私がほむらさんの代わりに\n時を超えた理由…\nなぜ私が皆さんと出会ったのか\n\n# serif 1\n# textboxarrow 1 1\n# chara 501311\n# voice 9940 \"fok_collabo3_0192_homura\"\n# face 501311 \"sad\"\n@暁美ほむら\n…………\n\n# serif 0\n# textboxarrow 0 3\n# chara 101411\n# voice 9940 \"fok_collabo3_0193_tyrufing\"\n# face 101411 \"sad\"\n@ティルフィング\n私にとっての日常…\nそれを悲しみであり\n因果であると教えてくれた\n\n# serif 0\n# textboxarrow 0 3\n# chara 101411\n# voice 9940 \"fok_collabo3_0194_tyrufing\"\n# face 101411 \"normal\"\n@ティルフィング\nそしてなにより、\n救われるよう祈ってくれた\n\n# serif 1\n# textboxarrow 1 2\n# chara 401111\n# voice 9940 \"fok_collabo3_0195_madoka\"\n# face 401111 \"cry\"\n@鹿目まどか\nティルちゃん…\n\n# serif 0\n# textboxarrow 0 3\n# chara 101411\n# voice 9940 \"fok_collabo3_0196_tyrufing\"\n@ティルフィング\nあまたの呪いを受け続けた魔女には、\nその呪い以上に淘汰を重ね…\n\n# serif 0\n# textboxarrow 0 3\n# chara 101411\n# voice 9940 \"fok_collabo3_0197_tyrufing\"\n@ティルフィング\n莫大な因果を背負っている\n私しか勝てない\n…私が倒します\n\n# move 101411 4 0.5\n# leftout 401111 0.5\n# leftout 501311 0.5\n# waitandnext 0.5\n\n# move 401111 2 0.5\n# serif 1\n# textboxarrow 1 1\n# chara 401111\n# voice 9940 \"fok_collabo3_0198_madoka\"\n@鹿目まどか\nだけど一人じゃ…\n\n# serif 0\n# textboxarrow 0 3\n# chara 101411\n# voice 9940 \"fok_collabo3_0199_tyrufing\"\n@ティルフィング\n私は一人じゃありません\nあまたの想いが、悲しみが、祈りが…\nこの身体には宿っています\n\n;;フェードアウト\n# imagepos 1 0 0\n# imagealpha 1 1 1\n# waitandnext 1\n\n# textboxarrow 1 0\n;;フェードイン\n# imagepos 1 0 0\n# imagealpha 1 0 1\n;;ほむら、まどか、ティル、消す\n# alpha 401111 0 0\n# alpha 501311 0 0\n# alpha 101411 0 0\n;;画面ゆらす\n# shakeloop 1\n;;ワルプル準備\n# body 900022\n# pos 900022 3\n;;から台詞\n# serif 0\n# textwindow \"close\"\n# serif 1\n# textwindow \"close\"\n# waitandnext 2\n\n;;SE　ワルプルギスの夜が、ディメンションホールをこじ開けようとしている音\n# flush \"white\" 0.2 2\n# se \"SE_0639\"\n# sedelay \"SE_0631\" 0.2\n# fillrect \"green\" 1 0 0.3\n# waitandnext 0.5\n\n;;フェードイン\n# imagepos 1 0 0\n# imagealpha 1 1 1\n# fillrect \"green\" 1 0 0\n# waitandnext 1\n\n# imagepos 1 0 0\n# imagealpha 1 0 1\n;;ほむら、まどか、ティル、だす\n# alpha 401111 1 0\n# alpha 501311 1 0\n# alpha 101411 1 0\n;;ワルプル消す\n# alpha 900022 0 0\n;;画面止める\n# shakestop\n# serif 1\n# textwindow \"nomal\"\n# textboxarrow 1 3\n# chara 101411\n# voice 9940 \"fok_collabo3_0200_tyrufing\"\n# face 101411 \"angry\"\n@ティルフィング\n私が皆さんを\n無事、元の世界に帰します\n\n# serif 1\n# textboxarrow 1 3\n# chara 101411\n# voice 9940 \"fok_collabo3_0201_tyrufing\"\n@ティルフィング\n私があれを倒した瞬間、\nディメンションホールに\n飛び込んでください\n\n# serif 1\n# textboxarrow 1 3\n# chara 101411\n# voice 9940 \"fok_collabo3_0202_tyrufing\"\n@ティルフィング\nそれくらいの猶予はあるはずです\n\n# textwindow \"nomal\"\n# serif 0\n# textboxarrow 0 1\n# chara 401111\n# voice 9940 \"fok_collabo3_0203_madoka\"\n@鹿目まどか\nティルちゃん\n\n# serif 1\n# textboxarrow 1 3\n# chara 101411\n# voice 9940 \"fok_collabo3_0204_tyrufing\"\n# face 101411 \"smile\"\n@ティルフィング\nありがとう…まどか…ちゃん\n\n# serif 0\n# textboxarrow 0 1\n# chara 401111\n# voice 9940 \"fok_collabo3_0205_madoka\"\n# face 401111 \"worry\"\n@鹿目まどか\nティルちゃん！！"
	}
]