[
	{
		"ID": 320293212,
		"script": ";;-----------------------------------------\n;;【ファントムオブキル_Re:ゼロコラボ】レムウェディングVer.\n;;【EP2】戦闘前\n;;スクリプト最後の背景：草原\n;;背景：草原\n;;-----------------------------------------\n# script \"lisp\"\n# background \"plain\"\n# bgmfile \"bgm270\" \"BgmLostRagnarokEvent\" 0\n;;-----------------------------------------\n;;レムウェディング\n# body 3202931\n# pos 3202931 3\n# scale 3202931 0.8 0\n# layer 3202931 2\n# alpha 3202931 0 0\n# mask 3202931 off\n;;-----------------------------------------\n;;【EP2】\n;;背景：草原など\n;;演出：レムウェディング衣装\n;;モノローグ\n# move 3202931 3 0\n# face 3202931 \"usual\"\n# alpha 3202931 1 0\n# mask 3202931 off\n# textflame 0 0\n@\nウェディングドレスに身を包んだ\nレムと一緒に歩くという\n異様な状況に混乱するマスター\n\n# face 3202931 \"sad\"\n# textflame 1 1\n# textboxarrow 0 2\n@レム\nあの女性に言われるがままに\nきてしまいましたが…\nレムは頭が追いついていません…\n\n;;モノローグ\n# textflame 0 0\n@\n自分もだとマスターも返す\n\n# voice 320293 \"remu_0002\"\n# face 3202931 \"usual\"\n# textflame 1 1\n# textboxarrow 0 2\n@レム\nそもそもマスター様は\nどこへ行こうとしていたのですか？\n\n;;モノローグ\n# textflame 0 0\n@\n状況が状況なのでと答えるマスター\nだが、それはおばさんが示した\n行先と同じものだった\n\n;;モノローグ\n@\nこの先には\nそれはそれは見事な花畑が\nあるらしくそこへ向かっていたのだ\n\n# textflame 1 1\n# textboxarrow 0 2\n@レム\nでも、あの女性は\n関係ないんですよね…\n\n;;モノローグ\n# textflame 0 0\n@\nあくまでレムの気分転換になれば\nそう考えていただけのこと\nこの状況は想定外だとマスター\n\n# textflame 1 1\n# textboxarrow 0 2\n@レム\nマスター様は嘘を言うような方じゃ\nありませんし…\n\n# textboxarrow 0 2\n@レム\nそれに、レムのことを\n考えてくださってのことなら\nなおさら疑う訳にいきませんね\n\n;;モノローグ\n# textflame 0 0\n@\n納得はできないが\nレムはマスターを信頼しているようだ\n\n# serif 1\n@おばさん\nあ、あんたたち～！\n\n;;モノローグ\n# textflame 0 0\n@\nおばさんが\n息を切らせながら\nマスター達を走って追ってきた\n\n# voice 320293 \"remu_0022\"\n# face 3202931 \"surprise\"\n# textflame 1 1\n# textboxarrow 0 2\n@レム\nあれ、さっきの…\n\n# serif 1\n@おばさん\nご、ごめんなさいね\nあたしったら勘違いしてたみたい！\n\n;;演出：時間経過の暗転\n# serif 1\n# textwindow \"close\"\n# serif 0\n# textwindow \"close\"\n# fadeout \"black\" 1\n# waitandnext 1.2\n\n# move 3202931 3 0\n# face 3202931 \"usual\"\n# alpha 3202931 1 0\n# mask 3202931 off\n# waitandnext 0.2\n\n# fadein \"black\" 1\n# waitandnext 1\n\n# voice 320293 \"remu_0040\"\n# textboxarrow 0 2\n# textwindow \"normal\"\n@レム\nなるほど、本当はレム達ではなく\nここで結婚式を挙げる予定の\n方達がいたんですね\n\n;;モノローグ\n# textflame 0 0\n@\n花畑の美しさから\nこの時期はこの辺りで式を挙げよう\nという夫婦が多いらしい\n\n# serif 1\n@おばさん\nあまりにかわいい子だったから\nつい間違えちゃったんだよ\nごめんねぇ～\n\n;;モノローグ\n# textflame 0 0\n@\nドレスを着てさらにかわいくなった\nレムを見たマスターは\n仕方ないですね、とおばさんに返す\n\n# voice 320293 \"remu_0008\"\n# face 3202931 \"angry\"\n# textflame 1 1\n# textboxarrow 0 2\n@レム\nどさくさに紛れて\nレムをからかわないでください\n\n# serif 1\n@おばさん\nあははっ、あんた達見てると\n少しは気が晴れるよ…\n\n# face 3202931 \"usual\"\n# textboxarrow 0 2\n@レム\n…何かあったんですか？\n\n# serif 1\n@おばさん\nちょっとねぇ…\n\n;;モノローグ\n# serif 1\n# textwindow \"close\"\n# serif 0\n# textflame 0 0\n@\nおばさんの話では、ここ数年\n兵士が見回りに来るようになり\n最近は人があまり訪れないのだという\n\n# serif 1\n@おばさん\n花畑も踏み荒らされちまうしねぇ\n今年はまだ平気みたいだから\n式があるなら早くって思って\n\n# face 3202931 \"smile\"\n# textflame 1 1\n# textboxarrow 0 2\n@レム\nだから早とちりなさって…\nですが、素敵なドレスです\nレムは少しだけ幸運でしたね\n\n# serif 1\n@おばさん\nそう言ってくれると\nありがたいねぇ\n\n;;モノローグ\n# serif 1\n# textwindow \"close\"\n# serif 0\n# textflame 0 0\n@\nひとまず事情はわかったが\nおばさんの話を聞いて\n何かできないかと考えるマスター\n\n# face 3202931 \"normal\"\n# textflame 1 1\n# textboxarrow 0 2\n@レム\nマスター様…\nレムも、お手伝いさせてください！\n\n;;モノローグ\n# textflame 0 0\n@\n丁度その時！\n森から現れた兵士が\n花畑へ向けて駆けていくのが見えた\n\n# face 3202931 \"angry\"\n# textflame 1 1\n# textboxarrow 0 2\n@レム\n噂をすれば、ですね\nとにかくあの兵士の方を\n止めにいきましょうマスター様！"
	}
]