[
	{
		"ID": 320293211,
		"script": ";;-----------------------------------------\n;;【ファントムオブキル_Re:ゼロコラボ】レムウェディングVer.\n;;【EP1】\n;;スクリプト最後の背景：草原\n;;背景：拠点・昼\n;;-----------------------------------------\n# script \"lisp\"\n# background \"006_church\"\n# bgmfile \"bgm270\" \"BgmLostRagnarokEvent\" 0\n;;-----------------------------------------\n;;レム\n# body 3202911\n# pos 3202911 3\n# scale 3202911 0.8 0\n# layer 3202911 2\n# alpha 3202911 0 0\n# mask 3202911 off\n;;レムウェディング\n# body 3202931\n# pos 3202931 3\n# scale 3202931 0.8 0\n# layer 3202931 2\n# alpha 3202931 0 0\n# mask 3202931 off\n;;-----------------------------------------\n;;【EP1】\n;;背景：拠点・昼\n;;演出：レム通常衣装\n# move 3202911 3 0\n# face 3202911 \"sad\"\n# alpha 3202911 1 0\n# mask 3202911 off\n# textflame 1 1\n# textboxarrow 0 2\n@レム\n…………\n\n;;モノローグ\n# textflame 0 0\n@\n違う世界からやってきたというレム\nその状況のせいか、不安そうな\n顔をしていることが多い\n\n# face 3202911 \"surprise\"\n# textflame 1 1\n# textboxarrow 0 2\n@レム\nあっ、マスター様がいらしたのに\n気付かなくてすみません…\n\n;;モノローグ\n# textflame 0 0\n@\nここ数日、レムはずっと\nこんな調子だ\n\n# face 3202911 \"usual\"\n# textflame 1 1\n# textboxarrow 0 2\n@レム\n何か御用でしょうかマスター様\nレムにできることであれば\nお手伝いさせていただきますが…\n\n;;モノローグ\n# textflame 0 0\n@\nこの世界に来たのがレムひとりだけ\nという状況でない分マシではあるが\nやはり気になるマスター\n\n# voice 2029 \"remu_0002\"\n# face 3202911 \"sad\"\n# textflame 1 1\n# textboxarrow 0 2\n@レム\nあの…ずっと黙ったままですけど\nレム、何かしてしまいましたか？\n\n;;モノローグ\n# textflame 0 0\n@\n気分転換しよう！\nとマスターはレムに宣言する\n\n# voice 2029 \"remu_0022\"\n# face 3202911 \"surprise\"\n# textflame 1 1\n# textboxarrow 0 2\n@レム\nえ、ええっ、えっと\nあの、は、はい…っ！\n\n;;モノローグ\n# textflame 0 0\n@\nマスターの勢いに圧倒され\n思わず返事をしてしまうレムだった\n\n;;演出：移動の暗転\n# textwindow \"close\"\n# fadeout \"black\" 1\n# waitandnext 1.2\n\n# background \"plain\"\n# move 3202911 3 0\n# face 3202911 \"usual\"\n# alpha 3202911 1 0\n# mask 3202911 off\n# waitandnext 0.2\n\n# fadein \"black\" 1\n# waitandnext 1\n\n;;背景：草原など\n# voice 2029 \"remu_0028\"\n# textflame 1 1\n# textboxarrow 0 2\n# textwindow \"normal\"\n@レム\nマスター様これからどちらへ？\nそれより、どうしてレムを…\n\n;;選択肢\n# textflame 0 0\n;;@\n;;A　行きたいところがあるんだ！\n;;B　嫌だったかな？\n;;C　レムと一緒にいたかった\n# select \"行きたいところがあるんだ！\" \"select_label_01\" \"嫌だったかな？\" \"select_label_02\" \"レムと一緒にいたかった\" \"select_label_03\"\nマスター様これからどちらへ？\nそれより、どうしてレムを…\n\n;;アンサー\n;;A\n# label \"select_label_01\"\n# labeljump \"select_label_end\"\n# face 3202911 \"usual\"\n# textflame 1 1\n@レム\nご、ご一緒できて光栄です！？\n\n;;B\n# label \"select_label_02\"\n# labeljump \"select_label_end\"\n# face 3202911 \"sad\"\n# textflame 1 1\n@レム\nそんなことありませんが…\n\n;;C\n# label \"select_label_03\"\n# labeljump \"select_label_end\"\n# face 3202911 \"surprise\"\n# textflame 1 1\n@レム\n急にどうされたんですか？\n\n# label \"select_label_end\"\n# face 3202911 \"sad\"\n# textflame 1 1\n# textboxarrow 0 2\n@レム\nすんなり教えてくださる訳では\nなさそうですね…\nマスター様は時々いじわるです\n\n;;モノローグ\n# textflame 0 0\n@\nあまりからかってもいけない\nマスターはレムを元気づけたかった\nと話す\n\n# face 3202911 \"usual\"\n# textflame 1 1\n# textboxarrow 0 2\n@レム\nそう、ですか…\n元気がないように\n見えてしまいましたか…\n\n# textflame 1 1\n# textboxarrow 0 2\n@レム\nご心配をおかけするなんて\nメイドとして情けないです\n\n# voice 2029 \"remu_0034\"\n# textflame 1 1\n# textboxarrow 0 2\n@レム\nいえ、決して\nマスター様に不満がある\nということではありません\n\n# face 3202911 \"sad\"\n# textflame 1 1\n# textboxarrow 0 2\n@レム\nですが、結果的にご迷惑を\nそれはとても反省しています…\n\n;;モノローグ\n# textflame 0 0\n@\nそんなことはない、とマスター\nむしろもっと頼ってほしいと\nレムを諭す\n\n# voice 2029 \"remu_0004\"\n# face 3202911 \"happy\"\n# textflame 1 1\n# textboxarrow 0 2\n@レム\n…では、今度からはそうしますね\nマスター様はお優しい方です\n\n;;モノローグ\n# textflame 0 0\n@\nレムを元気づけられたかは\nわからないけれど、肩の荷は\n少し下ろしてあげられたようだ\n\n# face 3202911 \"usual\"\n# textflame 1 1\n# textboxarrow 0 2\n@レム\nところでマスター様\nどこへ向かっているかは\n本当に教えてもらえないんですか？\n\n;;モノローグ\n# textflame 0 0\n@\nまだ内緒、とマスター\n\n# face 3202911 \"angry\"\n# textflame 1 1\n# textboxarrow 0 2\n@レム\nやっぱり、訂正します\nマスター様はいじわるな方ですね\n\n;;モノローグ\n# voice 2029 \"remu_0006\"\n# face 3202911 \"happy\"\n# textflame 0 0\n@\nむくれるレムだが\n気が付くとマスターと顔を合わせ\nふたりして笑っていた\n\n# serif 1\n@おばさん\nなんだ、もう来てるじゃない！\n\n;;モノローグ\n# face 3202911 \"surprise\"\n# textflame 0 0\n@\n突然声を掛けられ\n驚くマスターとレム\n\n# serif 1\n@おばさん\nまったくこっちは\nずっと支度して待ってたんだからね\nほら、早くこっち来る！\n\n;;モノローグ\n# serif 1\n# textwindow \"close\"\n# serif 0\n# textflame 0 0\n@\n急展開に頭がついていかない\nマスターとレムは\nおばさんのなすがままになる\n\n# voice 2029 \"remu_0024\"\n# textflame 1 1\n# textboxarrow 0 2\n@レム\nえっ、ああっ！\nま、マスター様っ！\n\n;;モノローグ\n# textflame 0 0\n@\nレムはおばさんに拉致されてしまった\n\n;;演出：時間経過の暗転\n# textwindow \"close\"\n# fadeout \"black\" 1\n# waitandnext 1.2\n\n# alpha 3202911 0 0\n# move 3202931 3 0\n# face 3202931 \"usual\"\n# alpha 3202931 1 0\n# mask 3202931 off\n# waitandnext 0.2\n\n# fadein \"black\" 1\n# waitandnext 1\n\n;;演出：レムウェディング衣装\n# textflame 1 1\n# textboxarrow 0 2\n# textwindow \"normal\"\n@レム\n…………\n\n;;モノローグ\n# textflame 0 0\n@\nそこには\n花嫁衣裳に着替えたレムが立っていた\n\n# voice 320293 \"remu_0022\"\n# face 3202931 \"surprise\"\n# textflame 1 1\n# textboxarrow 0 2\n@レム\nこ、これは一体何事ですか！？"
	}
]