[
	{
		"ID": 320302214,
		"script": ";;-----------------------------------------\n;;リサナウト3-3\n;;-----------------------------------------\n# script \"lisp\"\n# background \"101_city_night3\"\n# bgm \"bgm032\" 0\n;;-----------------------------------------\n# body 3203021\n# pos 3203021 3\n# scale 3203021 0.8 0\n# layer 3203021 2\n# mask 3203021 off\n# alpha 3203021 1 0\n;;-----------------------------------------\n;;一枚絵\n# imageset 0 \"c3203021\"\n# imagelayer 0 3\n# imagealpha 0 0 0\n;;-----------------------------------------\n;;背景：街中（夜）\n# voice 320302 \"risanautr_l_0007\"\n# face 3203021 \"usual\"\n# textflame 1 1\n# textboxarrow 0 2\n@リサナウト\n夢も子もないわ\n\n# textflame 0 0\n@\n元も子も、ではないか\nとマスターが指摘する\n\n# textflame 1 1\n# textboxarrow 0 2\n@リサナウト\nサンタ役の人が兵士に捕まったら\n夢がないし、悲しむのは子どもよ\nだから合ってるわ\n\n# voice 320302 \"risanautr_l_0002\"\n# textflame 1 1\n# textboxarrow 0 2\n@リサナウト\nここまで騒ぎになっちゃったし\nもう細かいことはいいわ\n私たちでプレゼントを配りましょう！\n\n# textflame 1 1\n# textboxarrow 0 2\n@リサナウト\n安心して当主様\nもし兵士に見つかっても\n私が黙らせてあげるから\n\n# textflame 0 0\n@\nマスターは彼女の提案を受け入れ\n子どもたちが寝静まる夜更けに\n二人でプレゼントを配ることになった\n\n# imageset 1 \"black\"\n# imagealpha 1 0 0\n# imagelayer 1 1\n# textflame 1 1\n# textboxarrow 0 2\n@リサナウト\nサンタを追いかけたおかげで\n屋根渡りもお手の物よ\nさぁ、じゃんじゃん配るわよ！\n\n;;暗転（時間経過）\n# imagealpha 1 1 0\n# imagepos 1 0 30\n# imageleftin 1 0.5\n# textwindow \"close\"\n# waitandnext 0.5\n\n# background \"201_room\"\n# waitandnext 0.2\n\n# imagealpha 1 0 0.5\n# imagerightout 1 0.5\n# waitandnext 0.5\n\n# textwindow \"nomal\"\n# voice 320302 \"risanautr_l_0004\"\n# textflame 1 1\n# textboxarrow 0 2\n@リサナウト\nふぅ、終わったぁ\n\n# textflame 0 0\n@\nすべてのプレゼントを配り終え\nマスターの部屋で一息つく\nリサナウト\n\n# textflame 0 0\n@\nそういえば…\nマスターは気になっていた\nことをリサナウトに尋ねる\n\n# textflame 0 0\n@\nどうしてプレゼントが壊れたとき\n時間を戻さなかったの、と\n\n# textflame 0 0\n@\n彼女には時間を操作する能力がある\n好きなだけ時間を遡り\n納得した時間軸に辿り着けたはずだ\n\n# textflame 0 0\n@\nしかしマスターへのプレゼントは\n壊れたままだ\n\n# voice 320302 \"risanautr_l_0028\"\n# face 3203021 \"sad\"\n# textflame 1 1\n# textboxarrow 0 2\n@リサナウト\n…迷ったわよ\n\n# textflame 1 1\n# textboxarrow 0 2\n@リサナウト\n正直、とてもね\nあの夜の前に時間を戻そうかと\n\n# face 3203021 \"usual\"\n# textflame 1 1\n# textboxarrow 0 2\n@リサナウト\nでも…\n私も当主様と一緒にいられて\n楽しかったから\n\n# textflame 1 1\n# textboxarrow 0 2\n@リサナウト\n像が壊れてしまったことも含めて\nあの夜の大事な思い出にしたい\nそう思ったの\n\n# textflame 0 0\n@\nその言葉に安心したような笑みを\n浮かべるマスター\nそして、ふと思い出す\n\n# textflame 0 0\n@\nマスターからもリサナウトに\nプレゼントを用意していたんだ、と\n\n# voice 320302 \"risanautr_l_0022\"\n# face 3203021 \"surprise\"\n# textflame 1 1\n# textboxarrow 0 2\n@リサナウト\nえっ、ホントに？\n棚からは牡丹餅が出るらしいけど\n当主様からは何が出るのかしら？\n\n# textflame 0 0\n@\n君に喜んでほしくて\n悩みながら選んだんだ\nと、嬉しそうに話すマスター\n\n# face 3203021 \"usual\"\n# textflame 1 1\n# textboxarrow 0 2\n@リサナウト\nそれでそれで？\n当主様は何を選んでくれたのかしら？\n\n# textflame 0 0\n@\n…………ごそごそ、と探るが\nポケットには何もない\n先ほど落としたのだろうか\n\n# textflame 0 0\n@\nマスターは慌てて\n代わりを用意するから待ってて\nと告げて、席を立とうとした\n\n# voice 320302 \"risanautr_l_0002\"\n# face 3203021 \"surprise\"\n# textflame 1 1\n# textboxarrow 0 2\n@リサナウト\n…待って！\n\n# face 3203021 \"usual\"\n# textflame 1 1\n# textboxarrow 0 2\n@リサナウト\n行く必要はないわ\nなぜなら…\n\n# textflame 1 1\n# textboxarrow 0 2\n@リサナウト\nもう貰っているから\nそう、この心の中に\n\n# textflame 0 0\n@\nマスターは首を傾げる\n\n# voice 320302 \"risanautr_l_0003\"\n# textflame 1 1\n# textboxarrow 0 2\n@リサナウト\n受け取ったの\n\n# textflame 1 1\n# textboxarrow 0 2\n@リサナウト\n当主様の想いを\n\n# textflame 0 0\n@\nリサナウトはそう言って\nマスターの手をぎゅっと握る\n\n# face 3203021 \"happy\"\n# textflame 1 1\n# textboxarrow 0 2\n@リサナウト\n当主様が以前\nそうしてくれたように\n\n# textflame 1 1\n# textboxarrow 0 2\n@リサナウト\n私の胸にも当主様の\n想いは届いているわ\n\n# textflame 0 0\n@\nリサナウトはマスターの手を\n自分の胸元に添えて\nこう続ける\n\n# voice 320302 \"risanautr_l_0004\"\n# textflame 1 1\n# textboxarrow 0 2\n@リサナウト\n当主様が私にプレゼントを\n用意してくれた\nその気持ちが嬉しかった\n\n# textflame 1 1\n# textboxarrow 0 2\n@リサナウト\nだからもう\n私は当主様からのプレゼントを\n貰っているのよ\n\n# textflame 0 0\n@\nそう言って\n満足そうに微笑む彼女\n\n# se \"SE_0602\"\n# textflame 0 0\n@\nマスターからの想いを受け取り\n星霜『確定事象の報告』\nが確かに贈られていた\n\n# textflame 0 0\n@\n彼女はマスターの部屋の隅にある\nマスターの像をちらりと見る\n\n# textflame 0 0\n@\n今はリサナウトのリボンで\nぐるぐる巻きに補強されている\n\n# textflame 1 1\n# textboxarrow 0 2\n@リサナウト\n…そうでしょ？\n\n# textflame 0 0\n@\n柔らかく微笑む彼女\nだがプレゼントを渡したい思いから\nでも…と言い淀むマスター\n\n# voice 320302 \"risanautr_l_0022\"\n# face 3203021 \"surprise\"\n# textflame 1 1\n# textboxarrow 0 2\n@リサナウト\nでも…？そうね\nどうしても当主様が気に入らない\nというのなら…\n\n# face 3203021 \"usual\"\n# textflame 1 1\n# textboxarrow 0 2\n@リサナウト\n追加でプレゼントを貰うわ\n\n# voice 320302 \"risanautr_l_0005\"\n# face 3203021 \"happy\"\n# textflame 1 1\n# textboxarrow 0 2\n@リサナウト\nこのまま朝まで、当主様の\nお話を聞かせてくれるかしら\n\n;;⇒一枚絵ボイス\n;;★６（一枚絵同じ）\n;;リサナウト　　「当主様のこと、いっぱい聞かせて。\n;;　　　　　　　　時間を戻して、見るんじゃなくて、当主様の口から聞きたいのよ」\n# textflame 0 0\n# imagealpha 0 1 0\n# imagepos 0 0 0\n# fadein \"white\" 3\n# buttonsout 0 0\n# textwindow \"close\"\n# voice 320302 \"risanautr_l_kyara_0028\"\n\n# frameout 0 1\n\n# waitandnext 0.8\n\n# fadeout \"black\" 1.5\n# waitandnext 1.5"
	}
]