[
	{
		"ID": 3301822,
		"script": ";;【PK】クリスマス・フォルカスキャラクエ\n;;【EP2戦闘前】\n;;背景：街中\n;;-----------------------------------------\n# script \"lisp\"\n# background \"town_night_snow\"\n# bgm \"bgm032\" 0\n;;-----------------------------------------\n;;フォルカス（クリスマス用のボイスを鳴らすための呼び出し）\n# body 3301811\n# alpha 3301811 0 0\n;;フォルカス（クリスマス）\n# body 3301821\n# pos 3301821 3\n# scale 3301821 0.8 0\n# layer 3301821 2\n# alpha 3301821 1 0\n# mask 3301821 off\n;;ハルモニア兵\n# body 3810001\n# pos 3810001 3\n# scale 3810001 0.8 0\n# layer 3810001 2\n# alpha 3810001 0 0\n# mask 3810001 on\n;;ハルモニア兵2\n# entry 1001 3810001\n# pos 1001 1\n# scale 1001 0.8 0\n# alpha 1001 0 0\n# mask 1001 on\n;;ハルモニア兵3\n# entry 1002 3810001\n# pos 1002 5\n# scale 1002 0.8 0\n# alpha 1002 0 0\n# mask 1002 on\n;;-----------------------------------------\n# textflame 1 1\n# textboxarrow 0 2\n# face 3301821 \"angry\"\n# voice 330182 \"forcas_t_0027\"\n@フォルカス\nどこにいるの…カリスったら\nまったくもう！！\n\n# textflame 0 0\n@\nまだカリスは見つからず、\n憤っている様子のフォルカス\nしかし…\n\n@\nどこか焦っているように見えるのは\nなぜだろう、とマスターは\nフォルカスに疑問をぶつけてみた\n\n# textflame 1 1\n# textboxarrow 0 2\n# face 3301821 \"usual\"\n# voice 330182 \"forcas_t_0009\"\n@フォルカス\n…なんでもありません\nただ、油断している場合ではない\n\n@フォルカス\n今だって、いつ危険に晒されるか\nわからないんですよ\n\n# textflame 0 0\n@\nどこか歯切れの悪い言い方に\n引っ掛かりを覚えるマスター\n\n@\nしかし、次の言葉を紡ごうとした\nその瞬間、ハルモニア兵たちが\nマスターとフォルカスを取り囲む\n\n# alpha 3301821 0 0.5\n# alpha 3810001 1 0.5\n# alpha 1001 1 0.5\n# alpha 1002 1 0.5\n# textflame 1 1\n# textboxarrow 0 2\n@ハルモニア兵\n貴様か！\nミラクルを起こすと\n街中で騒いでいる斬ル姫\n\n# alpha 3301821 1 0.5\n# alpha 3810001 0 0.5\n# alpha 1001 0 0.5\n# alpha 1002 0 0.5\n# face 3301821 \"angry\"\n# voice 330182 \"forcas_t_battle_0005\"\n@フォルカス\nカリス…！！\nあなたという人は…\n\n# se \"SE_5207\"\n@フォルカス\nマスター、ひとまず退けます！\n;;バトルへ"
	}
]