[
	{
		"ID": 330312211,
		"script": ";;-----------------------------------------\n;;人気投票カシウス1-1\n;;-----------------------------------------\n# script \"lisp\"\n# background \"plain_night\"\n# bgmfile \"bgm278\" \"BgmLostRagnarokBattle002\" 0\n;;-----------------------------------------\n# body 3303121\n# pos 3303121 3\n# scale 3303121 0.8 0\n# layer 3303121 2\n# alpha 3303121 0 0\n# mask 3303121 off\n;;-----------------------------------------\n;;背景：荒野または平原（夜）\n# textflame 0 0\n@\nまだ外は暗く、朝というには\n早すぎる時間から、カシウスと\nマスターは朝食の準備をしていた\n\n# textflame 0 0\n@\n今日の任務は遠い場所まで行くため、\n早めに出発する必要があった\n\n# alpha 3303121 1 0.5\n# textflame 0 0\n@\nマスターは半分寝ているが、\nカシウスはいつも通りに見える\n\n# textflame 0 0\n@\nあくびとかしないかな\nと見ていると…\n\n# textflame 1 1\n# textboxarrow 0 2\n# face 3303121 \"normal\"\n# voice 330312 \"cassius_ge_0001\"\n@カシウス\n御館様…\n手が止まっている\n\n# textflame 0 0\n@\nと、カシウスに注意されてしまった\nごめん、と謝りながら、\nカシウスは眠くないの、と聞いてみる\n\n# textflame 1 1\n# textboxarrow 0 2\n@カシウス\n料理は消費と生産の円環の象徴…\n繰り返される営みを、\nただなぞっているだけ\n\n# textflame 0 0\n@\nつまり、慣れている作業だから\n眠くてもできるってことかな？\nと尋ねるマスター\n\n# textflame 1 1\n# textboxarrow 0 2\n@カシウス\n……\n\n# textflame 0 0\n@\nマスターの問いに無言で\n頷くカシウス\n\n# textflame 0 0\n@\nへー、すごいんだね\nとマスターが褒めると、\n\n# textflame 1 1\n# textboxarrow 0 2\n# face 3303121 \"shy\"\n@カシウス\n…………\n\n# textflame 0 0\n@\nカシウスは少し照れた様子で、\n黙々と料理の仕込み作業を続ける\n\n# textflame 0 0\n@\nマスターはその手さばきに見惚れつつ\nかぎ爪をつけていない姿にも\n新鮮さをおぼえていた\n\n# textflame 0 0\n@\nそういえば、いつも付けている\nあのかぎ爪って重そうだよね\nと、マスターは聞いてみる\n\n# textflame 1 1\n# textboxarrow 0 2\n# face 3303121 \"normal\"\n@カシウス\n…それほど重くはないわ\n\n# textflame 0 0\n@\nカシウスの返事は簡潔で、\n話はすぐに終わってしまう\n\n# textflame 0 0\n@\nマスターは次の会話の糸口を\n探そうとして、\nカシウスの綺麗な手に目が止まる\n\n# textflame 1 1\n# textboxarrow 0 2\n# face 3303121 \"surprise\"\n# voice 330312 \"cassius_ge_0022\"\n@カシウス\n…御館様？\n\n# textflame 0 0\n@\nその視線に気づいたカシウスは、\nいぶかしげにマスターを見ていた\n思ったことを正直に伝えると…\n\n;;表情：照れ（あれば）\n# textflame 1 1\n# textboxarrow 0 2\n# face 3303121 \"shy\"\n# voice 330312 \"cassius_ge_0042\"\n@カシウス\nわたしの手が、綺麗？\nそっ、そう…\n\n# textflame 0 0\n@\n照れながらそういうと、\nカシウスは嬉しそうに\n自分の手をまじまじと見つめた\n\n# textflame 0 0\n@\nそして、何かを思い立ったように\nマスターを見る\n\n# textflame 1 1\n# textboxarrow 0 2\n# voice 330312 \"cassius_ge_0002\"\n@カシウス\n御館様の手も、見せて\n\n# textflame 0 0\n@\nえっと、いいけど…\nと、マスターが手を出すと\nカシウスは思いのほか熱心に見ている\n\n# textflame 0 0\n@\nよく見ると、自分の手は傷だらけで\nお世辞でも綺麗とはいえない\n\n# textflame 0 0\n@\n恥ずかしいから、もういいよね？\nと、マスターは手を後ろに隠す\n\n# textflame 1 1\n# textboxarrow 0 2\n# face 3303121 \"surprise\"\n# voice 330312 \"cassius_ge_0013\"\n@カシウス\nどうして？\nもっと見たいわ\n\n# textflame 0 0\n@\nカシウスは不思議そうな顔をするが、\nマスターは、みんなが待っているから\n朝食の準備をしないと、とごまかす\n\n# textflame 1 1\n# textboxarrow 0 2\n@カシウス\n準備なら終わっているの\nだから…\n\n# textflame 0 0\n@\nじゃあ、みんなを起こしてくるね\nと、カシウスの言葉をさえぎるように\nマスターは慌ただしくその場を離れた\n\n# textflame 0 0\n@\n残されたカシウスは、\n自分の手を見ながら\nそっとひとりでつぶやいた\n\n# textflame 1 1\n# textboxarrow 0 2\n@カシウス\n御館様の手、わたしより大きかった…\nまた、見せてもらえるかな…"
	}
]