[
	{
		"ID": 331003123,
		"script": ";;-----------------------------------------\n;;■悪魔デュランダル・キャラクエ　シナリオ\n;;【ＥＰ２】戦闘後\n;;スクリプト最後の背景：plain\n;;背景：平原\n;;-----------------------------------------\n# script \"lisp\"\n# background \"300_devil_daytime02\"\n# bgmfile \"bgm276\" \"BgmLostRagnarokEvent\" 0\n;;-----------------------------------------\n;;デュランダル\n# body 3100311\n# pos 3100311 3\n# scale 3100311 0.8 0\n# layer 3100311 2\n# alpha 3100311 0 0\n# mask 3100311 off\n;;-----------------------------------------\n;;デュランダル一枚絵\n# imageset 0 \"c3100311\"\n# imagelayer 0 3\n# imagealpha 0 0 0\n;;-----------------------------------------\n# voice 310031 \"durandaru_a_battle_0001\"\n# move 3100311 3 0\n# face 3100311 \"angry\"\n# alpha 3100311 1 0\n# mask 3100311 off\n# textflame 1 1\n# textboxarrow 0 2\n@デュランダル\nせいっ！\n\n;;モノローグ\n# textflame 0 0\n@\n剣を振り続けるデュランダル\n\n# voice 310031 \"durandaru_a_0038\"\n# textflame 1 1\n# textboxarrow 0 2\n@デュランダル\nくっ…！この数では…！\n\n;;モノローグ\n# textflame 0 0\n@\nしかし、敵兵の多さに\n苦戦を強いられる\n\n# textflame 1 1\n# textboxarrow 0 2\n@デュランダル\nわたくしは戦でしか生きられない女…\n必要とされなくなるまで…\n戦い続けますわ！！\n\n;;モノローグ\n# textflame 0 0\n@\n立ち上がり、\n剣を振る彼女に\nマスターは言う\n\n;;モノローグ\n@\n戦が終わっても、\n君は必要な存在だ！…と\n\n# voice 310031 \"durandaru_a_0022\"\n# face 3100311 \"surprise\"\n# textflame 1 1\n# textboxarrow 0 2\n@デュランダル\n…！\n\n;;モノローグ\n# textflame 0 0\n@\n君の気品あふれる性格、\n気高き剣士としての誇りがあったから\n隊の姫は明るくなったんだ！…と\n\n# textflame 1 1\n# textboxarrow 0 2\n@デュランダル\nマ、マスター…\n\n;;モノローグ\n# textflame 0 0\n@\n戦争という血生臭い場所で君の気品と\n誇りこそが、みんなが心を失わずに\nやっていける源なんだ！…と\n\n# textflame 1 1\n# textboxarrow 0 2\n@デュランダル\nわたくしの…\n気品…誇り……\n\n;;モノローグ\n# textflame 0 0\n@\nマスターの叫びによって、\n彼女の中でなにかが目覚めた\n\n;;:;モヤモヤ吹き出し\n# move 3100311 3 0\n# face 3100311 \"angry\"\n# textflame 1 1\n# textboxarrow 0 0\n# textwindow \"moya\"\n# mask 3100311 off\n@デュランダル\nマスター…\n貴方に解放される前まで…\n\n;;:;モヤモヤ吹き出し\n# textboxarrow 0 0\n@デュランダル\nわたくしは、\n己のためだけに戦ってきました…\nでも…！\n\n;;:;モヤモヤ吹き出し\n# textboxarrow 0 0\n@デュランダル\n貴方のように\n言って下さる人がいるのなら…！\n想って下さる人がいるのなら…！\n\n# textboxarrow 0 2\n# textwindow \"normal\"\n@デュランダル\nこの力！\n貴方のために使ってみます！！\n\n;;モノローグ\n# textflame 0 0\n@\nマスターのバイブスに\n共鳴した彼女は、\n新たなる力に目覚める\n\n# textflame 1 1\n# textboxarrow 0 2\n@デュランダル\n破壊神の力、\n今こそご覧に入れますわ！！\n\n;;モノローグ\n# se \"SE_0602\"\n# textflame 0 0\n@\nそして、新技\n『踊り狂う双破』によって、\n敵を殲滅するのだった\n\n# voice 310031 \"durandaru_a_0030\"\n# face 3100311 \"happy\"\n# textflame 1 1\n# textboxarrow 0 2\n@デュランダル\nマスター、お誘い頂けたこと、\n感謝いたします\n\n# voice 310031 \"durandaru_a_0004\"\n# textboxarrow 0 2\n@デュランダル\nわたくしにとって…\nとても有意義な時間でしたわ♪\n\n# textwindow \"close\"\n# fadeout \"black\" 1\n# waitandnext 1.2\n\n# background \"plain\"\n# alpha 3100311 0 0\n# waitandnext 0.1\n\n# bgmfile \"bgm272\" \"BgmLostRagnarokEvent\" 0\n# fadein \"black\" 1\n# waitandnext 1\n\n;;モノローグ\n# textflame 0 0\n# textwindow \"normal\"\n@\n戦闘後、マスターと話す彼女\n\n# voice 310031 \"durandaru_a_0002\"\n# move 3100311 3 0\n# face 3100311 \"normal\"\n# alpha 3100311 1 0.5\n# mask 3100311 off\n# textflame 1 1\n# textboxarrow 0 2\n@デュランダル\nお詫びしなければいけませんわね\n\n# textboxarrow 0 2\n@デュランダル\nわたくしは戦場でしか\n生きられないと思っていました\n\n# textboxarrow 0 2\n@デュランダル\n戦が終われば…\n行く所は無いのだと\n\n# textboxarrow 0 2\n@デュランダル\nでも、マスターのおかげで…\n新しく生きる場所を見つけられました\n生きる希望を与えてもらいました\n\n# textboxarrow 0 2\n@デュランダル\n貴方の言う平和な世界には、\n正直まだ興味が持てませんけど…\n\n# textboxarrow 0 2\n@デュランダル\n『隊』という、あなたがいる\nこの小さな世界は\n守りたいと思いますの\n\n# textboxarrow 0 2\n@デュランダル\nいえ、必ず守って見せますわ\n\n# face 3100311 \"happy\"\n# textboxarrow 0 2\n@デュランダル\nだから…安心してくださいね\n\n;;モノローグ\n# textflame 0 0\n@\n彼女は決意を込め、\n忠誠を誓うように\n胸の前で剣を構えるのだった\n\n;;■一枚絵指定\n;;★５\n;;背景：花の咲いた草原（昼）\n;;表情：わたくしに任せてという自信のある表情で微笑んでいます。\n;;構図：マスターと話したことで新しい目標が出来、決意を込めてマスターに忠誠を誓うように\n;;　　　「構図イメージ」のように胸の前で剣を構えています。\n;;　　　デュランダルの周りに花びらが舞い上がっているイメージです。\n;;　　　花びらのイメージは「花びらイメージ」を参考にお願いいたします。\n;;一枚絵ボイス：５「破壊と狂乱をもたらすわたくしにとって、戦場こそがもっとも輝ける楽園でしたの。\n;;　　　　　　　　　　…だけど、貴方のおかげでわたくしにも、守るべき新しい場所が見つかりましたわ！」\n;;ホワイトアウト\n# textflame 0 0\n# imagealpha 0 1 0\n# imagepos 0 0 0\n# fadein \"white\" 3\n# buttonsout 0 0\n# textwindow \"close\"\n# voice 310031 \"durandaru_a_kyara_0025\"\n\n# frameout 0 1\n\n# waitandnext 0.8\n\n# fadeout \"black\" 1.5\n# waitandnext 1.5"
	}
]