[
	{
		"ID": 340082213,
		"script": ";;-----------------------------------------\n;;【EP2_3】\n;;バレンタイン「オティヌス」キャラクエ\n;;背景：ケイオスリオン、伯爵の屋敷\n;;-----------------------------------------\n# script \"lisp\"\n# background \"201_room\"\n# bgmfile \"bgm270\" \"BgmLostRagnarokEvent\" 0\n;;-----------------------------------------\n;;オティヌス（バレンタイン衣装）\n# body 3400821\n# pos 3400821 3\n# scale 3400821 0.8 0\n# alpha 3400821 0 0\n# mask 3400821 off\n;;ケイオスリオン兵\n# body 3820001\n# pos 3820001 3\n# scale 3820001 0.8 0\n# alpha 3820001 1 0\n# mask 3820001 off\n;;-----------------------------------------\n;;一枚絵\n# imageset 1 \"c3400821\"\n# imagelayer 1 3\n# imagealpha 1 0 0\n;;-----------------------------------------\n# textflame 1 1\n# textboxarrow 0 2\n@ケイオスリオン兵\nくっ…\n斬ル姫の分際で生意気な…\n勝手な行動は処罰の対象だぞ！\n\n# textflame 1 1\n# textboxarrow 0 2\n@ケイオスリオン兵\nお前らは戦うだけのただの道具だ！　\n道具は道具らしく、黙って従え！\n\n# alpha 3820001 0 0.5\n# textflame 0 0\n@\n度重なる兵士の勝手な言い分に、\nマスターの怒りが爆発した\n\n# textflame 0 0\n@\nいい加減にしろ、\n彼女は道具なんかじゃない！\n…気がつくと、そう叫んでいた\n\n# textflame 0 0\n@\n自分の意思で行動することができる\n大事な仲間だ！\nと、続ける\n\n# alpha 3400821 1 0.5\n# textflame 1 1\n# textboxarrow 0 2\n# face 3400821 \"surprise\"\n# voice 340082 \"otyinusu_a_0015\"\n@オティヌス\nマスター…\n\n# textflame 1 1\n# textboxarrow 0 2\n# face 3400821 \"usual\"\n# voice 340082 otyinusu_a_0003\"\"\n@オティヌス\nそうだ…\nあたしは、あたしの意思で\nマスターに従う\n\n# textflame 1 1\n# textboxarrow 0 2\n# face 3400821 \"angry\"\n# voice 340082 \"otyinusu_a_0029\"\n@オティヌス\nマスターの敵が、あたしの敵だ！\nはああぁぁぁっ！\n\n# fadein \"white\" 0.5\n# se \"SE_0602\"\n# textflame 1 1\n# textboxarrow 0 2\n@オティヌス\n『悪戯心の告白』！\n\n# alpha 3400821 0 0.5\n# textflame 0 0\n@\nそれは彼女が\n新たなるスキルに目覚めた\n瞬間だった\n\n# alpha 3820001 1 0.5\n# textflame 1 1\n# textboxarrow 0 2\n@ケイオスリオン兵\nうわぁああ！！\n\n# alpha 3820001 0 1\n# textflame 0 0\n@\n兵士たちは、オティヌスに\n恐れをなして逃げていく\n\n# alpha 3400821 1 0.5\n# textflame 1 1\n# textboxarrow 0 2\n# face 3400821 \"sad\"\n@オティヌス\nマスター…\nその…\nいや、なんでもない…\n\n# textflame 1 1\n# textboxarrow 0 2\n# face 3400821 \"usual\"\n# voice 340082 \"otyinusu_a_0002\"\n@オティヌス\nさあ、兵士の増援が来る前に\nここから立ち去るとしよう\n\n# imageset 0 \"black\"\n# imagealpha 0 0 0\n# imagelayer 0 1\n# waitandnext 0.2\n\n;;暗転挟む\n# imagealpha 0 1 0\n# imagepos 0 0 30\n# imageleftin 0 0.5\n# textwindow \"close\"\n# waitandnext 1\n\n;;背景：ケイオスリオン、屋外\n# background \"plain\"\n# alpha 3400821 0 0\n# imagealpha 0 0 0.5\n# imagerightout 0 0.5\n# textwindow \"nomal\"\n# textflame 0 0\n@\n屋敷を出たあと、オティヌスは\nチョコレートをこっそりと\nビックリ箱に仕込み、準備は完了した\n\n# alpha 3400821 1 0.5\n# textflame 1 1\n# textboxarrow 0 2\n# face 3400821 \"normal\"\n# voice 340082 \"otyinusu_a_0004\"\n@オティヌス\nふふっ…\nさて、マスターはどんな顔を\n見せてくれるんだろうね？\n\n# textflame 0 0\n@\nオティヌスは真剣な表情を作り、\n先を歩いていたマスターを呼び止める\n\n# textflame 1 1\n# textboxarrow 0 2\n# face 3400821 \"shy\"\n# voice 340082 \"otyinusu_a_0001\"\n@オティヌス\nマスター…\nさっきは、あたしを道具じゃない、\n仲間だと言ってくれて、ありがとう\n\n# textflame 1 1\n# textboxarrow 0 2\n@オティヌス\nお礼と言ってはなんだが…\nこれを、受け取ってくれるかい？\n\n# textflame 0 0\n@\nマスターは、真剣なオティヌスに\n戸惑いながらも、喜んで箱を受け取り\nありがとう、と礼を言う\n\n# textflame 1 1\n# textboxarrow 0 2\n# face 3400821 \"usual\"\n# voice 340082 \"otyinusu_a_0002\"\n@オティヌス\nなにが入っていると思う？\n開けてごらんよ？\n\n# fadein \"white\" 0.3\n# se \"SE_0743\"\n# shake 0 0.5\n# textflame 0 0\n@\nマスターがそっと箱を開けると、\nパーンという破裂音と同時に、\n小さなオティヌス人形が飛び出す\n\n# textflame 0 0\n@\nうわぁ！と驚いて尻もちをつく\nマスターを見て、オティヌスは\n嬉しそうに笑った\n\n# textflame 1 1\n# textboxarrow 0 2\n# face 3400821 \"normal\"\n# voice 340082 \"otyinusu_a_0005\"\n@オティヌス\nあはは！期待以上だ、最高だよ！\nほら、チョコレートも食べてごらん\n\n# textflame 0 0\n@\nもしかしたら、さっきの激辛かも\nと、一瞬躊躇したマスターだったが、\nオティヌスを信じて口に放り込む\n\n# textflame 0 0\n@\nマスターはそのチョコレートの味に、\n目を大きくしたままで固まる\n\n# textflame 1 1\n# textboxarrow 0 2\n# face 3400821 \"usual\"\n# voice 340082 \"otyinusu_a_0004\"\n@オティヌス\nんふふっ…\n驚いたようだね？\n\n# textflame 0 0\n@\nチョコレートは驚くほど美味しかった\nマスターがそう言うと、\nオティヌスはニヤっと笑う\n\n# textflame 1 1\n# textboxarrow 0 2\n# face 3400821 \"normal\"\n# voice 340082 \"otyinusu_a_0020\"\n@オティヌス\n観客の予想を裏切る…\nそれが\nショウの醍醐味ってもんだろう？\n\n# textflame 1 1\n@オティヌス\n…あれ？\n物足りないって顔をしてるね\nじゃあ、口直しにこれをあげるよ\n\n# textflame 0 0\n@\nそう言って\n彼女は悪戯っぽく笑いながら\nもう一つの箱を渡してくるのだった\n\n;;■一枚絵指定\n;;★５\n;;背景：街道（朝）\n;;表情：得意げな表情に少しだけ、テレが入り頬を赤くしてください。\n;;構図：片腕を自転車のハンドルに寄りかかり、もう片方の腕でチョコを渡しているイメージです。\n;;　　　左手にボトルを持っているイメージになります。\n;;一枚絵ボイス：「はい、チョコレートだよ。大丈夫、ちゃんと食べられるさ。\n;;　　　　　　　辛いチョコレートも新鮮で美味しいよ」\n;;otyinusu_a_event_0004\n# imagealpha 1 1 0\n# imagepos 1 0 0\n# fadein \"white\" 3\n# buttonsout 0 0\n# textwindow \"close\"\n# voice 340082 \"otyinusu_a_event_0004\"\n\n# frameout 0 1\n\n# fadeout \"black\" 1.5\n# waitandnext 1.5"
	}
]