[
	{
		"ID": 3401924,
		"script": ";;■フェイルノート・キャラクエ　シナリオ\n;;【ＥＰ３】\n# script \"lisp\"\n# bgm \"bgm004\" 0\n# background \"plain_night\"\n# body 3401911\n# pos 3401911 3\n# scale 3401911 0.8 0\n# alpha 3401911 0 0\n# mask 3401911 off\n# textflame 0 0\n@\n数日後――\n\n# textflame 0 0\n@\nフェイルノートは、\nみんなとバーベキューをした草原で\nまた月を見ていた\n\n# alpha 3401911 1 0.5\n# textflame 1 1\n# textboxarrow 0 2\n# face 3401911 \"happy\"\n# voice 4019 \"failnaught_a_0002\"\n@フェイルノート\n月がとってもきれいね\nお前もそう思うでしょ？\n\n# textflame 0 0\n@\n誰と話してるの？\nと、現れるマスター\n\n# textflame 1 1\n# textboxarrow 0 2\n# face 3401911 \"surprise\"\n# voice 4019 \"failnaught_a_0022\"\n@フェイルノート\n…え？\n\n# textflame 1 1\n# textboxarrow 0 2\n# face 3401911 \"angry\"\n# voice 4019 \"failnaught_a_0023\"\n@フェイルノート\nあ、ああっ！？\nお前様！？いつの間にっ！？\n\n# textflame 0 0\n@\n珍しく、慌てふためく彼女\n\n# textflame 1 1\n# textboxarrow 0 2\n# voice 4019 \"failnaught_a_0042\"\n@フェイルノート\nわっ、い、今見たこと、\n聞いたことは忘れなさいッ！！\n\n# textflame 1 1\n# textboxarrow 0 2\n# voice 4019 \"failnaught_a_0007\"\n@フェイルノート\nさもないと、\n私の矢で目を抉るわ！\n\n# textflame 0 0\n@\nそう取り繕う彼女の手には、\nクマのぬいぐるみが…\n\n# textflame 0 0\n@\nもしかして、その子と話してた？\n尋ねるマスター\n\n# textflame 1 1\n# textboxarrow 0 2\n# voice 4019 \"failnaught_a_0026\"\n@フェイルノート\n…ぬいぐるみとなんて話してないわ\nええ、話してないわっ\n\n# textflame 0 0\n@\n冷静を装っているが、\n明らかに動揺している彼女\n笑うマスター\n\n# textflame 1 1\n# textboxarrow 0 2\n# face 3401911 \"normal\"\n# voice 4019 \"failnaught_a_0009\"\n@フェイルノート\nどうやら…\n矢で目を抉られたいようね？\n\n# textflame 0 0\n@\n笑いながら、\nマスターが彼女の隣に腰掛ける\n\n# textflame 0 0\n@\nそして、\n隊のみんなと仲良くなってきたね\nと微笑む\n\n# textflame 1 1\n# textboxarrow 0 2\n# face 3401911 \"surprise\"\n# voice 4019 \"failnaught_a_0022\"\n@フェイルノート\n……！\n\n# textflame 1 1\n# textboxarrow 0 2\n# face 3401911 \"sad\"\n@フェイルノート\nこの前のバーベキューから、\n少し考えが変わったの\n\n# textflame 1 1\n# textboxarrow 0 2\n# face 3401911 \"normal\"\n@フェイルノート\nお前様の言うように、\n人はみなそれぞれ\n\n# textflame 1 1\n# textboxarrow 0 2\n@フェイルノート\nその多様性を認めたいと\n思うようになった\n\n# textflame 1 1\n# textboxarrow 0 2\n# face 3401911 \"happy\"\n# voice 4019 \"failnaught_a_0004\"\n@フェイルノート\nそうしたら…みんなと仲良くなれた\n世界が変わって見えてきた\n\n# textflame 1 1\n# textboxarrow 0 2\n@フェイルノート\nだからかな？月も…\nなんだか今までより綺麗に見えるわ\n\n# textflame 0 0\n@\n失敗した者を咎めない、\n誰かを思いやるという\n心を得た彼女は、\n\n# se \"SE_0602\"\n# fadein \"white\" 1\n# textflame 0 0\n@\nまた新たなスキル\n魔狂『漆黒の輝き』\nに目覚めていた\n\n# textflame 1 1\n# textboxarrow 0 2\n# face 3401911 \"normal\"\n# voice 4019 \"failnaught_a_0002\"\n@フェイルノート\n分かったことがあるの\n\n# textflame 1 1\n# textboxarrow 0 2\n@フェイルノート\n初めてお前様と\n出会った時に感じた輝き…\n\n# textflame 1 1\n# textboxarrow 0 2\n# face 3401911 \"sad\"\n@フェイルノート\nそれは知や武ではない\n\n# textflame 1 1\n# textboxarrow 0 2\n# face 3401911 \"normal\"\n@フェイルノート\n人を思いやり、誠実でいる心\nつまり、仁であり信\n\n# textflame 1 1\n# textboxarrow 0 2\n@フェイルノート\nそれは時には、\nとてつもなく大きな力になる\n\n# textflame 1 1\n# textboxarrow 0 2\n# face 3401911 \"happy\"\n# voice 4019 \"failnaught_a_0004\"\n@フェイルノート\nそんな力を持ったお前様だから…\n\n# textflame 0 0\n@\nそこまで言って、\n顔を赤くして黙ってしまう彼女\n\n# textflame 0 0\n@\nどうしたの…？\n尋ねるマスター\n\n# textflame 1 1\n# textboxarrow 0 2\n# face 3401911 \"sad\"\n@フェイルノート\nこれからも……\n\n# textflame 1 1\n# textboxarrow 0 2\n# face 3401911 \"smile\"\n# voice 4019 \"failnaught_a_0005\"\n@フェイルノート\n支えようと思う…ずっと\n\n# textflame 0 0\n@\n…と、ぬいぐるみに話す彼女\nそして、\n\n# textflame 1 1\n# textboxarrow 0 2\n# face 3401911 \"angry\"\n# voice 4019 \"failnaught_a_0042\"\n@フェイルノート\nい、今のは、\nぬいぐるみに話していたの！\nお前様にではないからっ！！\n\n# textflame 0 0\n@\nそう言って、さらに赤くなる彼女\n微笑むマスター\n\n# textflame 1 1\n# textboxarrow 0 2\n# face 3401911 \"happy\"\n# voice 4019 \"failnaught_a_0001\"\n@フェイルノート\nでも…\nその輝きが鈍った瞬間、\n\n# textflame 1 1\n# textboxarrow 0 2\n@フェイルノート\n私の輝きが\nお前様を焼き尽くすことを\n忘れないことね\n\n# textflame 0 0\n@\n今度は不敵に微笑む彼女\n\n# imageset 1 \"c3401911\"\n# imagealpha 1 0 0\n# imagelayer 1 1\n# textflame 0 0\n@\nでもその笑顔は\nキラキラと輝いていて、\nとても眩しく見えた\n\n;;★６（一枚絵同じ）\n;;一枚絵ボイス：フェイルノート　「…いいでしょう。\n;;　　　　　　　　　　お前様の輝きを認め、この私を扱うに足ると認めてあげる。\n;;　　　　　　　　　　しかしその輝きが鈍った瞬間、\n;;　　　　　　　　　　私の輝きがお前様を焼き尽くすことを忘れないことね」\n;;failnaught_a_kyara_0025\n# textflame 0 0\n# imagealpha 1 1 0\n# imagepos 1 0 0\n# fadein \"white\" 3\n# buttonsout 0 0\n# textwindow \"close\"\n# voice 4019 \"failnaught_a_kyara_0025\"\n\n# frameout 0 1\n\n# waitandnext 0.8\n\n# fadeout \"black\" 1.5\n# waitandnext 1.5"
	}
]