[
	{
		"ID": 34010223,
		"script": ";;-----------------------------------------\n;;お正月アバリス　キャラクエ　シナリオ FB修正版20181214\n;;【EP2戦闘後】\n;;//背景：野営地（ケイオスリオン）\n;;-----------------------------------------\n# script \"lisp\"\n# background \"300_devil_daytime03\"\n# bgmfile \"bgm270\" \"BgmLostRagnarokEvent\" 0\n;;-----------------------------------------\n# body 3401021\n# pos 3401021 3\n# scale 3401021 0.8 0\n# alpha 3401021 0 0\n# mask 3401021 off\n# body 3820001\n# pos 3820001 3\n# scale 3820001 0.8 0\n# alpha 3820001 1 0\n# mask 3820001 off\n;;-----------------------------------------\n# textflame 1 1\n# textboxarrow 0 2\n@ケイオスリオン兵\nぐっ…どうせやられるなら…\nお前を道連れにしてやる！\n死ねぇッ！\n\n# textflame 0 0\n@\n兵士は剣を構え、マスターに\n向かって突進してきた\nマスターが驚いて固まっていると…\n\n# alpha 3401021 1 0.5\n# alpha 3820001 0 0.5\n# face 3401021 \"angry\"\n# voice 340102 \"abaris_a_battle_0003\"\n# chara 3401021\n# textboxarrow 0 2\n# textflame 1 1\n@アバリス\nさせるものですか！\nやあっ！\n\n# se \"SE_4301\"\n# fadein \"white\" 0.5\n# textflame 0 0\n@\nアバリスが強風に乗せて放った矢は、\nマスターに迫る兵を一撃で仕留めた\n\n# alpha 3401021 0 0.5\n# alpha 3820001 1 0.5\n# textflame 1 1\n# textboxarrow 0 2\n@ケイオスリオン兵\nぐあっ！\n\n# alpha 3401021 1 0.5\n# alpha 3820001 0 0.5\n# chara 3401021\n# textboxarrow 0 2\n# textflame 1 1\n@アバリス\nマスターには\n指一本触れさせません！\n\n# textflame 0 0\n@\nケイオスリオン兵たちは\nアバリスの気迫に恐れをなして、\nあわてて逃げ帰っていく\n\n# face 3401021 \"surprise\"\n# chara 3401021\n# textboxarrow 0 2\n# textflame 1 1\n@アバリス\nマスター！\nご無事ですか？\n\n# textflame 0 0\n@\nアバリスのおかげで助かったよ、\nいまの技もすごかったね、\nマスターは感心する\n\n# face 3401021 \"sad\"\n# voice 340102 \"abaris_a_0002\"\n# chara 3401021\n# textboxarrow 0 2\n# textflame 1 1\n@アバリス\n…さきほど、私はマスターの行動を\n無茶だと批判しました\n\n# voice 340102 \"abaris_a_0028\"\n# chara 3401021\n# textboxarrow 0 2\n# textflame 1 1\n@アバリス\nですが、それで救われたあの子の\n笑顔を見て、無茶でも勇気ある行動が\n必要な時もあると、思い直しました\n\n# face 3401021 \"smile\"\n# voice 340102 \"abaris_a_0005\"\n# chara 3401021\n# textboxarrow 0 2\n# textflame 1 1\n@アバリス\n私も勇気を持って、マスターを全力で\nサポートし、お守りしたいです\n\n# se \"SE_0602\"\n# fadein \"white\" 0.5\n# face 3401021 \"sad\"\n# chara 3401021\n# textboxarrow 0 2\n# textflame 1 1\n@アバリス\n『新春六花の矢風』…\nこの技で、あなたの役に立てると\nいいのですが…\n\n# textflame 0 0\n@\nそれは彼女が\n新たなるスキルに目覚めた\n瞬間だった\n\n# face 3401021 \"usual\"\n# chara 3401021\n# textboxarrow 0 2\n# textflame 1 1\n@アバリス\n…あ、みんなも戻ってきました！\n全員無事なようですね…\nでは、羽根つき大会を再開しますか？\n\n;;//演出：時間経過\n# imageset 0 \"black\"\n# imagealpha 0 0 0\n# imagelayer 0 1\n# waitandnext 0.1\n\n;;暗転挟む\n# imagealpha 0 1 0\n# imagepos 0 0 30\n# imageleftin 0 0.5\n# serif 0\n# textwindow \"close\"\n# serif 1\n# textwindow \"close\"\n# waitandnext 1\n\n# imagealpha 0 0 0.5\n# imagerightout 0 0.5\n# serif 0\n# textwindow \"nomal\"\n# face 3401021 \"angry\"\n# voice 340102 \"abaris_a_0029\"\n# chara 3401021\n# textboxarrow 0 2\n# textflame 1 1\n@アバリス\nえい！\nてやっ！\n\n# textflame 0 0\n@\n子供との対戦でもアバリスは\n手加減することなく、\n全力で戦って勝利をおさめた\n\n# textflame 0 0\n@\n試合後、子供がアバリスに駆け寄る\n負けたけど、全力で戦えて楽しかった\nそう言って嬉しそうに笑う\n\n# textflame 0 0\n@\n子供と握手で健闘を称え合うと、\n笑顔でマスターの元へやってくる\n\n# face 3401021 \"smile\"\n# voice 340102 \"abaris_a_0005\"\n# chara 3401021\n# textboxarrow 0 2\n# textflame 1 1\n@アバリス\nマスター！\n私の戦いぶり、どうでしたか？\n\n# textflame 0 0\n@\nいつもの控えめな姿とはまた違って、\nすごく格好よかったよ、と\nマスターは正直に感想をいう\n\n# face 3401021 \"shy\"\n# voice 340102 \"abaris_a_0020\"\n# chara 3401021\n# textboxarrow 0 2\n# textflame 1 1\n@アバリス\nほ、本当ですか？嬉しいです！\nあ、あの…ありがとうございます！\n\n# imageset 1 \"c3401021\"\n# imagealpha 1 0 0\n# imagelayer 1 1\n# waitandnext 0.1\n\n# textwindow \"close\"\n# fadein \"white\" 3\n# buttonsout 0 0\n# imagealpha 1 1 0\n# imagepos 1 0 0\n# alpha 3401021 0 0\n# voice 340102 \"abaris_a_event_0002\"\n\n# frameout 0 1\n\n# fadeout \"black\" 1.5\n# waitandnext 1.5\n;;＜一枚絵＞\n;;★５　アバリス\n;;一枚絵ボイス：abaris_a_event_0002\n;;「羽根つきですか…？　え、風でずるなんてしませんよ…」"
	}
]