[
	{
		"ID": 3500301,
		"script": ";;でんぱイベント　みりん・もがブロック ＥＰ３（ＳＴＡＧＥ２　開始前）\n;;駆けてゆくみりん・もが・レーヴァテイン\n;;【指定】bgm005\n# script \"lisp\"\n# background \"plain_totaleclipse\"\n# bgm \"bgm005\" 0\n# body 101511\n# pos 101511 5\n# scale 101511 0.8 0\n# body 500911\n# pos 500911 1\n# scale 500911 0.8 0\n# face 500911 \"usual2\"\n# body 100221\n# pos 100221 3\n# scale 100221 0.8 0\n# textflame 1 1\n# textboxarrow 0 3\n# chara 101511\n# face 101511 \"mad\"\n# voice 9974 \"mirin_pok_collabo0301_0035\"\n@みりん\nねぇ…何者なの？\nあの、黒いレーヴァテインは…？\n\n# serif 1\n# textboxarrow 1 2\n# chara 100221\n# voice 9974 \"revatein_pok_collabo0301_0010\"\n@レーヴァテイン\n…《黒奏官》\n…その部隊のキル姫だと、思う…\n\n# serif 0\n# textboxarrow 0 1\n# chara 500911\n# face 500911 \"surprise\"\n# voice 9974 \"moga_pok_collabo0301_0033\"\n@もが\n…黒奏官…？\n\n# serif 1\n# textboxarrow 1 2\n# chara 100221\n# face 100221 \"sad\"\n# voice 9974 \"revatein_pok_collabo0301_0011\"\n@レーヴァテイン\n…ハァ…\n\n;;ため息をつき、面倒くさそうに説明を始めるレーヴァテイン\n# serif 1\n# textboxarrow 1 2\n# chara 100221\n# face 100221 \"normal\"\n# voice 9974 \"revatein_pok_collabo0301_0012_1\"\n@レーヴァテイン\n…ラグナロク教会の一般職は、\nおおまかに分けてふたつ…\n\n# serif 1\n# textboxarrow 1 2\n# chara 100221\n# face 100221 \"sad\"\n# voice 9974 \"revatein_pok_collabo0301_0012_2\"\n@レーヴァテイン\n各教会で司教の役割を果たす\n《祀官》職と…\n\n# serif 1\n# textboxarrow 1 2\n# chara 100221\n# face 100221 \"angry\"\n# voice 9974 \"revatein_pok_collabo0301_0012_3\"\n@レーヴァテイン\nキラープリンセスを束ね、\n異族殲滅の任を果たすマスター…\n《奏官》職…\n\n# serif 0\n# textboxarrow 0 3\n# chara 101511\n# face 101511 \"angry\"\n# voice 9974 \"mirin_pok_collabo0301_0036_1\"\n@みりん\n知ってるわよ、そんなこと\n\n# serif 0\n# textboxarrow 0 3\n# chara 101511\n# face 101511 \"usual\"\n# voice 9974 \"mirin_pok_collabo0301_0036_2\"\n@みりん\nでも、マスターには…\n大奏官・中奏官・少奏官って\nランク付けしかないはずじゃ…？\n\n# serif 1\n# textboxarrow 1 2\n# chara 100221\n# face 100221 \"sad\"\n# voice 9974 \"revatein_pok_collabo0301_0013\"\n@レーヴァテイン\n…表向きはね\n\n# serif 0\n# textboxarrow 0 1\n# chara 500911\n# face 500911 \"angry\"\n# voice 9974 \"moga_pok_collabo0301_0034\"\n@もが\n…どういうこと？\n\n# serif 1\n# textboxarrow 1 2\n# chara 100221\n# face 100221 \"angry\"\n# voice 9974 \"revatein_pok_collabo0301_0014_1\"\n@レーヴァテイン\n…粛清を専門とした特殊部隊がいる\n…そういう噂が流れてる\n\n# serif 1\n# textboxarrow 1 2\n# chara 100221\n# voice 9974 \"revatein_pok_collabo0301_0014_2\"\n@レーヴァテイン\n黒い戦闘服をまとった\nキラープリンセスの部隊だとか…\n\n# serif 0\n# textboxarrow 0 3\n# chara 101511\n# face 101511 \"angry\"\n# voice 9974 \"mirin_pok_collabo0301_0037\"\n@みりん\nしゅ、粛清…！？\n\n# serif 1\n# textboxarrow 1 2\n# chara 100221\n# face 100221 \"sad\"\n# voice 9974 \"revatein_pok_collabo0301_0015_1\"\n@レーヴァテイン\n…暴走したキラープリンセスの処刑\n…教会組織に反抗的なマスターの抹殺\n\n# serif 1\n# textboxarrow 1 2\n# chara 100221\n# face 100221 \"normal\"\n# voice 9974 \"revatein_pok_collabo0301_0015_2\"\n@レーヴァテイン\n…聞こえてくるのは、\n裏で暗躍する\n処刑人としての姿が多い\n\n# serif 0\n# textboxarrow 0 0\n# voice 9974 \"mirin_pok_collabo0301_0038\"\n# voice 9974 \"moga_pok_collabo0301_0035\"\n@みりん・もが\n…！！\n\n# serif 1\n# textboxarrow 1 2\n# chara 100221\n# face 100221 \"sad\"\n# voice 9974 \"revatein_pok_collabo0301_0016_1\"\n@レーヴァテイン\n…あくまで噂だけど…あの人\n…あなた達が、ユグドラシルへ向かってると知って攻撃してきたみたい…\n\n# serif 1\n# textboxarrow 1 2\n# chara 100221\n# face 100221 \"angry\"\n# voice 9974 \"revatein_pok_collabo0301_0016_2\"\n@レーヴァテイン\n…行くの、やめれば？\n\n# serif 0\n# textboxarrow 0 3\n# chara 101511\n# voice 9974 \"mirin_pok_collabo0301_0039\"\n@みりん\nイヤよ！私はオリジナルの\nキラーズを手にして、\n強くなるんだもの！\n\n# serif 1\n# textboxarrow 1 2\n# chara 100221\n# face 100221 \"sad\"\n# voice 9974 \"revatein_pok_collabo0301_0017\"\n@レーヴァテイン\n…なにを手にしたって、\n自分のために闘っているうちは\n強くはなれない\n\n# serif 0\n# textboxarrow 0 3\n# chara 101511\n# face 101511 \"mad\"\n# voice 9974 \"mirin_pok_collabo0301_0040\"\n@みりん\n…どういう意味？\n\n# serif 1\n# textboxarrow 1 2\n# chara 100221\n# face 100221 \"normal\"\n# voice 9974 \"revatein_pok_collabo0301_0018_1\"\n@レーヴァテイン\nあなたは、\n自分のためだけに闘っている…\n\n# serif 1\n# textboxarrow 1 2\n# chara 100221\n# voice 9974 \"revatein_pok_collabo0301_0018_2\"\n@レーヴァテイン\nなにかを守るためでなければ、\n人は強くなれない\n\n# serif 1\n# textboxarrow 1 2\n# chara 100221\n# face 100221 \"angry\"\n# voice 9974 \"revatein_pok_collabo0301_0018_3\"\n@レーヴァテイン\nそれが…\n淘汰を重ねていくうちに行きついた、\n私の結論…\n\n# serif 0\n# textboxarrow 0 3\n# chara 101511\n# face 101511 \"sad\"\n# voice 9974 \"mirin_pok_collabo0301_0041\"\n@みりん\n…！\n\n# serif 1\n# textboxarrow 1 2\n# chara 100221\n# face 100221 \"sad\"\n# voice 9974 \"revatein_pok_collabo0301_0019\"\n@レーヴァテイン\nそもそも、ユグドラシルで\nキラーズをもらえるなんて…\nすごく嘘くさいんだけど\n\n# serif 0\n# textboxarrow 0 1\n# chara 500911\n# face 500911 \"sad\"\n# voice 9974 \"moga_pok_collabo0301_0036\"\n@もが\n同感\n\n# serif 1\n# textboxarrow 1 3\n# chara 101511\n# face 101511 \"mad\"\n# voice 9974 \"mirin_pok_collabo0301_0042_1\"\n@みりん\nグ…！\nじゃあ、そういうあなたは…？\n\n# serif 1\n# textboxarrow 1 3\n# chara 101511\n# face 101511 \"angry\"\n# voice 9974 \"mirin_pok_collabo0301_0042_2\"\n@みりん\nもがだって、\nユグドラシルを目指してるんでしょ？\n\n# serif 0\n# textboxarrow 0 1\n# chara 500911\n# face 500911 \"angry\"\n# voice 9974 \"moga_pok_collabo0301_0037\"\n@もが\nボクは、\nキラーズのためなんかじゃない\n\n# serif 1\n# textboxarrow 1 3\n# chara 101511\n# voice 9974 \"mirin_pok_collabo0301_0043\"\n@みりん\nじゃあ、なんのためなのよ？\n\n;;ジッと考えるもが\n# serif 0\n# textboxarrow 0 1\n# chara 500911\n# face 500911 \"sad\"\n# voice 9974 \"moga_pok_collabo0301_0038\"\n@もが\n…孤独…\n\n# serif 1\n# textboxarrow 1 3\n# chara 101511\n# face 101511 \"sad\"\n# voice 9974 \"mirin_pok_collabo0301_0044\"\n@みりん\n…え？\n\n# serif 0\n# textboxarrow 0 1\n# chara 500911\n# face 500911 \"usual2\"\n# voice 9974 \"moga_pok_collabo0301_0039\"\n@もが\n…ボクの心につきまとう孤独の影…\nそれを取り除くすべが、\nそこにあるって…\n\n# serif 1\n# textboxarrow 1 3\n# chara 101511\n# face 101511 \"mad\"\n# voice 9974 \"mirin_pok_collabo0301_0045\"\n@みりん\n…孤独…？\n…あなたは、それを解消しようと…？\n\n# serif 0\n# textboxarrow 0 2\n# chara 100221\n# face 100221 \"angry\"\n# voice 9974 \"revatein_pok_collabo0301_0020\"\n@レーヴァテイン\n…もう、なんなの…あなたも、\nユグドラシルに\n向かう必要なんてないじゃない\n\n# serif 1\n# textboxarrow 1 1\n# chara 500911\n# face 500911 \"surprise\"\n# voice 9974 \"moga_pok_collabo0301_0040\"\n@もが\n…え？\n\n# serif 0\n# textboxarrow 0 2\n# chara 100221\n# face 100221 \"sad\"\n# voice 9974 \"revatein_pok_collabo0301_0021\"\n@レーヴァテイン\n孤独…？仲間が横にいるのに…？\n…ハァ…面倒くさい…\n\n# serif 1\n# textboxarrow 1 3\n# chara 101511\n# voice 9974 \"mirin_pok_collabo0301_0046\"\n@みりん\n横って…私のこと？\n\n# serif 0\n# textboxarrow 0 1\n# chara 500911\n# face 500911 \"angry\"\n# voice 9974 \"moga_pok_collabo0301_0041\"\n@もが\nべ、別に、仲間なんかじゃ…\n\n# serif 1\n# textboxarrow 1 2\n# chara 100221\n# voice 9974 \"revatein_pok_collabo0301_0022_1\"\n@レーヴァテイン\n二人で闘っていた時…\nあなたは加減してた…\n\n# serif 1\n# textboxarrow 1 2\n# chara 100221\n# face 100221 \"angry\"\n# voice 9974 \"revatein_pok_collabo0301_0022_2\"\n@レーヴァテイン\nただ、一緒にいたくて\n闘ってたんでしょ？\n\n# serif 0\n# textboxarrow 0 1\n# chara 500911\n# face 500911 \"surprise\"\n# voice 9974 \"moga_pok_collabo0301_0042\"\n@もが\n…！\n\n# serif 1\n# textboxarrow 1 3\n# chara 101511\n# face 101511 \"angry\"\n# voice 9974 \"mirin_pok_collabo0301_0047\"\n@みりん\n加減…！？\nなに、それ！？\n\n# serif 0\n# textboxarrow 0 2\n# chara 100221\n# face 100221 \"sad\"\n# voice 9974 \"revatein_pok_collabo0301_0023\"\n@レーヴァテイン\nハァ…面倒くさい。\nねぇ、お腹が空いたんだけど…\nもう終わりにしない？\n\n;;【指定】ＢＧＭ停止\n;;スロウス\n# bgm \"stop\"\n# serif 1\n# textboxarrow 1 0\n# body 100281\n# pos 100281 1\n# scale 100281 0.8 0\n# alpha 100281 0 0\n# voice 9974 \"revatein_k_pok_collabo0301_0007\"\n@？？？\n…いいよ\n\n# serif 0\n# textboxarrow 0 3\n# chara 101511\n# face 101511 \"mad\"\n# voice 9974 \"mirin_pok_collabo0301_0048\"\n@みりん\nえ…？\n\n;;漆黒の一撃が、レーヴァテインを襲う\n;;【指定】SE_9016\n;;【指定】bgm081\n# se \"SE_9016\"\n# bgmfile \"bgm081\" \"BgmFTcollabo001\" 0\n# fadein \"black\" 1\n# serif 1\n# face 100221 \"angry\"\n# textboxarrow 1 2\n# voice 9974 \"revatein_pok_collabo0301_0024\"\n@レーヴァテイン\nぐぁっ！！\n\n;;【指定】SE_3001\n# se \"SE_3001\"\n# textboxarrow 1 0\n# alpha 100221 0 0.6\n# waitandnext 1\n\n# serif 0\n# textboxarrow 0 3\n# move 500911 3 0.5\n# chara 101511\n# face 101511 \"angry\"\n# voice 9974 \"mirin_pok_collabo0301_0049\"\n@みりん\nレーヴァテイン！！\n\n;;崩れ落ちるレーヴァテイン。スロウスが姿を現す\n# serif 1\n# textboxarrow 1 1\n# leftin 100281 0.5\n# alpha 100281 1 0\n# chara 100281\n# face 100281 \"angry\"\n# voice 9974 \"revatein_k_pok_collabo0301_0007b\"\n@スロウス\nここで終わりにする…\n私も時間をかけたくないし\n\n"
	}
]