[
	{
		"ID": 350011202,
		"script": ";;【EP2】（ウケ）\n# script \"lisp\"\n# background \"plain\"\n# bgm \"bgm002\" 0\n# body 3500111\n# pos 3500111 3\n# face 3500111 \"sad\"\n# textflame 1 1\n# mask 3500111 off\n# voice 350011 \"keraunosu_ge_0027\"\n# textboxarrow 0 2\n@ケラウノス\nはぁぁぁぁぁぁ…\n\n# textflame 0 0\n@\n大きなため息をつき、\n落ち込んでいるケラウノス\n\n# textflame 0 0\n@\nそこにマスターがやってくる\n\n# textflame 0 0\n@\nあ、あの…\n\n# face 3500111 \"normal\"\n# textflame 1 1\n# textboxarrow 0 2\n@ケラウノス\nあ？\n\n# textflame 0 0\n@\nひぃぃぃ！\nさ、さっきは\nすみませんでした！\n\n# face 3500111 \"sad\"\n# textflame 1 1\n# voice 350011 \"keraunosu_ge_0015\"\n# textboxarrow 0 2\n@ケラウノス\n……そんなに怖がんないでよ\n\n# textflame 0 0\n@\nあれ？怒られると思ったのに…\n拍子抜けするマスター\n\n# textflame 0 0\n@\nどうかしたの…？\nと、落ち込んでいる様子の\n彼女に尋ねてみる\n\n# textflame 1 1\n# voice 350011 \"keraunosu_ge_0014\"\n# textboxarrow 0 2\n@ケラウノス\n…隊に入って以来、\nなんとか誤魔化してたけど…\nとうとう爆発しちゃった\n\n# textflame 1 1\n# textboxarrow 0 2\n@ケラウノス\n私には暴風を司る幻獣\n『テュポーン』が内包されてるの\n\n# textflame 1 1\n# textboxarrow 0 2\n@ケラウノス\nテュポーンは、\nガイアの怒りから\n生み落とされた幻獣\n\n# textflame 1 1\n# textboxarrow 0 2\n@ケラウノス\nその怒りが、\n私の心にも\n影響してるのかな…\n\n# textflame 1 1\n# textboxarrow 0 2\n@ケラウノス\nうぅん、きっと\nそれだけじゃない\n\n# textflame 1 1\n# textboxarrow 0 2\n@ケラウノス\n私が『トレイセーマ』で\n受けた扱いもきっと怒りを\n助長している…\n\n# textflame 0 0\n@\n確かにトレイセーマは\n斬ル姫を兵器扱いし、\n隔離・管理した社会だと聞く\n\n# textflame 1 1\n# voice 350011 \"keraunosu_ge_0027\"\n# textboxarrow 0 2\n@ケラウノス\n…はぁ、\nダメだ、ダメだと思っていても…\n怒りの抑制が利かなくなる時があるの\n\n# textflame 1 1\n# textboxarrow 0 2\n@ケラウノス\n私の中のまさに“獣”が、\n牙を剥く時が……\n\n# textflame 1 1\n# textboxarrow 0 2\n@ケラウノス\n心が獣に支配される気がして…\n自分が自分でなくなるような\n気がして…\n\n# textflame 1 1\n# textboxarrow 0 2\n@ケラウノス\nとても怖いの……\n\n# select \"き、きっと大丈夫だよ！\" \"select_label_01\" \"き、きみはきみだよ！\" \"select_label_02\" \"そ、そんなに落ち込まないで！\" \"select_label_03\"\nとても怖いの……\n\n# label \"select_label_01\"\n# labeljump \"select_label_end\"\n# textflame 1 1\n# face 3500111 \"angry\"\n# voice 350011 \"keraunosu_ge_0007\"\n@ケラウノス\n…何の根拠があって、\nそんなこと…！\n\n# label \"select_label_02\"\n# labeljump \"select_label_end\"\n# face 3500111 \"angry\"\n# voice 350011 \"keraunosu_ge_0007\"\n# textflame 1 1\n@ケラウノス\n何も知らないくせに…\n偉そうに言わないで！！\n\n# label \"select_label_03\"\n# labeljump \"select_label_end\"\n# face 3500111 \"angry\"\n# voice 350011 \"keraunosu_ge_0007\"\n# textflame 1 1\n@ケラウノス\n落ち込むなって言われて…\nどうすればいいのよ！？\n\n# label \"select_label_end\"\n# textflame 1 1\n# textboxarrow 0 2\n@ケラウノス\nあんたに…\n私の気持ちが分かるの！？\n\n# textflame 1 1\n# face 3500111 \"surprise\"\n# textboxarrow 0 2\n@ケラウノス\n……あ\n\n# textflame 0 0\n@\n苛立ちと悲しみで\n情緒が不安定になっている彼女は、\nまた怒りの感情を爆発させてしまう\n\n# textflame 1 1\n# face 3500111 \"sad\"\n# voice 350011 \"keraunosu_ge_0017\"\n# textboxarrow 0 2\n@ケラウノス\n…もうヤダ\nこんな自分……\n\n# alpha 3500111 0 0.5\n# waitandnext 0.5\n\n# textflame 0 0\n@\nそう言うと、\n彼女はその場から\n逃げ去ってしまうのだった\n\n# textflame 0 0\n@\n逃げ出した彼女を追いかけるマスター\n\n;;ギザギザ吹き出し大きく\n# alpha 3500111 1 0.5\n# face 3500111 \"angry\"\n# textflame 1 1\n# textwindow \"toge\"\n# textboxarrow 0 2\n@ケラウノス\n付いてこないで！！\n\n# textflame 1 1\n# textwindow \"nomal\"\n# face 3500111 \"sad\"\n# voice 350011 \"keraunosu_ge_0018\"\n# textboxarrow 0 2\n@ケラウノス\n怒りを抑えられないような私は、\nこの隊にいる資格がないわ…\n\n# textflame 1 1\n# textboxarrow 0 2\n@ケラウノス\nさっきも…\n心配してくれているマスターに\nあんなこと言っちゃうなんて…\n\n# textflame 1 1\n# textboxarrow 0 2\n@ケラウノス\n…最低だよ\n\n# textflame 0 0\n@\n…と、その時\n\n# face 3500111 \"surprise\"\n# textflame 1 1\n# textboxarrow 0 2\n@ケラウノス\n！！\nマ、マスター！\n\n# textflame 0 0\n@\n突如出現した敵が、\nマスターに襲い掛かろうとしている\n\n# face 3500111 \"angry\"\n# textflame 1 1\n# textboxarrow 0 2\n@ケラウノス\n…い、怒りに飲まれちゃいけない…\nれ、冷静に…冷静に……\n\n# face 3500111 \"sad\"\n# textflame 1 1\n# textboxarrow 0 2\n@ケラウノス\nぐっ…！で、でも…！\n\n# textflame 0 0\n@\n躊躇から、\n攻撃に踏み切れない彼女\n\n# textflame 1 1\n# voice 350011 \"keraunosu_ge_0015\"\n# textboxarrow 0 2\n@ケラウノス\n私は…どうすれば…！？\n\n# select \"君は人のために怒れる人なんだ！\" \"select_label_04\" \"怒りとは…裏返せば優しさなんだ！\" \"select_label_05\" \"怒りが…悪とは限らないよ！！\" \"select_label_06\"\n私は…どうすれば…！？\n\n# label \"select_label_04\"\n# labeljump \"select_label_end2\"\n# textflame 1 1\n# face 3500111 \"surprise\"\n@ケラウノス\n…！ひ、人のために…\n\n# label \"select_label_05\"\n# labeljump \"select_label_end2\"\n# face 3500111 \"surprise\"\n# textflame 1 1\n@ケラウノス\n…！や、優しさ…？\n\n# label \"select_label_06\"\n# labeljump \"select_label_end2\"\n# face 3500111 \"surprise\"\n# textflame 1 1\n@ケラウノス\n誰かのために…必要な怒りが…\n\n# label \"select_label_end2\"\n# textflame 0 0\n@\nハムの事件の時も、\nみんなを思う心から\n僕に怒ってしまったんだろ！？\n\n# textflame 0 0\n@\nマスターの叫びが、\n彼女の心に突き刺さる\n\n# face 3500111 \"happy\"\n# textflame 1 1\n# voice 350011 \"keraunosu_ge_0030\"\n# textboxarrow 0 2\n@ケラウノス\nありがとう、マスター…！\n私…吹っ切れたよ！\n\n# face 3500111 \"angry\"\n# textflame 1 1\n# textboxarrow 0 2\n@ケラウノス\n大切な人を守るためなら…\n私は大いに怒るわ！！\n\n;;ギザギザ吹き出し大きく\n# se \"SE_0602\"\n# textflame 1 1\n# textwindow \"toge\"\n# voice 350011 \"keraunosu_ge_0029\"\n# textboxarrow 0 2\n@ケラウノス\nくらえっ！\n『無尽蔵の激痛\n　-インフィニティバレット-』ー！！\n\n# textwindow \"nomal\"\n# textflame 0 0\n@\n巨大な一撃が敵を葬り去る\n\n# textflame 0 0\n@\nそれは彼女が\n新たなスキルに\n目覚めた瞬間であった\n\n# textflame 0 0\n@\nそして…\n\n# textwindow \"close\"\n# fadeout \"black\" 1.5\n# waitandnext 1.5\n\n# face 3500111 \"normal\"\n# background \"town_night\"\n# waitandnext 0.1\n\n# fadein \"black\" 1\n# waitandnext 1\n\n# textwindow \"nomal\"\n# textflame 0 0\n@\n街を歩く２人\nマスターが彼女に尋ねる\n\n# textflame 0 0\n@\n怒りを上手く\n制御できるように\nなったみたいだね？\n\n# face 3500111 \"sad\"\n# textflame 1 1\n# textboxarrow 0 2\n@ケラウノス\nまだまだ…そんなことないわ\n\n# textflame 1 1\n# voice 350011 \"keraunosu_ge_0008\"\n# textboxarrow 0 2\n@ケラウノス\nさっきは\nマスターの言葉があったから\n上手くできたけど…\n\n# textflame 1 1\n# textboxarrow 0 2\n@ケラウノス\nいつまた爆発しちゃうか…\n\n# textflame 0 0\n@\nそう言う彼女に、\nマスターが応える\n\n# textflame 0 0\n@\n安心して？\n君の怒りを制御するのが\nマスターである僕の役割だから\n\n# voice 350011 \"keraunosu_ge_0022\"\n# face 3500111 \"surprise\"\n# textflame 1 1\n# textboxarrow 0 2\n@ケラウノス\n…え？\n\n# textflame 0 0\n@\n君の怒りを受け止め、\nちゃんと制御できるようになるため\n僕も成長していく\n\n# textflame 0 0\n@\nだからきみも怒りを\nコントロールできるように\n成長していけばいい\n\n# textflame 0 0\n@\n一緒に成長していこう\n\n# textflame 1 1\n# textboxarrow 0 2\n@ケラウノス\n！！！\n\n# face 3500111 \"shy\"\n# textflame 1 1\n# voice 350011 \"keraunosu_ge_0030\"\n# textboxarrow 0 2\n@ケラウノス\nあ…ありがとう…！\nそんな風に言ってもらえるなんて…\n\n# textflame 1 1\n# textboxarrow 0 2\n@ケラウノス\n私……\n怒りから目を背けず、向き合い、\n乗り越えられるようになってみせる\n\n# textflame 1 1\n# textboxarrow 0 2\n@ケラウノス\n持てる力を…\n怒りに任せず使ってゆく\nこれからは……\n\n# face 3500111 \"happy\"\n# voice 350011 \"keraunosu_ge_0005\"\n# textflame 1 1\n# textboxarrow 0 2\n@ケラウノス\nあなたのために\n\n# imageset 0 \"c3500111\"\n# imagealpha 0 0 0\n# textflame 0 0\n@\nそう言って見せた表情は、\nどこか柔らかく、\n優しくなっているように思えた\n\n# imagealpha 0 1 0\n# imagepos 0 0 0\n# fadein \"white\" 3\n# textwindow \"close\"\n# voice 350011 \"keraunosu_ge_kyara_0025\""
	}
]