[
	{
		"ID": 350171213,
		"script": ";;-----------------------------------------\n;;幻獣グリモワール・キャラクエ\n;;【ＥＰ2戦闘後】 6/28 17:00 更新\n;;スクリプトID：350171213\n;;スクリプト最後の背景：forest\n;;-----------------------------------------\n# script \"lisp\"\n# background \"plain\"\n# bgm \"bgm004\" 0\n;;グリモワール\n# body 3501711\n# pos 3501711 3\n# scale 3501711 0.8 0\n# alpha 3501711 1 0\n# mask 3501711 off\n;;-----------------------------------------\n;;グリモワール一枚絵\n# imageset 0 \"c3501711\"\n# imagelayer 0 3\n# imagealpha 0 0 0\n# textflame 0 0\n;;◆背景：プレーン-------------------------\n# textflame 1 1\n# textboxarrow 0 2\n# voice 350171 \"grimoire_ge_0015\"\n@グリモワール\nトレイセーマにいた頃…\n敵を駆逐しても、\n特になんの感情も湧かなかった\n\n@グリモワール\nそして…\n仲間さえ顧みず戦っていた\n\n# voice 350171 \"grimoire_ge_0024\"\n# face 3501711 \"sad\"\n@グリモワール\nでも…この隊に入ったあの日、\n道端で死んでいる\nキツネを見つけたときに…\n\n;;↑解説\n;;ニーズヘックの影響を受けつつも\n;;使役から解放され自我/感情を\n;;取り戻している変化を描いています\n\n@グリモワール\nそのキツネは、\n戦いに巻き込まれたわけでもなく、\n\n@グリモワール\nただ何者かに撃たれて、\n命を落としていたわ\n\n@グリモワール\nそして、そのキツネの側には…\nずっと弱々しく鳴いている\n子ギツネがいた…\n\n@グリモワール\n親を失ったこの子も、\nきっと自分の力だけでは\n生き抜いてはいけない…\n\n@グリモワール\nその姿を見て…\nワタシは不意に魔導書にあった\n蘇りの魔術を思い出したわ…\n\n# voice 350171 \"grimoire_ge_0037\"\n@グリモワール\nでも…\n一度死んだ者は…\n死ぬ前の姿では戻せない…\n\n@グリモワール\nワタシの魔術でも…\nそれは叶わない……\n\n# voice 350171 \"grimoire_ge_0028\"\n# face 3501711 \"normal\"\n@グリモワール\nその時、なんだか無性に…\n\n# face 3501711 \"angry\"\n@グリモワール\n弱者を虐げる者に…！\n\n@グリモワール\nいとも簡単に命を奪い去る\nこの理不尽な世界に！\n\n@グリモワール\n胸の奥底から沸々と\n怒りがこみ上げてきたの！！\n\n# textflame 0 0\n@\n彼女の怒りの根源、\nそして『死者の怒り』という言葉\n\n@\nそれは\n“理不尽な世界を嘆く死者の怒り”\nだったのだ\n\n# voice 350171 \"grimoire_ge_0003\"\n# face 3501711 \"normal\"\n# textflame 1 1\n@グリモワール\nこの世界には、\nそうして命を奪われた者たちの\n怨念が渦巻いている\n\n@グリモワール\nその怒りに応えることこそが…！\n世界を救う唯一の行動だと\nワタシは思うの…\n\n@グリモワール\nそのために今も日々、\n戦っている…！\n\n# voice 350171 \"grimoire_ge_0007\"\n@グリモワール\nだから…お菓子作りなんて…\n\n# face 3501711 \"sad\"\n@グリモワール\nでも……\n\n# textflame 0 0\n@\nそれまで強気だった彼女の語気が、\n途端に弱くなった\n\n# voice 350171 \"grimoire_ge_0002\"\n# face 3501711 \"normal\"\n# textflame 1 1\n@グリモワール\nワタシは…正しいよね？\n\n@グリモワール\n世界から理不尽をなくすため、\n怒りに突き進むのは…\n間違いじゃないよね…？\n\n# textflame 0 0\n@\nマスターは、\n彼女のそんな不安な顔を\n初めて見た…\n\n@\nきっと彼女も、\nギリギリのところで\nせめぎ合っていたのだろう…\n\n# voice 350171 \"grimoire_ge_0001\"\n# textflame 1 1\n@グリモワール\nねぇ、マスター…？\n\n# textflame 0 0\n@\nそんな彼女の問いに対し、\nなにも答えず進んでいくマスター\n\n# face 3501711 \"sad\"\n;;モヤモヤ吹き出し\n# move 3501711 3 0\n# textflame 1 1\n# textwindow \"moya\"\n# textboxarrow 0 0\n@グリモワール\nどうして…\nなにも言ってくれないの…？\n\n;;モヤモヤ吹き出し\n@グリモワール\nやっぱり…\nワタシが間違ってるんだ……\n\n# textflame 0 0\n# textwindow \"normal\"\n@\n彼女の顔が余計不安に歪んだ\n\n@\nすると……\n\n;;背景森へ\n# textwindow \"close\"\n# fadeout \"black\" 1\n# waitandnext 1\n\n;;◆背景：森・BGM002-------------------------------\n# background \"forest\"\n# bgm \"bgm002\" 0\n# face 3501711 \"surprise\"\n# waitandnext 0.1\n\n# fadein \"black\" 1\n# waitandnext 1\n\n# textflame 1 1\n# textwindow \"normal\"\n# textboxarrow 0 2\n@グリモワール\n……！\n\n# voice 350171 \"grimoire_ge_0021\"\n# face 3501711 \"happy\"\n@グリモワール\nわぁっ……！\n\n# textflame 0 0\n@\n突如、目の前に広がった大きな森\n戦禍から忘れ去られたかのような\n手つかずの自然が広がっていた\n\n@\nそして、マスターが彼女にこう言った\n\n@\nきみの『怒り』は、\n悲しみの裏返し\n\n# face 3501711 \"surprise\"\n# textflame 1 1\n@グリモワール\n…！\n\n# textflame 0 0\n@\n悲しみを知っている人は…\n\n# face 3501711 \"normal\"\n# textflame 1 1\n@グリモワール\nその悲しみを…怒りにも、\n『優しさ』にも変えられる…？\n\n# textflame 0 0\n@\nマスターの言葉に、衝撃を受ける彼女\n\n# textflame 1 1\n@グリモワール\n…今までのワタシは……\n\n@グリモワール\n『怒り』にしか変換していなかった…\n\n@グリモワール\nでもマスターは…\n優しさに変えることも\n出来そうだね…\n\n# voice 350171 \"grimoire_ge_0004\"\n# face 3501711 \"shy\"\n@グリモワール\nワ、ワタシにも…\n\n@グリモワール\n出来るかな…？\n\n# textflame 0 0\n@\n不安な瞳を覗かせる彼女に、\nもちろん！\nと答えるマスター\n\n@\nきみなら、\n怒りを優しさという名の\n強さに変えることが出来るよ！\n\n# face 3501711 \"happy\"\n# textflame 1 1\n@グリモワール\n……う…うん！\n優しさを……強さに！\n\n# face 3501711 \"normal\"\n# textflame 0 0\n@\nマスターのバイブスと\n共鳴した彼女は、\n己の力を解放する\n\n# se \"SE_0602\"\n@\nそれは新たなスキル\n『怨炎の焦土 -ドレッド・ジャッジ-』\nに目覚めた瞬間だった\n\n# textflame 1 1\n@グリモワール\nもう、あのキツネの親子みたいな存在や…\n\n@グリモワール\n理不尽な戦禍に巻き込まれる人々を、\nもうこれ以上出さない！\n\n@グリモワール\nこの森のように静かで美しく…\nみんなが安心して暮らせる\n世界を作るために…\n\n@グリモワール\nワタシは戦うよ！\n\n# textflame 0 0\n@\n力強く宣言する彼女\n\n# textflame 1 1\n@グリモワール\nねぇ、マスター！\n\n# voice 350171 \"grimoire_ge_0032\"\n@グリモワール\nキミにはワタシの隣で、\nその様子を見せてあげる\n\n# voice 350171 \"grimoire_ge_0020\"\n# face 3501711 \"happy\"\n@グリモワール\nだから…感謝なさい♪\n\n# textflame 0 0\n@\nと、ニカッと快活に笑う\n\n@\nその目には希望の光が差していた\n\n# textflame 0 0\n# imagealpha 0 1 0\n# imagepos 0 0 0\n# fadein \"white\" 3\n# buttonsout 0 0\n# textwindow \"close\"\n# voice 350171 \"grimoire_ge_kyara_0025\"\n;;■一枚絵指定\n;;★５\n;;背景:森（forest）\n;;表情：わくわくした目をして興奮気味。楽しんでいる表情\n;;構図：正面やや上から\n;;ポーズ：指をさしてはしゃいでいる\n;;一枚絵ボイス：グリモワール「このワタシの隣に立つのだから、キミはもっと強くなるべきよ。な、なによ…キミなら、隣にいてもいいって言ってるの。もっと感謝しなさいよね？」\n\n# frameout 0 1\n# waitandnext 0.8\n\n# fadeout \"black\" 1.5\n# waitandnext 1.5\n"
	}
]