[
	{
		"ID": 3501002,
		"script": ";;でんぱイベント　リサ・ピンキーブロック ＥＰ２（ＳＴＡＧＥ１　クリア後）\n;;ユグドラシルを目指している、リサとピンキー\n;;【指定】bgm002\n# script \"lisp\"\n# background \"006_town_TotalEclipse\"\n# bgm \"bgm002\" 0\n# body 301111\n# pos 301111 4\n# scale 301111 0.8 0\n# body 600711\n# pos 600711 2\n# scale 600711 0.8 0\n# face 600711 \"usual\"\n# textflame 1 1\n# textboxarrow 0 3\n# chara 301111\n# face 301111 \"surprise\"\n# voice 9974 \"pinkey_pok_collabo0303_0016\"\n@ピンキー\nええっ…！？\nずっと、あんな暗い部屋に\n閉じこもってたの…！？\n\n# serif 1\n# textboxarrow 1 1\n# chara 600711\n# face 600711 \"normal\"\n# voice 9974 \"lisa_pok_collabo0303_0021\"\n@リサ\n閉じこもっていたんじゃない…\n神聖なる闇との儀式を試みていたのよ\n\n# serif 0\n# textboxarrow 0 3\n# chara 301111\n# face 301111 \"amazed\"\n# voice 9974 \"pinkey_pok_collabo0303_0017\"\n@ピンキー\n闇との…儀式…？\n\n# serif 1\n# textboxarrow 1 1\n# chara 600711\n# face 600711 \"amazed\"\n# voice 9974 \"lisa_pok_collabo0303_0022\"\n@リサ\n…ん…なんていうか…\n知っている人でなければ、\n理解しづらいと思う…\n\n# serif 0\n# textboxarrow 0 3\n# chara 301111\n# face 301111 \"normal\"\n# voice 9974 \"pinkey_pok_collabo0303_0018_1\"\n@ピンキー\n…なんだか、難しそうだね\n…ねぇねぇ、それよりさ！\n\n# serif 0\n# textboxarrow 0 3\n# chara 301111\n# face 301111 \"surprise\"\n# voice 9974 \"pinkey_pok_collabo0303_0018_2\"\n@ピンキー\nあの声を聞いたってことは、\n同じものを求めてる\nってことなんだよね！？\n\n# serif 0\n# textboxarrow 0 3\n# chara 301111\n# face 301111 \"usual\"\n# voice 9974 \"pinkey_pok_collabo0303_0018_3\"\n@ピンキー\nねぇ、\nすっごくワクワクしてこない！？\n\n# serif 0\n# textboxarrow 0 3\n# chara 301111\n# voice 9974 \"pinkey_pok_collabo0303_0018_4\"\n@ピンキー\nついに、あの伝説の生き物を\n見ることが出来るんだよ！？\n\n# serif 1\n# textboxarrow 1 1\n# chara 600711\n# voice 9974 \"lisa_pok_collabo0303_0023\"\n@リサ\nえ…？\n…生き物…？\n\n# jump 301111\n# serif 0\n# textboxarrow 0 3\n# chara 301111\n# face 301111 \"surprise\"\n# voice 9974 \"pinkey_pok_collabo0303_0019_1\"\n@ピンキー\nパンダよ！パンダ！！\nあの愛くるしい姿が\n見られると思うと…\n\n# serif 0\n# textboxarrow 0 3\n# chara 301111\n# face 301111 \"usual\"\n# voice 9974 \"pinkey_pok_collabo0303_0019_2\"\n@ピンキー\nもう興奮して、\n踊りたくなっちゃうよ！！\n\n;;思わず踊り出すピンキー\n# serif 1\n# textboxarrow 1 1\n# chara 600711\n# voice 9974 \"lisa_pok_collabo0303_0024\"\n@リサ\nちょ、ちょっと待って…！\n…パンダ…？\nなに、それ…？\n\n# serif 0\n# textboxarrow 0 3\n# chara 301111\n# face 301111 \"surprise\"\n# voice 9974 \"pinkey_pok_collabo0303_0020\"\n@ピンキー\n知らないの…？\nえっとね…パンダっていうのは、\n白と黒で彩られた動物で…\n\n# serif 1\n# textboxarrow 1 1\n# chara 600711\n# face 600711 \"angry\"\n# voice 9974 \"lisa_pok_collabo0303_0025\"\n@リサ\n…なにを言ってるの？\nユグドラシルにあるのは\n…黒魔術でしょ？\n\n# serif 0\n# textboxarrow 0 3\n# chara 301111\n# voice 9974 \"pinkey_pok_collabo0303_0021\"\n@ピンキー\n…黒…え？\n…黒だけのパンダってこと…？\n\n# serif 1\n# textboxarrow 1 1\n# chara 600711\n# face 600711 \"mad\"\n# voice 9974 \"lisa_pok_collabo0303_0026_1\"\n@リサ\n違うわ、黒魔術よ…！\n世に禁忌とされ…封印されし、\nおぞましき《魔》の力…！\n\n# serif 1\n# textboxarrow 1 1\n# chara 600711\n# voice 9974 \"lisa_pok_collabo0303_0026_2\"\n@リサ\nその極意を記した書が、\nユグドラシルにはあるのよ…！\n\n# serif 0\n# textboxarrow 0 3\n# chara 301111\n# face 301111 \"amazed\"\n# voice 9974 \"pinkey_pok_collabo0303_0022\"\n@ピンキー\nなんか、ゾクッとしたんだけど…\n…ともかく、\n目的は同じってことだね！！\n\n# serif 1\n# textboxarrow 1 1\n# chara 600711\n# face 600711 \"amazed\"\n# voice 9974 \"lisa_pok_collabo0303_0027\"\n@リサ\n…どうして、そうなるの？\n\n;;【指定】ＢＧＭ停止\n;;ラスト\n# bgm \"stop\"\n# serif 1\n# textboxarrow 1 0\n# body 400151\n# pos 400151 5\n# scale 400151 0.8 0\n# alpha 400151 0 0\n# chara 400151\n# voice 9974 \"arutemisu_k_pok_collabo0303_0001\"\n@？？？\n…盛り上がっているところ、\n悪いけど…あなた達は、\nユグドラシルには辿り着けないわ\n\n;;【指定】bgm164\n# bgmfile \"bgm164\" \"BgmPJZero001\" 0\n# serif 0\n# textboxarrow 0 3\n# chara 301111\n# face 301111 \"surprise\"\n# voice 9974 \"pinkey_pok_collabo0303_0023\"\n@ピンキー\nえ…！？\n\n;;ユラリと姿を現す黒アルテミス・ラスト\n# fadein \"black\" 0.5\n# se \"SE_5776\"\n# textboxarrow 0 0\n# rightin 400151 0.8\n# alpha 400151 1 0\n# move 301111 3 0.5\n# move 600711 1 0.5\n# waitandnext 1\n\n# serif 0\n# textboxarrow 0 1\n# chara 600711\n# voice 9974 \"lisa_pok_collabo0303_0028\"\n@リサ\n…白と黒…あなたの言う\nパンダって…まさか、\nこの人のことじゃないわよね？\n\n# serif 1\n# textboxarrow 1 2\n# chara 301111\n# voice 9974 \"pinkey_pok_collabo0303_0024\"\n@ピンキー\n全然、違うよ！！！\n\n# serif 0\n# textboxarrow 0 3\n# chara 400151\n# voice 9974 \"arutemisu_k_pok_collabo0303_0002_1\"\n@ラスト\nフン…私はコードネーム《ラスト》…\n《色欲》の罪を背負いし\nキラープリンセス\n\n# serif 0\n# textboxarrow 0 3\n# chara 400151\n# face 400151 \"angry\"\n# voice 9974 \"arutemisu_k_pok_collabo0303_0002_2\"\n@ラスト\n…ユグドラシルを目指すあなた達に、\nお仕置きしに来たわ\n\n# serif 1\n# textboxarrow 1 2\n# chara 301111\n# voice 9974 \"pinkey_pok_collabo0303_0025\"\n@ピンキー\nし、色欲！？\nなに、それ…！？\n\n# serif 0\n# textboxarrow 0 1\n# chara 600711\n# face 600711 \"amazed\"\n# voice 9974 \"lisa_pok_collabo0303_0029\"\n@リサ\n色欲…七つの大罪！？\nまさか…あなた、《魔》の使い…！？\n\n# serif 1\n# textboxarrow 1 3\n# chara 400151\n# face 400151 \"normal\"\n# voice 9974 \"arutemisu_k_pok_collabo0303_0003\"\n@ラスト\n…へぇ…あなた、\n少しは知識があるようね…\n\n# serif 0\n# textboxarrow 0 2\n# chara 301111\n# face 301111 \"amazed\"\n# voice 9974 \"pinkey_pok_collabo0303_0026\"\n@ピンキー\nお、お仕置きだって…！\nねぇ、逃げた方が\nいいんじゃない…！？\n\n# serif 1\n# textboxarrow 1 1\n# chara 600711\n# voice 9974 \"lisa_pok_collabo0303_0030_1\"\n@リサ\nちょ、ちょっと待って…！\nねぇ…あなたが、\n私達に呼び掛けたの…？\n\n# serif 1\n# textboxarrow 1 1\n# chara 600711\n# face 600711 \"normal\"\n# voice 9974 \"lisa_pok_collabo0303_0030_2\"\n@リサ\n黒魔術の極意を教えてくれるのは…\nもしかして、あなた…？\n\n# serif 0\n# textboxarrow 0 2\n# chara 301111\n# face 301111 \"surprise\"\n# voice 9974 \"pinkey_pok_collabo0303_0027\"\n@ピンキー\n待ってよ、リサちゃん！\nこの人の声…私が聞いた声と、\n全然違うよ…！？\n\n# serif 1\n# textboxarrow 1 3\n# chara 400151\n# voice 9974 \"arutemisu_k_pok_collabo0303_0004\"\n@ラスト\n…魔の世界に興味があるのね？\nだったら…\nそこへ送り出してあげるわ\n\n# serif 0\n# textboxarrow 0 1\n# chara 600711\n# voice 9974 \"lisa_pok_collabo0303_0031\"\n@リサ\nホント！？\n\n;;ゆっくりと弓を構えるラスト\n# fadein \"black\" 1\n# se \"SE_4300\"\n# serif 0\n# textboxarrow 0 1\n# chara 600711\n# face 600711 \"amazed\"\n# voice 9974 \"lisa_pok_collabo0303_0032\"\n@リサ\n…え…？\n\n# serif 1\n# textboxarrow 1 2\n# chara 301111\n# face 301111 \"amazed\"\n# voice 9974 \"pinkey_pok_collabo0303_0028\"\n@ピンキー\nや、やっぱり、おかしいよ、これ…！\n\n# serif 0\n# textboxarrow 0 1\n# chara 600711\n# voice 9974 \"lisa_pok_collabo0303_0033\"\n@リサ\nだ、黙ってて…！\nね、ねぇ…これも、\n継承の儀式なの…？\n\n# serif 1\n# textboxarrow 1 3\n# chara 400151\n# voice 9974 \"arutemisu_k_pok_collabo0303_0005_1\"\n@ラスト\n黒魔術なら、\nあの世で学びなさい\n\n# serif 1\n# textboxarrow 1 3\n# chara 400151\n# face 400151 \"angry\"\n# voice 9974 \"arutemisu_k_pok_collabo0303_0005_2\"\n@ラスト\nさようなら…\n《黒式・蒼月嵐》ーっ！！\n\n;;【指定】SE_4828\n# se \"SE_4828\"\n# fadein \"blue\" 1\n# jump 301111\n# jump 600711\n# serif 0\n# textboxarrow 0 0\n# voice 9974 \"pinkey_pok_collabo0303_0029\"\n# voice 9974 \"lisa_pok_collabo0303_0034\"\n@リサ・ピンキー\nう、うわっ…！！\n\n;;リサ・ピンキーを襲うラストの矢\n;;だが…どこからか放たれた矢が、ラストの矢を弾き落とす\n;;【指定】SE_9017\n;;【指定】bgm037\n# bgmfile \"bgm037\" \"BgmStory004\" 0\n# se \"SE_9017\"\n# fadein \"white\" 1\n# serif 1\n# textboxarrow 1 3\n# chara 400151\n# voice 9974 \"arutemisu_k_pok_collabo0303_0006\"\n@ラスト\n…！\n\n# serif 0\n# textboxarrow 0 1\n# chara 600711\n# voice 9974 \"lisa_pok_collabo0303_0035\"\n@リサ\n…え…？\n\n# serif 1\n# textboxarrow 1 2\n# chara 301111\n# face 301111 \"surprise\"\n# voice 9974 \"pinkey_pok_collabo0303_0030\"\n@ピンキー\nは、早く、今のうちに…！\nもう、急いで！！\n\n;;リサの腕を掴み、強引に連れてゆくピンキー\n# serif 0\n# textboxarrow 0 1\n# chara 600711\n# voice 9974 \"lisa_pok_collabo0303_0036\"\n@リサ\nちょ、ちょっと…！？\n…えええ！？\n\n;;去ってゆくリサとピンキー\n# se \"SE_5575\"\n# textboxarrow 0 0\n# textboxarrow 1 0\n# leftout 301111 0.6\n# leftout 600711 0.6\n# waitandnext 1\n\n# serif 1\n# textboxarrow 1 3\n# chara 400151\n# face 400151 \"normal\"\n# voice 9974 \"arutemisu_k_pok_collabo0303_0007\"\n@ラスト\n…やれやれ…油断していたわね\n…招かれざる客には、\n退場いただかないと…\n\n"
	}
]