[
	{
		"ID": 350313211,
		"script": ";;-----------------------------------------\n;;■花嫁ソロモンキャラクエ\n;;【EP1_1】\n;;-----------------------------------------\n# script \"lisp\"\n# background \"angel_world\"\n# bgmfile \"bgm270\" \"BgmLostRagnarokEvent\" 0\n;;-----------------------------------------\n;;通常ソロモン\n# body 3503111\n# pos 3503111 3\n# scale 3503111 0.8 0\n# layer 3503111 2\n# alpha 3503111 0 0\n# mask 3503111 off\n;;着替えたソロモン\n# body 3503131\n# pos 3503131 3\n# scale 3503131 0.8 0\n# layer 3503131 2\n# alpha 3503131 0 0\n# mask 3503131 off\n;;グラウ\n# body 164\n# pos 164 2\n# scale 164 0.6 0\n# layer 164 5\n# alpha 164 0 0\n# mask 164 off\n;;-----------------------------------------\n# textflame 0 0\n# textwindow \"nomal\"\n@\nある日のこと、マスターと\nソロモンは物資調達のため、\nハルモニアへとやってきた\n\n# alpha 164 1 0.5\n# alpha 3503111 1 0.5\n# mask 3503111 off\n# face 3503111 \"normal\"\n# voice 5031 \"solomon_t_0003\"\n# textflame 1 1\n# textboxarrow 0 2\n;;ソロモン（以下、通常Ver）\n@ソロモン\n難なく侵入できたわね\n事前に警備の薄い場所を\n調査していてよかったわ\n\n# textflame 0 0\n@\nさすがソロモンだね\nと、マスターが感心すると\nソロモンは当然だという顔をする\n\n# textflame 1 1\n# textboxarrow 0 2\n@ソロモン\nどんな計画も最初が重要よ\n今日は特に\n念入りに準備したんだから\n\n;;できればもやもやフレームで\n# move 3503111 3 0\n# textflame 1 1\n# textboxarrow 0 0\n# textwindow \"moya\"\n# mask 3503111 off\n@ソロモン\n今日はマスターに私の悩みを\n聞いてもらう絶好の機会だもの\n1秒も無駄にはできないわ…\n\n# voice 5031 \"solomon_t_0069\"\n# textflame 1 1\n# textwindow \"nomal\"\n# textboxarrow 0 2\n@ソロモン\nグラウ、\n目的地への最短ルートを確認して\n\n# imageset 0 \"black\"\n# imagealpha 0 0 0\n# imagelayer 0 1\n# voice 9950 \"glau_0033\"\n# textflame 1 1\n# textboxarrow 0 1\n@グラウ\n承知しました\n\n;;演出：場面転換\n# imagealpha 0 1 0\n# imagepos 0 0 30\n# imageleftin 0 0.5\n# textwindow \"close\"\n# waitandnext 0.5\n\n;;背景：森\n# background \"forest\"\n# waitandnext 0.2\n\n# imagealpha 0 0 0.5\n# imagerightout 0 0.5\n# waitandnext 0.5\n\n# textflame 0 0\n# textwindow \"nomal\"\n@\nしかし、\nそうして辿り着いた先は\n街ではなく、街外れの森だった\n\n# textflame 0 0\n@\nどうして森に？\nと、尋ねるマスター\n\n# face 3503111 \"happy\"\n# voice 5031 \"solomon_t_0004\"\n# textflame 1 1\n# textboxarrow 0 2\n@ソロモン\nふふっ、\nここには店に売っていない\n珍しい香草があるのよ\n\n# textflame 1 1\n# textboxarrow 0 2\n@ソロモン\n薬草としても効果があるみたいなの\n以前、カリスに教えてもらって…\n\n;;できればもやもやフレームで\n# move 3503111 3 0\n# textflame 1 1\n# textboxarrow 0 0\n# textwindow \"moya\"\n# mask 3503111 off\n@ソロモン\nそれに、ここなら誰もいないし\n相談するにはうってつけよね\n\n# voice 9950 \"glau_0043\"\n# textflame 1 1\n# textwindow \"nomal\"\n# textboxarrow 0 1\n@グラウ\nソロモン、会話の途中ですが報告です\n男性を一人、発見しました\nハルモニア兵ではないようです\n\n# face 3503111 \"surprise\"\n# voice 5031 \"solomon_t_0022\"\n# textflame 1 1\n# textboxarrow 0 2\n@ソロモン\nこんな森に一人で…？ \n見られると面倒ね…\nあの木の陰に隠れましょう！\n\n# alpha 164 0 0.5\n# alpha 3503111 0 0.5\n# textflame 0 0\n@\nそんなときだった\nソロモンの後を追うマスターが、\nうっかり荷物を落としてしまう\n\n# textflame 0 0\n@\n音で顔をあげた男性は、\nマスターたちを見て驚き、\n固まってしまった\n\n# textflame 0 0\n@\nソロモンは\nすかさずマスターを隠し、\nゆっくりと男性に話しかける\n\n# alpha 3503111 1 0.5\n# mask 3503111 off\n# face 3503111 \"normal\"\n# voice 5031 \"solomon_t_0002\"\n# textflame 1 1\n# textboxarrow 0 2\n@ソロモン\nそのまま動かないで、\n私たちは香草を採りにきただけなの\n\n# textflame 1 1\n# textboxarrow 0 2\n@ソロモン\nすぐに立ち去るわ、\nだから、私たちのことは忘れて…\n\n# textflame 0 0\n@\nソロモンは男性にそう告げて\n森を去ろうとしたが、\n待ってくれ、と男性に声をかけられる\n\n# textflame 0 0\n@\n自分は仕立屋で染料の草を探していた\n怪しい者ではないので、\n話を聞いてほしい、と言う\n\n# textflame 0 0\n@\nソロモンはマスターを一瞥し、\nうなずくのを確認すると、\n警戒心を保ったまま口を開いた\n\n# voice 5031 \"solomon_t_0032\"\n# textflame 1 1\n# textboxarrow 0 2\n@ソロモン\n…いいわ、\nそれで、話というのは\nなにかしら？\n\n# textflame 0 0\n@\n仕立屋は、ソロモンに着てもらいたい\nドレスがある、どうしても貴女が必要\nなのだ、と必死に頼み込んできた\n\n# face 3503111 \"surprise\"\n# voice 5031 \"solomon_t_0023\"\n# textflame 1 1\n# textboxarrow 0 2\n@ソロモン\n…え？\nええっ！？私がドレスを！？\nそんなこと、急に言われても…\n\n# textflame 0 0\n@\n仕立屋は、貴族にドレスを依頼された\nが、試着や採寸なしで完璧に作らねば\n処罰されてしまう、とのこと\n\n# textflame 0 0\n@\n途方にくれていたが、ここで貴族と\n同じ体型のソロモンと出会えた、\nこれこそ神の啓示だ、と言う\n\n# face 3503111 \"sad\"\n# voice 5031 \"solomon_t_0031\"\n# textflame 1 1\n# textboxarrow 0 2\n@ソロモン\n協力してあげたいけど、\n貴族と関わるのは\n私たちにとって危険なことなの\n\n# textflame 1 1\n# textboxarrow 0 2\n@ソロモン\nだから、申し訳ないけど\n別の人を探してくれる？\n\n# textflame 0 0\n@\nソロモンにそう断られ、\n仕立屋はがっくりと肩を落とす\n\n# textflame 0 0\n@\nマスターは\n仕立屋がかわいそうになり\n協力してあげよう、とソロモンに頼む\n\n# face 3503111 \"normal\"\n# textflame 1 1\n# textboxarrow 0 2\n@ソロモン\nマスター…\n貴方に頼まれて、\n私が断われると思う？\n\n# face 3503111 \"sad\"\n# voice 5031 \"solomon_t_0028\"\n# textflame 1 1\n# textboxarrow 0 2\n@ソロモン\nうーん…\nできるだけ手短に終わらせてね？\n\n# textflame 0 0\n@\n仕立屋は大喜びでお礼を言い、\n気が変わらないうちに行こう、\nと、近くの作業場に案内された\n\n;;演出：場面転換\n# imagealpha 0 1 0\n# imagepos 0 0 30\n# imageleftin 0 0.5\n# textwindow \"close\"\n# waitandnext 0.5\n\n;;背景：室内\n# background \"church_room\"\n# alpha 3503111 0 0\n# waitandnext 0.2\n\n# imagealpha 0 0 0.5\n# imagerightout 0 0.5\n# waitandnext 0.5\n\n# alpha 3503131 1 0.5\n# mask 3503131 off\n# waitandnext 1\n\n# face 3503131 \"normal\"\n# voice 350313 \"solomon_t_0039\"\n# textflame 1 1\n# textwindow \"nomal\"\n# textboxarrow 0 2\n;;ソロモン（以下、ウェディングVer）\n@ソロモン\nドレスって、\nウェディングドレスだったのね\n\n# textflame 0 0\n@\n仕立屋は試作品のドレスを着た\nソロモンを見て、\n完璧な仕上がりに感動していた\n\n# textflame 0 0\n@\nこれで本番は安心だ、ありがとう\nと、仕立屋は大喜びだった\n\n# textflame 0 0\n@\n一方マスターは、いつもとは違う\nソロモンの姿に見とれていた\n髪型も変えて、まるで別人のようだ\n\n# face 3503131 \"usual\"\n# voice 350313 \"solomon_t_0002\"\n# textflame 1 1\n# textboxarrow 0 2\n@ソロモン\nねえマスター、このドレスで\n変装すれば、斬ル姫だとバレずに\nマスターを護衛できるわね\n\n# textflame 1 1\n# textboxarrow 0 2\n@ソロモン\nこのまま、このドレスを\n借りられないかな？\n\n# textflame 0 0\n@\n仕立屋は、それは無理だ、\nもしドレスのデザインが盗まれたら\n自分の首が飛んでしまう、と言う\n\n# textflame 0 0\n@\nマスターは仕立屋の言い分を聞き、\nしかたないね、ドレスは諦めよう\nと、ソロモンに話す\n\n# face 3503131 \"angry\"\n# voice 350313 \"solomon_t_0001\"\n# textflame 1 1\n# textboxarrow 0 2\n@ソロモン\nマスター、\n諦めるのはまだ早いわ\n\n# textflame 1 1\n# textboxarrow 0 2\n@ソロモン\n私たちは彼に協力したのだから、\nその代わりにドレスを借りたい、\nという交渉も可能だと思うけど？\n\n# textflame 0 0\n@\nそういう考え方もありだと思う、\nだけど、彼の安全を優先したいんだ\nと、マスターは意見を曲げなかった\n\n# face 3503131 \"usual\"\n# voice 350313 \"solomon_t_0003\"\n# textflame 1 1\n# textboxarrow 0 2\n@ソロモン\nそう、わかったわ\nそれじゃあ、着替えていきましょう\n\n# textflame 0 0\n@\nその時、待ってくれ\nこのまま送り出すことはできない\nと、仕立屋が二人を止める\n\n# face 3503131 \"angry\"\n# voice 350313 \"solomon_t_0022\"\n# textflame 1 1\n# textboxarrow 0 2\n@ソロモン\nどういうこと？\nまさか…\n誰かに、私たちのことを知らせた？\n\n# textflame 0 0\n@\nソロモンがそういって武器を構えると\n仕立屋は慌てて、そうじゃない、\nお礼がしたいのだ、と言い出した\n\n# textflame 0 0\n@\n命の恩人の頼みを断ろうだなんて\n自分は恥知らずだと反省した、\nこのドレスを着ていってくれ、という\n\n# face 3503131 \"surprise\"\n# textflame 1 1\n# textboxarrow 0 2\n@ソロモン\nでも、身に危険が及ぶのでしょう？\n\n# textflame 0 0\n@\nだからデザインを少し変えよう、\nこれで街に出れば宣伝にもなる\nと、仕立屋は手直し作業に取りかかる\n\n# textflame 0 0\n@\n仕立屋は、マスターが恩を盾にせず、\n自分の安全を考えてくれた優しさで\n目が覚めたのだ、と話す\n\n# face 3503131 \"happy\"\n# voice 350313 \"solomon_t_0004\"\n# textflame 1 1\n# textboxarrow 0 2\n@ソロモン\nさすが、マスターね…\n\n# textflame 0 0\n@\nソロモンは、マスターが駆け引きを\nせず、心で人の気持ちを動かした\nことに感心した\n\n;;できればもやもやフレームで\n# move 3503131 3 0\n# textflame 1 1\n# textboxarrow 0 0\n# textwindow \"moya\"\n# mask 3503131 off\n@ソロモン\nマスターならきっと、\n私の悩みも解決してくれるはず\n\n;;できればもやもやフレームで\n# move 3503131 3 0\n# textflame 1 1\n# textboxarrow 0 0\n# textwindow \"moya\"\n# mask 3503131 off\n@ソロモン\n私が仲間の斬ル姫と\nもっと仲良くなれる方法を\n教えてくれるに違いないわ…"
	}
]