[
	{
		"ID": 35031222,
		"script": ";;-----------------------------------------\n;;【PK】人気投票1位_ソロモン_シナリオ\n;;【EP2バトル前】\n;;背景：草原\n;;-----------------------------------------\n# script \"lisp\"\n# background \"plain\"\n# bgmfile \"bgm270\" \"BgmLostRagnarokEvent\" 0\n;;-----------------------------------------\n# body 3503121\n# pos 3503121 3\n# scale 3503121 0.8 0\n# alpha 3503121 1 0\n# mask 3503121 off\n;;ソロモン\n# body 3503111\n# alpha 3503111 0 0\n;;グラウ\n# body 164\n# pos 164 3\n# scale 164 0.6 0\n# alpha 164 0 0\n# mask 164 off\n;;-----------------------------------------\n# face 3503121 \"sad\"\n# voice 350312 \"solomon_t_0028\"\n# textflame 1 1\n# textboxarrow 0 2\n@ソロモン\n落ち着くのよソロモン\n休むの。私。休むの\n今から全力で。休むの\n\n# textflame 0 0\n@\n休暇初日\nソロモンは休日の最適解を導き出す為\n分析と考察を繰り返していた\n\n# face 3503121 \"angry\"\n# voice 350312 \"solomon_t_0029\"\n# textflame 1 1\n# textboxarrow 0 2\n@ソロモン\nはああぁぁぁっ！！\n\n# alpha 3503121 0 1\n# se \"SE_3001\"\n# textboxarrow 0 0\n# waitandnext 1\n\n# textflame 0 0\n@\nソロモンは雄叫びを上げると\nその場からジャンプ、体を広げ\n生い茂る草むらに飛び込む\n\n# alpha 164 1 0.5\n# voice 9950 \"glau_0043\"\n# textflame 1 1\n# textboxarrow 0 2\n@グラウ\nソロモン\n草むらへのダイブにより\nマントに緑色のシミが\n\n@グラウ\n戦闘中でもないのに\n衣服を汚されますと\n\n# move 3503121 4 0\n# alpha 3503121 1 0.5\n# move 164 2 0.5\n# face 3503121 \"surprise\"\n# voice 350312 \"solomon_t_0022\"\n# textflame 1 1\n# textboxarrow 0 3\n@ソロモン\nしまった、草原に寝転ぶと\n休日感が出るかと考えたのだけれど\n違うかしら\n\n# voice 9950 \"glau_0034\"\n# textboxarrow 0 1\n@グラウ\n違うかと\n後でクリーニングをする\n私の立場にもなってください\n\n# face 3503121 \"sad\"\n# voice 350312 \"solomon_t_0018\"\n# textboxarrow 0 3\n@ソロモン\nなんてこと…\n休日なのに、グラウにまで迷惑を\nかけてしまうなんて…\n\n# textboxarrow 0 1\n@グラウ\nいえ、別にそれはいいのですが\n一旦リラックス出来るよう\n部屋着に着替えるというのは\n\n# face 3503121 \"normal\"\n# voice 350312 \"solomon_t_0026\"\n# textboxarrow 0 3\n@ソロモン\nそんなモノないわ\n\n# textboxarrow 0 1\n@グラウ\nえ\n\n# face 3503121 \"angry\"\n# voice 350312 \"solomon_t_0007\"\n# textboxarrow 0 3\n@ソロモン\n寝込みが一番危険よ\n最も備えておくべき\nいつでも戦闘態勢に入れなくては\n\n# voice 9950 \"glau_0003\"\n# textboxarrow 0 1\n@グラウ\nあ、そうですか\nそうですよね\n\n# face 3503121 \"normal\"\n# textboxarrow 0 3\n@ソロモン\nそれにこの首に巻いたリング\n花の香りがして、気持ちがいいし\nふわふわしているわ\n\n# textboxarrow 0 1\n@グラウ\nあ、そうですか\nふわふわしているんですね\nよかったですね\n\n# voice 350312 \"solomon_t_0028\"\n# textboxarrow 0 3\n@ソロモン\n早朝から定期トレーニングをこなし\nお風呂に入って身を清めたわ\n定時にご飯を食べ、武具を手入れした\n\n# textboxarrow 0 3\n@ソロモン\nこれ以上なにをしろっていうの？\n休日なのに\n\n# voice 9950 \"glau_0002\"\n# textboxarrow 0 1\n@グラウ\n休んでください\n\n# face 3503121 \"angry\"\n# voice 350312 \"solomon_t_0013\"\n# textboxarrow 0 3\n@ソロモン\n休む暇なんてないのよ！\n\n# voice 9950 \"glau_0034\"\n# textboxarrow 0 1\n@グラウ\nいえ、あの、休日ですから\n\n# face 3503121 \"surprise\"\n# voice 350312 \"solomon_t_0026\"\n# textboxarrow 0 3\n@ソロモン\nああ\nううんんん…！\n\n# textboxarrow 0 1\n@グラウ\nご趣味のボードゲームに興じては\n\n# face 3503121 \"normal\"\n# textboxarrow 0 3\n@ソロモン\nあれは戦争よ\n\n# voice 9950 \"glau_0019\"\n# textboxarrow 0 1\n@グラウ\nゲームでは…？\n\n# face 3503121 \"angry\"\n# voice 350312 \"solomon_t_0007\"\n# textboxarrow 0 3\n@ソロモン\n緩んだ気持ちで挑むものではないわ\nゲームは戦いであり精神の拠り所で\n時間を投資する最上の娯楽なのよ\n\n# textboxarrow 0 1\n@グラウ\n人によりますよね\n\n# face 3503121 \"normal\"\n# voice 350312 \"solomon_t_0069\"\n# textboxarrow 0 3\n@ソロモン\nグラウ\n通常、一般的な休日の過ごし方って\nどういうものなの？\n\n# voice 9950 \"glau_0003\"\n# textboxarrow 0 1\n@グラウ\n人によりますね\n\n# face 3503121 \"angry\"\n# voice 350312 \"solomon_t_battle_0007\"\n# textboxarrow 0 3\n@ソロモン\nクゥッ…！\n人によるのか…！\n\n# textflame 0 0\n@\n腰を下ろすと\n苦悶の表情で頭を抱えるソロモン\n\n# face 3503121 \"angry\"\n# voice 350312 \"solomon_t_0037\"\n# textflame 1 1\n# textboxarrow 0 3\n@ソロモン\nこのままじゃ、せっかく休暇をくれた\nマスターに顔向けが出来ないわ…！\n一体、私はどうすればいいの…ッ！？\n\n# textboxarrow 0 1\n@グラウ\n休んでください\n\n# face 3503121 \"normal\"\n# voice 350312 \"solomon_t_0028\"\n# textboxarrow 0 3\n@ソロモン\nマスター…休暇…\n休む…\n………ハッ！！\n\n# voice 9950 \"glau_0044\"\n# textboxarrow 0 1\n@グラウ\nソロモン？\n\n# textboxarrow 0 3\n@ソロモン\n解ったわ\n\n# imageset 0 \"black\"\n# imagealpha 0 0 0\n# imagelayer 0 1\n# waitandnext 0.1\n\n;;演出：場転\n# imagealpha 0 1 0\n# imagepos 0 0 30\n# imageleftin 0 0.5\n# textwindow \"close\"\n# waitandnext 1\n\n;;背景：森\n# move 3503121 3 0\n# alpha 164 0 0\n# background \"forest\"\n# imagealpha 0 0 0.5\n# imagerightout 0 0.5\n# face 3503121 \"angry\"\n# voice 350312 \"solomon_t_0001\"\n# textwindow \"nomal\"\n# textflame 1 1\n# textboxarrow 0 2\n@ソロモン\n公式に当てはめると、こうです！！\n\n# textflame 0 0\n@\nソロモンはおもむろに\nマスターの元へやってくると\nピッタリと身を寄せる\n\n;;選択肢\n# select \"こ、公式…？\" \"select_label_01\" \"あ、あったか～い\" \"select_label_02\" \"グラウと休んでおいでよ\" \"select_label_03\"\n@\nソロモンはおもむろに\nマスターの元へやってくると\nピッタリと身を寄せる\n\n;;アンサー\n# label \"select_label_01\"\n# labeljump \"select_label_end\"\n# face 3503121 \"angry\"\n# voice 350312 \"solomon_t_0003\"\n# textflame 1 1\n# textboxarrow 0 2\n@ソロモン\n問題解決における法則式のことです！\n\n# label \"select_label_02\"\n# labeljump \"select_label_end\"\n# face 3503121 \"normal\"\n# voice 350312 \"solomon_t_0004\"\n# textflame 1 1\n# textboxarrow 0 2\n@ソロモン\n寒いのであれば私で温まってください\n\n# label \"select_label_03\"\n# labeljump \"select_label_end\"\n# face 3503121 \"sad\"\n# voice 350312 \"solomon_t_0028\"\n# textflame 1 1\n# textboxarrow 0 2\n@ソロモン\nグラウは、その、マントの洗浄が…\n\n# label \"select_label_end\"\n# textflame 0 0\n@\nソロモンの体温と柔らかさを感じ\n良い香りがマスターの鼻腔をくすぐる\n\n# face 3503121 \"normal\"\n# voice 350312 \"solomon_t_0002\"\n# textflame 1 1\n# textboxarrow 0 2\n@ソロモン\n休日とは休むモノ\n日々の心身の疲れを取る為のモノ\nそうですよね\n\n# textflame 0 0\n@\n吐息さえかかるほど密着し\nすぐ横でしゃべり続けるソロモンに\n身を硬直させてしまうマスター\n\n@\nしかしそんなマスターの様子に構わず\n自慢げに、恥ずかしげもなく\n言葉を続けるソロモン\n\n# face 3503121 \"happy\"\n# voice 350312 \"solomon_t_0004\"\n# textflame 1 1\n# textboxarrow 0 2\n@ソロモン\n自分の心休まる場所は…と考えた時に\nマスターの傍が最も適している\nという解になりました！\n\n;;演出：場転（時間経過）\n# textwindow \"close\"\n# fadeout \"black\" 1\n# waitandnext 1\n\n# fadein \"black\" 1\n# waitandnext 1\n\n# textwindow \"nomal\"\n# textflame 0 0\n@\nソロモンもバカではない\n\n@\n自身の行動が最適な解だったかどうか\n確かめるために\n“検算”も行うわけだが…\n\n# face 3503121 \"happy\"\n# voice 350312 \"solomon_t_0001\"\n# textflame 1 1\n# textboxarrow 0 2\n@ソロモン\nマスター…\n\n# textflame 0 0\n@\nソロモンの急な接近に\n落ち着かないマスターは\n彼女に休むよう伝え、戦場へ出ていく\n\n@\n宿場に残されたソロモンは\n自分の行動に対しての\nマスターの様子を思い起こしていた\n\n# face 3503121 \"surprise\"\n# voice 350312 \"solomon_t_0022\"\n# textflame 1 1\n# textboxarrow 0 2\n@ソロモン\n自己分析としては\n適した解の休日だけど\nこれではマスターが休まらない…？\n\n# face 3503121 \"normal\"\n@ソロモン\nしかしマスターからの\n提案を守るのであれば\n適した解に従わなければ…\n\n# textflame 0 0\n@\n聞き役となるグラウも\n今はマントを洗浄中\nソロモンは独り、悩む\n\n# face 3503121 \"sad\"\n# voice 350312 \"solomon_t_0013\"\n# textflame 1 1\n# textboxarrow 0 2\n@ソロモン\nだけど、マスターのさっきの顔…\n浮かない表情、だった…\n\n# textflame 0 0\n@\n詳細な観察力、優れた分析能力が\n悪い方向へ走り、思考が段々と\n負のスパイラルに陥っていくソロモン\n\n# face 3503121 \"surprise\"\n# voice 350312 \"solomon_t_0023\"\n# textflame 1 1\n# textboxarrow 0 2\n@ソロモン\nまさか…休みを与えられたのも\n自分がなにか、どこかで\n間違いを犯したから…？\n\n;;演出：暗転\n# fadeout \"black\" 0.5\n# textboxarrow 0 0\n# textwindow \"close\"\n# waitandnext 0.5\n\n# alpha 3503121 0 0\n# waitandnext 0.2\n\n# fadein \"black\" 0.5\n# background \"bg_black\"\n# alpha 3503121 1 0.8\n# waitandnext 0.8\n\n# face 3503121 \"normal\"\n# textwindow \"nomal\"\n# textflame 1 1\n# textboxarrow 0 2\n@ソロモン\n名声も栄誉も、怖くなる時がある\n\n@ソロモン\n我がキラーズの指輪の持ち主である\nソロモン王は知恵の深さとは別に\n他者への負担を顧みないこともあった\n\n@ソロモン\n聖鎖された天使アテナは\n生誕しただけで宇宙を揺るがし\n太陽の動きすら止めたと言われる\n\n# face 3503121 \"surprise\"\n# voice 350312 \"solomon_t_0022\"\n@ソロモン\nまさか私は…\nマスターの重荷になっているのでは？"
	}
]