[
	{
		"ID": 360041212,
		"script": ";;-----------------------------------------\n;;■幻獣カドケウス・キャラクエ　シナリオ\n;;【ＥＰ２】戦闘前\n;;スクリプト最後の背景：forest_totaleclipse\n;;背景：森（夜）\n;;-----------------------------------------\n# script \"lisp\"\n# background \"forest_totaleclipse\"\n# bgmfile \"bgm271\" \"BgmLostRagnarokEvent\" 0\n;;-----------------------------------------\n;;カドケウス\n# body 3600411\n# pos 3600411 3\n# scale 3600411 0.8 0\n# layer 3600411 2\n# alpha 3600411 0 0\n# mask 3600411 off\n;;-----------------------------------------\n;;【ＥＰ２】\n# voice 360041 \"kadokeusu_ge_0037\"\n# move 3600411 3 0\n# face 3600411 \"angry\"\n# alpha 3600411 1 0\n# mask 3600411 off\n# textflame 1 1\n# textboxarrow 0 2\n@カドケウス\n…くっ！\n\n;;モノローグ\n# textflame 0 0\n@\n敵陣に捕らえられてしまった\nカドケウス\n\n;;:;モヤモヤ吹き出し\n# move 3600411 3 0\n# mask 3600411 off\n# textflame 1 1\n# textboxarrow 0 0\n# textwindow \"moya\"\n@カドケウス\n私を人質に仲間を誘き出し、\n隊を全滅させようというのね…\n\n;;:;モヤモヤ吹き出し\n# textboxarrow 0 0\n@カドケウス\nみんなに…迷惑はかけられない…！\n\n;;モノローグ\n# textflame 0 0\n@\n必死に腕の拘束具を外そうとする彼女\n\n# textflame 1 1\n# textboxarrow 0 2\n# textwindow \"normal\"\n@カドケウス\nぐっ…！\nこんな…もの…！\n\n;;モノローグ\n# textflame 0 0\n@\n一人で何とかしようと\n奮闘するも、\n心の奥底では…\n\n;;:;モヤモヤ吹き出し\n# move 3600411 3 0\n# face 3600411 \"sad\"\n# mask 3600411 off\n# textflame 1 1\n# textboxarrow 0 0\n# textwindow \"moya\"\n@カドケウス\nマスター…\n\n;;モノローグ\n# textflame 0 0\n@\n白馬に跨った王子様が\n助けに来てくれることを、\nどこか期待していた\n\n# textwindow \"close\"\n# fadeout \"black\" 1\n# waitandnext 1.2\n\n# bgmfile \"bgm270\" \"BgmLostRagnarokEvent\" 0\n# move 3600411 3 0\n# face 3600411 \"sad\"\n# mask 3600411 off\n# waitandnext 0.1\n\n# fadein \"black\" 1\n# waitandnext 1\n\n;;モノローグ\n# textwindow \"normal\"\n@\nそして数時間後…\n\n;;モノローグ\n@\nやっと見つけたよ、と\n緊張が混じった小声が聞こえた\n\n# voice 360041 \"kadokeusu_ge_0024\"\n# face 3600411 \"surprise\"\n# textflame 1 1\n# textboxarrow 0 2\n# textwindow \"normal\"\n@カドケウス\n！！\n\n# textboxarrow 0 2\n@カドケウス\nマ、マスター！\n\n;;モノローグ\n# textflame 0 0\n@\n心に願った通り、\n本当にマスターが\n助けに来てくれた\n\n;;モノローグ\n@\n…だが、\n\n# face 3600411 \"sad\"\n# textflame 1 1\n# textboxarrow 0 2\n@カドケウス\nいや、あの…\n\n;;モノローグ\n# textflame 0 0\n@\n白馬に跨った…とは程遠く、\n\n;;モノローグ\n@\nし～……と、\n敵の目を盗みながら、\nコソコソと現れたのだ\n\n# voice 360041 \"kadokeusu_ge_0013\"\n# textflame 1 1\n# textboxarrow 0 2\n@カドケウス\nそれじゃ…泥棒じゃん\n\n# textboxarrow 0 2\n@カドケウス\n助けに来てくれたのは\n嬉しいけど…\n\n# voice 360041 \"kadokeusu_ge_0015\"\n# textboxarrow 0 2\n@カドケウス\nなんか…\n思ってたのと違う…\n\n;;モノローグ\n# textflame 0 0\n@\nがっくりする彼女\n\n;;モノローグ\n# alpha 3600411 0 0.5\n@\nだがマスターは敵に気付かれぬよう、\n縛っていた拘束具を切ってくれた\n\n;;モノローグ\n@\n隠れながら、\nコソコソと逃げる\nマスターとカドケウス\n\n# move 3600411 3 0\n# face 3600411 \"normal\"\n# alpha 3600411 1 0.5\n# mask 3600411 off\n# textflame 1 1\n# textboxarrow 0 2\n@カドケウス\nあ、そう言えば、\n隊のみんなは？\n\n# voice 360041 \"kadokeusu_ge_0022\"\n# face 3600411 \"surprise\"\n# textboxarrow 0 2\n@カドケウス\n…え！？\n\n;;モノローグ\n# textflame 0 0\n@\nマスターの答えに驚く彼女\n\n# voice 360041 \"kadokeusu_ge_0018\"\n# textflame 1 1\n# textboxarrow 0 2\n@カドケウス\n一人で…来てくれたの…？\n\n;;モノローグ\n# textflame 0 0\n@\nなんとマスターは、\n町の人の噂話から\nカドケウスが捕まったと思い、\n\n;;モノローグ\n@\nたった一人で、\n一目散に駆けてきたのだ\n\n# textflame 1 1\n# textboxarrow 0 2\n@カドケウス\n………\n\n;;モノローグ\n# textflame 0 0\n@\n驚きを隠せない彼女\n\n# voice 360041 \"kadokeusu_ge_0009\"\n# face 3600411 \"sad\"\n# textflame 1 1\n# textboxarrow 0 2\n@カドケウス\nもう…なにも考えてないんだから\n\n# textboxarrow 0 2\n@カドケウス\n一人で来て、\nマスターが捕まっちゃったら、\nどうすんのよ！？\n\n;;モノローグ\n# textflame 0 0\n@\nごめん…君が心配で、\n気が付いたら体が勝手に動いてたんだ\nそう返すマスター\n\n# face 3600411 \"surprise\"\n# textflame 1 1\n# textboxarrow 0 2\n@カドケウス\n…！\n\n# face 3600411 \"sad\"\n# textboxarrow 0 2\n@カドケウス\n…ほんとに…バカなんだから…\n\n# textboxarrow 0 2\n@カドケウス\nでも…\n\n# textboxarrow 0 2\n@カドケウス\nありが……\n\n;;モノローグ\n# bgm \"stop\"\n# textflame 0 0\n@\nマスターを見直し、\nお礼を言いかけた、\nその瞬間…\n\n# bgmfile \"bgm276\" \"BgmLostRagnarokEvent\" 0\n;;モノローグ\n@\n危ない！！\nマスターが叫んだ\n\n# voice 360041 \"kadokeusu_ge_0024\"\n# face 3600411 \"surprise\"\n# textflame 1 1\n# textboxarrow 0 2\n@カドケウス\n…！\n\n;;モノローグ\n# textflame 0 0\n@\nうぐっ！！\nカドケウスを庇い、\n敵兵の攻撃を受け負傷してしまう\n\n# face 3600411 \"angry\"\n# textflame 1 1\n# textboxarrow 0 2\n@カドケウス\nマスターッ！！\n\n;;モノローグ\n# textflame 0 0\n@\n駆け寄る彼女\n\n# voice 360041 \"kadokeusu_ge_0023\"\n# face 3600411 \"surprise\"\n# textflame 1 1\n# textboxarrow 0 2\n@カドケウス\n…！\n\n# textboxarrow 0 2\n@カドケウス\nこんなに…血が…\n\n;;:;モヤモヤ吹き出し\n# move 3600411 3 0\n# face 3600411 \"angry\"\n# mask 3600411 off\n# textboxarrow 0 0\n# textwindow \"moya\"\n@カドケウス\n一刻も早く治療しなければ…\n命が危ない！！\n\n;;モノローグ\n# textflame 0 0\n@\n杖を握り、彼女が立ち上がった\n\n# voice 360041 \"kadokeusu_ge_0001\"\n# face 3600411 \"angry\"\n# textflame 1 1\n# textboxarrow 0 2\n# textwindow \"normal\"\n@カドケウス\n待っててね、マスター！\n私が…\n\n# textboxarrow 0 2\n@カドケウス\n絶対に助けるから！！"
	}
]