[
	{
		"ID": 360111201,
		"script": ";;天使ヴァナルガンド_EP1\n# script \"lisp\"\n# background \"plain\"\n# bgm \"bgm002\" 0\n# body 3601111\n# pos 3601111 3\n# mask 3601111 off\n# textflame 0 0\n@\nマスターの隊に新しく入った姫、\nヴァナルガンド\n\n# textflame 0 0\n@\n普段はおっとりした性格の彼女\nだが、いざ戦闘になると…\n\n# face 3601111 \"angry\"\n# textflame 1 1\n# textboxarrow 0 2\n# chara 3601111\n@ヴァナルガンド\n下がっていて下さい、\nマスター！\n\n# face 3601111 \"normal\"\n# textflame 0 0\n@\nマスターを避難させると、\n彼女は敵に正対し、\n恐るべき眼力で睨み付けた\n\n# textflame 1 1\n# textboxarrow 0 2\n# chara 3601111\n@ヴァナルガンド\n私の邪視の力で\n相手の動きを止めます\n決して逃しはしません\n\n;;吹き出し大きく\n# face 3601111 \"angry\"\n# serif 0\n# textwindow \"close\"\n# serif 1\n# textwindow \"toge\"\n# textsize 36\n# textflame 1 1\n# textboxarrow 0 2\n# chara 3601111\n# voice 360111 \"vanargand_t_0029\"\n@ヴァナルガンド\nはぁぁぁっ！\n\n# serif 1\n# textwindow \"close\"\n# serif 0\n# textwindow \"normal\"\n# textsize 24\n# textflame 0 0\n@\n杖を敵に向ける彼女\n\n# textflame 1 1\n# textboxarrow 0 2\n# chara 3601111\n@ヴァナルガンド\nこれで最後です！\n\n# textflame 1 1\n# textboxarrow 0 2\n# chara 3601111\n@ヴァナルガンド\n私の前に立ったこと、\n後悔しなさい！\n\n# serif 0\n# textwindow \"close\"\n# se \"SE_5223\"\n# shake 0 0.5\n# waitandnext 1.5\n\n# serif 0\n# textwindow \"normal\"\n# textflame 0 0\n@\n彼女の発する強大な力に飲み込まれ、\n敵は跡形もなく消滅するのだった…\n\n# face 3601111 \"normal\"\n# textflame 1 1\n# textboxarrow 0 2\n# chara 3601111\n@ヴァナルガンド\n…ふぅ\n\n# textflame 0 0\n@\n…と、戦闘時は凛々しく、\n頼もしい戦士\n\n# textflame 0 0\n@\nしかし、戦闘が終わった途端…\n\n# face 3601111 \"happy\"\n# textflame 1 1\n# textboxarrow 0 2\n# chara 3601111\n# voice 360111 \"vanargand_t_0001\"\n@ヴァナルガンド\nマスターさぁ～ん！\n\n# textflame 1 1\n# textboxarrow 0 2\n# chara 3601111\n@ヴァナルガンド\n大丈夫でしたかぁ？\nお怪我はありませんでしたぁ？\n\n# textflame 1 1\n# textboxarrow 0 2\n# chara 3601111\n# voice 360111 \"vanargand_t_0033\"\n@ヴァナルガンド\n痛いところがあったら言ってくださね\n痛いの痛いの飛んでけ～って、\nしてあげますからね\n\n# textflame 0 0\n@\n…と、おっとりお姉さんに早変わりだ\n\n# fadeout \"black\" 1.5\n# waitandnext 1.5\n\n# background \"town_evening\"\n# alpha 3601111 0 0\n# waitandnext 0.8\n\n# fadein \"black\" 1\n# textflame 0 0\n@\nそんな、ある日の夕方─\n\n# alpha 3601111 1 0.5\n# textflame 1 1\n# textboxarrow 0 2\n# chara 3601111\n# voice 360111 \"vanargand_t_0002\"\n@ヴァナルガンド\nマスターさぁん、\n今日の夕飯は何にします？\n\n# textflame 0 0\n@\nそう聞かれて、\n思わず「野菜少なめで」と答えると\n\n# face 3601111 \"normal\"\n# textflame 1 1\n# textboxarrow 0 2\n# chara 3601111\n# voice 360111 \"vanargand_t_0012\"\n@ヴァナルガンド\nダメですよ～？\n好き嫌いを言ったら\n\n# textflame 1 1\n# textboxarrow 0 2\n# chara 3601111\n# voice 360111 \"vanargand_t_0011\"\n@ヴァナルガンド\nなんでも食べないと、\n健康に良くありませんし、\n大きくなれませんよ～？\n\n# textflame 0 0\n@\nまるで\n子供をあやすような口調で\n言ってくる\n\n# textflame 0 0\n@\nそんな世話好きな彼女に、\nマスターは気になっていたことを\n尋ねてみた\n\n# face 3601111 \"surprise\"\n# textflame 1 1\n# textboxarrow 0 2\n# chara 3601111\n@ヴァナルガンド\n…！\n\n# textflame 1 1\n# textboxarrow 0 2\n# chara 3601111\n# voice 360111 \"vanargand_t_0022\"\n@ヴァナルガンド\n…え？\n\n# textflame 1 1\n# textboxarrow 0 2\n# chara 3601111\n@ヴァナルガンド\n戦闘時の\n“キリッと”な私と…\n\n# textflame 1 1\n# textboxarrow 0 2\n# chara 3601111\n@ヴァナルガンド\n普段の\n“おっとり”の私…\n\n# textflame 1 1\n# textboxarrow 0 2\n# chara 3601111\n@ヴァナルガンド\nどっちが本当の私か、ですか～…？\n\n# face 3601111 \"sad\"\n# textflame 1 1\n# textboxarrow 0 2\n# chara 3601111\n@ヴァナルガンド\nそ、それはぁ～…\n\n# textflame 1 1\n# textboxarrow 0 2\n# chara 3601111\n# voice 360111 \"vanargand_t_0028\"\n@ヴァナルガンド\nう～ん……\n\n# textflame 0 0\n@\nと、夕食の準備も忘れ、\n考え込んでしまうのであった\n"
	}
]