[
	{
		"ID": 3602524,
		"script": ";;-----------------------------------------\n;;【PK】クリスマス・カリスキャラクエ\n;;【EP3】\n;;//背景：森\n;;教会の描写なのでmountainにしています\n;;-----------------------------------------\n# script \"lisp\"\n# background \"mountain\"\n# bgm \"bgm032\" 0\n;;-----------------------------------------\n;;カリス（クリスマス用のボイスを鳴らすための呼び出し）\n# body 3602511\n# alpha 3602511 0 0\n;;カリス（クリスマス）\n# body 3602521\n# pos 3602521 3\n# scale 3602521 0.8 0\n# layer 3602521 2\n# alpha 3602521 0 0\n# mask 3602521 off\n;;-----------------------------------------\n# textflame 0 0\n@\nしばらく経ってから\nカリスの姿を見失い、\n再び捜索していたマスター\n\n# alpha 3602521 1 0.5\n@\nようやく見つけたカリスは、\n古い教会をじっと見つめていた\n\n# textflame 1 1\n# textboxarrow 0 2\n# face 3602521 \"normal\"\n# voice 360252 \"chalice_t_0004\"\n@カリス\nあ、マスター！\n探しにきてくれたの？\n\n# textflame 0 0\n@\n頷き、どうしてこんなところに？\nと問いかけるマスター\n\n# textflame 1 1\n# textboxarrow 0 2\n# face 3602521 \"shy\"\n@カリス\nん…初めて自分のために祈ったから\nなんだか不思議な気分でさ\n\n@カリス\n気づいたら、ここに来ちゃってた\n\n# textflame 0 0\n@\nそういえば、カリスが何を祈ったのか\n聞いていなかったと、\n再び問いかけるマスター\n\n# textflame 1 1\n# textboxarrow 0 2\n# face 3602521 \"sad\"\n# voice 360252 \"chalice_t_0024\"\n@カリス\nううぅ…\nどうしても教えなきゃダメ…？\n\n# textflame 0 0\n@\nカリスが何を祈ったのかを知るのが\n自分のクリスマスの願いだ、と\n食い下がるマスター\n\n# textflame 1 1\n# textboxarrow 0 2\n# voice 360252 \"chalice_t_0026\"\n@カリス\nずるいよぉ…そんなの…\n\n# textflame 0 0\n@\n少しの間、沈黙が流れたが\nカリスの口が再び開く\n\n# textflame 1 1\n# textboxarrow 0 2\n# face 3602521 \"shy\"\n# voice 360252 \"chalice_t_0002\"\n@カリス\nねえ、マスターはどうして\n私の願い事を知りたいの？\n\n# textflame 0 0\n@\n唐突な質問だったが、\n仲間の願い事を知りたいと思うのは\n当然のこと\n\n@\nそして、願い事の内容を知らないと\n叶えてあげることができない\n約束したじゃないか、とマスター\n\n# textflame 1 1\n# textboxarrow 0 2\n# face 3602521 \"normal\"\n# voice 360252 \"chalice_t_0040\"\n@カリス\nそっか…\nねえ、マスター\n聞いてもいい？\n\n# face 3602521 \"sad\"\n@カリス\n私の力は、みんなの願いを叶える力…\n…でも、時にはこの力が人の生き方を\n狂わせることもある\n\n@カリス\nもしかしたら、マスターの生き方も\n狂わせちゃうかもしれない…\nそんな私を仲間だって思ってくれる？\n\n@カリス\n…何があっても、そばにいてくれる？\n一緒に、いてくれる？\n\n# textflame 0 0\n@\nいつになく必死なカリスに\nもちろん、と力強く答えるマスター\n\n# textflame 1 1\n# textboxarrow 0 2\n# face 3602521 \"normal\"\n# voice 360252 \"chalice_t_0004\"\n@カリス\n…そっか\nありがとう、マスター\n\n@カリス\n私、マスターのためにこの力を使う\nそして、何があってもマスターのこと\n守ってみせるんだからっ\n\n# face 3602521 \"happy\"\n# voice 360252 \"chalice_t_0033\"\n@カリス\n約束するよっ！\n\n# textflame 0 0\n@\nその約束は\nカリスの心に、新たな光を\n灯すこととなった\n\n# fadein \"white\" 0.5\n# se \"SE_0602\"\n@\nそれは新スキル\n理砕『祝福の音色』\nという力強い光だった\n\n# textflame 1 1\n# textboxarrow 0 2\n# face 3602521 \"normal\"\n# voice 360252 \"chalice_t_0005\"\n@カリス\nへへへっ\nじゃあ、戻ろっか！\n\n# textflame 0 0\n@\nまだ、カリスの願い事の内容を\n聞いてない、とマスター\n\n# textflame 1 1\n# textboxarrow 0 2\n# face 3602521 \"surprise\"\n@カリス\nえっ…？\nその…マスターとこれからも\n一緒にいられますように…って\n\n# textflame 0 0\n@\nしかし、カリスの声は小さく\nマスターには届かない\n再び聞き返すマスター\n\n# textflame 1 1\n# textboxarrow 0 2\n# face 3602521 \"shy\"\n@カリス\nい、いいじゃんそんなことっ！\nそれより街に戻ろう！まだ\nクリスマスは終わってないからねっ！\n\n# face 3602521 \"normal\"\n# voice 360252 \"chalice_t_0005\"\n@カリス\nみんなを笑顔にするために、もっと\nも〜っとミラクルを起こすんだ！\nだって…\n\n# imageset 1 \"c3602521\"\n# imagealpha 1 0 0\n# imagelayer 1 1\n# face 3602521 \"happy\"\n# voice 360252 \"chalice_t_0004\"\n@カリス\nカリスちゃんは、\n天使なんだからっ！！\n;;//カリスの笑顔が弾ける\n\n;;〈一枚絵〉\n;;絵はEP2と同じ\n;;カリス　「わたしの力はみんなの願いを叶える力…\n;;         でも、これは人々の生き方を狂わせてしまった力…\n;;         そんなわたしが、マスターとのこれからを願ってもいいのかな？」\n;;：chalice_t_kyara_0025\n# textwindow \"close\"\n# fadein \"white\" 3\n# buttonsout 0 0\n# imagealpha 1 1 0\n# imagepos 1 0 0\n# alpha 3602521 0 0\n# voice 360252 \"chalice_t_kyara_0025\"\n\n# frameout 0 1\n\n# fadeout \"black\" 1.5\n# waitandnext 1.5"
	}
]