[
	{
		"ID": 360201212,
		"script": ";;-----------------------------------------\n;;■神令ネス・キャラクエ シナリオ\n;;【ＥＰ２】戦闘前\n;;スクリプト最後の背景：forest\n;;背景：plain\n;;-----------------------------------------\n# script \"lisp\"\n# background \"plain\"\n# bgmfile \"bgm270\" \"BgmLostRagnarokEvent\" 0\n;;-----------------------------------------\n;;神令ネス\n# body 3602011\n# pos 3602011 3\n# scale 3602011 0.8 0\n# layer 3602011 2\n# alpha 3602011 0 0\n# mask 3602011 off\n;;-----------------------------------------\n;;【ＥＰ２】\n;;モノローグ\n# textflame 0 0\n@\n神令ネスが隊のトップになってから、\n規律は格段に厳しくなった\n\n# move 3602011 3 0\n# face 3602011 \"normal\"\n# alpha 3602011 1 0.5\n# mask 3602011 off\n# textflame 1 1\n# textboxarrow 0 2\n@ネス\n世界を正しく導くために、\n無駄を省き秩序を維持する\n…それがわたしの義務ですから…\n\n;;モノローグ\n# textflame 0 0\n@\nそれは戦闘時だけではなく、\n起床時間や食事制限など、\n日常生活にも強く及んだ\n\n# textflame 1 1\n# textboxarrow 0 2\n@ネス\nこの程度のことで音を上げるとは…\n今まで余程たるんだ生活を\n送っていたようですね\n\n# face 3602011 \"angry\"\n# textboxarrow 0 2\n@ネス\nいいでしょう…\nこのわたしが徹底的に\n鍛え直してあげます\n\n;;モノローグ\n# textflame 0 0\n@\n彼女の支配的なやり方に\nどんどん疲弊していく姫たち\n\n;;モノローグ\n@\nそして遂には…\n\n# face 3602011 \"normal\"\n# textflame 1 1\n# textboxarrow 0 2\n@ネス\n…反乱……ですか？\n\n;;モノローグ\n# textflame 0 0\n@\n彼女のやり方に\n付いていけない姫が数人、\n反旗を翻した\n\n# voice 360201 \"ness_c_0032\"\n# face 3602011 \"angry\"\n# textflame 1 1\n# textboxarrow 0 2\n@ネス\nわかりました…\n服従か死か…\n\n# textboxarrow 0 2\n@ネス\n好きな方を選びなさい！\n\n;;モノローグ\n# textflame 0 0\n@\n処罰しようと武器を構えるネス\n\n;;モノローグ\n@\n――と、\n\n# voice 360201 \"ness_c_0022\"\n# face 3602011 \"surprise\"\n# textflame 1 1\n# textboxarrow 0 2\n@ネス\n…！\n\n;;モノローグ\n# textflame 0 0\n@\nそこに割って入ったのは、\nマスターだった\n\n# face 3602011 \"normal\"\n# textflame 1 1\n# textboxarrow 0 2\n@ネス\nなんですか…？\n\n# textboxarrow 0 2\n@ネス\nこの隊の指揮は、\nわたしに任せてくれたのでは\nなかったのですか？\n\n;;モノローグ\n# textflame 0 0\n@\nマスターは彼女に強く反発する\n誰の命も取ることは許さない…と\n\n# textflame 1 1\n# textboxarrow 0 2\n@ネス\n………\n\n;;モノローグ\n# textflame 0 0\n@\nマスターを見据える彼女\n\n# textflame 1 1\n# textboxarrow 0 2\n@ネス\n…そうですか\n\n# face 3602011 \"angry\"\n# textboxarrow 0 2\n@ネス\nであれば、\nあなたの命をもらい受けるまで\n\n;;モノローグ\n# textflame 0 0\n@\n彼女が武器をマスターに向けた時…、\n\n# voice 360201 \"ness_c_0022\"\n# face 3602011 \"surprise\"\n# textflame 1 1\n# textboxarrow 0 2\n@ネス\n！\n\n;;モノローグ\n# textflame 0 0\n@\n姫たちがマスターを守ろうと、\nネスの前に立ちはだかった\n\n# face 3602011 \"normal\"\n# textflame 1 1\n# textboxarrow 0 2\n@ネス\n………\n\n# textboxarrow 0 2\n@ネス\n何をしているのです？\n\n# face 3602011 \"angry\"\n# textboxarrow 0 2\n@ネス\nこの隊の指揮者はこのわたし\nそこをどきなさい\n\n;;モノローグ\n# textflame 0 0\n@\nしかし誰一人、\n彼女の言うことを\n聞く者はいない\n\n# voice 360201 \"ness_c_0027\"\n# face 3602011 \"normal\"\n# textflame 1 1\n# textboxarrow 0 2\n@ネス\n……やれやれ\n\n# textboxarrow 0 2\n@ネス\nそんなことで…\n\n# textboxarrow 0 2\n@ネス\nそんな“情”で、\n隊は強くはなれない\n\n# textboxarrow 0 2\n@ネス\n勝ちたければ…\n生き残りたければ…\n\n# textboxarrow 0 2\n@ネス\n規律を厳しくし、\n感情を殺していくしかない\n\n# textboxarrow 0 2\n@ネス\nあなたたちが拠り所としている…\n\n# textboxarrow 0 2\n@ネス\n『バイブス』など必要ないのです\n\n;;モノローグ\n# textflame 0 0\n@\nマスターは反論する\n\n;;モノローグ\n@\n感情のない戦闘者なんて、\nただの殺戮マシーンだ…と\n\n# textflame 1 1\n# textboxarrow 0 2\n@ネス\n………\n\n;;モノローグ\n# textflame 0 0\n@\nそんなんじゃ戦いが終わった後、\n幸せになんてなれない\n\n# voice 360201 \"ness_c_0022\"\n# face 3602011 \"surprise\"\n# textflame 1 1\n# textboxarrow 0 2\n@ネス\n…！\n\n;;モノローグ\n# textflame 0 0\n@\nこの戦いは皆が幸せになるための\n戦いでもあるんだ…と\n\n# face 3602011 \"normal\"\n# textflame 1 1\n# textboxarrow 0 2\n@ネス\n………\n\n# textboxarrow 0 2\n@ネス\nなにを言っているのです\n\n;;:;モヤモヤ吹き出し\n# move 3602011 3 0\n# textboxarrow 0 0\n# textwindow \"moya\"\n# mask 3602011 off\n@ネス\nわたしたち斬ル姫に…\n幸せなんて…\n\n;;モノローグ\n# textflame 0 0\n@\nだが彼女は口にはしなかった\n\n# textflame 1 1\n# textboxarrow 0 2\n# textwindow \"normal\"\n@ネス\nだったら…\n自分が隊を抜けます\n\n;;モノローグ\n# alpha 3602011 0 0.5\n# textflame 0 0\n@\nそう言い残し、隊を去るのだった\n\n# textwindow \"close\"\n# fadeout \"black\" 1\n# waitandnext 1.2\n\n# background \"forest\"\n# waitandnext 0.2\n\n# fadein \"black\" 1\n# waitandnext 1\n\n;;モノローグ\n# bgmfile \"bgm276\" \"BgmLostRagnarokEvent\" 0\n# textwindow \"normal\"\n@\n数日後――\n\n;;モノローグ\n@\nマスターの隊に、戦闘が発生\n\n# move 3602011 3 0\n# face 3602011 \"normal\"\n# alpha 3602011 1 0.5\n# mask 3602011 off\n# textflame 1 1\n# textboxarrow 0 2\n@ネス\n………\n\n;;モノローグ\n# textflame 0 0\n@\n隊を抜けたネスだったが、\n何かが心に引っ掛かり、\n遠くからその動向を見ていた\n\n;;:;モヤモヤ吹き出し\n# move 3602011 3 0\n# textflame 1 1\n# textboxarrow 0 0\n# textwindow \"moya\"\n# mask 3602011 off\n@ネス\nこの戦い、\nどう見ても勝ち目はない\n\n;;:;モヤモヤ吹き出し\n# textboxarrow 0 0\n@ネス\nだけど…\n\n;;:;モヤモヤ吹き出し\n# textboxarrow 0 0\n@ネス\n誰も…諦めていない\n\n;;モノローグ\n# textflame 0 0\n@\nネスは、ふと\nマスターの言葉を思い出す\n\n# textflame 1 1\n# textboxarrow 0 2\n# textwindow \"normal\"\n@ネス\n………\n\n# face 3602011 \"happy\"\n# textboxarrow 0 2\n@ネス\n戦いが終わった後の…\n幸せ…か\n\n;;モノローグ\n# textflame 0 0\n@\nそして、いよいよ戦闘が始まった\n\n;;モノローグ\n@\nネスの予想通り、\n次第に不利になっていく\nマスターたち\n\n# face 3602011 \"normal\"\n# textflame 1 1\n# textboxarrow 0 2\n@ネス\nほら、思った通りだ\n\n# textboxarrow 0 2\n@ネス\n………\n\n# textboxarrow 0 2\n@ネス\nでも……\n\n;;モノローグ\n# alpha 3602011 0 0.5\n# textflame 0 0\n@\nみんな、諦めるな！！\nマスターの檄が飛ぶ\n\n;;モノローグ\n@\nだが、いよいよ\n窮地に陥るマスターの隊\n絶体絶命の大ピンチ！\n\n;;モノローグ\n@\nもはや、ここまでか…\nみながそう思った時……\n\n# voice 360201 \"ness_c_0029\"\n# move 3602011 3 0\n# face 3602011 \"angry\"\n# alpha 3602011 1 0.5\n# mask 3602011 off\n# textflame 1 1\n# textboxarrow 0 2\n@ネス\nはぁぁぁぁっ！！\n\n;;モノローグ\n# textflame 0 0\n@\n一閃！\n\n;;モノローグ\n@\nネスが敵の兵士を屠り去った\n\n;;モノローグ\n@\n隊を抜けたはずじゃ…\n驚きを隠せないマスター\n\n# face 3602011 \"normal\"\n# textflame 1 1\n# textboxarrow 0 2\n@ネス\n別に助けたわけではありません\n死という運命に抗うあなたたちに…\n興味を持っただけです\n\n;;モノローグ\n# textflame 0 0\n@\n杖を構え直し、\n彼女がマスターの隊に\n加わった"
	}
]