[
	{
		"ID": 360251201,
		"script": ";;-----------------------------------------\n;;36025121\n;;カリス　キャラシナリオ【EP1】\n;;-----------------------------------------\n# script \"lisp\"\n# background \"forest\"\n# bgmfile \"bgm272\" \"BgmLostRagnarokEvent\" 0\n;;カリス\n# body 3602511\n# pos 3602511 3\n# scale 3602511 0.8 0\n# layer 3602511 2\n# alpha 3602511 0 0\n# mask 3602511 off\n;;キプル\n# body 163\n# pos 163 3\n# scale 163 0.6 0\n# layer 163 3\n# mask 163 off\n# alpha 163 0 0\n;;ケイオス兵\n# body 3820001\n# pos 3820001 3\n# scale 3820001 0.8 0\n# layer 3820001 1\n# mask 3820001 off\n# reversal 3820001 0\n# alpha 3820001 0 0\n;;カーテンフェード\n# imageset 0 \"black\"\n# imagealpha 0 0 0\n# imagelayer 0 5\n;;木漏れ日エフェクト１\n# envbody 1000 3 0\n# effectpattern 1000 1 0\n;;木漏れ日エフェクト２\n# envbody 1001 3 0\n# effectpattern 1001 1 0\n# waitandnext 0.1\n\n;;◆背景：森\n# effectstart 1000\n# textflame 0 0\n@\nいつもは静かな森の中\nしかし今日は―\n\n;;カリス登場\n# textwindow \"close\"\n# alpha 3602511 1 0.5\n# waitandnext 0.5\n\n# textwindow \"normal\"\n# textflame 1 1\n# textboxarrow 0 2\n# voice 6025 \"chalice_t_0021\"\n# chara 3602511\n@カリス\nやっほぃ、みんなー！\nご飯の準備できたよ～！\n\n# textflame 0 0\n@\n最近マスターの隊に加わった\nカリスの明るい声が響いていた\n\n# textwindow \"close\"\n# alpha 3602511 0 0.5\n# waitandnext 0.5\n\n;;キプル登場\n# alpha 163 1 0.5\n# waitandnext 0.5\n\n# textwindow \"normal\"\n# textflame 1 1\n# textboxarrow 0 2\n# voice 9951 \"kipuru_0002\"\n# chara 163\n@キプル\nカ、カリスゥ…\nどうして急にご飯を作るなんて\n言い出したんです？\n\n# textflame 1 1\n# textboxarrow 0 2\n# chara 163\n@キプル\n戦闘が\n終わったばかりですよ\n\n# textwindow \"close\"\n# move 163 4 0.5\n# alpha 3602511 1 0.5\n# waitandnext 0.5\n\n# textwindow \"normal\"\n# textflame 1 1\n# textboxarrow 0 2\n# face 3602511 \"shy\"\n# voice 6025 \"chalice_t_0005\"\n# chara 3602511\n@カリス\nそうした方がいい気がするの！\nなんとなくだけど\n\n# textflame 1 1\n# textboxarrow 0 3\n# voice 9951 \"kipuru_0026\"\n# chara 163\n@キプル\nカリスの無茶のせいで、\n後で謝らないといけなくなるのは\nキプルなのですが…\n\n# textflame 0 0\n@\nカリスの無茶に\n付き合わされることの多いキプルは\nその言葉にため息をついた\n\n# textflame 1 1\n# textboxarrow 0 3\n# voice 9951 \"kipuru_0055\"\n# chara 163\n@キプル\nそ、それよりカリス…\nあの方は\nどうするおつもりですか？\n\n;;◆ケイオス兵\n;;場面転換\n# imagepos 0 0 30\n# imagealpha 0 1 0\n# imageleftin 0 0.5\n# textwindow \"close\"\n# waitandnext 0.6\n\n;;ここは木漏れ日エフェクトなし\n# effectskip 1000\n# face 3602511 \"normal\"\n# alpha 163 0 0\n# alpha 3602511 0 0\n# alpha 3820001 1 0\n# brightness 3820001 0.6 0\n# waitandnext 0.5\n\n# imagealpha 0 0 0.5\n# imagerightout 0 0.5\n# waitandnext 0.5\n\n# textwindow \"normal\"\n# textflame 1 1\n# textboxarrow 0 2\n# voice 382000 \"demon_0028\"\n# chara 3820001\n@ケイオスリオン兵\n…ぐぅぅっ\n\n# textflame 0 0\n@\nキプルの示す先には、\n苦痛に体を震わせる\nケイオスリオン兵の姿があった\n\n;;◆カリスとキプル\n;;場面転換\n# imagepos 0 0 30\n# imagealpha 0 1 0\n# imageleftin 0 0.5\n# textwindow \"close\"\n# waitandnext 0.6\n\n# effectstart 1001\n# alpha 3820001 0 0\n# alpha 163 1 0\n# alpha 3602511 1 0\n# face 3602511 \"shy\"\n# waitandnext 0.5\n\n# imagealpha 0 0 0.5\n# imagerightout 0 0.5\n# waitandnext 0.5\n\n# textwindow \"normal\"\n# textflame 1 1\n# textboxarrow 0 2\n# face 3602511 \"happy\"\n# voice 6025 \"chalice_t_0003\"\n# chara 3602511\n@カリス\nもちろん\n治療してあげるつもりだよ？\n\n# textflame 1 1\n# textboxarrow 0 3\n# voice 9951 \"kipuru_0022\"\n# chara 163\n@キプル\nいけません、カリス！\n彼は敵なのですよっ\n\n# textflame 1 1\n# textboxarrow 0 2\n# face 3602511 \"angry\"\n# voice 6025 \"chalice_t_0034\"\n# chara 3602511\n@カリス\nでもあの人も\n人間だもん\n\n# textwindow \"toge\"\n# textflame 1 1\n# textboxarrow 0 0\n# voice 9951 \"kipuru_0054\"\n# chara 163\n@キプル\n今治療すれば他の斬ル姫にも\n迷惑がかかるではないですか\n\n# textwindow \"normal\"\n# textflame 0 0\n@\n言い争う二人に気付き、\nマスターが駆け寄ってきた\n\n# face 3602511 \"normal\"\n# textflame 0 0\n@\nどうしたの？\nと尋ねるマスターに\nキプルは頭を下げる\n\n# textflame 1 1\n# textboxarrow 0 3\n# voice 9951 \"kipuru_0031\"\n# chara 163\n@キプル\n申し訳ありません、マスター\nカリスが彼を助けると\n言い出して…\n\n# textflame 0 0\n@\nその言葉に、\nマスターは目を白黒させた\n\n# textflame 1 1\n# textboxarrow 0 2\n# face 3602511 \"happy\"\n# voice 6025 \"chalice_t_0004\"\n# chara 3602511\n@カリス\n人を助けたいって思ったら\n敵だとかそういうのが\nどうでも良くなっちゃって\n\n# textflame 0 0\n@\n人懐っこい笑みを\n浮かべるカリスに\nマスターは口を閉ざす\n\n# textflame 1 1\n# textboxarrow 0 3\n# voice 9951 \"kipuru_0009\"\n# chara 163\n@キプル\nだからといって、\nこんなことを続けていては、\nどうなるか分かりません\n\n# textflame 0 0\n@\n二人の言い分に\nマスターは腕を組んで悩む\n\n# textflame 0 0\n@\n僕には上手く表現できないけど…\nカリスにはなにかが足りてないと思う\n\n# textflame 0 0\n@\nたぶん、それが一番分かるのは、\n隣にいるキプルだと思う\nと、マスターは告げた\n\n# textflame 1 1\n# textboxarrow 0 3\n# voice 9951 \"kipuru_0027\"\n# chara 163\n@キプル\n…………\n頑張ってみます\n\n# textflame 0 0\n@\nマスターの言葉に\nなにか思うことがあったのか、\nキプルは少し考えて、頷いた"
	}
]