[
	{
		"ID": 4000301,
		"script": "# script \"lisp\"\n# background \"foot_mountain_village\"\n# bgm \"bgm003\" 0\n# body 400131\n# scale 400131 0.9 0\n# pos 400131 1\n# alpha 400131 0 0\n# body 401311\n# scale 401311 0.9 0\n# pos 401311 3\n# textflame 1 1\n# textboxarrow 0 2\n# face 401311 \"happy\"\n# voice 4013 \"aphrodite_0005\"\n# chara 401311\n@アフロディーテ\nあぁ～、美しい昼下がり\nこんな日はマスターと腕を組んでの\n散歩に限りますわ♪うふふ\n\n;;吹き出し大きく\n# serif 1\n# textsize 30\n# textboxarrow 1 1\n# textboxarrow 0 0\n# leftin 400131 0.5\n# alpha 400131 1 0.5\n# move 401311 5 0.7\n# face 400131 \"angry\"\n# chara 400131\n@アルテミス\nいけませんッ！！\n\n# textflame 1 1\n# serif 0\n# textsize 24\n# textboxarrow 0 3\n# face 401311 \"surprise\"\n# voice 4013 \"aphrodite_0006\"\n# chara 401311\n@アフロディーテ\nあら、アルテミスさん\nどうかなさいまして？\n\n# serif 1\n# textsize 24\n# textboxarrow 1 1\n# face 400131 \"nutual\"\n# voice 4001 \"arutemisu_0012\"\n# chara 400131\n@アルテミス\nう、腕を組むなど、\n風紀を乱す行動はいけません！\n\n# textflame 1 1\n# serif 0\n# textboxarrow 0 3\n# face 401311 \"worry\"\n# voice 4013 \"aphrodite_0007\"\n# chara 401311\n@アフロディーテ\nいいじゃありませんか？\n愛する男性と腕を組むくらい\n\n# serif 1\n# textboxarrow 1 1\n# face 400131 \"shy\"\n# voice 4001 \"arutemisu_0034\"\n# chara 400131\n@アルテミス\nあ…愛する…！？マ、マスターに\nそのような感情を持つのは、\nキ、キル姫として…！\n\n# textflame 1 1\n# serif 0\n# textboxarrow 0 3\n# face 401311 \"normal\"\n# voice 4013 \"aphrodite_0002\"\n# chara 401311\n@アフロディーテ\nじゃあ、お聞きしますが…\nアルテミスさんはマスターを\nどう思ってらっしゃるの？\n\n;;顔を真っ赤にして\n# serif 1\n# textboxarrow 1 1\n# face 400131 \"shy\"\n# chara 400131\n@アルテミス\n！！！！！\nど、ど、ど、ど、ど、ど…！\n\n# textflame 1 1\n# serif 0\n# textboxarrow 0 3\n# face 401311 \"happy\"\n# voice 4013 \"aphrodite_0020\"\n# chara 401311\n@アフロディーテ\nわたしは愛していますわ\n\n# serif 1\n# textboxarrow 1 1\n# face 400131 \"angry\"\n# voice 4001 \"arutemisu_0013\"\n# chara 400131\n@アルテミス\n！！\n\n# textflame 1 1\n# serif 0\n# textboxarrow 0 3\n# chara 401311\n@アフロディーテ\n女は愛する男性に愛されてこそ、\n美しくなれるの\n\n# textflame 1 1\n# serif 0\n# textboxarrow 0 3\n# voice 4013 \"aphrodite_0004\"\n# chara 401311\n@アフロディーテ\nということで、ごきげんよう\n\n# serif 1\n# textboxarrow 1 1\n# textboxarrow 0 0\n# rightout 401311 1\n# face 400131 \"surprise\"\n# voice 4001 \"arutemisu_0022\"\n# chara 400131\n@アルテミス\nあっ！ちょ、ちょっと！\n\n# textflame 0 0\n# textboxarrow 1 0\n# rightout 400131 0.5\n@\n真っ赤な顔でアフロディーテを追う\nアルテミス\n\n;:もやもや吹き出し\n# textflame 1 1\n# textwindow \"moya\"\n# pos 401311 3\n# alpha 401311 1 1\n# face 401311 \"shy\"\n# voice 4013 \"aphrodite_0005\"\n# voicedelay 4013 \"aphrodite_0021\" 1.5\n# chara 401311\n@アフロディーテ\nうふふふ、\nアルテミスさんをからかうのって…\nたのすぃ～♪たまりませんわ♪\n\n# serif 1\n# textwindow \"nomal\"\n# textboxarrow 1 1\n# pos 400131 1\n# leftin 400131 0.5\n# alpha 400131 1 0.5\n# move 401311 5 0.5\n# face 400131 \"angry\"\n# chara 400131\n@アルテミス\nお待ちなさい！\nハレンチな行為は…\nいけませんッ！！"
	}
]