[
	{
		"ID": 40023104,
		"script": ";;【EP4】\n# script \"lisp\"\n# background \"highland\"\n# bgm \"bgm002\" 0\n# textboxarrow 0 2\n# body 400231\n# mask 400231 off\n# pos 400231 3\n# alpha 400231 0 0\n# textflame 0 0\n@\n数日後─\n\n# alpha 400231 1 1\n# textflame 1 1\n# textboxarrow 0 2\n# chara 400231\n# face 400231 \"angry\"\n@ピナーカ\nだ～っ！！めんどくせ～っ！！\n\n# textflame 0 0\n@\nピナーカの提案により、\n作り直すことになった見張り台\n\n# textflame 0 0\n@\nしかし、当の本人は…\n\n# textflame 1 1\n# textboxarrow 0 2\n# chara 400231\n# voice 4002 \"pinaka_0013\"\n@ピナーカ\nやっぱ、向いてねぇ！\nオイラにこんなチマチマした\n細かい作業はよ～！\n\n# textflame 0 0\n@\nと、木材と金槌を捨てようとするも…\n\n# textflame 1 1\n# textboxarrow 0 2\n# chara 400231\n# voice 4002 \"pinaka_0015\"\n# face 400231 \"angry2\"\n@ピナーカ\n…くっ！でも、\nやろうって言ったのは\nオイラだし…！\n\n# textflame 1 1\n# textboxarrow 0 2\n# chara 400231\n# voice 4002 \"pinaka_0008\"\n# face 400231 \"angry\"\n@ピナーカ\nむぅ…しょうがねぇ…\n\n# textflame 0 0\n@\nブツブツと文句を言いながら、\n苦手な大工作業に励む彼女\n\n# textflame 0 0\n@\n金槌で釘を打とうとするや否や…\n\n# textflame 0 0\n@\nガンッ！！\n\n# textflame 1 1\n# textboxarrow 0 2\n# chara 400231\n# voice 4002 \"pinaka_0037\"\n# face 400231 \"angry2\"\n@ピナーカ\nいぎゃぁっ！！\n\n# textflame 0 0\n@\nすぐさま手を打ち付ける\n\n# select \"無理はしなくて大丈夫だよ\" \"select_label_01\" \"みんな、君が苦手なの知ってるから\" \"select_label_02\" \"気分転換に休憩でもしてきたら？\" \"select_label_03\"\nすぐさま手を打ち付ける\n\n# label \"select_label_01\"\n# labeljump \"select_label_end\"\n# textflame 1 1\n# textboxarrow 0 2\n# chara 400231\n# face 400231 \"angry\"\n@ピナーカ\nそういうわけにはいかねぇだろ\n\n# label \"select_label_02\"\n# labeljump \"select_label_end\"\n# textflame 1 1\n# textboxarrow 0 2\n# chara 400231\n# face 400231 \"angry\"\n@ピナーカ\nもぅ…甘えてらんねぇよ\n\n# label \"select_label_03\"\n# labeljump \"select_label_end\"\n# textflame 1 1\n# textboxarrow 0 2\n# chara 400231\n# face 400231 \"angry\"\n@ピナーカ\nそれじゃ…みんなに悪いだろ\n\n# label \"select_label_end\"\n# textflame 1 1\n# textboxarrow 0 2\n# chara 400231\n@ピナーカ\n今まで…散々みんなに\n甘えてきたんだからよ\n\n# textflame 1 1\n# textboxarrow 0 2\n# chara 400231\n# face 400231 \"normal\"\n@ピナーカ\n向いてなかろうが、\nちっとくらいは…\n我慢しなきゃな\n\n# textflame 1 1\n# textboxarrow 0 2\n# chara 400231\n# voice 4002 \"pinaka_0004\"\n# face 400231 \"happy\"\n@ピナーカ\nそ、それがオイラからの…\n恩返しなんだからよ！\n\n# textflame 0 0\n@\n照れ隠しもあり、\n釘をどんどん打ち付けていく彼女\n\n;;文字大きく\n# textsize 36\n# voice 4002 \"pinaka_0029\"\n# textflame 1 1\n# textboxarrow 0 2\n# chara 400231\n# face 400231 \"angry\"\n@ピナーカ\nおらああぁぁっ！\n\n# textsize 24\n# textflame 0 0\n@\nそして…\n\n# textflame 1 1\n# textboxarrow 0 2\n# chara 400231\n# voice 4002 \"pinaka_0004\"\n# face 400231 \"happy\"\n@ピナーカ\nで…できた！\n\n# textflame 0 0\n@\nとうとう完成した見張り台\n\n# textflame 0 0\n@\n勢いよく登り、平原を見渡すピナーカ\n\n# textflame 1 1\n# textboxarrow 0 2\n# chara 400231\n# face 400231 \"normal\"\n@ピナーカ\nへぇぇ！\n\n# textflame 1 1\n# textboxarrow 0 2\n# chara 400231\n@ピナーカ\nチマチマした細かい作業は\n大っ嫌いだって思ってたけど…\nこうして見てみると…\n\n# textflame 1 1\n# textboxarrow 0 2\n# chara 400231\n# voice 4002 \"pinaka_0020\"\n@ピナーカ\nへへっ、悪かねぇな\n\n# se \"SE_0602\"\n# textflame 0 0\n@\nそれは新スキル\n『友情スパーク』\n誕生の瞬間でもあった\n\n# textflame 1 1\n# textboxarrow 0 2\n# chara 400231\n# voice 4002 \"pinaka_0004\"\n@ピナーカ\n我慢した先に…\n見える景色もあるってことか\n\n# textflame 1 1\n# textboxarrow 0 2\n# chara 400231\n# face 400231 \"happy\"\n@ピナーカ\nな？マスター\n\n# textflame 0 0\n@\nそう言って、彼女が\nはにかんだ笑顔を向ける\n\n# textflame 1 1\n# textboxarrow 0 2\n# chara 400231\n# voice 4002 \"pinaka_0004\"\n@ピナーカ\nま、いきなりは無理だけどよ…\nちっとは我慢して、\nみんなの力になってくからよ\n\n# textflame 1 1\n# textboxarrow 0 2\n# chara 400231\n# face 400231 \"usual\"\n@ピナーカ\nあの…\n真っ赤に燃える太陽みたいにな\n\n# imageset 0 \"c400231\"\n# imagealpha 0 0 0\n# textflame 0 0\n# textflame 0 0\n@\n夕日に照らされた彼女は、\nとても輝いて見えた\n\n# imagealpha 0 1 0\n# imagepos 0 0 0 \n# fadein \"white\" 3\n# voice 4002 \"pinaka_kyara_0018\"\n# textwindow \"close\"\n;;一枚絵音声：ピナーカ「アンタみたいに頼れる奴と戦えるってのは幸運だよ！これからもガンガンぶっ放そうぜ！」ID:kyara_0018"
	}
]