[
	{
		"ID": 40044203,
		"script": "# script \"lisp\"\n# background \"004_outland\"\n# bgm \"bgm003\" 0\n# body 400441\n# mask 400441 off\n# pos 400441 3\n# textboxarrow 0 2\n# face 400441 \"sad2\"\n# voice 4004 \"erosu_unit_1011\"\n# chara 400441\n@エロース\n…うぅ…な、なんですか？\nマスター\n\n# chara 400441\n@エロース\nそんな…恥ずかしくって…\n顔なんて出せませんよぉ…\n\n# chara 400441\n@エロース\nだって…あんなこと\n言っちゃったから…\nマスターの顔を見られません！\n\n# select \"あんなことって…なんだっけ？\" \"select_label_01\" \"ちゃんと聞こえなかったな\" \"select_label_02\" \"もう一回、言ってくれる？\" \"select_label_03\"\nだって…あんなこと\n言っちゃったから…\nマスターの顔を見られません！\n\n# textflame 1 0\n# label \"select_label_01\"\n# labeljump \"select_label_end\"\n# chara 400441\n@エロース\n…え？あ、あんなことは…\nあんなことですぅ！！\n\n# textflame 1 0\n# label \"select_label_02\"\n# labeljump \"select_label_end\"\n# chara 400441\n@エロース\nまた、そんな…意地悪言って…\nマスター、嫌いですぅ…\n\n# textflame 1 0\n# label \"select_label_03\"\n# labeljump \"select_label_end\"\n# chara 400441\n@エロース\nも…もう一回だなんて…\n恥ずかしくて言えませんッ！\n\n# label \"select_label_end\"\n# chara 400441\n@エロース\nも…もぅ！\nとぼけないで下さい…っ！\n\n# chara 400441\n@エロース\nだから私は…\nマスターが…！\n\n# textflame 0 0\n@\nガバッと布団から顔を出すエロース\n\n# face 400441 \"worry\"\n# textflame 1 0\n# chara 400441\n@エロース\n…え？\n\n# chara 400441\n@エロース\nこれは…\nおかゆ？\n\n# chara 400441\n@エロース\nこれ…マスターが\n作ってくれたんですか？\n…てことは…\n\n# chara 400441\n@エロース\n本当に聞こえて\nなかったんですかぁ！？\n\n# face 400441 \"sad2\"\n# chara 400441\n@エロース\nいや、その…なんていうか…\n\n# chara 400441\n@エロース\nなんでもないですぅ…\nうぅ…\n\n# face 400441 \"shy\"\n# chara 400441\n@エロース\nでも…嬉しいです\n私のために作って下さって\n\n# chara 400441\n@エロース\nじゃあ、遠慮なく…\n\n# chara 400441\n@エロース\nいただきます！\n\n# face 400441 \"worry\"\n# chara 400441\n@エロース\n…！！\nやだ…\nなにこれ…？\n\n# chara 400441\n@エロース\nおいしい！！\n\n# chara 400441\n@エロース\n何で、こんなに\nおいしいんだろ…？\n\n# chara 400441\n@エロース\n…っ！\n\n# face 400441 \"shy\"\n# voice 4004 \"erosu_0042\"\n# chara 400441\n@エロース\nそっか…\nわかりました！\n\n# chara 400441\n@エロース\nみんな…どうして\n恋をするのか！？\n\n# chara 400441\n@エロース\n恋は…元気をくれる特効薬！\nどんなことがあっても…\n心を一気に回復してくれるのですね！\n\n# se \"SE_0602\"\n# chara 400441\n@エロース\n見えました！私の新奥義…\n『百花繚恋』です！！\n\n# textflame 0 0\n@\nそれはまさしく、\n彼女が新たなるスキルに\n目覚めた瞬間だった\n\n# textflame 1 0\n# chara 400441\n@エロース\nマスターのおかゆのおかげで、\n心だけじゃなく…\n体力も回復したみたいです！\n\n# chara 400441\n@エロース\n私！今なら言えます！！\nマスター！\n私はマスターが…！！\n\n# face 400441 \"worry\"\n# voice 4004 \"erosu_kyara_1010\"\n# chara 400441\n@エロース\n…あれ？どうしたんですか、\nマスター？そんなに顔真っ赤に\nしちゃって…もしかして〜\n\n# shake 1 1\n# textwindow \"toge\"\n# textboxarrow 0 0\n# textsize 28\n# voice 4004 \"erosu_kyara_1009\"\n# chara 400441\n@エロース\n私の風邪、\nうつっちゃったんですか！？\n\n# voice 4004 \"erosu_0023\"\n# chara 400441\n@エロース\nた、大変ッ！\n今すぐ横になって下さい！！\n\n# face 400441 \"happy\"\n# textwindow \"nomal\"\n# textboxarrow 0 2\n# textsize 24\n# chara 400441\n@エロース\n今度は、私がマスターを\n元気にしてあげますからね！\n\n# textwindow \"moya\"\n# textboxarrow 0 0\n# chara 400441\n@エロース\n言いたいことは言えなかったけど…\nそれは今じゃなくていいです\n\n# chara 400441\n@エロース\nマスターのおかげで、\nずっと恋の応援団長だった私が…\n\n# chara 400441\n@エロース\n恋の素晴らしさを\n知る事ができたんですから！！\n\n# chara 400441\n@エロース\nだから今日は…\nそれだけで幸せです！\n\n# voice 4004 \"erosu_0004\"\n\n# textwindow \"nomal\"\n# textboxarrow 0 2\n# voice 4004 \"erosu_0001\"\n# chara 400441\n@エロース\nじゃあ、マスター\nお熱、計りますからね\nじっとしててください…\n\n# textflame 0 0\n@\nそう言って、自らの額を\n近づけてくる彼女\n\n# imageset 0 \"c400441\"\n# imagealpha 0 0 0\n# textflame 0 0\n@\nその献身的な姿になのか、\n風邪でクラクラくるのか\n今ひとつ判断が鈍るマスターであった\n\n# imagealpha 0 1 0\n# imagepos 0 0 0 \n# voice 4004 \"erosu_kyara_0017\"\n# fadein \"white\" 3\n# textwindow \"close\""
	}
]