[
	{
		"ID": 40055102,
		"script": "# script \"lisp\"\n# background \"bog\"\n# bgm \"bgm002\" 0\n# body 400551\n# mask 400551 off\n# pos 400551 3\n# voice 4005 \"yoichi_0028\"\n# textflame 1 1\n# textboxarrow 0 2\n# face 400551 \"surprise\"\n@与一\nもっと、お稽古がんばって\n強くならないと…\nみんなに迷惑かけちゃいますから！\n\n# face 400551 \"normal\"\n# voice 4005 \"yoichi_0027\"\n@与一\nえ？どうして…そう思うかって…？\n\n# voice 4005 \"yoichi_0028\"\n@与一\n………\n\n@与一\nだって…\n\n# face 400551 \"cry\"\n# voice 4005 \"yoichi_0019\"\n@与一\n最近、みんな…よそよそしいんです\n\n# voice 4005 \"yoichi_0031\"\n@与一\nきっと怒っているんだと思いますよ\n与一が…弱いから…\n\n@与一\nだから、もっともっと\n強くならないといけないんです！！\n\n# textflame 0 0\n@\nそう言って矢を取り出し、\n再び稽古に励む与一\n\n# textflame 0 0\n@\nそれから、しばらくして…\n\n# textflame 1 1\n# textboxarrow 0 2\n# voice 4005 \"yoichi_0015\"\n@与一\n…うぅ\n\n# textflame 0 0\n@\nどうしたの…？と\nマスターが声を掛ける\n\n# textflame 1 1\n# textboxarrow 0 2\n# voice 4005 \"yoichi_0016\"\n@与一\nえぇ〜ん！冷たいよ〜！！\n\n# voice 4005 \"yoichi_0015\"\n@与一\n手がかじかんで…\n矢を握ることができませぇん！\nそれに…体も冷えてきたし…\n\n# voice 4005 \"yoichi_0018\"\n@与一\nもっと強くなりたいと願ったのに…\n情けない…\nこれが与一の…限界なのでしょうか？\n\n# voice 4005 \"yoichi_0015\"\n@与一\nうぅぅぅ…\n\n# textflame 0 0\n@\n不甲斐なさで涙が溢れてくる与一\n\n# textflame 0 0\n@\nあれ？これはなに？\nと尋ねるマスター\n\n# textflame 1 1\n# textboxarrow 0 2\n# voice 4005 \"yoichi_0002\"\n@与一\nあっ！\nそ…それは…！\n\n# voice 4005 \"yoichi_0008\"\n@与一\nみんなのために買ってきた…\nプレゼントです\n\n# voice 4005 \"yoichi_0017\"\n@与一\nでも、今のままじゃ…\n渡せません…\n\n# select \"そういえば僕も…\" \"select_label_01\" \"これ…預かってきたんだけど\" \"select_label_02\" \"こっちのは…渡しちゃおっかな\" \"select_label_03\"\nでも、今のままじゃ…\n渡せません…\n\n# label \"select_label_01\"\n# labeljump \"select_label_end\"\n# face 400551 \"normal\"\n@与一\n…え？なんですか…？…あ、これ！\n\n# label \"select_label_02\"\n# labeljump \"select_label_end\"\n# face 400551 \"normal\"\n@与一\n…！これを…与一に！？\n\n# label \"select_label_03\"\n# labeljump \"select_label_end\"\n# face 400551 \"normal\"\n@与一\n…！こ、これ…みんなから…！？\n\n# label \"select_label_end\"\n# textflame 1 1\n# textboxarrow 0 2\n# voice 4005 \"yoichi_0022\"\n@与一\n隊のみんなが…\n与一のために用意してくれた…\nクリスマスプレゼント…？\n\n# textflame 0 0\n@\n一人じゃ抱え切れないほどの\nたくさんの包みを受け取る彼女\n\n# textflame 1 1\n# textboxarrow 0 2\n# voice 4005 \"yoichi_0015\"\n@与一\nう…ぅぅぅ…\n\n# voice 4005 \"yoichi_0016\"\n# face 400551 \"cry\"\n@与一\nうぇぇぇぇ〜ん！！\n\n# textflame 0 0\n@\n今度は、嬉し涙を流す与一だった"
	}
]