[
	{
		"ID": 40071201,
		"script": "# script \"lisp\"\n# background \"town\"\n# bgm \"bgm005\" 0\n# body 400712\n# mask 400712 off\n# pos 400712 3\n# textboxarrow 0 2\n# voice 4007 \"shekina_0010\"\n# face 400712 \"angry\"\n# chara 400712\n@シェキナー\n…まったく！\n\n# textflame 0 0\n@\nとある街角─\n鬼のような怒りの形相で、\n誰かを待っている一人の女\n\n# textflame 1 0\n# chara 400712\n@シェキナー\n…やっと来た\nマスター！\nこれは一体、どういうことですか？\n\n# chara 400712\n@シェキナー\n今、何時だと思ってるんですか？\n約束の時間に…\n10分も遅刻してるじゃないですか！\n\n# chara 400712\n@シェキナー\n今日はマスターと私が\n買い出し担当なんですよ！\nしっかりしてください！\n\n# voice 4007 \"shekina_0013\"\n# chara 400712\n@シェキナー\n時間がもったいないので、\nお説教はこれくらいにしますが…\n\n# chara 400712\n@シェキナー\nキラープリンセスをまとめる長たる者\n時間は厳守！絶対に守って下さい！\nわかりましたね！？\n\n# textflame 0 0\n@\n「お説教はこれくらい」\n\n# textflame 0 0\n@\nそう言ったにも関わらず\n買い物の道中、\nずっとお説教されっ放しのマスター\n\n# textflame 1 0\n# chara 400712\n@シェキナー\nこの前は訓練の時間に遅れてきたし！\nその前は、みんなで食べる\nご飯の時間に遅れてきた！\n\n# chara 400712\n@シェキナー\n朝はいつも\n起床の時間に起きてこないし！\n\n# chara 400712\n@シェキナー\n私だって休みの日に\n怒りたくなんかないんです！\n\n# voice 4007 \"shekina_kyara_1002\"\n# chara 400712\n@シェキナー\nまったく甘いんですよ、マスターは！\nもっと自分に厳しく…\n自分を律しなければダメです！\n\n# chara 400712\n@シェキナー\nいいですか！？\nもし今度遅れたら…\n\n# textsize 35\n# face 400712 \"surprise\"\n# voice 4007 \"shekina_0024\"\n# chara 400712\n@シェキナー\n…！\n\n# textsize 24\n# face 400712 \"happy\"\n# bgm \"bgm006\" 0\n# chara 400712\n@シェキナー\nきゃ〜っ！\nかわいぃ〜っ！！\n\n# chara 400712\n@シェキナー\n見て下さい、マスター！\nこの宝石…すごく\nかわいくないですか〜！？\n\n# textflame 0 0\n@\n彼女が釘付けになったのは、\n宝石商のショーウィンドウ\n\n# textflame 0 0\n@\n中には、キラキラと輝く\n宝石が飾られている\n\n# textflame 1 0\n# face 400712 \"normal\"\n# chara 400712\n@シェキナー\n…え？し、仕方ないでしょ！\n過去の記憶がそうさせるんですから！\nふ、不可抗力です！\n\n# chara 400712\n@シェキナー\n…え？なんですか？\nすぐに目の色変えて…自分を\n律する事が出来てないんじゃ…？\n\n# face 400712 \"angry\"\n# chara 400712\n@シェキナー\n…なんですか、小声でボソボソと！\n言いたいことがあるなら、\nハッキリと大きな声で言って下さい！\n\n# face 400712 \"happy\"\n# voice 4007 \"shekina_0021\"\n# chara 400712\n@シェキナー\nあぁ…\nそれにしても、この宝石…\nいいですよ…\n\n# face 400712 \"sad\"\n# chara 400712\n@シェキナー\nでも…ここは…\n我慢、我慢！\n…くぅっ！\n\n# voice 4007 \"shekina_0027\"\n# textflame 0 0\n@\n涙目で歯を食いしばり、\n宝石商を後にする彼女\n\n# textflame 0 0\n@\n己を律するためとはいえ、\nそこまで…？\n若干たじろいでしまうマスターだった"
	}
]