[
	{
		"ID": 400772012,
		"script": ";;-----------------------------------------\n;;4007722\n;;シェキナー(ウェディング)　キャラ【EP2前半】\n;;-----------------------------------------\n# script \"lisp\"\n# background \"bg_black\"\n# bgm \"bgm002\" 0\n;;シェキナー\n# body 400771\n# pos 400771 3\n# scale 400771 0.8 0\n# layer 400771 1\n# mask 400771 off\n# alpha 400771 0 0\n;;カーテンフェード\n# imageset 0 \"black\"\n# imagealpha 0 0 0\n# imagelayer 0 1\n;;雨エフェクト\n# envbody 1000 1 0\n# effectpattern 1000 2 0\n;;◆背景：黒--------------------------------------\n# textflame 1 1\n# textboxarrow 0 0\n# voice 4007 \"shekina_0013\"\n# chara 400771\n@シェキナー\nふぅ…\n\n# textflame 0 0\n@\nマスターを置き去りにして\n教会から駆け出したかに思われた\nシェキナー…しかし…\n\n;;◆背景：教会------------------------------------\n# imagepos 0 0 30\n# imagealpha 0 1 0\n# imageleftin 0 0.1\n# textwindow \"close\"\n# waitandnext 0.1\n\n# alpha 400771 1 0\n# face 400771 \"sad\"\n# background \"006_church\"\n# waitandnext 0.5\n\n# imagealpha 0 0 0.5\n# imagerightout 0 0.5\n# waitandnext 0.5\n\n# textwindow \"normal\"\n# textflame 1 1\n# textboxarrow 0 2\n# voice 4007 \"shekina_0027\"\n# chara 400771\n@シェキナー\n…マスターは\nどうやら帰りましたね\nこれで内密に事が運べそうです\n\n# textflame 0 0\n@\n教会を出たマスターと入れ違うように\nすぐさま、戻ってきていた\n\n# textflame 1 1\n# textboxarrow 0 2\n# face 400771 \"normal\"\n# voice 4007 \"shekina_0004\"\n# chara 400771\n@シェキナー\nああ、宝石商さん\nさっきの宝石はありますか？\n売れてしまっていないですか？\n\n# textflame 1 1\n# textboxarrow 0 2\n# face 400771 \"happy\"\n# voice 4007 \"shekina_0005\"\n# chara 400771\n@シェキナー\nよかった！まだあるのですね？\n私はどうしても、その石が\n欲しくて…\n\n# bgm \"stop\"\n# se \"SE_5567\"\n# shake 0 0.6\n# fadein \"white\" 0.6\n# textflame 1 1\n# textboxarrow 0 2\n# face 400771 \"surprise\"\n# voice 4007 \"shekina_0024\"\n# chara 400771\n@シェキナー\nあっ！？\n\n# textflame 0 0\n@\n突然…シェキナーと宝石商の\n横から、怪しい覆面の男が現れ\n不思議な光を放つあの宝石を掴み取る\n\n# se \"SE_2025\"\n# se \"SE_5575\"\n# textflame 0 0\n@\n「泥棒！」と宝石商が叫ぶ\n覆面男は石を持ったまま\n素早く、教会の外へと逃げ出した\n\n# bgm \"bgm007\" 0\n# textflame 1 1\n# textwindow \"toge\"\n# move 400771 3 0\n# textboxarrow 0 0\n# face 400771 \"angry\"\n# voice 4007 \"shekina_0010\"\n# chara 400771\n@シェキナー\n待ちなさい！！\nその石は…その輝きは…\n\n# textwindow \"close\"\n# se \"SE_5575\"\n# leftout 400771 0.5\n# waitandnext 0.5\n\n# textwindow \"normal\"\n# textflame 0 0\n@\n即座に、男の後を追って\n飛び出していくシェキナー\n\n;;◆背景：街中（曇り）----------------------------\n# imagepos 0 0 30\n# imagealpha 0 1 0\n# imageleftin 0 0.5\n# textwindow \"close\"\n# waitandnext 0.6\n\n# alpha 400771 0 0\n# background \"town\"\n# subfillrect 0 \"black\" 0 0 0.2\n# waitandnext 0.5\n\n# imagealpha 0 0 0.5\n# imagerightout 0 0.5\n# waitandnext 0.5\n\n# pos 400771 3\n# se \"SE_5575\"\n# alpha 400771 1 0\n# face 400771 \"angry\"\n# rightin 400771 0.5\n# waitandnext 0.5\n\n# textwindow \"normal\"\n# textflame 1 1\n# textboxarrow 0 2\n# face 400771 \"surprise\"\n# voice 4007 \"shekina_battle_0005\"\n# chara 400771\n@シェキナー\n…雨雲？\nくっ、急に天気が…\n\n# textflame 1 1\n# textboxarrow 0 2\n# face 400771 \"angry\"\n# chara 400771\n@シェキナー\n急がないと…\n見失ってしまう…！\n\n# textwindow \"close\"\n# se \"SE_5575\"\n# leftout 400771 0.5\n# waitandnext 0.5\n\n;;◆背景：黒--------------------------------------\n# imagepos 0 0 30\n# imagealpha 0 1 0\n# imageleftin 0 0.5\n# waitandnext 0.6\n\n# alpha 400771 0 0\n# background \"bg_black\"\n# subfillrect 1 \"black\" 0 0.4 0\n# waitandnext 0.5\n\n# imagealpha 0 0 0\n# imagerightout 0 0\n# waitandnext 0.1\n\n# textwindow \"normal\"\n# textflame 0 0\n@\n折りしも、雨…だが\nドレスが濡れるのも厭わず\n男の背を追う――\n\n;;◆背景：森（雨）--------------------------------\n# imagepos 0 0 30\n# imagealpha 0 1 0\n# imageleftin 0 0.0\n# textwindow \"close\"\n# effectstart 1000\n# waitandnext 0.1\n\n# pos 400771 3\n# alpha 400771 0 0\n# face 400771 \"normal\"\n# background \"forest_totaleclipse\"\n# subfillrect 1 \"black\" 0 0.4 0\n# waitandnext 0.5\n\n# imagealpha 0 0 0.5\n# imagerightout 0 0.5\n# waitandnext 0.6\n\n# se \"SE_0648\"\n# textwindow \"normal\"\n# textflame 0 0\n@\n「はあ、はあ…やったぜ\n　しばらく遊んで暮らせそうだ」\n\n# textflame 0 0\n@\n町はずれの森深く\n宝石を盗んだ覆面男が\n肩で息をしながら立っていた\n\n# textflame 0 0\n@\nその男の姿を静かに\n遠間から見つめるシェキナー\n\n# textwindow \"close\"\n# alpha 400771 1 0.5\n# waitandnext 0.5\n\n# textwindow \"normal\"\n# textflame 1 1\n# textboxarrow 0 2\n# face 400771 \"angry\"\n# voice 4007 \"shekina_0028\"\n# chara 400771\n@シェキナー\n見つけましたよ\n…だけど…\n\n# textflame 0 0\n@\n弓を引き絞ろうとする彼女の\nその手が鈍り、止まった\n\n# textflame 1 1\n# textboxarrow 0 2\n# face 400771 \"sad\"\n# chara 400771\n@シェキナー\n…あんな泥棒程度に\n私の力を直接ふるうわけにも\nいきません…どうすれば…\n\n# textflame 0 0\n@\nと、そこへ…\nシェキナーへとそっと\n近寄るマスターの姿\n\n# textflame 1 1\n# textboxarrow 0 2\n# face 400771 \"surprise\"\n# voice 4007 \"shekina_0025\"\n# chara 400771\n@シェキナー\nま、マスター！？\nどうして、ここが？\nいえ、それよりも…\n\n# textflame 0 0\n@\n事情を把握したマスターは\n覆面男の周りの木々を\n狙うよう、シェキナーに告げる\n\n# textflame 1 1\n# textboxarrow 0 2\n# face 400771 \"normal\"\n# chara 400771\n@シェキナー\n助言に感謝します\nそれならば…\n\n# se \"SE_4301\"\n# shake 0 0.6\n# fadein \"white\" 0.6\n# textflame 1 1\n# textwindow \"toge\"\n# move 400771 3 0\n# textsize 35\n# textboxarrow 0 0\n# face 400771 \"angry\"\n# voice 4007 \"shekina_battle_0003\"\n# chara 400771\n@シェキナー\nはっ！"
	}
]