[
	{
		"ID": 40072201,
		"script": ";;【EP1】(フリ)\n# script \"lisp\"\n# background \"town\"\n# bgm \"bgm002\" 0\n# body 400721\n# pos 400721 3\n# mask 400721 off\n# textflame 1 1\n# textboxarrow 0 2\n# chara 400721\n# face 400721 \"angry2\"\n@シェキナー\n…まったく…\nそんなことなら…\nブツブツ…\n\n# textflame 0 0\n@\n街への道すがら、何やらブツブツ\n言いながら歩いているシェキナー\n\n# textflame 0 0\n@\nマスターが声を掛けてみると…\n\n# textflame 1 1\n# textboxarrow 0 2\n# chara 400721\n# voice 4007 \"shekina_0001\"\n@シェキナー\n…あ、マスター\n…………\n\n# textflame 0 0\n@\n訝しげな目でマスターを\nじっと見据える\n\n# textflame 1 1\n# textboxarrow 0 2\n# chara 400721\n# voice 4007 \"shekina_kyara_1012\"\n@シェキナー\nマスターも…\nそのような目で私を…？\nいやらしい！\n\n# textflame 0 0\n@\n何のこと…？と尋ねるマスター\n\n# textflame 1 1\n# textboxarrow 0 2\n# chara 400721\n# face 400721 \"angry1\"\n@シェキナー\n胸ですよ、胸！\n私のこの胸です！\n\n# textboxarrow 0 2\n# chara 400721\n# voice 4007 \"shekina_0013\"\n@シェキナー\n…まったく世の男性というのは！\n女性のスタイルしか見ていない！\n\n# textboxarrow 0 2\n# chara 400721\n@シェキナー\nそのせいで私は「実力じゃなく、\n胸のおかげで水着討伐隊に選ばれた」\n…とか言われるし！\n\n# textboxarrow 0 2\n# chara 400721\n@シェキナー\nほんと…心外です！！\n\n# textflame 0 0\n@\nあの…で、今からどこに…？\nマスターが尋ねる\n\n# textflame 1 1\n# textboxarrow 0 2\n# chara 400721\n# face 400721 \"smile\"\n@シェキナー\nあ、そうでしたね\n洋服屋です、洋服屋！\n\n# textboxarrow 0 2\n# chara 400721\n# voice 4007 \"shekina_0006\"\n# face 400721 \"normal\"\n@シェキナー\nもう、こうなったら\n胸がすっぽり隠れる服を\n買ってやろうかと思いまして！\n\n# textboxarrow 0 2\n# chara 400721\n# face 400721 \"angry1\"\n@シェキナー\n…何ですか？\nその残念そうな目は…？\n\n# textboxarrow 0 2\n# chara 400721\n@シェキナー\nとにかく！\n金輪際、胸元の開いた服は\n着ませんから！！\n\n# textboxarrow 0 2\n# chara 400721\n# voice 4007 \"shekina_0004\"\n# face 400721 \"smile\"\n@シェキナー\n私が胸だけの女じゃないってところを\n見せてやりますわ！！\n\n# textflame 0 0\n@\nそう宣言し、\n街へと向かうシェキナーだった"
	}
]