[
	{
		"ID": 40092401,
		"script": ";;【EP4】\n# script \"lisp\"\n# background \"town\"\n# bgm \"bgm002\" 0\n# body 400911\n# mask 400911 off\n# pos 400911 3\n# textboxarrow 0 2\n# textflame 0 0\n@\nあれから数日後─\n\n# textflame 1 1\n# chara 400911\n# face 400911 \"smile\"\n# voice 4009 \"eitaso_0001\"\n@えいたそ\nマスタ～！\n見て、見て～！\n\n# textflame 0 0\n@\n絵本を数冊持って現れるえいたそ\n\n# textflame 1 1\n# chara 400911\n# voice 4009 \"eitaso_0003\"\n@えいたそ\nこれ、読んでみて！\n感想求ム！\n\n# textflame 0 0\n@\nこれって、もしかして…\n\n# textflame 1 1\n# chara 400911\n# face 400911 \"normal\"\n@えいたそ\nそ！えいたそが描いた本だよ！\n\n# select \"すごいじゃない！\" \"select_label_01\" \"本当に描いたんだ！？\" \"select_label_02\" \"絵、上手いんだね！？\" \"select_label_03\"\n@えいたそ\nそ！えいたそが描いた本だよ！\n\n# label \"select_label_01\"\n# labeljump \"select_label_end\"\n# face 400911 \"usual\"\n# chara 400911\n@えいたそ\nお？そう？すごい？すごい？\n\n# label \"select_label_02\"\n# labeljump \"select_label_end\"\n# face 400911 \"usual\"\n# chara 400911\n@えいたそ\nそうだお！まいったか？\n\n# label \"select_label_03\"\n# labeljump \"select_label_end\"\n# face 400911 \"smile\"\n# chara 400911\n@えいたそ\nわはははは、ほめられちった\n\n# label \"select_label_end\"\n# textflame 0 0\n@\nページをめくるマスター\n\n@\nこれは…\n\n# textflame 1 1\n# chara 400911\n# face 400911 \"smile\"\n@えいたそ\nこの物語に登場する女の子たちはね、\nみんな、かわいいけど\n色んな事情を抱えながら戦ってるの！\n\n# chara 400911\n# face 400911 \"usual\"\n@えいたそ\nある者は強くなるため、\nある者は愛する人のため、\nある者は平和のため…\n\n# chara 400911\n# face 400911 \"normal\"\n@えいたそ\nうん、\nキラープリンセスちゃんたちの\nお話だよ！\n\n# chara 400911\n@えいたそ\nえいたそ、戦うのよりも…\n\n@えいたそ\nこうやって絵本を\n描いてる方が好きかな！\nだから…\n\n# chara 400911\n# face 400911 \"smile\"\n# voice 4009 \"eitaso_0004\"\n@えいたそ\n早く戦いのない世界を作りたいな☆\nばびゅっとね♪\n\n# chara 400911\n# face 400911 \"normal\"\n@えいたそ\nマスターとなら…\nできそうな気がするんだ～\n\n# chara 400911\n@えいたそ\nそう思いながら描いてたら、\nまた新必殺技が誕生したよ！\n\n#se \"SE_0602\"\n# face 400911 \"smile\"\n@えいたそ\nその名も…\n『ハピハピ☆大魔法』だぁ！！\n\n# chara 400911\n# voice 4009 \"eitaso_0005\"\n@えいたそ\nこれからも…\n一緒にがんばろうね、マスター☆\n\n# textflame 0 0\n@\n彼女の笑顔に勇気づけられるマスター\n超前向きな彼女の描く世界って、\nどんなのかな？\n\n@\nさらにページをめくるマスター\n\n@\n…！…なんだ、これ\n女の子同士が\nどんどん怪しげな関係に…\n\n# textflame 1 1\n# chara 400911\n# face 400911 \"smile\"\n@えいたそ\nだって可愛い子同士が\nイケナイ関係になるって…\n超萌えるでしょッ！\n\n# voice 4009 \"eitaso_0004\"\n@えいたそ\nわはははは☆\n\n# textflame 0 0\n@\nこーいうのはダメッ！\n彼女をたしなめるマスター\n\n# textflame 1 1\n# chara 400911\n# face 400911 \"surprise\"\n# voice 4009 \"eitaso_0022\"\n@えいたそ\nなんでぇ～！？\nいいと思わない？\n\n# chara 400911\n# face 400911 \"smile\"\n@えいたそ\nこれからは同じ趣味を持った者同士が\n雑誌を作成し、大人数が集まる\n巨大マーケットを…うふふふふ\n\n# textflame 0 0\n@\n楽しそうに語る彼女\n\n# textflame 1 1\n# chara 400911\n# face 400911 \"normal\"\n@えいたそ\nね？いいでしょ？あは！\n\n# imageset 0 \"c400911\"\n# imagealpha 0 0 0\n# textflame 0 0\n@\n人に理解されない趣味だが、\n語っている時は輝いている彼女に、\n「ま、いっか」と思うマスターだった\n\n# imagealpha 0 1 0\n# imagepos 0 0 0 \n# voice 4009 \"eitaso_kyara_0020\"\n# fadein \"white\" 3\n# textwindow \"close\""
	}
]