[
	{
		"ID": 40133203,
		"script": ";;【EP3】\n# script \"lisp\"\n# background \"highland_snow\"\n# bgm \"bgm032\" 0\n# body 88\n# mask 88 off\n# pos 88 3\n# textflame 1 1\n# textboxarrow 0 2\n# chara 88\n# face 88 \"surprise1\"\n# voice 4013 \"aphrodite_0002\"\n@アフロディーテ\nどうなさったの？おじいさん\n\n# textflame 0 0\n@\nなにやら困った様子の老人に\n声を掛けるアフロディーテ\n\n# textflame 1 1\n# textboxarrow 0 2\n# chara 88\n# voice 4013 \"aphrodite_0022\"\n@アフロディーテ\nえ？なくした…？\nおばあさんへの\nクリスマスプレゼントを？\n\n# textflame 0 0\n@\n買い物帰り、どこかに置いて、\nその在りかが\n分からなくなってしまったらしい\n\n@\n情けない…と、\n肩を落としているおじいさん\n\n# textflame 1 1\n# textboxarrow 0 2\n# chara 88\n# face 88 \"normal\"\n# voice 4013 \"aphrodite_0028\"\n@アフロディーテ\n………\n\n# voice 4013 \"aphrodite_0002\"\n@アフロディーテ\n良かったら…\n\n# face 88 \"happy\"\n# voice 4013 \"aphrodite_0004\"\n@アフロディーテ\n私から差し上げますわ\nクリスマスプレゼント\n\n# textflame 0 0\n@\nそう言って、\nさっき買った\nワインを手渡す彼女\n\n@\nしかし、これは\nあなたが愛する人と\n飲むワインでは…？\n\n# textflame 1 1\n# textboxarrow 0 2\n# chara 88\n@アフロディーテ\nいいんです\n\n@アフロディーテ\nこれは、きっと神の思し召し\n\n# face 88 \"shy\"\n# voice 4013 \"aphrodite_0004\"\n@アフロディーテ\n平等な慈愛と言いながら、\nマスターにだけ特別な\nプレゼントを買った私に対する戒め\n\n# face 88 \"sad\"\n# voice 4013 \"aphrodite_0017\"\n@アフロディーテ\n邪（よこしま）な妄想に\n憑りつかれたことを反省します\n\n# face 88 \"happy\"\n# voice 4013 \"aphrodite_0019\"\n@アフロディーテ\nほんと、難しいですわね\n“愛”って\n\n# textflame 0 0\n@\n微笑む彼女に対し、\n申し訳ない表情を浮かべる\nおじいさん\n\n# textflame 1 1\n# textboxarrow 0 2\n# face 88 \"shy\"\n# chara 88\n@アフロディーテ\n私のことはいいんですよ\n目の前で困っている人が\n喜んでくれるのが…\n\n# voice 4013 \"aphrodite_0004\"\n@アフロディーテ\n私にとって、\nなによりのプレゼントですから\n\n# face 88 \"happy\"\n@アフロディーテ\n他人の幸福がチカラになる\nそれが…\n慈愛への第一歩ですものね\n\n# textflame 0 0\n@\nその想いが彼女に新たなる\nチカラを授ける\n\n# textflame 1 1\n# textboxarrow 0 2\n# chara 88\n# voice 4013 \"aphrodite_0020\"\n# se \"SE_0602\"\n@アフロディーテ\n新奥義\n『セイントダスト』\n覚醒です\n\n# textflame 0 0\n@\nそれは彼女が\n新たなるスキルに\n目覚めた瞬間だった\n\n@\nこの御恩は必ずお返しします\n\n@\n頭を深く下げ、\n去って行くおじいさん\n\n@\nその去り際に彼女に一言告げる\n\n@\nあなたのお考えは素晴らしい\nでも…\n\n# textflame 1 1\n# textboxarrow 0 2\n# face 88 \"surprise2\"\n# chara 88\n@アフロディーテ\n…！\n\n# fave 88 \"normal\"\n@アフロディーテ\n平等な愛も素敵だけど…\n特別な愛もあっていい…か\n\n# face 88 \"shy\"\n# voice 4013 \"aphrodite_0004\"\n@アフロディーテ\n…うふ、ほんと…\n\n# voice 4013 \"aphrodite_0019\"\n@アフロディーテ\n難しいのね、愛って\n\n# textflame 0 0\n@\nその帰り道、\nマスターと遭遇する彼女\n\n# textflame 1 1\n# textboxarrow 0 2\n# chara 88\n# face 88 \"surprise1\"\n# voice 4013 \"aphrodite_0022\"\n@アフロディーテ\nあら？どうなさったの？マスター\nそんなに謝って\n\n# textflame 0 0\n@\n本当に申し訳ない！\n街の子供達に買ってあげてたら\nお金がなくなってちゃって…\n\n# select \"プレゼント…こんなものしか…\" \"select_label_01\" \"君の好きな真珠には…程遠いけど…\" \"select_label_02\" \"喜んでもらえるか分からないけど…\" \"select_label_03\"\n本当に申し訳ない！\n街の子供達に買ってあげてたら\nお金がなくなってちゃって…\n\n# label \"select_label_01\"\n# labeljump \"select_label_end\"\n# textflame 1 1\n# textboxarrow 0 2\n# chara 88\n@アフロディーテ\n…！あ…これは…\n\n# label \"select_label_02\"\n# labeljump \"select_label_end\"\n# textflame 1 1\n# textboxarrow 0 2\n# chara 88\n@アフロディーテ\n…！これを…わたしに…？\n\n# label \"select_label_03\"\n# labeljump \"select_label_end\"\n# textflame 1 1\n# textboxarrow 0 2\n# chara 88\n@アフロディーテ\n…！買ってきて下さったの？\n\n# label \"select_label_end\"\n# textflame 1 1\n# textboxarrow 0 2\n# chara 88\n# face 88 \"shy\"\n@アフロディーテ\n私の大好きな…リンゴ\n\n# textflame 0 0\n@\nマスターからの\nささやかな贈り物を見つめながら\n彼女が微笑む\n\n# textflame 1 1\n# textboxarrow 0 2\n# chara 88\n# voice 4013 \"aphrodite_0004\"\n@アフロディーテ\nふふ、他人の幸福が一番\n自分達のことは後回し\n慈愛に満ち溢れたあなたらしいわ\n\n# se \"SE_0622\"\n@アフロディーテ\n包みからリンゴを取り出し、\nかじる彼女\n\n# face 88 \"happy\"\n# voice 4013 \"aphrodite_0004\"\n@アフロディーテ\nふふ…\n禁断の美酒はお預けになったけれど、\nもしかしたら、これが…\n\n@アフロディーテ\n２人の“禁断の果実”に\nなるかも知れませんわね\n\n# imageset 0 \"c401331\"\n# imagealpha 0 0 0\n# imagepos 0 0 0\n# textflame 0 0\n@\nとリンゴをひとかじりし、\n妖艶な微笑みと共にマスターを\n見つめるアフロディーテだった\n\n;;★５\n;;一枚絵ボイス：アフロディーテ　「ふふっ、マスターがわたしを助けてくれるなんて…たまりません。またひとつ、美しい愛をいただきました♪」\n;;　　　…の「またひとつ、美しい愛をいただきました♪」部分で\n;;aphrodite_kyara_1028.wav\n# voice 4013 \"aphrodite_kyara_1028\"\n# imagealpha 0 1 0\n# imagepos 0 0 0\n# fadein \"white\" 3\n# textwindow \"close\""
	}
]