[
	{
		"ID": 40131203,
		"script": "# script \"lisp\"\n# background \"forest\"\n# bgm \"bgm003\" 0\n# body 401311\n# mask 401311 off\n# pos 401311 3\n# face 401311 \"worry\"\n# textflame 0 0\n@\nあれから水辺の花を眺め、\n思いにふけるアフロディーテ\n\n# textflame 1 1\n# textboxarrow 0 2\n# voice 4013 \"aphrodite_0019\"\n@アフロディーテ\n美とは…\n一体、何なのでしょう\n\n# textflame 0 0\n@\n答えは、そんなに急には出ないよ\nと、声を掛けるマスター\nその時…\n\n# textflame 0 0\n@\nぐ〜〜〜っ\n\n# face 401311 \"surprise\"\n# textflame 1 1\n# textboxarrow 0 2\n# voice 4013 \"aphrodite_0024\"\n@アフロディーテ\n！！\n\n# textflame 0 0\n@\n今のは、もしかして…\n\n# textflame 1 1\n# textboxarrow 0 2\n@アフロディーテ\nそ、そう言えば…！\nそろそろお昼でしたね！\n\n# voice 4013 \"aphrodite_0001\"\n@アフロディーテ\nい、今のような、はしたない姿…\n美しくありませんわ！マ、マスター！\nどこかのお店でランチを…\n\n# voice 4013 \"aphrodite_0022\"\n@アフロディーテ\n…！！\nえ…？これは…？\n\n# select \"サンドイッチ、作ってきたんだ\" \"select_label_01\" \"君って料理が得意なイメージないから\" \"select_label_02\" \"口に合うか分からないけど\" \"select_label_03\"\n…！！\nえ…？これは…？\n\n# label \"select_label_01\"\n# labeljump \"select_label_end\"\n# textflame 1 1\n# textboxarrow 0 2\n@アフロディーテ\n…なっ！！私に…！？\n\n# label \"select_label_02\"\n# labeljump \"select_label_end\"\n# textflame 1 1\n# textboxarrow 0 2\n@アフロディーテ\nわざわざ…作ってきて下さったの！？\n\n# label \"select_label_03\"\n# labeljump \"select_label_end\"\n# textflame 1 1\n# textboxarrow 0 2\n@アフロディーテ\n…！！まさか…マスター自ら…！！\n\n# label \"select_label_end\"\n@アフロディーテ\n………\n\n# textflame 0 0\n@\nまるで雷に撃たれたような\n衝撃を受ける彼女\nどうしたの？と尋ねると…\n\n# textflame 1 1\n# textboxarrow 0 2\n# voice 4013 \"aphrodite_0003\"\n@アフロディーテ\n見えましたわ…\n\n@アフロディーテ\n“美”とは…\n\n# face 401311 \"shy\"\n# voice 4013 \"aphrodite_0005\"\n@アフロディーテ\n愛されること！！\n\n@アフロディーテ\n愛されるものは…\nすべからく美しいのです！！\n\n# voice 4013 \"aphrodite_0003\"\n@アフロディーテ\n思い返せば、ずっとそうでしたね\n\n# voice 4013 \"aphrodite_0007\"\n@アフロディーテ\n戦場に赴く私たちを\nあなたはいつも気遣って\n下さってました\n\n# voice 4013 \"aphrodite_0032\"\n@アフロディーテ\n戦闘で怪我をした私たちを\nいつも優しく介抱して下さいました\n\n@アフロディーテ\nだから、戦いの中で生きる\n姫たちでさえも…\n美しかったのです\n\n# voice 4013 \"aphrodite_0001\"\n@アフロディーテ\nマスター、\nあなたの愛に包まれていたから\n\n@アフロディーテ\nそれは性愛なんかじゃない…\n“慈愛”という究極の愛に！！\n\n@アフロディーテ\n“美”の答えが出た今…\n私の中で何かが変わりました！\n\n#se \"SE_0602\"\n@アフロディーテ\n愛を力に変えて！！\n新奥義、『ラブ・マザーズ』\n誕生です！！\n\n# textflame 0 0\n@\nそれはまさしく、\n彼女が新たなるスキルに\n目覚めた瞬間だった\n\n# textflame 1 1\n# textboxarrow 0 2\n# voice 4013 \"aphrodite_0004\"\n@アフロディーテ\n私…隊のすべての姫に\n慈愛を注ぐマスターを尊敬します\n\n# voice 4013 \"aphrodite_0002\"\n@アフロディーテ\n慈愛を注ぐ姿こそが究極の美\n私もそうなりたい\n\n# voice 4013 \"aphrodite_0003\"\n@アフロディーテ\n私もマスターのため…\n究極の美…愛を追求しますわ！\n\n# textflame 0 0\n@\nそう言って、抱き着いてくる彼女\nむにゅ…柔らかい胸が押し付けられる\n\n# textflame 0 0\n@\n積極的な彼女に驚き、\n尻餅をついてしまうマスター\n\n# textflame 1 1\n# textboxarrow 0 2\n@アフロディーテ\nあら、ごめんなさい\n慈愛と言っておきながら、\nつい性愛が勝ってしまって…\n\n# voice 4013 \"aphrodite_0004\"\n@アフロディーテ\nこれじゃ、私も\nアルテミスのことを言えませんね\nぶれぶれで\n\n# imageset 0 \"c401311\"\n# imagealpha 0 0 0\n# imagepos 0 0 0\n# face 401311 \"happy\"\n# voice 4013 \"aphrodite_0042\"\n@アフロディーテ\n愛って…\nなかなか難しいんですのね\nうふふ\n\n# voice 4013 \"aphrodite_kyara_0026\"\n# imagealpha 0 1 0\n# imagepos 0 0 0\n# fadein \"white\" 3\n# textwindow \"close\"\n\n# textwindow \"nomal\"\n# textflame 0 0\n@\nそう言ってマスターを見下ろす瞳は、\n妖艶なまでに美しかった"
	}
]