[
	{
		"ID": 40152201,
		"script": ";;【EP1】\n# script \"lisp\"\n# background \"beach\"\n# bgm \"bgm002\" 0\n# body 125\n# body 401521\n# alpha 401521 0 0\n# pos 125 3\n# mask 125 off\n# textflame 0 0\n@\n戦闘の合間の休日\n砂浜に遊びにやってきた\nマスターの隊\n\n# voice 4015 \"yuri_0019\"\n# face 125 \"irregular1\"\n# textflame 1 1\n# textboxarrow 0 2\n@ユリ\n…ふぅ\n\n# textflame 0 0\n@\n彼女は、\nこことは“別の世界”から\nやって来たと言う少女・ユリ\n\n# voice 4015 \"yuri_0030\"\n# face 125 \"surprise\"\n# textflame 1 1\n# textboxarrow 0 2\n@ユリ\n…あ、マスター\nありがとうございます\n\n# textflame 0 0\n@\nマスターは彼女と話をしようと、\n冷えた飲み物を手渡した\n\n# face 125 \"usual\"\n# textflame 1 1\n# textboxarrow 0 2\n@ユリ\nすみません、\nお気遣い頂いて…\n\n# textflame 0 0\n@\n慣れないこちらでの戦闘で、\n彼女は少し疲れ気味のようだった\n\n# voice 4015 \"yuri_0028\"\n# face 125 \"sad\"\n# textflame 1 1\n# textboxarrow 0 2\n@ユリ\nそうですわね…\n少々、戸惑っておりますわ\n\n# face 125 \"smile\"\n# textflame 1 1\n# textboxarrow 0 2\n@ユリ\n私がいた世界では、\nクノイチはサムライを召喚して、\n戦っておりました\n\n# textflame 1 1\n# textboxarrow 0 2\n@ユリ\nでも、こちらではみなさん、\nご自身の剣でのみ\n戦っていらっしゃいます\n\n# textflame 1 1\n# textboxarrow 0 2\n@ユリ\nこの世界に来て痛感いたしました\n私が今まで如何に\nサムライに甘えていたのかが…\n\n# textflame 0 0\n@\nそんな事ないよ\nきみはよくやってくれてるよ\n…と、マスターが答える\n\n# face 125 \"angry\"\n# textflame 1 1\n# textboxarrow 0 2\n@ユリ\n…いいえ\n\n# textflame 1 1\n# textboxarrow 0 2\n@ユリ\n戦闘に出ても、\n未だに隊のみなさんの\n手をお借りしてばかり…\n\n# voice 4015 \"yuri_0019\"\n# face 125 \"sad\"\n# textflame 1 1\n# textboxarrow 0 2\n@ユリ\n本当…情けないですわ\n\n# textflame 0 0\n@\nそう言って、目を伏せる彼女\nどうやら相当\n落ち込んでいるみた…\n\n# voice 4015 \"yuri_0022\"\n# face 125 \"surprise\"\n# textflame 1 1\n# textboxarrow 0 2\n@ユリ\nえ！？海の家！？\n\n# voice 4015 \"yuri_0021\"\n# face 125 \"happy\"\n# textflame 1 1\n# textboxarrow 0 2\n@ユリ\n行きますわ！！\n\n# textflame 0 0\n@\n隊の姫に誘われ、\n海の家に足を向ける彼女\n\n# voice 4015 \"yuri_0001\"\n# face 125 \"happy\"\n# textflame 1 1\n# textboxarrow 0 2\n@ユリ\nあら、あなたも一緒に行きません？\n\n# voice 4015 \"yuri_0004\"\n# textflame 1 1\n# textboxarrow 0 2\n@ユリ\n海の家で食べるといったら\nやっぱり…\n味噌ラーメンですわね！\n\n# textflame 0 0\n@\nそこまでは落ち込んでないのかな…？\n少々、天然気味な彼女に\n困惑するマスターだった\n"
	}
]