[
	{
		"ID": 40161203,
		"script": "# script \"lisp\"\n# bgm \"bgm002\" 0\n# background \"plain_evening\"\n# body 56\n# pos 56 3\n# mask 56 off\n# textboxarrow 0 2\n# textflame 0 0\n@\nピンときたアルミラは\n精神統一し始める\n\n;;モヤモヤ吹き出し\n# textflame 1 1\n# textwindow \"moya\"\n# textboxarrow 0 0\n# chara 401611\n# face 56 \"usual\"\n@アルミラ\nいつものうちは\nどんなだったのかな\n\n;;モヤモヤ吹き出し\n# chra 401611\n@アルミラ\nしっかり\nイメージしなくちゃ…\n\n# textwindow \"nomal\"\n# textboxarrow 0 2\n# chara 401611\n@アルミラ\n…………\n\n# chara 401611\n# face 56 \"normal\"\n# voice 4016 \"almira_0033\"\n@アルミラ\nわかった！\n\n# textflame 0 0\n@\nおもむろに弓を手にとって\n獲物へと矢を放つ\n\n@\nすると矢は\n見事に獲物へと命中した\n\n# textflame 1 1\n# chara 401611\n# face 56 \"happy\"\n# voice 4016 \"almira_0004\"\n@アルミラ\nへへっ\nうち、わかっちゃった\n\n# chara 401611\n# face 56 \"normal\"\n@アルミラ\n獲物を追いかけることに\n意識し過ぎちゃ\nダメなんだ！\n\n# chara 401611\n@アルミラ\nどんな時も、\n本来の自分でいるように\n心がけなきゃね！\n\n#se \"SE_0602\"\n# textflame 0 0\n@\nそれは彼女がスキル、\n『常在我心の構え』を\n取得した瞬間だった\n\n# textflame 1 1\n# chara 401611\n# face 56 \"happy\"\n# voice 4016 \"almira_0006\"\n@アルミラ\nあんたのおかげで\nなんか前よりも\n強くなった気がするよ！\n\n# chara 401611\n# face 56 \"normal\"\n@アルミラ\nそろそろ\n暗くなってきたし…\n\n# chara 401611\n# face 56 \"happy\"\n# voice 4016 \"almira_0004\"\n@アルミラ\n今日は\n私が肉を焼いてあげるね！\n\n# textflame 0 0\n@\nそう言うとアルミラは\n手慣れた動作で肉を串に通し\n焼き始めた\n\n@\n辺りにおいしそうな\n匂いが立ち込める\n\n# textflame 1 1\n# chara 401611\n# face 56 \"normal\"\n# voice 4016 \"almira_0001\"\n@アルミラ\nそろそろかな？\n食べてみて！\n\n# textflame 0 0\n@\n口に頬張るマスター\n\n# textflame 1 1\n# chara 401611\n# face 56 \"happy\"\n# voice 4016 \"almira_0004\"\n@アルミラ\nどう？\n最高じゃない！？\n\n# textflame 0 0\n@\nたしかに、\n苦労をして手に入れた\n肉は格別の味だった\n\n# textflame 1 1\n# chara 401611\n# face 56 \"usual\"\n@アルミラ\nその顔は\nわかってくれたって\nことだよね？\n\n# chara 401611\n# face 56 \"happy\"\n# voice 4016 \"almira_0005\"\n@アルミラ\n今日も楽しかったし、\nまた行こうね！\n\n# textflame 0 0\n@\nふと、アルミラの口元が\n汚れていることに\n気づいたマスター\n\n@\n体を乗り出して\n拭いてあげると…\n\n# textflame 1 1\n# chara 401611\n# face 56 \"surprise\"\n# voice 4016 \"almira_0022\"\n@アルミラ\nえ！？\nな、なに！？\n\n# chara 401611\n# face 56 \"normal\"\n@アルミラ\nあぁ、口に…\n\n# chara 401611\n# face 56 \"shy\"\n@アルミラ\nって、\n言ってくれれば\n自分で拭けるから！\n\n# imageset 0 \"c401611\"\n# imagealpha 0 0 0\n# textflame 0 0\n@\n不意のことに\nドキッとしてしまった\nアルミラだった\n\n# imagealpha 0 1 0\n# imagepos 0 0 0 \n# voice 4016 \"almira_kyara_0012\"\n# fadein \"white\" 3\n# textwindow \"close\""
	}
]