[
	{
		"ID": 40181201,
		"script": ";;【シノビナイトメアコラボ・ヨミ】\n;;【EP1】\n# script \"lisp\"\n# background \"town\"\n# bgm \"bgm006\" 0\n# body 401811\n# pos 401811 3\n# mask 401811 off\n# textflame 1 1\n# textboxarrow 0 2\n# face 401811 \"worry\"\n# voice 4018 \"yomi_0016\"\n@ヨミ\nヤダー！\nボクもう日が出てるうちは\n外に出ないーっ！\n\n# textflame 0 0\n@\n室内に、少女の声が木霊する\n\n@\n彼女の名前はヨミ\nマスターの隊に新しく入った姫\n…なのだが\n\n# textflame 1 1\n# textboxarrow 0 2\n@ヨミ\nいくらマスターの頼みでも\nこればっかりはナシだよ！\nボクはもう心に決めたんだ！\n\n# textflame 0 0\n@\nヨミはそういって、\n自室の布団にくるまったまま\n顔も出そうとしない\n\n@\n最初はただの気まぐれかと\n思っていた\nマスターだったが…\n\n# face 401811 \"sad\"\n# textflame 1 1\n# textboxarrow 0 2\n# voice 4018 \"yomi_0019\"\n@ヨミ\nもう、ボクの不調で誰かが\n傷つくところなんて見たくないんだ\n\n@ヨミ\nこの間の戦闘で、ボクのせいで\n仲間が怪我をしたでしょ？\n\n# face 401811 \"worry\"\n@ヨミ\nあの時はかすり傷だったけど\n一歩間違えば、\n大怪我だったかもしれない…\n\n@ヨミ\nそう思うと、調子の出ない昼間に\n戦うのが…その、怖くてさ\n\n# textflame 0 0\n@\nこれは重傷だ\nそう思ったマスターは\n彼女にひとつ提案した\n\n# textflame 1 1\n# textboxarrow 0 2\n@ヨミ\n気分転換に、街に？\nでもボクは…\n\n# imageset 0 \"black\"\n# imagealpha 0 0 0\n# imagelayer 0 1\n# face 401811 \"surprise\"\n# voice 4018 \"yomi_0022\"\n@ヨミ\nえっ、とびっきりの甘味！？\nおごってくれるの？\nじゃあ、ちょっとだけなら…\n\n;;――場面転換――\n# imagealpha 0 1 0\n# imagepos 0 0 30\n# imageleftin 0 0.5\n# serif 0\n# textwindow \"close\"\n# serif 1\n# textwindow \"close\"\n# waitandnext 1\n\n# imagealpha 0 0 0.5\n# imagerightout 0 0.5\n# serif 0\n# textwindow \"nomal\"\n# face 401811 \"worry\"\n# textwindow \"nomal\"\n# voice 4018 \"yomi_0027\"\n@ヨミ\n…はぁ\nやっぱり調子が出ない\n\n# textflame 0 0\n@\n街のいくつかの施設をめぐり\n公園にたどり着いたヨミが\nどこか暗いため息をついた\n\n# textflame 1 1\n# textboxarrow 0 2\n@ヨミ\n街を歩くだけでもこの調子なんだ\n昼間に戦ったりなんかしたら\nきっとまた…\n\n# voice 4018 \"yomi_0007\"\n@ヨミ\nこんな事なら、\nボクはもう戦わないほうが\n後方支援とか、それくらいで…\n\n# textflame 0 0\n@\nいつもの不敵さがなりを潜め\nしょんぼりと肩を落とすヨミの姿\n\n@\nそんな彼女をなんとか励まそうと\nマスターが声をかけようとした\nその時—\n\n# serif 1\n@市民\nた、大変だ！\n異族が街に！\n\n# face 401811 \"surprise\"\n# serif 1\n# textwindow \"close\"\n# serif 0\n# textflame 1 1\n# textboxarrow 0 2\n# voice 4018 \"yomi_0024\"\n@ヨミ\nあ…\n\n# textflame 0 0\n@\n戦うことに対する恐怖ではない\n守れないかも知れない\nその恐怖が、彼女の手足を縛っていた\n\n# select \"大丈夫、やれるよ\" \"select_label_01\" \"ヨミしかいないんだ\" \"select_label_02\" \"力を貸してほしい\" \"select_label_03\"\n戦うことに対する恐怖ではない\n守れないかも知れない\nその恐怖が、彼女の手足を縛っていた\n\n# label \"select_label_01\"\n# labeljump \"select_label_end\"\n# textflame 1 1\n# textboxarrow 0 2\n# face 401811 \"sad\"\n@ヨミ\nあ、当たり前さ！\n\n# label \"select_label_02\"\n# labeljump \"select_label_end\"\n# textflame 1 1\n# textboxarrow 0 2\n# face 401811 \"sad\"\n@ヨミ\n…うん、行こう！\n\n# label \"select_label_03\"\n# labeljump \"select_label_end\"\n# textflame 1 1\n# textboxarrow 0 2\n# face 401811 \"sad\"\n@ヨミ\n大丈夫、行ける…行くさ！\n\n# label \"select_label_end\"\n# textflame 0 0\n@\nマスターの言葉に、ヨミが意を決した\nように顔を上げる\n\n@\nその顔にはまだ、\n自分を信じきれない弱さが浮かぶ\nだがそれでも—\n\n# textflame 1 1\n# textboxarrow 0 2\n# face 401811 \"mad\"\n# voice 4018 \"yomi_kyara_1008\"\n@ヨミ\nボクの力を—\n見せてあげるよ！\n\n# textflame 0 0\n@\nヨミは自身を奮い立たせるように\nそう言って、\n異族を止めるために駆けだした"
	}
]