[
	{
		"ID": 413021011,
		"script": ";;【EP1バトル前】「楽園からは放たれて」\n;;背景：黒\n;;SE：数度の斬撃音\n;;演出：引き裂かれるような、貫かれるような攻撃が画面を数度走る\n# script \"lisp\"\n# textwindow \"close\"\n# background \"bg_black\"\n# bgmfile \"bgm276\" \"BgmLostRagnarokEvent\" 0\n# body 3600611\n# mask 3600611 off\n# pos 3600611 3\n# scale 3600611 0.8 0\n# alpha 3600611 0 0\n# body 3302011\n# layer 3302011 4\n# mask 3302011 off\n# pos 3302011 3\n# scale 3302011 0.8 0\n# alpha 3302011 0 0\n# body 3810001\n# layer 3810001 3\n# pos 3810001 2\n# scale 3810001 0.8 0\n# alpha 3810001 0 0\n# entry 99381199 3810001\n# pos 99381199 4\n# layer 99381199 2\n# scale 99381199 0.8 0\n# alpha 99381199 0 0\n# entry 99381299 3810001\n# pos 99381299 2\n# layer 99381299 1\n# scale 99381299 0.8 0\n# alpha 99381299 0 0\n# imageset 3 \"black\"\n# imagealpha 3 0 0\n# imagelayer 3 1\n# imageset 2 \"mov2_3_overlay\"\n# imagealpha 2 0 0\n# imagelayer 2 1\n# imagescale 2 1.2 0\n# imageset 1 \"black\"\n# imagealpha 1 0 0\n# imagelayer 1 1\n# imageset 0 \"black\"\n# imagealpha 0 0 0\n# imagelayer 0 1\n# waitandnext 0.5\n\n# se \"SE_9121\"\n# waitandnext 0.5\n\n# face 3600611 \"angry\"\n# alpha 3600611 1 0\n# imagealpha 3 1 0\n# imagepos 3 0 0\n# textwindow \"nomal\"\n# textflame 1 1\n# textboxarrow 0 0\n@ミストルティン\n───堕ちていたんじゃないですか\n最初から\n\n;;背景：夕暮れの荒野（もしくは草原などの戦場）\n# background \"plain_evening\"\n# waitandnext 0.5\n\n# textwindow \"close\"\n# imagealpha 3 0 1\n# waitandnext 1\n\n# textwindow \"nomal\"\n# textflame 1 1\n# textboxarrow 0 2\n# voice 360061 \"misutoru_ge_0004\"\n@ミストルティン\nキズだらけの手足を引きずって\n地面を這いずりまわって\nズリズリ、ズリズリ…\n\n# textflame 1 1\n# textboxarrow 0 2\n# voice 360061 \"misutoru_ge_0020\"\n@ミストルティン\nふふっ\nふふふふふふふふっ…\n\n# textflame 0 0\n@\nミストルティンは\nその濁った瞳を眼下に向ける\n\n# textwindow \"close\"\n# fadeout \"black\" 0.5\n# waitandnext 0.5\n\n# imagealpha 2 0.8 0\n# imagepos 2 0 0\n# face 3302011 \"sad\"\n# alpha 3600611 0 0\n# alpha 3302011 1 0\n# waitandnext 0.5\n\n# fadein \"black\" 0.5\n# waitandnext 0.5\n\n# textwindow \"nomal\"\n# textflame 1 1\n# textboxarrow 0 0\n# voice 330201 \"pisear_t_0038\"\n@ピサール\nあ………ううッ………！\n\n# textflame 0 0\n@\nそこには\n地面に這いつくばった\nピサールがいる\n\n# textwindow \"close\"\n# fadeout \"black\" 0.5\n# waitandnext 0.5\n\n# imagealpha 2 0 0\n# imagepos 0 0 508\n# imagepos 1 0 -450\n# imagealpha 0 1 0\n# imagealpha 1 1 0\n# alpha 3600611 1 0\n# alpha 3302011 0 0\n# scale 3600611 1.4 0\n# waitandnext 0.5\n\n# fadein \"black\" 1\n# waitandnext 1\n\n# textwindow \"nomal\"\n# textflame 0 0\n@\nもはや血塗れで\n夕日に照らされたその姿は\nさながら真っ赤な───\n\n# face 3600611 \"shy\"\n# textflame 1 1\n# textboxarrow 0 0\n# voice 360061 \"misutoru_ge_0020\"\n@ミストルティン\n蛇みたい………♪\n\n;;演出：暗転（時間戻る）\n;;背景：戦場（昼）\n# textwindow \"close\"\n# fadeout \"black\" 1\n# waitandnext 1\n\n# imagealpha 0 0 0\n# imagealpha 1 0 0\n# background \"plain\"\n# alpha 3600611 0 0\n# mask 3302011 on\n# move 3302011 4 0\n# alpha 3302011 1 0\n# alpha 3810001 1 0\n# face 3302011 \"usual\"\n# bgmfile \"bgm271\" \"BgmLostRagnarokEvent\" 0\n# waitandnext 0.5\n\n# fadein \"black\" 1\n# waitandnext 1\n\n# textwindow \"nomal\"\n# textflame 1 1\n# textboxarrow 0 3\n# voice 330201 \"pisear_t_0027\"\n@ピサール\n───死ねっていうの～？\n\n# textboxarrow 0 1\n@ハルモニア兵隊長\n矢面に立てと\n言っているだけだ\n\n# textflame 0 0\n@\n「鍵」である\nナディア姫がトレイセーマに\n連れ去られた\n\n# textflame 0 0\n@\nその報は即座にハルモニアにも届き\n国家上層部は各隊に命じる\n\n# textflame 0 0\n@\n『“神の祝福”の為\n早急にナディア姫を\nトレイセーマから奪還すべし』\n\n# face 3302011 \"sad\"\n# textflame 1 1\n# textboxarrow 0 3\n# voice 330201 \"pisear_t_0028\"\n@ピサール\nこれだけの\n数えるほどの兵力しかなくて\n無謀だよぉ…？\n\n# textboxarrow 0 1\n@ハルモニア軍兵長\n現状、トレイセーマとの国境線に\n最も近い我が隊が\nその任に着くのは当然のこと\n\n# face 3302011 \"shy\"\n# textflame 1 1\n# textboxarrow 0 3\n# voice 330201 \"pisear_t_0001\"\n@ピサール\n帰って葡萄酒、一緒に飲もうよぉ～\nこの時間から飲めるなんて\nサイコーじゃなあい？\n\n# textboxarrow 0 1\n@ハルモニア軍兵長\nそれに数など問題ではない\n\n# face 3302011 \"usual\"\n# textflame 1 1\n# textboxarrow 0 3\n# face 3302011 \"sad\"\n@ピサール\n相手、シてくれないんだね～…\n\n# textboxarrow 0 1\n@ハルモニア軍兵長\n我がハルモニア軍は少数精鋭\nトレイセーマの野蛮な獣どもなど\n物の数ではない\n\n# textwindow \"close\"\n# fadeout \"black\" 0.5\n# waitandnext 0.5\n\n# alpha 3302011 0 0\n# alpha 3810001 0 0\n# alpha 99381199 1 0\n# alpha 99381299 1 0\n# waitandnext 0.5\n\n# fadein \"black\" 0.5\n# waitandnext 0.5\n\n# textwindow \"nomal\"\n# textboxarrow 0 3\n@ハルモニア兵A\nそうだ。たとえ無謀と思えども\n教皇様の加護さえあれば\n敗れることなど考えられぬ\n\n# textboxarrow 0 1\n@ハルモニア兵B\n一刻も早く「鍵」を奪還せねばならぬ\n今こそ死力を尽くすべきではないか\n\n# move 3302011 3 0\n# mask 3302011 off\n# alpha 3302011 1 0.5\n# alpha 99381199 0 0.5\n# alpha 99381299 0 0.5\n# textflame 1 1\n# textboxarrow 0 2\n# face 3302011 \"sad\"\n@ピサール\nうわあ暑苦しぃ…\n目つきコワ…\n鼻息荒ぁい…\n\n# textflame 0 0\n@\n冷静に考えてみれば\nトレイセーマの国境警備は圧倒的\n\n# textflame 0 0\n@\nいくら元から少数精鋭とはいえ\n物量の差は歴然\n敵国の第一線を抜くのは困難に思えた\n\n# textflame 0 0\n@\n兵士たちは、教皇への盲信によって\n突き動かされている\n\n# textflame 0 0\n@\nピサールはハルモニアに\n使役されている立場ではあるものの\n元来の怠惰な性分が消えることもなく\n\n# textflame 1 1\n# textboxarrow 0 2\n@ピサール\n…面倒くさ～い\n\n# alpha 99381299 1 0.5\n# alpha 99381199 1 0.5\n# alpha 3302011 0 0.5\n# alpha 3810001 1 0.5\n# move 3810001 3 0\n# textsize 22\n@ハルモニア軍兵長\nそんな態度でいるから、栄えある作戦\nティルヘルムへの侵攻に帯同も許されず\n本国待機とさせられていたのだろう\n\n# alpha 99381299 0 0.5\n# alpha 99381199 0 0.5\n# alpha 3302011 1 0.5\n# alpha 3810001 0 0.5\n# textsize 24\n# textflame 1 1\n# textboxarrow 0 2\n# face 3302011 \"usual\"\n@ピサール\n…ツケがまわったってこと\n\n# alpha 99381199 1 0.5\n# alpha 99381299 1 0.5\n# alpha 3302011 0 0.5\n# alpha 3810001 1 0.5\n@ハルモニア軍兵長\n教皇様が見守っておられる\n戦果を期待しよう\n\n# alpha 99381299 0 0.5\n# alpha 99381199 0 0.5\n# alpha 3302011 1 0.5\n# alpha 3810001 0 0.5\n# textflame 1 1\n# textboxarrow 0 2\n@ピサール\n派手に暴れまわって\n派手に死ねってことね\n\n# alpha 99381299 1 0.5\n# alpha 99381199 1 0.5\n# alpha 3302011 0 0.5\n# alpha 3810001 1 0.5\n# move 99381199 1 0\n# move 99381299 5 0\n# textboxarrow 0 1\n@ハルモニア兵A\nあなたには天使の血が宿されている\n我が国の限りある兵器のひとつだ\n死んでもらっては困るな\n\n# alpha 99381299 0 0.5\n# alpha 99381199 0 0.5\n# alpha 3302011 1 0.5\n# alpha 3810001 0 0.5\n# textflame 1 1\n# textboxarrow 0 2\n# voice 330201 \"pisear_t_0005\"\n@ピサール\nあっはは\nやさしいコトバ～\nきっと救われるわ～\n\n# alpha 99381299 1 0.5\n# alpha 99381199 1 0.5\n# alpha 3302011 0 0.5\n# alpha 3810001 1 0.5\n# textboxarrow 0 1\n@ハルモニア兵A\n救われる？\n\n# alpha 99381299 0 0.5\n# alpha 99381199 0 0.5\n# alpha 3302011 1 0.5\n# alpha 3810001 0 0.5\n# textflame 1 1\n# textboxarrow 0 2\n# voice 330201 \"pisear_t_0028\"\n@ピサール\n破滅は救い、だからね？\n\n# bgmfile \"bgm276\" \"BgmLostRagnarokEvent\" 0\n# alpha 99381199 1 0.5\n# alpha 3302011 0 0.5\n# alpha 3810001 1 0.5\n# alpha 99381299 1 0.5\n# textboxarrow 0 3\n@ハルモニア兵B\nトレイセーマ国境間近！\n敵影を確認！\n間もなく会敵します！\n\n# textboxarrow 0 2\n@ハルモニア軍兵長\n数は！\n\n# textboxarrow 0 3\n@ハルモニア兵B\n数えきれませんが\n想定通り、我が軍の数倍は\nいるものと思われます！\n\n# textboxarrow 0 2\n@ハルモニア軍兵長\n総員構え！\n敵軍を突破する！\n\n# alpha 99381299 0 0.5\n# alpha 99381199 0 0.5\n# alpha 3302011 1 0.5\n# alpha 3810001 0 0.5\n# textflame 1 1\n# face 3302011 \"sad\"\n# textboxarrow 0 2\n# voice 330201 \"pisear_t_0027\"\n@ピサール\nあああ\n面倒くさ～い\n\n# textflame 0 0\n@\nピサールは自嘲気味に笑うと\n自身の槍を気だるげに持ち直す\n\n# textflame 1 1\n# textboxarrow 0 2\n@ピサール\nきっと、楽園を追放されたのね"
	}
]