[
	{
		"ID": 413020253,
		"script": "# script \"lisp\"\n# background \"201_room\"\n# bgm \"bgm002\" 0\n# textwindow \"nomal\"\n# body 3600211\n# pos 3600211 2\n# scale 3600211 0.8 0\n# alpha 3600211 0 0\n# body 3502411\n# pos 3502411 4\n# scale 3502411 0.8 0\n# alpha 3502411 0 0\n# textflame 0 0\n@\n戦闘後─\n\n# textflame 0 0\n@\n部屋で傷を癒やしている\nガンバンテイン\n\n# face 3502411 \"happy\"\n# alpha 3502411 1 0.5\n# alpha 3600211 1 0.5\n# face 3600211 \"surprise\"\n# voice 350241 \"saika_a_0004\"\n# textflame 1 1\n# textboxarrow 0 3\n@雑賀\nよく…やってくれたっす\n\n# textflame 1 1\n# textboxarrow 0 1\n@ガンバンテイン\n雑賀…\n\n# textflame 1 1\n# textboxarrow 0 3\n@雑賀\nやっぱり…\nあんたを信じて\n良かったっす\n\n# voice 360021 \"ganbantein_a_0004\"\n# face 3600211 \"normal\"\n# textflame 1 1\n# textboxarrow 0 1\n@ガンバンテイン\nそれは…\nこっちのセリフだよ\n\n# voice 350241 \"saika_a_0022\"\n# face 3502411 \"surprise\"\n# textflame 1 1\n# textboxarrow 0 3\n@雑賀\n…え？\nどうして…？\n\n# face 3600211 \"happy\"\n# textflame 1 1\n# textboxarrow 0 1\n@ガンバンテイン\nきみが…\n信じてくれたから\n\n# voice 360021 \"ganbantein_a_0005\"\n# textflame 1 1\n# textboxarrow 0 1\n@ガンバンテイン\nだから、あたしはがんばれた\nなんて言うか…\n\n# voice 360021 \"ganbantein_a_0030\"\n# face 3600211 \"shy\"\n# textflame 1 1\n# textboxarrow 0 1\n@ガンバンテイン\nさんきゅ～・そ～まっち\n\n# voice 350241 \"saika_a_0005\"\n# face 3502411 \"happy\"\n# textflame 1 1\n# textboxarrow 0 3\n@雑賀\nなに言ってるっすか\nあんたのおかげで勝てたんすよ\nあんたは最高の諜報員っす！\n\n# face 3502411 \"normal\"\n# textflame 1 1\n# textboxarrow 0 3\n@雑賀\n前にも言ったけど…\nぜひ諜報部隊に入って、\nこの国のため戦って欲しいっす！\n\n# voice 360021 \"ganbantein_a_0028\"\n# face 3600211 \"sad\"\n# textflame 1 1\n# textboxarrow 0 1\n@ガンバンテイン\nう～ん…\n\n# textflame 0 0\n@\n表情を曇らせる彼女\n\n# face 3502411 \"sad\"\n# textflame 1 1\n# textboxarrow 0 3\n@雑賀\nそれはやっぱ…\nめんどくさいっすか？\n\n# face 3600211 \"happy\"\n# textflame 1 1\n# textboxarrow 0 1\n@ガンバンテイン\nあたしに指示してくれるなら、\nやってもいいかな\nきみが軍師として\n\n# voice 350241 \"saika_a_0022\"\n# face 3502411 \"surprise\"\n# textflame 1 1\n# textboxarrow 0 3\n@雑賀\nほ、ほんとっすか？\n\n# voice 360021 \"ganbantein_a_0004\"\n# face 3502411 \"happy\"\n# textflame 1 1\n# textboxarrow 0 1\n@ガンバンテイン\nふふ…これからも\nあたしを信じてくれるなら\n\n# face 3600211 \"shy\"\n# textflame 1 1\n# textboxarrow 0 1\n@ガンバンテイン\nあい・らいく・ざ・うぇい・ゆーあー\n\n# face 3502411 \"surprise\"\n# textflame 1 1\n# textboxarrow 0 3\n@雑賀\nあ、あいらいく…？\nどういう意味っすか？\n\n# face 3600211 \"happy\"\n# textflame 1 1\n# textboxarrow 0 1\n@ガンバンテイン\nふふ、めんどくさいから\n自分で調べて～\n\n# imageset 0 \"c3600211\"\n# imagealpha 0 0 0\n# textflame 0 0\n@\nそう言って微笑む彼女の瞳は、\nとてもキラキラと輝いていた\n\n# fadeout \"black\" 1\n# waitandnext 1"
	}
]