[
	{
		"ID": 414022021,
		"script": ";;【EP2バトル前】\n;;背景：擬人区\n# background \"201_border\"\n# bgmfile \"bgm271\" \"BgmLostRagnarokEvent\" 0\n# body 3500211\n# pos 3500211 3\n# scale 3500211 0.8 0\n# alpha 3500211 0 0\n# body 171\n# pos 171 3\n# scale 171 0.8 0\n# alpha 171 0 0\n# mask 171 off\n# layer 171 2\n# body 3810001\n# pos 3810001 3\n# scale 3810001 0.8 0\n# mask 3810001 off\n# alpha 3810001 0 0\n# textwindow \"nomal\"\n# textflame 0 0\n# textboxarrow 0 0\n@フライクーゲル\nメイビー\n\n@フライクーゲル\nトリガーハッピー\nだったのかも\n\n# textwindow \"nomal\"\n# textflame 0 0\n@\nハルモニア教皇国、擬人区\n\n# textwindow \"nomal\"\n# textflame 0 0\n@\n首都への入国を許されていない\nイミテーション達が寄り合い\n自然発生的に出来上がった集落\n\n# textwindow \"nomal\"\n# textflame 0 0\n@\n首都へと繋がる門は閉じたまま\n\n# textwindow \"nomal\"\n# textflame 0 0\n@\nその前ではイミテーション達が\n醜い争い合いを続けている\n\n# textwindow \"nomal\"\n# textflame 0 0\n@\n次に門が開く時に備え\n我先にと門の前を陣取っては\nその場所を奪い合う…\n\n# textwindow \"nomal\"\n# textflame 0 0\n@\n死者が出ればその躯は\n処理されることもなく\n道端に転がる\n\n# textwindow \"nomal\"\n# textflame 0 0\n@\n門から離れた場所では\n配給されたわずかな食糧で\n食いつなぐ痩せこけた民衆達\n\n# textwindow \"nomal\"\n# textflame 0 0\n@\nその食糧すら略奪の対象となり\n力を持たぬ民は飢え\n力を持つ者もまた疲弊していく\n\n# textwindow \"nomal\"\n# textflame 0 0\n@\nその様子を\n遠巻きに眺める\nフライクーゲル\n\n# textboxarrow 0 0\n@フライクーゲル\nここが天使の国だなんて\n…悪いジョーク\n\n# textwindow \"nomal\"\n# textflame 0 0\n@\n混沌の世界の幕開けとともに\n出現し始めた\n大地を覆う沈殿した灰色の瘴気\n\n# textwindow \"nomal\"\n# textflame 0 0\n@\n抵抗力のない者を死に至らしめる\n神の悪戯とも言うべき\n悪意に満ちた環境変化\n\n# textwindow \"nomal\"\n# textflame 0 0\n@\n抗う手段は異形の力を入れること\n\n# textwindow \"nomal\"\n# textflame 0 0\n@\nハルモニアでいえば\nミカエルより与えられる天使の白羽を\nその身に埋め込むこと\n\n# textwindow \"nomal\"\n# textflame 0 0\n@\n人々はこぞって各国に赴いていた\n\n# textwindow \"nomal\"\n# textflame 0 0\n@\nミカエルを頼ってごった返す\nイミテーション達\n\n# textwindow \"nomal\"\n# textflame 0 0\n@\nハルモニアへの入国は\n門が開いたときのみ\n開門はミカエルの意思のもと\n\n# textwindow \"nomal\"\n# textflame 0 0\n@\nだが、擬人区からその門を遠く見れど\n最後に開いたのは\nいつのことだったか…\n\n# face 171 \"angry\"\n# alpha 171 1 0.5\n# textwindow \"nomal\"\n# textflame 1 1\n# textboxarrow 0 2\n# voice 5032 \"tiphereth_t_0012\"\n@ティファレト\n開かぬ門を待っていて\n何になりますか…！？\n\n# textwindow \"nomal\"\n# textflame 0 0\n@\nティファレトはその中で\n身分を隠して\n人々に演説していた\n\n# textwindow \"nomal\"\n# textflame 0 0\n@\n悪魔国ケイオスリオンの侵攻が\n度重なっており、国家上層部の関心は\nそちらに向いている\n\n# textwindow \"nomal\"\n# textflame 0 0\n@\nミカエル直属の斬ル姫\nセイントキラーズが一人\nフォルカスも首都防衛の為出撃中\n\n# textwindow \"nomal\"\n# textflame 0 0\n@\nティファレトはこうした隙を狙い\n度々イミテーション達に\n説得を試みているのだった\n\n# textwindow \"nomal\"\n# textflame 1 1\n# textboxarrow 0 2\n# voice 5032 \"\"\n@ティファレト\nハルモニア首都に入っても\n厳格な戒律と理不尽な粛正により\n人らしい生活が送れるとは限りません\n\n# textwindow \"nomal\"\n# textflame 1 1\n# textboxarrow 0 2\n# voice 5032 \"\"\n@ティファレト\n私達市民は戦争に勝利する為の\n足場としてしか利用されません…！\n\n# textwindow \"nomal\"\n# textflame 1 1\n# textboxarrow 0 2\n# voice 5032 \"\"\n@ティファレト\n巨大三国に頼ることのない生活の場へ\n共に来ませんか…！？\n\n# textwindow \"nomal\"\n# textflame 1 1\n# textboxarrow 0 2\n# voice 5032 \"\"\n@ティファレト\nもっと民主的に！\n私達、民が畑を耕し、食を得て\n共に暮らしませんか…！？\n\n# textwindow \"nomal\"\n# textflame 0 0\n@\n力無く横たわる人々に\n門前で争い合う人々に\nティファレトは声を枯らす\n\n# textwindow \"nomal\"\n# textflame 0 0\n@\nしかし、そんな訴えは空しく響き…\n\n# serif 1\n# brightness 171 0.5 0.2\n@イミテーション\nうるせえんだよ！\n毎度毎度しつこく来やがって！\n\n# serif 1\n# textwindow \"close\"\n# serif 0\n# brightness 171 1 0.2\n# face 171 \"sad\"\n# textwindow \"nomal\"\n# textflame 1 1\n# textboxarrow 0 2\n# voice 5032 \"\"\n@ティファレト\nお心変わりはないかと…\n\n# serif 1\n# brightness 171 0.5 0.2\n@イミテーション\n大天使様を信じる心を持てば\n救いが訪れる！！\n門を開き、必ず招き入れてくださる！\n\n# serif 1\n# textwindow \"close\"\n# serif 0\n# brightness 171 1 0.2\n# textwindow \"nomal\"\n# textflame 1 1\n# face 171 \"angry\"\n# textboxarrow 0 2\n# voice 5032 \"tiphereth_t_0022\"\n@ティファレト\n事実、門は開いていません！\nこのままでは皆さんが\n困窮していくだけでは…！\n\n# serif 1\n# brightness 171 0.5 0.2\n@イミテーション\n門が開かぬということは\n信仰が足らぬ、ということだろう\n\n# serif 1\n# textwindow \"close\"\n# serif 0\n# brightness 171 1 0.2\n# textwindow \"nomal\"\n# textflame 1 1\n# textboxarrow 0 2\n# voice 5032 \"\"\n@ティファレト\nミカエル様が皆さんに\n何をしてくれたと言うんです！？\n\n# serif 1\n# brightness 171 0.5 0.2\n@イミテーション\n大天使様を冒涜するような行為は\n許されんぞ！！\n\n# serif 1\n@イミテーション\n大天使様は見てくださっている！\nこんな奴の言葉に耳を貸していたら\n開門がまた遠ざかる！\n\n# serif 1\n# textwindow \"close\"\n# serif 0\n# brightness 171 1 0.2\n# textwindow \"nomal\"\n# textflame 1 1\n# face 171 \"sad\"\n# textboxarrow 0 2\n# voice 5032 \"tiphereth_t_0018\"\n@ティファレト\nそんな…\n\n# bgm \"stop\"\n# serif 1\n# brightness 171 0.5 0.2\n@イミテーション\nこいつ、もしかして俺達を連れ出して\n自分が先に門の中へ入ろうって\n考えじゃねえのか！？\n\n# face 171 \"surprise\"\n# serif 1\n# textwindow \"close\"\n# serif 0\n# brightness 171 1 0.2\n# textwindow \"nomal\"\n# textflame 1 1\n# textboxarrow 0 2\n# voice 5032 \"tiphereth_t_0022\"\n@ティファレト\nち、違います！\n\n# bgmfile \"bgm276\" \"BgmLostRagnarokEvent\" 0\n# serif 1\n# brightness 171 0.5 0.2\n@イミテーション\n騙されねえぞ！\n\n# face 171 \"sad\"\n# serif 1\n# textwindow \"close\"\n# serif 0\n# brightness 171 1 0.2\n# textwindow \"nomal\"\n# textflame 1 1\n# textboxarrow 0 2\n# voice 5032 \"tiphereth_t_0015\"\n@ティファレト\n私は…\n\n# serif 1\n# brightness 171 0.5 0.2\n@イミテーション\n帰れ！帰れ！\n\n# serif 1\n# textwindow \"close\"\n# serif 0\n# brightness 171 1 0.2\n# textwindow \"nomal\"\n# textflame 1 1\n# textboxarrow 0 2\n@ティファレト\n信じてください…！\n私は皆さんの為に…！\n\n# serif 1\n# brightness 171 0.5 0.2\n@イミテーション\n信じられるか！\n\n# serif 1\n@イミテーション\nこの魔女めッ！！\n\n# face 171 \"surprise\"\n# serif 1\n# textwindow \"close\"\n# serif 0\n# brightness 171 1 0.2\n# textwindow \"nomal\"\n# textflame 1 1\n# textboxarrow 0 2\n# voice 5032 \"tiphereth_t_0024\"\n@ティファレト\n………ッ！？\n\n# face 171 \"sad\"\n# textwindow \"nomal\"\n# textflame 1 1\n# textboxarrow 0 2\n# voice 5032 \"tiphereth_t_0018\"\n@ティファレト\n…ま、魔女…！？\nわ、私が………！？\n\n# serif 1\n# brightness 171 0.5 0.2\n@イミテーション\n大天使様を侮辱し\n信仰を犯そうとしているだろう！\nまるで悪魔の囁きだ！\n\n# serif 1\n@イミテーション\nああそうだ！\nきっとそうに違いない！\n魔女め！\n\n# serif 1\n# textwindow \"close\"\n# serif 0\n# brightness 171 1 0.2\n# textwindow \"nomal\"\n# textflame 1 1\n# textboxarrow 0 2\n@ティファレト\nみ、みなさん…！\n\n# serif 1\n# brightness 171 0.5 0.2\n@イミテーション\n魔女！魔女！魔女！\n去れ！去れ！去れ！\n\n;;暗転（場面転換）\n;;背景：夜の森（ティファレトの隠れ里）\n# serif 1\n# textwindow \"close\"\n# serif 0\n# textwindow \"close\"\n# fadeout \"black\" 0.5\n# waitandnext 0.5\n\n# move 171 4 0\n# move 3500211 2 0\n# alpha 3500211 1 0\n# brightness 171 1 0\n# face 3500211 \"sad\"\n# background \"forest_totaleclipse\"\n# bgmfile \"bgm273\" \"BgmLostRagnarokEvent\" 0\n# waitandnext 0.5\n\n# fadein \"black\" 0.5\n# waitandnext 0.5\n\n# textwindow \"nomal\"\n# textflame 1 1\n# textboxarrow 0 3\n@ティファレト\n…\n\n# textboxarrow 0 1\n@フライクーゲル\n…\n\n# face 171 \"normal\"\n# textwindow \"nomal\"\n# textflame 1 1\n# textboxarrow 0 3\n@ティファレト\nついてきてくださり…\nありがとうございました…\n\n# textboxarrow 0 1\n@フライクーゲル\n見ていた、だけさ\n\n# textwindow \"nomal\"\n# textflame 0 0\n@\nティファレトの隠れ里\n収穫のない顔に\n里の民達も沈黙している\n\n# face 171 \"normal\"\n# textwindow \"nomal\"\n# textflame 1 1\n# textboxarrow 0 3\n# voice 5032 \"tiphereth_t_0008\"\n@ティファレト\n………あはは\nいつものことなんです\n\n# textwindow \"nomal\"\n# textflame 1 1\n# textboxarrow 0 3\n@ティファレト\n擬人区にもいくつかあって\n治安が凄く悪い所もあれば\nそうでない所も…\n\n# textwindow \"nomal\"\n# textflame 1 1\n# textboxarrow 0 3\n@ティファレト\n時には\n耳を傾けてくれる人もいます\n\n# textwindow \"nomal\"\n# textflame 1 1\n# textboxarrow 0 3\n@ティファレト\n…それが、今のこの里の人達\n\n# serif 1\n# brightness 171 0.5 0.2\n# brightness 3500211 0.5 0.2\n@里の民\n聖女様…どうかお気を落とさず…\n\n# serif 1\n@里の民\n私達がいます…どうか…\n\n# serif 1\n# textwindow \"close\"\n# serif 0\n# textwindow \"nomal\"\n# brightness 171 1 0.2\n# brightness 3500211 1 0.2\n# textflame 1 1\n# textboxarrow 0 1\n@フライクーゲル\n…\n\n# face 171 \"sad\"\n# textwindow \"nomal\"\n# textflame 1 1\n# textboxarrow 0 3\n# voice 5032 \"tiphereth_t_0027\"\n@ティファレト\nでも、もうあそこには行けない…\n\n# textwindow \"nomal\"\n# textflame 1 1\n# textboxarrow 0 3\n@ティファレト\n私なりに、理想郷って\nどういうものか\n考えたつもり、だったんですけど…\n\n# textwindow \"nomal\"\n# textflame 1 1\n# textboxarrow 0 3\n@ティファレト\nいっぱいの人達と畑を耕して\n豊かになって富を分け合えれば\nお互いが争わずに済むと…\n\n# textwindow \"nomal\"\n# textflame 1 1\n# textboxarrow 0 3\n@ティファレト\n私が、皆さんの「鍵」になれるならと\n頑張ってみたんですけど…\nダメみたい………\n\n# textwindow \"nomal\"\n# textflame 1 1\n# textboxarrow 0 3\n# voice 5032 \"tiphereth_t_0008\"\n@ティファレト\n魔女、なんて言われて…\nあはは、情けない…\n\n# textboxarrow 0 1\n@フライクーゲル\n…\n\n@フライクーゲル\n…ヴァナルガンド曰く\n第二陣の斬ル姫を作る為\n白羽の温存がなされているらしい\n\n# face 171 \"surprise\"\n# textwindow \"nomal\"\n# textflame 1 1\n# textboxarrow 0 3\n# voice 5032 \"tiphereth_t_0022\"\n@ティファレト\n…白羽を、温存…？\nあれほど救うべき民がいるのに\nですか…？\n\n# textboxarrow 0 1\n@フライクーゲル\n国外でさまようファントムを探し\nハルモニアのものとする為…\n\n@フライクーゲル\nラグナロクへ至り\n世界を統べる為\nファントムを確保し精強な力を得る為\n\n@フライクーゲル\nつまり、ティファレトも、その対象\n\n@フライクーゲル\nでも、そうして斬ル姫に白羽を使えば\n擬人区の民を救う機会は\nさらに遠ざかっていく…\n\n# voice 350021 \"furaikugeru_t_0008\"\n@フライクーゲル\n…パラドックスじゃないか\n\n;;演出：回想（1章EP1冒頭）\n# textwindow \"close\"\n# fadeout \"black\" 0.5\n# waitandnext 0.5\n\n# se \"SE_0742\"\n# alpha 3500211 0 0\n# alpha 171 0 0\n# background \"400_angel_pope_room\"\n# waitandnext 0.5\n\n# fadein \"black\" 0.5\n# waitandnext 0.5\n\n# textflame 1 1\n# textboxarrow 0 0\n# textwindow \"nomal\"\n@ミカエル\n最後に我が国の戒律を授けましょう\n\n@ミカエル\n一，国を愛し、繁栄を誓いなさい\n\n@ミカエル\n二，友を愛し、友のために戦いなさい\n\n@ミカエル\n三，友が背徳に染まる時、\nその友を再生しなさい\n\n;;演出：回想終わり\n# textwindow \"close\"\n# fadeout \"black\" 0.5\n# waitandnext 0.5\n\n# alpha 3500211 1 0\n# alpha 171 1 0\n# background \"forest_totaleclipse\"\n# waitandnext 0.5\n\n# fadein \"black\" 0.5\n# waitandnext 0.5\n\n# textwindow \"nomal\"\n# serif 0\n# textflame 1 1\n# move 3500211 2 0\n# textwindow \"moya\"\n# textboxarrow 0 0\n@フライクーゲル\nなぜ、わたしは信じ続けてきた\n\n@フライクーゲル\nいや、信じてなどいたのか？\n\n@フライクーゲル\n見ようと思えば見えた惨状\n\n@フライクーゲル\nこんなことにまで\nわたしは目をつむってきたのか\n\n# textflame 1 1\n# serif 0\n# textwindow \"nomal\"\n# textboxarrow 0 3\n@ティファレト\n…でも、大丈夫です………\n\n# face 171 \"normal\"\n# textwindow \"nomal\"\n# textflame 1 1\n# textboxarrow 0 3\n@ティファレト\nフライクーゲル、あなたも\n私の言葉に耳を傾けてくれた\n\n# textwindow \"nomal\"\n# textflame 1 1\n# textboxarrow 0 3\n# voice 5032 \"tiphereth_t_0003\"\n@ティファレト\n私は、それだけでも\n嬉しかった\n\n# textwindow \"nomal\"\n# textflame 1 1\n# textboxarrow 0 3\n@ティファレト\nだから、大丈夫…\n\n# face 171 \"sad\"\n# textwindow \"nomal\"\n# textflame 1 1\n# textboxarrow 0 3\n# voice 5032 \"tiphereth_t_0016\"\n@ティファレト\nだい、じょ、う、ぶ………\nうあっ、あああっ…！\n\n# textwindow \"nomal\"\n# textflame 0 0\n@\nいまや光を失った\nティファレトの目から\n大粒の涙がこぼれる\n\n# textwindow \"nomal\"\n# textflame 1 1\n# textboxarrow 0 3\n# voice 5032 \"tiphereth_t_0015\"\n@ティファレト\nあぐっ、ぅああぁぁぁ…\n魔女じゃ、ないですっ\nだけど聖女なんかでも、なくって\n\n# textwindow \"nomal\"\n# textflame 1 1\n# textboxarrow 0 3\n@ティファレト\nひっく…ひっく…\nだけれど、「鍵」としての\n役目も果たせない…私は…っ！\n\n# textwindow \"nomal\"\n# textflame 1 1\n# textboxarrow 0 3\n@ティファレト\nどこへ行けば………ッ！\nどうすれば………！！\n\n# textboxarrow 0 1\n@フライクーゲル\n…\n\n# move 3500211 3 0.5\n# textwindow \"nomal\"\n# textflame 0 0\n@\nフライクーゲルは\nティファレトに静かに近づくと\nその溢れる涙を指で拭う\n\n# face 171 \"surprise\"\n# textwindow \"nomal\"\n# textflame 1 1\n# textboxarrow 0 3\n# voice 5032 \"tiphereth_t_0024\"\n@ティファレト\n…フライ、クーゲル…？\n\n# voice 350021 \"furaikugeru_t_0002\"\n# face 3500211 \"happy\"\n# textboxarrow 0 2\n@フライクーゲル\n………目を開くのは、わたしの方かな\n\n;;//演出・SE：鳴り響く豪音と振動\n# bgm \"stop\"\n# se \"SE_9096\"\n# textwindow \"close\"\n# shake 1 0.7\n# waitandnext 0.7\n\n# textwindow \"nomal\"\n# textflame 1 1\n# textboxarrow 0 3\n# voice 5032 \"tiphereth_t_0022\"\n@ティファレト\n…！？\n\n# textwindow \"nomal\"\n# textflame 0 0\n@\n隠れ里に鳴り響く轟音\nその入り口が強引に吹き飛ばされた\n\n# bgm \"bgm029\" 0\n# textflame 1 1\n# alpha 171 0 0.5\n# alpha 3500211 0 0.5\n# alpha 3810001 1 0.5\n# textboxarrow 0 2\n@ハルモニア兵\n行け！行け！\nファントムを見つけ次第\n生け捕りにしろ！\n\n# se \"SE_0757\"\n# textwindow \"nomal\"\n# textflame 0 0\n@\nハルモニア兵が隠れ里になだれこむ\n\n# mask 171 on\n# alpha 3810001 0 0.5\n# alpha 171 1 0.5\n# alpha 3500211 1 0.5\n# move 3500211 2 0\n# textwindow \"nomal\"\n# textflame 1 1\n# face 3500211 \"surprise\"\n# textboxarrow 0 3\n# voice 5032 \"tiphereth_t_0023\"\n@ティファレト\nハルモニア兵…！？\nどうしてここが…！？\n\n# voice 350021 \"furaikugeru_t_0013\"\n# textboxarrow 0 1\n@フライクーゲル\nつけられていた…？\n\n# face 3500211 \"sad\"\n@フライクーゲル\n………本当に、わたしは\n何も見えちゃいないな\n\n# serif 1\n# brightness 3500211 0.5 0.2\n# brightness 171 0.5 0.2\n@里の民\nあ、あんな大人数で…！\n\n# serif 1\n@里の民\n怯むな…！皆武器を取れ！\n聖女様を守るんだ！\n\n# se \"SE_5000\"\n# serif 1\n# textwindow \"close\"\n# brightness 3500211 1 0.2\n# brightness 171 1 0.2\n# serif 0\n# textwindow \"nomal\"\n# textflame 0 0\n@\n混乱する里の民の前に\nフライクーゲルが踏み出す\n\n# bgm \"stop\"\n# se \"SE_0760\"\n# textflame 1 1\n# face 3500211 \"angry\"\n# textboxarrow 0 1\n@フライクーゲル\n───オープン・ヨハン\n\n# textwindow \"nomal\"\n# textflame 1 1\n# textboxarrow 0 3\n@ティファレト\n…どうしようというんです…？？\n\n# bgmfile \"bgm291_292\" \"BgmLostRagnarokSideStory\" 0\n# textboxarrow 0 1\n@フライクーゲル\nドンウォリー\n\n# face 3500211 \"happy\"\n@フライクーゲル\nきみのソゥルを揺るがす邪魔者は\nわたしがデリートしてみせる\n\n# face 171 \"surprise\"\n# textwindow \"nomal\"\n# textflame 1 1\n# textboxarrow 0 3\n@ティファレト\nあなたの国の方々ですよ…！？\n\n# voice 350021 \"furaikugeru_t_0005\"\n# textboxarrow 0 1\n# textflame 1 1\n@フライクーゲル\nきみのソゥルが気に入った\n名前を残そう。必ずね\n\n@フライクーゲル\nプロミス。トラスト、ミー\n\n# face 171 \"sad\"\n# textwindow \"nomal\"\n# textflame 1 1\n# textboxarrow 0 3\n# voice 5032 \"tiphereth_t_0024\"\n@ティファレト\n…なぜ、そうまでして…？\n\n# textboxarrow 0 1\n@フライクーゲル\n言っただろう？\n\n# face 3500211 \"normal\"\n@フライクーゲル\n『アダムが欲しい』のさ\n\n# textwindow \"nomal\"\n# textflame 1 1\n# textboxarrow 0 3\n@ティファレト\nアダム…\n\n# face 3500211 \"usual\"\n# textboxarrow 0 1\n@フライクーゲル\nきみが女性なことは\nさておいて\n\n# textboxarrow 0 1\n@フライクーゲル\nわたしが宿す天使アズラエルはね\n死を管理するとともに\n生を見守る神の使いさ\n\n# textboxarrow 0 1\n@フライクーゲル\n伝承によるとね\n『アダムを創った』という話もある\n四方から七掴みの土を集めてね\n\n# textboxarrow 0 1\n@フライクーゲル\nティファレト、きみは\n土を耕し、生を繋ぐ\n\n# textboxarrow 0 1\n@フライクーゲル\n目の見えるわたしより\nよっぽど命が視えている\n\n# textboxarrow 0 1\n@フライクーゲル\n欠けたわたしの空白に\n命の籠った土を植えた\n\n@フライクーゲル\n確かなものが\nきみにはある\n\n# face 171 \"surprise\"\n# textwindow \"nomal\"\n# textflame 1 1\n# textboxarrow 0 3\n# voice 5032 \"tiphereth_t_0037\"\n@ティファレト\nわ、私は…！\n\n# voice 350021 \"furaikugeru_t_0007\"\n# textboxarrow 0 1\n@フライクーゲル\n自己中心的だって？\n\n# face 171 \"sad\"\n# textwindow \"nomal\"\n# textflame 1 1\n# textboxarrow 0 3\n@ティファレト\nはい…\n\n# face 3500211 \"normal\"\n# textboxarrow 0 1\n@フライクーゲル\nそこがいい\n\n# face 171 \"surprise\"\n# textwindow \"nomal\"\n# textflame 1 1\n# textboxarrow 0 3\n# voice 5032 \"tiphereth_t_0022\"\n@ティファレト\n…え\n\n# textboxarrow 0 1\n@フライクーゲル\n自分がないわたしより\nよっぽどね\n\n# textwindow \"nomal\"\n# textflame 1 1\n# textboxarrow 0 3\n@ティファレト\n…！\n\n# face 3500211 \"happy\"\n# textboxarrow 0 1\n@フライクーゲル\nストレートに言えば\n一目惚れさ\n\n# face 3500211 \"normal\"\n# textboxarrow 0 1\n@フライクーゲル\nきみが、わたしを撃ち抜いた\n\n# textboxarrow 0 1\n@フライクーゲル\n理由はそれだけ\n\n# textwindow \"nomal\"\n# textflame 0 0\n@\nハルモニア兵が\n群れを成して迫る\n\n# face 171 \"sad\"\n# textwindow \"nomal\"\n# textflame 1 1\n# textboxarrow 0 3\n# voice 5032 \"tiphereth_t_0018\"\n@ティファレト\nかつての味方を…\n出会って間もない\n私なんかのために…？\n\n# voice 350021 \"furaikugeru_t_0011\"\n# face 3500211 \"angry\"\n# textboxarrow 0 1\n@フライクーゲル\nシャラップ\n\n# face 3500211 \"usual\"\n@フライクーゲル\n物事はシンプル\n\n@フライクーゲル\n彼らの狙いはきみさ\n\n@フライクーゲル\nわたしの狙いも、ね\n\n@フライクーゲル\nきみは命を導いた\n愛をもって\n言葉を尽くして\n\n@フライクーゲル\nそれじゃあわたしは\nそのソゥルを導くよ\n\n# face 3500211 \"normal\"\n@フライクーゲル\nこれ以上\n愛に言葉は必要かい？\n\n# se \"SE_10131\"\n# textwindow \"nomal\"\n# textflame 0 0\n@\nフライクーゲルは\n肩に纏ったマントをバサリと払う\n\n# face 171 \"angry\"\n# textwindow \"nomal\"\n# textflame 1 1\n# textboxarrow 0 3\n@ティファレト\n…\n\n# textwindow \"nomal\"\n# textflame 1 1\n# textboxarrow 0 3\n@ティファレト\n国に背き、戒律に背き\n粛正を拒んでまで…あなたは…\n\n# textwindow \"nomal\"\n# textflame 1 1\n# textboxarrow 0 3\n@ティファレト\n………私を、信じてくれるのですか\n\n# textwindow \"nomal\"\n# textflame 0 0\n@\nはためくソレは\n救いの天使の翼のようで\n\n# textflame 1 1\n# face 3500211 \"happy\"\n# textboxarrow 0 1\n@フライクーゲル\nハハッ\n道をはずれて\n自由に行こうか\n\n# voice 350021 \"furaikugeru_t_0033\"\n# se \"SE_5211\"\n# face 3500211 \"angry\"\n@フライクーゲル\n“オフ・コース”だ"
	}
]