[
	{
		"ID": 414022051,
		"script": ";;【EP5バトル前】\n;;背景：日差しが照り付ける荒野（立ち絵なし）\n# bgmfile \"bgm293\" \"BgmLostRagnarokSideStory\" 0\n# textwindow \"nomal\"\n# background \"bg_black\"\n# body 3500211\n# pos 3500211 2\n# scale 3500211 0.8 0\n# alpha 3500211 0 0\n# body 171\n# pos 171 4\n# mask 171 off\n# scale 171 0.8 0\n# alpha 171 0 0\n# body 3401311\n# pos 3401311 3\n# mask 3401311 off\n# scale 3401311 0.8 0\n# alpha 3401311 0 0\n# textflame 0 0\n@フライクーゲル\n空も、町も、人も\n瘴気舞う荒野さえも確かなのに\n\n@フライクーゲル\nわたしだけが\n確かだとは思えない\n\n@フライクーゲル\n───揺らいでいる\n\n@フライクーゲル\nたまらず、手を挙げてみる\n\n@フライクーゲル\n誰かに見つけてほしかった\n\n@フライクーゲル\nわたしが揺らいで\n揺らいで、揺らいで…\n\n@フライクーゲル\nそうして消えてしまう前に\n\n@フライクーゲル\nそれを引き留めてくれる\n誰かに\n\n@フライクーゲル\nどこにも行けないわたしは\n\n@フライクーゲル\nわたしはここだよと\n手を挙げていた\n\n# bgmfile \"bgm290\" \"BgmLostRagnarokEvent\" 0\n@フライクーゲル\nきみは\n視えないのに\n\n@フライクーゲル\nわたしは\nきみに見つけてもらえて\nラッキーだって\n\n@フライクーゲル\nわたしは\nきみと一緒にいられて\nヘァピィだって\n\n@フライクーゲル\nまだ、話してなかったよね\n\n# textwindow \"close\"\n# fadeout \"black\" 0.5\n# waitandnext 0.5\n\n# face 3500211 \"happy\"\n# alpha 171 1 0\n# alpha 3500211 1 0\n# background \"forest_totaleclipse\"\n# waitandnext 0.5\n\n# fadein \"black\" 0.5\n# waitandnext 0.5\n\n# voice 350021 \"furaikugeru_t_0005\"\n# textflame 1 1\n# textwindow \"nomal\"\n# textboxarrow 0 1\n@フライクーゲル\n───グッド・モーニング\n\n# textboxarrow 0 3\n@ティファレト\n…\n\n# voice 5032 \"tiphereth_t_0007\"\n@ティファレト\n…ねぼすけ\n\n# voice 350021 \"furaikugeru_t_0008\"\n# face 3500211 \"normal\"\n# textboxarrow 0 1\n@フライクーゲル\nちょっと、疲れてたみたいだ\n\n;;モノローグ\n# textflame 0 0\n@\nティファレトは握っていた\nフライクーゲルの手を解くと\nへたりとその場に座り込む\n\n# textboxarrow 0 1\n# textflame 1 1\n@フライクーゲル\nティファレト…？\n\n# face 171 \"sad\"\n# textboxarrow 0 3\n# voice 5032 \"tiphereth_t_0027\"\n@ティファレト\nもう…立てません…\n\n# face 171 \"angry\"\n@ティファレト\nせっかく起こしてあげたんです…\n\n# face 171 \"happy\"\n# voice 5032 \"tiphereth_t_0004\"\n@ティファレト\n感謝、してください\n\n# voice 350021 \"furaikugeru_t_0004\"\n# face 3500211 \"happy\"\n# textboxarrow 0 1\n@フライクーゲル\n………ははっ\n\n@フライクーゲル\n困ったな\n\n@フライクーゲル\nハートが揺れちゃうね\n\n# voice 340131 \"aphrodite_a_0004\"\n# alpha 3500211 0 0.5\n# alpha 171 0 0.5\n# alpha 3401311 1 0.5\n# face 3401311 \"shy\"\n# textboxarrow 0 2\n@アフロディーテ\nああっ………♪\n\n@アフロディーテ\n愛は一瞬に全てを賭けるもの…\n\n@アフロディーテ\n丸腰で銃口に向かうなど…\n\n@アフロディーテ\n狂おしいほどの愛\n\n# voice 340131 \"aphrodite_a_0020\"\n@アフロディーテ\n美しくって、たまりませんわ…！\n\n# alpha 3500211 1 0.5\n# alpha 171 1 0.5\n# alpha 3401311 0 0.5\n# face 171 \"surprise\"\n# face 3500211 \"surprise\"\n# textboxarrow 0 3\n# voice 5032 \"tiphereth_t_0028\"\n@ティファレト\nそ、それは、どうも…\n\n# voice 340131 \"aphrodite_a_0006\"\n# alpha 3500211 0 0.5\n# alpha 171 0 0.5\n# alpha 3401311 1 0.5\n# textboxarrow 0 2\n@アフロディーテ\nティファレト\nあなたのことがますます欲しい…！\n\n;;モノローグ\n# textflame 0 0\n@\nティファレトを守るように\n立ちはだかるフライクーゲル\n\n# face 3500211 \"angry\"\n# textflame 1 1\n# alpha 3500211 1 0.5\n# alpha 171 1 0.5\n# alpha 3401311 0 0.5\n# face 171 \"surprise\"\n# textboxarrow 0 3\n# voice 5032 \"tiphereth_t_0058\"\n@ティファレト\nフライクーゲル…！\nケガが…、まだ………！！\n\n# face 3500211 \"normal\"\n# textboxarrow 0 1\n# bgm \"stop\"\n@フライクーゲル\nHappy day for die\n\n# face 171 \"sad\"\n# textboxarrow 0 1\n# face 3500211 \"sad\"\n# bgmfile \"bgm291_292\" \"BgmLostRagnarokSideStory\" 0\n@フライクーゲル\nわたしの揺らぎが\nみんなを巻き込んだ\n\n# voice 350021 \"furaikugeru_t_0031\"\n@フライクーゲル\nソーリィ\n死んで詫びたい気分さ\n\n@フライクーゲル\nちょうど、死ぬにはいい日だ\n\n# voice 340131 \"aphrodite_a_0005\"\n# mask 3401311 on\n# move 3401311 4 0\n# alpha 171 0 0.5\n# alpha 3401311 1 0.5\n# face 3401311 \"usual\"\n# textboxarrow 0 3\n@アフロディーテ\n導いて、差し上げましょうか？\n\n;;モノローグ\n# textflame 0 0\n@\nゆっくりと指をくねらせ\n手招きをするアフロディーテ\n\n;;モノローグ\n@\nフライクーゲルは\nオーバーに肩をすくめてみせる\n\n# voice 350021 \"furaikugeru_t_0007\"\n# face 3500211 \"usual\"\n# textflame 1 1\n# textboxarrow 0 1\n@フライクーゲル\n…だが今日じゃない\n\n# voice 340131 \"aphrodite_a_0019\"\n# face 3401311 \"sad\"\n# textboxarrow 0 3\n@アフロディーテ\nそれは残念\n\n# face 3500211 \"normal\"\n# textboxarrow 0 1\n@フライクーゲル\n見つけてくれる人がいるから\n\n@フライクーゲル\nこのままじゃあギルティ\n罪滅ぼしが必要なんだ\n\n@フライクーゲル\nギブアップは、まだ先さ\n\n;;モノローグ\n# face 3401311 \"happy\"\n# textflame 0 0\n@\nアフロディーテは\n不敵に微笑んで歩み出る\n\n# textflame 1 1\n# textboxarrow 0 3\n@アフロディーテ\n無理強いは好みませんが…\n\n@アフロディーテ\n略奪愛は嫌いじゃありませんの\n\n@アフロディーテ\n…その気に、なったもので\n\n# fadein \"white\" 0.5\n# textwindow \"close\"\n# se \"SE_5784\"\n# waitandnext 0.5\n\n# voice 350021 \"furaikugeru_t_0023\"\n# textwindow \"nomal\"\n# textflame 1 1\n# face 3500211 \"surprise\"\n# textboxarrow 0 1\n@フライクーゲル\nオゥ…グレイト…\n\n@フライクーゲル\nサンダーボルト…！\n\n;;演出・SE：さらなる豪音と共に、激しい雷が降り注ぐ\n# fadein \"white\" 0.5\n# textwindow \"close\"\n# se \"SE_9179\"\n# waitandnext 0.5\n\n;;モノローグ\n# textwindow \"nomal\"\n# textflame 0 0\n@\nアフロディーテが弓を振りかざすと\n激しい雷が降り注ぎ\n隠れ里の天蓋を砕いていく\n\n# voice 340131 \"aphrodite_a_0006\"\n# face 3401311 \"angry\"\n# textflame 1 1\n# textboxarrow 0 3\n@アフロディーテ\nははははははっ！！！\n\n@アフロディーテ\n美は究極！\n愛は永遠！\n\n# face 3401311 \"shy\"\n@アフロディーテ\n愛を集めるほどに\nわたしは輝くのですわ！\n\n@アフロディーテ\nティファレト！\nあなたが欲しい！！\n\n# voice 340131 \"aphrodite_a_0041\"\n# face 3401311 \"angry\"\n@アフロディーテ\nアスモデウスの名のもとに\n狂おしき愛の饗宴を始めましょう\n\n@アフロディーテ\nああ。競演、かしら？\n\n;;演出・SE：さらなる豪音と共に、激しい雷が降り注ぐ\n# se \"SE_9179\"\n# fadein \"white\" 0.5\n# textwindow \"close\"\n# waitandnext 0.5\n\n# voice 350021 \"furaikugeru_t_0010\"\n# face 3500211 \"angry\"\n# textwindow \"nomal\"\n# textflame 1 1\n# textboxarrow 0 1\n@フライクーゲル\n…わたしのアダムを奪おうだなんて\n\n@フライクーゲル\n罪深いね\n\n@フライクーゲル\n欲しい欲しいって\n駄々こねて\n赤ん坊みたいにさ\n\n# textflame 0 0\n@\n雷鳴轟く中\nフライクーゲルの銃口は\n揺らぐことなく…\n\n# voice 350021 \"furaikugeru_t_0029\"\n# face 3500211 \"normal\"\n# textflame 1 1\n@フライクーゲル\n───カモン“ベイビー”"
	}
]