[
	{
		"ID": 50023202,
		"script": "# script \"lisp\"\n# background \"highland_snow\"\n;;背景仮\n# bgm \"bgm032\" 0\n# body 500231\n# mask 500231 off\n# pos 500231 3\n# textboxarrow 0 2\n# voice 5002 \"furaikugeru_0015\"\n# chara 500231\n# face 500231 \"panic\"\n@フライクーゲル\nノォ～～～～！！！\nなんてことなのぉ！？\n\n# chara 500231\n@フライクーゲル\nわたしのポケットには\nこっそり貯めに溜めた…\n10,000ゼニー\n\n# chara 500231\n@フライクーゲル\nでも…これじゃ…\n町の人達全員にプレゼントなんて…\nとてもじゃないけど無理よぉ～！\n\n# chara 500231\n# face 500231 \"angry\"\n@フライクーゲル\nなにか…ほかに…\nゼニーを使わずに…\nプレゼントできる方法は…ないの…？\n\n# chara 500231\n# voice 5002 \"furaikugeru_0028\"\n@フライクーゲル\nわたしのちょっと得意な…\nソーイングで…なにか作る…？\n\n# chara 500231\n# face 500231 \"panic\"\n@フライクーゲル\nああっ…このゼニーじゃ、\n材料費にもならないし…\n時間もちっとも足りないよぉ…\n\n# chara 500231\n# voice 5002 \"furaikugeru_0008\"\n@フライクーゲル\nえっと…物々交換で…プレゼントを…\nノォ～！交換じゃ数が\n増えるわけじゃないよぉ…っ！\n\n# chara 500231\n# face 500231 \"angry\"\n@フライクーゲル\nあ…そ、それじゃあ…\nゼニーを増やすために\n今から討伐に行って金塊を！！\n\n# select \"それこそ時間がかかるんじゃない？\" \"select_label_01\" \"金塊の大きいのは手に入りにくいよ？\" \"select_label_02\" \"えっと、何体…討伐するつもりなの？\" \"select_label_03\"\nあ…そ、それじゃあ…\nゼニーを増やすために\n今から討伐に行って金塊を！！\n\n# label \"select_label_01\"\n# labeljump \"select_label_end\"\n# chara 500231\n# face 500231 \"panic\"\n@フライクーゲル\nあああ、確かに！どうしよう！？\n\n# label \"select_label_02\"\n# labeljump \"select_label_end\"\n# chara 500231\n# face 500231 \"angry\"\n@フライクーゲル\nもぉ～マスター、冷静すぎぃ～！！\n\n# label \"select_label_03\"\n# labeljump \"select_label_end\"\n# chara 500231\n# face 500231 \"panic\"\n@フライクーゲル\nそんなのわっかんないよぉ～～！！\n\n# label \"select_label_end\"\n# voice 5002 \"furaikugeru_0010\"\n# chara 500231\n# face 500231 \"angry\"\n@フライクーゲル\nわかってるわよぉ、\nわかってるってば、マスターぁぁ！\n\n# voice 5002 \"furaikugeru_0025\"\n# voicedelay 5002 \"furaikugeru_unit_0011\" 2\n# chara 500231\n# face 500231 \"sad\"\n@フライクーゲル\nああ～もぉ～～～～！\nどうすればいいのぉ～、うわぁぁん！\n\n# textflame 0 0\n@\nフライクーゲルは\nクリスマスプレゼントが用意できない\nことで、とうとう泣き出してしまった"
	}
]