[
	{
		"ID": 50086203,
		"script": ";;【EP3】\n# script \"lisp\"\n# background \"schoolroad_afternoon\"\n# bgm \"bgm002\" 0\n# body 81\n# mask 81 off\n# pos 81 3\n# alpha 81 1 0\n# textflame 1 1\n# textboxarrow 0 2\n# voice 5008 \"bashosen_0005\"\n# chara 500861\n@芭蕉扇\n圧倒的に高貴で美しい私…\nそばにいて賞賛したくなるのは\n仕方のないことだと思うわ\n\n# face 81 \"sad\"\n# voice 5008 \"bashosen_0028\"\n# chara 500861\n@芭蕉扇\nどんどん周りに集まってきてもらって\n構わないのだけれど…\n\n# chara 500861\n@芭蕉扇\nそういう者たちとは\n結局距離が縮まらないのよね…\n\n# textflame 0 0\n@\nマスターはウズウズしていた\nそしてついに言ってしまった\n\n# textflame 1 1\n# textboxarrow 0 2\n# face 81 \"surprise\"\n# voice 5008 \"bashosen_0022\"\n# chara 500861\n@芭蕉扇\n……！？\n\n# voice 5008 \"bashosen_0009\"\n# chara 500861\n@芭蕉扇\n今、友達いないんだね、って…\n友達いないんだねって\n言ったわよね！？\n\n# textflame 0 0\n@\n頷くマスターは追い打ちをかける\nだって、友達ほしいんでしょ？と\n\n# textflame 1 1\n# textboxarrow 0 2\n# face 81 \"shy\"\n# voice 5008 \"bashosen_0025\"\n# chara 500861\n@芭蕉扇\n～～～～～～！！！\n\n# voice 5008 \"bashosen_0016\"\n# chara 500861\n@芭蕉扇\nは、恥ずかしい…\nやっぱり言葉に出されると\n恥ずかしすぎる！！\n\n# voice 5008 \"bashosen_0037\"\n# chara 500861\n@芭蕉扇\n言わないように避けてきたのに…\nバレないように隠してきたのに…\n\n# textflame 0 0\n@\nバレバレである\n\n# textflame 1 1\n# textboxarrow 0 2\n# face 81 \"angry\"\n# voice 5008 \"bashosen_kyara_1010\"\n# chara 500861\n@芭蕉扇\nい～～～や～～～！！\n\n# face 81 \"sad\"\n# textflame 0 0\n@\n芭蕉扇は\nその場に崩れ落ちた\n\n# textflame 1 1\n# textboxarrow 0 2\n# face 81 \"angry\"\n# voice 5008 \"bashosen_0014\"\n# chara 500861\n@芭蕉扇\nそうよ…ほしいわよ…\n友達、ほしいわよ！！\n\n# chara 500861\n@芭蕉扇\nでもどうしたらいいの？\n人はいくらでも集まってくる\nでも、あなたみたいな人は現れない！\n\n# select \"はじめは仲良くなかったよ\" \"select_label_01\" \"僕の第一印象、覚えてる？\" \"select_label_02\" \"いきなり文句言われた気がするけど…\" \"select_label_03\"\nでもどうしたらいいの？\n人はいくらでも集まってくる\nでも、あなたみたいな人は現れない！\n\n# label \"select_label_01\"\n# labeljump \"select_label_end\"\n# textflame 1 1\n# textboxarrow 0 2\n# chara 500861\n@芭蕉扇\nだってあなた生意気だったんだもの！\n\n# label \"select_label_02\"\n# labeljump \"select_label_end\"\n# textflame 1 1\n# textboxarrow 0 2\n# chara 500861\n@芭蕉扇\n最悪よ、最悪！忘れないわ！\n\n# label \"select_label_03\"\n# labeljump \"select_label_end\"\n# textflame 1 1\n# textboxarrow 0 2\n# chara 500861\n@芭蕉扇\n私に口答えするからでしょ！？\n\n# label \"select_label_end\"\n# textflame 1 1\n# textboxarrow 0 2\n# face 81 \"surprise\"\n# chara 500861\n@芭蕉扇\n……！！\n\n# voice 5008 \"bashosen_0024\"\n# face 81 \"shy\"\n# chara 500861\n@芭蕉扇\nそうだった…そうだったわ\n私の言うことを聞かない\n生意気な転校生…！\n\n# chara 500861\n# face 81 \"surprise\"\n@芭蕉扇\n思ったことをズケズケと言う\n口答えばっかりする\n初めての存在！\n\n# face 81 \"angry\"\n# voice 5008 \"bashosen_kyara_1010\"\n# chara 500861\n@芭蕉扇\nそんなあなたに\n腹が立って腹が立って\n他校に飛ばしてやろうかと思って！\n\n# face 81 \"shy\"\n# chara 500861\n@芭蕉扇\nとにかく…\nどうしようもなく気になって…\n私から近づいたんだった…\n\n# face 81 \"surprise\"\n# voice 5008 \"bashosen_0013\"\n# chara 500861\n@芭蕉扇\nそういうことだったのね…\n\n# chara 500861\n@芭蕉扇\n当たり障りのないことしか言わない\n従者の中から、友達が\n見つかるはずないのかもしれない…\n\n# se \"SE_0602\"\n# face 81 \"normal\"\n# chara 500861\n@芭蕉扇\n『扇羞成怒』\n時にぶつかり合ってこそ\n相手に深く触れることができるのね\n\n# textflame 0 0\n@\nそれはまさしく、\n彼女が新たなるスキルに\n目覚めた瞬間だった\n\n# textflame 1 1\n# textboxarrow 0 2\n# face 81 \"happy\"\n# voice 5008 \"bashosen_0004\"\n# chara 500861\n@芭蕉扇\n…私はこれからもありのまま\n自分を曲げずにいくわ！！\n\n# face 81 \"normal\"\n# chara 500861\n@芭蕉扇\n燃え上がる炎のように\n強烈に輝く私だからこそ\n衝突も多いだろうけれど…\n\n# voice 5008 \"bashosen_0020\"\n# chara 500861\n@芭蕉扇\nそれもまた一興…\n高貴なる余裕で楽しむことにするわ\n\n# chara 500861\n@芭蕉扇\n…その中で素敵な友に\n出会えるかもしれないのだから\n\n# textflame 0 0\n@\n芭蕉扇の顔には\nいつものありあまる自信が\n浮かんでいた\n\n# textflame 0 0\n@\n心配はいらないと思いながら\nゆっくり探せばいいさとだけ\nマスターは伝えた\n\n# textflame 1 1\n# textboxarrow 0 2\n# face 81 \"shy\"\n# voice 50086 \"bashosen_g_kyara_1006\"\n# chara 500861\n@芭蕉扇\nあなた…！\n\n# textflame 0 0\n@\n芭蕉扇の表情が\nほのかに赤く染まる…\n\n# textflame 0 0\n@\n芭蕉扇はいそいそと\n何かを取り出す\n…お弁当だ\n\n# textflame 1 1\n# textboxarrow 0 2\n# face 81 \"normal\"\n# voice 5008 \"bashosen_kyara_1007\"\n# chara 500861\n@芭蕉扇\n今日のデートのためにぃ…\n腕によりをかけて作ったの\nあなたのために♪\n\n# textflame 0 0\n@\n一体何が起こったのか…\n芭蕉扇の突然の変貌に\nマスターは警戒してしまう\n\n# textflame 1 1\n# textboxarrow 0 2\n# face 81 \"shy\"\n# voice 5008 \"bashosen_0004\"\n# chara 500861\n@芭蕉扇\nはい、あ～ん♪\nた・べ・て♪\n\n# imageset 0 \"c500861\"\n# imagealpha 0 0 0\n# imagepos 0 0 0\n# textflame 0 0\n@\nこれが、滅多に見せない\n芭蕉扇のデレモードだと\nマスターが知るのはもっと後の話…\n\n;;一枚絵ボイス\n;;芭蕉扇「なに、その顔は！愛しい妻の手料理よ！　喜んで口を開けなさいよ！」\n# voice 50086 \"bashosen_event_1003\"\n# imagealpha 0 1 0\n# imagepos 0 0 0\n# fadein \"white\" 3\n# textwindow \"close\"\n"
	}
]