[
	{
		"ID": 50111303,
		"script": "# script \"lisp\"\n# background \"antiquity\"\n# bgm \"bgm003\" 0\n# body 501111\n# mask 501111 off\n# pos 501111 3\n# textboxarrow 0 2\n# textflame 0 0\n@\n後日――。異族との激しい戦闘の後\nマスターが一人のところを見計らい\n物言いたげな弥生が近づいてきた\n\n# textflame 1 1\n# voice 5011 \"yayoi_0001\"\n# chara 501111\n@六合塚弥生\nあれからあなたの\nキラープリンセスに対する態度を\n観察させていただきました\n\n# voice 5011 \"yayoi_0004\"\n# chara 501111\n@六合塚弥生\n朝の挨拶から、就寝前の挨拶まで…\n終始一貫して\n過剰なまでの優しさが目立ちますね\n\n# chara 501111\n@六合塚弥生\n相手が女の子、といえば\n聞こえはいいですが\n\n# voice 5011 \"yayoi_0011\"\n# chara 501111\n@六合塚弥生\n…逆に言えば、女性として\n明らかに意識しているということにも\nなりますよね？\n\n# select \"決してやましい気持ちはないぞ！\" \"select_label_01\" \"みんなかわいい女の子だろう！？\" \"select_label_02\" \"変なことはしてないぞ！？\" \"select_label_03\"\n…逆に言えば、女性として\n明らかに意識しているということにも\nなりますよね？\n\n# label \"select_label_01\"\n# labeljump \"select_label_end\"\n# chara 501111\n@六合塚弥生\nでは…本気、ということですか？\n\n# label \"select_label_02\"\n# labeljump \"select_label_end\"\n# chara 501111\n@六合塚弥生\nかわいいから優しくするんですか？\n\n# label \"select_label_03\"\n# labeljump \"select_label_end\"\n# chara 501111\n@六合塚弥生\n皆からなにも聞いていないとでも？\n\n# label \"select_label_end\"\n# voice 5011 \"yayoi_0028\"\n# face 501111 \"angry\"\n# chara 501111\n@六合塚弥生\n黒、ですね…\nなんでしたら色相判定しましょうか？\n\n# label \"select_label_end\"\n# voice 5011 \"yayoi_0031\"\n# face 501111 \"happy\"\n# chara 501111\n@六合塚弥生\n残念ですが、どんなに優しくされても\n私は絶対なびきませんので\n\n# textflame 0 0\n@\nドミネーターを握って迫る弥生\nしかし、目は笑っていた\n\n# textflame 1 1\n# face 501111 \"normal\"\n# chara 501111\n@六合塚弥生\n命を預けられる\n私の上司はそう思える監視官です\n\n# voice 5011 \"yayoi_kyara_0018\"\n# chara 501111\n@六合塚弥生\n彼女ほどではないですが…\nあなたは信頼に値する\n人間だと思っています\n\n# voice 5011 \"yayoi_0030\"\n# chara 501111\n@六合塚弥生\n…かばっていただいて\nありがとうございます\n\n# textflame 0 0\n@\n先ほどの異族との戦闘でのできごとを\n弥生は思い出しているようだった\n\n# textflame 1 1\n# voice 5011 \"yayoi_0036\"\n# chara 501111\n@六合塚弥生\nでも、今後は\n自分の安全を最優先にしてください\n\n# voice 5011 \"yayoi_kyara_0028\"\n# face 501111 \"angry\"\n# chara 501111\n@六合塚弥生\n私は執行官です\n監視役のあなたのために死ぬことを\n恐れてはいない\n\n# textflame 0 0\n@\n弥生の目に宿る強い光\nドミネーターがそれに反応するように\n蛍光色に光りだした\n\n# textflame 1 1\n#se \"SE_0602\"\n# chara 501111\n@六合塚弥生\n『リスクショット』…\n\n# imageset 0 \"c501111\"\n# imagealpha 0 0 0\n# textflame 0 0\n@\nそれはまさしく、\n彼女が新たなるスキルに\n目覚めた瞬間だった\n\n# imagealpha 0 1 0\n# imagepos 0 0 0 \n# fadein \"white\" 3\n# textwindow \"close\"\n\n# textwindow \"nomal\"\n# textflame 1 1\n# voice 5011 \"yayoi_kyara_0025\"\n# chara 501111\n@六合塚弥生\n勘違いしないでください\nそれが執行官の役目ですから\n\n# textflame 0 0\n@\n相変わらずクールなままだったが\n弥生の口元には\n確かに笑みが浮かんでいた"
	}
]