[
	{
		"ID": 50251204,
		"script": ";;【EP4】\n# script \"lisp\"\n# background \"highland\"\n# bgm \"bgm002\" 0\n# textboxarrow 0 2\n# body 105\n# mask 105 off\n# pos 105 3\n# alpha 105 0 0\n# textflame 0 0\n@\n数日後─\n\n# alpha 105 1 1\n# textflame 1 1\n# textboxarrow 0 2\n# chara 105\n# face 105 \"usual1\"\n@めぐみん\nお、マスター\n来ましたか\n\n# textflame 1 1\n# textboxarrow 0 2\n# chara 105\n# voice 5025 \"megumin_0004\"\n# face 105 \"irregular\"\n@めぐみん\n今から、さらなる\n特訓の成果をお見せしましょう\n\n# textflame 0 0\n@\n魔法陣のような円を描いためぐみん\n\n# textflame 1 1\n# textboxarrow 0 2\n# chara 105\n# voice 5025 \"megumin_0003\"\n@めぐみん\n精度を上げた私の爆裂魔法で、\nこの円の中だけを焼き尽くして\n見せます\n\n# textflame 0 0\n@\nそんな難しそうな事できるの？\n疑心暗鬼の目を向けるマスター\n\n# textflame 1 1\n# textboxarrow 0 2\n# chara 105\n# voice 5025 \"megumin_0005\"\n# face 105 \"angry\"\n@めぐみん\n黒より黒く闇より暗き漆黒に\n我が深紅の混淆を望みたもう\n\n# se \"SE_0602\"\n# textflame 1 1\n# textboxarrow 0 2\n# chara 105\n@めぐみん\n我…覚醒のとき来たれり！\nこれこそが我が究極の攻撃魔法、\n『エイドプロージョン』！！\n\n# fadein \"white\" 0.5\n# textflame 0 0\n@\n\"僕の愛する姫だよ\"\n\n# textflame 1 1\n# textboxarrow 0 2\n# chara 105\n# face 105 \"surprise\"\n@めぐみん\n！！\n\n# textflame 0 0\n@\n新たな爆裂魔法を放つめぐみん\n\n# se \"SE_9126\"\n# textflame 0 0\n@\nちゅどぉぉぉぉぉん！！\n\n# textflame 0 0\n@\n彼女の宣言通り、\n燃え尽きたのは魔法陣の中の\n草だけ…\n\n# textflame 0 0\n@\nあっちぃぃぃぃぃーーっ！！\n\n# textflame 1 1\n# textboxarrow 0 2\n# chara 105\n@めぐみん\n…あ\n\n# textflame 0 0\n@\n尻に火が付き、走り回っているマスター\n\n# select \"どこが精度高まったんだよ！\" \"select_label_01\" \"前より爆裂してるじゃないか！\" \"select_label_02\" \"ちゃんと調整できないの！？\" \"select_label_03\"\n尻に火が付き、走り回っているマスター\n\n# label \"select_label_01\"\n# labeljump \"select_label_end\"\n# textflame 1 1\n# textboxarrow 0 2\n# chara 105\n# face 105 \"sad\"\n@めぐみん\nう…余計な邪念が…\n\n# label \"select_label_02\"\n# labeljump \"select_label_end\"\n# textflame 1 1\n# textboxarrow 0 2\n# chara 105\n# face 105 \"sad\"\n@めぐみん\n体温が上昇するような雑念が…\n\n# label \"select_label_03\"\n# labeljump \"select_label_end\"\n# textflame 1 1\n# textboxarrow 0 2\n# chara 105\n# face 105 \"sad\"\n@めぐみん\nしまった…よからぬ妄想が…\n\n# label \"select_label_end\"\n# textflame 0 0\n@\n先日のマスターの言葉を思い出し、\n手元が狂ってしまっためぐみん\n\n# textflame 0 0\n@\nあっちぃぃぃぃぃーーっ！！\n消して、消して！\n\n# textflame 1 1\n# textboxarrow 0 2\n# chara 105\n# voice 5025 \"megumin_0004\"\n# face 105 \"usual1\"\n@めぐみん\n…それは無理です\n\n# textflame 0 0\n@\nなんで！？\n\n# textflame 1 1\n# textboxarrow 0 2\n# chara 105\n@めぐみん\n私が使えるのは爆裂魔法のみ\n火を消す魔法は知りません\n\n# textflame 0 0\n@\nそう言って、\n悪びれる様子もなく微笑む\n\n# imageset 0 \"c502511\"\n# imagealpha 0 0 0\n# textflame 0 0\n@\n立派に成長した魔法使いには、\nまだまだ遠そうなめぐみんだった\n\n# imagealpha 0 1 0\n# imagepos 0 0 0 \n# fadein \"white\" 3\n# voice 5025 \"megumin_kyara_0028\"\n# textwindow \"close\"\n;;一枚絵ボイス：めぐみん　　　「今の私には、爆裂魔法と同じぐらい気になることがあるんです。…知りたいですか？　くすくす…」\n"
	}
]