[
	{
		"ID": 50251203,
		"script": ";;【EP3】\n# script \"lisp\"\n# background \"highland\"\n# bgm \"bgm002\" 0\n# textboxarrow 0 2\n# body 105\n# mask 105 off\n# pos 105 3\n# alpha 105 0 0\n# textflame 0 0\n@\n次の日─\n\n# alpha 105 1 1\n# textflame 1 1\n# textboxarrow 0 2\n# chara 105\n# face 105 \"angry\"\n@めぐみん\nはぁ…はぁ…はぁ…\n\n# textflame 0 0\n@\n今日も、爆裂魔法の\n特訓に励んでいるめぐみん\n\n# textflame 1 1\n# textboxarrow 0 2\n# chara 105\n# voice 5025 \"megumin_0005\"\n@めぐみん\n紅き黒炎、万界の王\n天地の法を敷衍すれど、\n我は万象昇温の理\n\n# textflame 1 1\n# textboxarrow 0 2\n# chara 105\n@めぐみん\n崩壊破壊の別名なり\n永劫の鉄槌は我がもとに下れ！\n\n# textflame 1 1\n# textboxarrow 0 2\n# chara 105\n@めぐみん\nエクスプロー…！\n\n# textflame 0 0\n@\n彼女が放とうとした時、\nガサッと物音が…\n\n# textflame 1 1\n# textboxarrow 0 2\n# chara 105\n# voice 5025 \"megumin_0009\"\n@めぐみん\nもう！また邪魔をして！\nなにを考えてるんですか、\nマスターは！？\n\n# textflame 1 1\n# textboxarrow 0 2\n# chara 105\n# face 105 \"surprise\"\n@めぐみん\n…って、あれ？\n\n# textflame 0 0\n@\nしかし、そこに立っていたのは、\n巨大な一体のオーガスケルトンだった\n\n# textflame 1 1\n# textboxarrow 0 2\n# chara 105\n# face 105 \"sad\"\n@めぐみん\n…う…でかい…\n\n# textflame 1 1\n# textboxarrow 0 2\n# chara 105\n# face 105 \"angry\"\n@めぐみん\nそ、それがどうした！？\n\n# textflame 1 1\n# textboxarrow 0 2\n# chara 105\n# voice 5025 \"megumin_kyara_1001\"\n@めぐみん\nわが名は、めぐみん！\n紅魔族随一の魔法の使い手にして、\n最強の攻撃魔法、爆裂魔法を操る者！\n\n# textflame 0 0\n@\nと言いながらも、\n明らかに気圧されている\nめぐみんの前に現れるマスター\n\n# select \"僕が引き離すから、その隙に魔法を！\" \"select_label_01\" \"あの穴に誘き入れるから、魔法を！\" \"select_label_02\" \"奴の気を逸らすから、特大の魔法を！\" \"select_label_03\"\nと言いながらも、\n明らかに気圧されている\nめぐみんの前に現れるマスター\n\n# label \"select_label_01\"\n# labeljump \"select_label_end\"\n# textflame 1 1\n# textboxarrow 0 2\n# chara 105\n# face 105 \"surprise\"\n@めぐみん\n…あ…はい！わかりました！\n\n# label \"select_label_02\"\n# labeljump \"select_label_end\"\n# textflame 1 1\n# textboxarrow 0 2\n# chara 105\n# face 105 \"surprise\"\n@めぐみん\nま、任せて下さい！\n\n# label \"select_label_03\"\n# labeljump \"select_label_end\"\n# textflame 1 1\n# textboxarrow 0 2\n# chara 105\n# face 105 \"surprise\"\n@めぐみん\n特大…？いいんですね！？\n\n# label \"select_label_end\"\n# textflame 1 1\n# textboxarrow 0 2\n# chara 105\n# face 105 \"angry\"\n@めぐみん\n黒より黒く闇より暗き漆黒に\n我が深紅の混淆を望みたもう！\n\n# textflame 0 0\n@\nちょっと！今 撃ったら\n僕まで巻き添えに…！\n\n# textflame 1 1\n# textboxarrow 0 2\n# chara 105\n# face 105 \"usual1\"\n@めぐみん\n大丈夫、私を信じて下さい！\n\n# se \"SE_0602\"\n# textflame 1 1\n# textboxarrow 0 2\n# chara 105\n# face 105 \"angry\"\n@めぐみん\n我…覚醒のとき来たれり！\nこれこそが我が究極の攻撃魔法、\n『エクスプロージョン』！！\n\n# textflame 0 0\n# chara 105\n@\n攻撃を放つめぐみん\n\n# textflame 0 0\n@\nあぁ…短い人生だった…\n諦めて目を閉じるマスター\n\n# se \"SE_5223\"\n# textflame 0 0\n@\nドガァァァァン！！\n\n# textflame 0 0\n@\nしかし、その火炎は\nオーガスケルトンだけを\n焼き尽くすのだった\n\n# textflame 1 1\n# textboxarrow 0 2\n# chara 105\n# face 105 \"usual2\"\n@めぐみん\n…ふぅ\n\n# textflame 0 0\n@\nあれ？どうして…？\n不思議に思うマスター\n\n# textflame 1 1\n# textboxarrow 0 2\n# chara 105\n# voice 5025 \"megumin_0004\"\n# face 105 \"usual1\"\n@めぐみん\n特訓の甲斐あって、\n魔力を制御できるように\nなったのです\n\n# textflame 1 1\n# textboxarrow 0 2\n# chara 105\n@めぐみん\nいつまでも迷惑は\n掛けてられないですからね\n\n# textflame 1 1\n# textboxarrow 0 2\n# chara 105\n# voice 5025 \"megumin_0005\"\n@めぐみん\n爆裂魔法を愛する\n我が誇りにかけて習得しました\n\n# textflame 0 0\n@\nその言葉通り、\n魔法を撃っても\n倒れずにいる彼女\n\n# textflame 1 1\n# textboxarrow 0 2\n# chara 105\n# voice 5025 \"megumin_0004\"\n@めぐみん\nどうですか、マスター？\n見直しましたか？\n\n# textflame 0 0\n@\nすごいね、君は真の紅魔族だ\n\n# textflame 1 1\n# textboxarrow 0 2\n# chara 105\n# face 105 \"happy\"\n@めぐみん\nふふふ、分かればいいのです\n\n# textflame 0 0\n@\nそして…僕の愛する姫だよ\n\n# textflame 1 1\n# textboxarrow 0 2\n# chara 105\n# face 105 \"surprise\"\n@めぐみん\n…え？\n\n# textflame 0 0\n@\n一瞬、顔を赤くするも、\nすぐさま微笑む彼女\n\n# textflame 1 1\n# textboxarrow 0 2\n# chara 105\n@めぐみん\n姫…ですか\n悪くない響きですね\n\n# imageset 0 \"c502511\"\n# imagealpha 0 0 0\n# textflame 0 0\n@\nそう言って、\n素直な笑顔を見せる\nめぐみんだった\n\n# imagealpha 0 1 0\n# imagepos 0 0 0 \n# fadein \"white\" 3\n# voice 5025 \"megumin_kyara_0026\"\n# textwindow \"close\"\n;;一枚絵ボイス：めぐみん　　　「あなたの力になれているなら、私もうれしいです」\n"
	}
]