[
	{
		"ID": 50272202,
		"script": ";;【EP2】\n# script \"lisp\"\n# background \"town\"\n# body 502721\n# pos 502721 3\n# scale 502721 0.8 0\n# alpha 502721 0 0\n# face 502721 \"usual\"\n# mask 502721 off\n# bgmfile \"bgm203\" \"BgmGakuen004\" 0\n# textflame 0 0\n@\n…バレンタイン当日\n\n# textflame 0 0\n@\nフライシュッツは\n手作りのチョコレートを\nみんなと交換していた\n\n# serif 0\n# face 502721 \"sad\"\n# alpha 502721 1 0.5\n# textflame 1 1\n# move 502721 3 0\n# textwindow \"moya\"\n# textboxarrow 0 0\n# voice 5027 \"freischotz_0013\"\n@フライシュッツ\nみんなにあげれば\n呪いは大丈夫…！\n\n# face 502721 \"usual\"\n# serif 0\n# textwindow \"nomal\"\n# textflame 0 0\n@\nもちろんマスターにも\nチョコレートが贈られた\n\n# textflame 0 0\n@\nそれも朝と昼の2回\nつまり2個ももらっている\n\n# imageset 3 \"bg_white_circle\"\n# imagealpha 3 0 0\n# imagelayer 3 1\n# imagescale 3 1.2 0\n# textflame 0 0\n@\n…おまけに\n\n# imagepos 3 0 0\n# textwindow \"close\"\n# fadeout \"white\" 0.5\n# waitandnext 0.5\n\n# face 502721 \"happy\"\n# imagealpha 3 1 0\n# background \"town_night\"\n# waitandnext 0.3\n\n# fadein \"white\" 0.5\n# waitandnext 0.5\n\n# serif 0\n# textwindow \"nomal\"\n# textflame 1 1\n# voice 5027 \"freischotz_0005\"\n# textboxarrow 0 2\n@フライシュッツ\nあとねあとね！\n夜ごはん食べたら\nマスターくんに話があるの～\n\n# textwindow \"close\"\n# fadeout \"white\" 0.5\n# waitandnext 0.5\n\n# alpha 502721 0 0\n# imagealpha 3 0 0\n# waitandnext 0.3\n\n# fadein \"white\" 0.5\n# waitandnext 0.5\n\n# textwindow \"nomal\"\n# textflame 0 0\n@\nと、呼び出されてしまった\n\n# alpha 502721 1 0.5\n# textflame 1 1\n# voice 5027 \"freischotz_0004\"\n# textboxarrow 0 2\n@フライシュッツ\nやっほー☆\n\n# textflame 0 0\n@\n両手を後ろに隠した\n不自然な体勢でフライシュッツが\n姿を現した\n\n# textflame 0 0\n@\nいかにも何かを隠している\nといった雰囲気だ\n\n# serif 0\n# face 502721 \"shy\"\n# textflame 1 1\n# move 502721 3 0\n# textwindow \"moya\"\n# textboxarrow 0 0\n# voice 5027 \"freischotz_0004\"\n@フライシュッツ\n朝と昼に渡したチョコレートより\nちょーっぴり派手だけど\n\n# face 502721 \"usual\"\n# textflame 1 1 \n# move 502721 3 0\n# textwindow \"moya\"\n# textboxarrow 0 0\n@フライシュッツ\n何回も渡してるんだから\nこれは“特別”じゃない。\n大丈夫\n\n# serif 0\n# textwindow \"nomal\"\n# textflame 0 0\n@\nうつむいていたフライシュッツは\n顔を上げてマスターと\n目を合わせた\n\n# voice 5027 \"freischotz_0023\"\n# serif 0\n# textwindow \"nomal\"\n# face 502721 \"surprise\"\n# textflame 1 1 \n# textboxarrow 0 2\n@フライシュッツ\n…あっ！？\n\n# voice 5027 \"freischotz_0013\"\n# serif 0\n# face 502721 \"sad\"\n# textflame 1 1 \n# move 502721 3 0\n# textwindow \"moya\"\n# textboxarrow 0 0\n@フライシュッツ\nでも…\n結局別のチョコだから\n “特別”なんじゃ…\n\n# serif 0\n# textwindow \"nomal\"\n# textflame 0 0\n@\nどうかした？と\nマスターは困惑している\nフライシュッツの顔を覗き込む\n\n# voice 5027 \"freischotz_0024\"\n# serif 0\n# textwindow \"nomal\"\n# face 502721 \"shy\"\n# textflame 1 1 \n# textboxarrow 0 2\n@フライシュッツ\nえぇと、そのぉ…\n\n# textflame 0 0\n@\nフライシュッツは\n手で咄嗟に顔を隠した\n\n# voice 5027 \"freischotz_0025\"\n# serif 0\n# face 502721 \"surprise\"\n# textflame 1 1 \n# move 502721 3 0\n# textwindow \"moya\"\n# textboxarrow 0 0\n@フライシュッツ\nあーっ！\nチョコレートで隠しちゃった！！\n\n# serif 0\n# textwindow \"nomal\"\n# textflame 0 0\n@\nそれ、僕に？\n\n# serif 0\n# textwindow \"nomal\"\n# textflame 1 1 \n# textboxarrow 0 2\n@フライシュッツ\nち、ちが…えと、あの…うぅ～\n\n# voice 5027 \"freischotz_0041\"\n# face 502721 \"shy\"\n# textflame 1 1 \n# textboxarrow 0 2\n@フライシュッツ\nこ、これはぁ…その\nマスターくんのだけど…\n\n# textflame 1 1 \n# textboxarrow 0 2\n@フライシュッツ\nマスターくんだけのため\nじゃなくて…\nえ、えっと…\n\n# face 502721 \"sad\"\n# textflame 0 0\n@\nフライシュッツの顔は\nだんだんと俯いていく\n\n# textflame 0 0\n@\n大丈夫？\n\n# textflame 0 0\n@\n俯くフライシュッツを心配して\nマスターは声をかけた\n\n# voice 5027 \"freischotz_0005\"\n# face 502721 \"happy\"\n# textflame 1 1 \n# textboxarrow 0 2\n@フライシュッツ\nだっ、だーいじょーぶっ！\n\n# textflame 0 0\n@\n笑って誤魔化していた\nフライシュッツだが\n表情をキュッと引き締めた\n\n# voice 5027 \"freischotz_0013\"\n# face 502721 \"shy\"\n# textflame 1 1 \n# move 502721 3 0\n# textwindow \"moya\"\n# textboxarrow 0 0\n@フライシュッツ\n大丈夫\nこれは“特別”じゃない…\n今までと同じチョコレート\n\n# voice 5027 \"freischotz_0001\"\n# serif 0\n# textwindow \"nomal\"\n# textflame 1 1 \n# textboxarrow 0 2\n@フライシュッツ\nあの、あのね\nマスターくん…これ\nみっつめ、だけどね\n\n# textflame 0 0\n@\nチョコレートで顔を隠しながら\nフライシュッツは\nマスターへ一歩踏み出す…！\n\n# serif 0\n# textflame 1 1 \n# move 502721 3 0\n# textwindow \"moya\"\n# textboxarrow 0 0\n@フライシュッツ\nでも…\n“特別”だって思ってるんじゃ―\n\n# serif 0\n# textwindow \"nomal\"\n# textflame 1 1 \n# textboxarrow 0 2\n@フライシュッツ\nこ、これ…受け取ってくだ…\nあ～ん！やっぱりダメっ～！！\n\n# textflame 0 0\n@\nチョコレートを差し出したが\nマスターが手を伸ばしたところで\n\n# textflame 0 0\n@\n彼女はひょいっと\nそれを取り上げてしまう\n\n# voice 5027 \"freischotz_0024\"\n# face 502721 \"surprise\"\n# textflame 1 1 \n# textboxarrow 0 2\n@フライシュッツ\nあっ！？\n\n# textflame 0 0\n@\n取り上げられたチョコレートは\nフライシュッツの手から抜け\n勢いよく飛んで行ってしまう\n\n# voice 5027 \"freischotz_0028\"\n# textflame 1 1 \n# textboxarrow 0 2\n@フライシュッツ\n結構遠くに飛んでっちゃ…\n\n# textflame 1 1 \n# textboxarrow 0 2\n@フライシュッツ\n！！\n\n# textflame 0 0\n@\nチョコレートへ駆け寄ろうとした\nフライシュッツだが\n\n# bgm \"stop\"\n# textflame 0 0\n@\n何かに気づいたように\nハッと顔を上げた\n\n# face 502721 \"angry\"\n# textflame 1 1 \n# textboxarrow 0 2\n@フライシュッツ\nマスターくん！異族の気配！\n\n# bgm \"005\" 0\n# textflame 0 0\n@\nあそこだ…！\n\n# serif 1\n@異族\nグギャッ\n\n# voice 5027 \"freischotz_0025\"\n# serif 1\n# textwindow \"close\"\n# serif 0\n# textflame 1 1 \n# textboxarrow 0 2\n@フライシュッツ\n…マスターくんのチョコレート！！\n\n# textflame 0 0\n@\n突如現れた異族は\n落ちていたチョコレートを\n持ち去ろうとしている\n\n# voice 5027 \"freischotz_0013\"\n# face 502721 \"sad\"\n# textflame 1 1 \n# textboxarrow 0 2\n@フライシュッツ\nやっぱり…呪いが…\n“特別”だって思っちゃったから…\n\n# textflame 0 0\n@\n異族を追いかけようとした\n彼女の足が止まっている\n\n# textflame 0 0\n@\n行こう！\n\n# textflame 0 0\n@\n泣きそうな顔をしていた\nフライシュッツに\nマスターが手を差し伸べる\n\n# textflame 0 0\n@\n大切なものなら、取り返して\n守り通さなきゃ\n\n# face 502721 \"surprise\"\n# textflame 1 1 \n# textboxarrow 0 2\n@フライシュッツ\nマスターくん…\n\n# textflame 0 0\n@\nマスターの言葉を\nフライシュッツは噛み締める\n\n# textflame 0 0\n@\n大丈夫、まだ間に合う！\n\n# face 502721 \"happy\"\n# textflame 1 1 \n# textboxarrow 0 2\n@フライシュッツ\nうん！\n\n# textwindow \"close\"\n# fadeout \"black\" 0.5\n# waitandnext 0.5\n\n# face 502721 \"sad\"\n# waitandnext 0.3\n\n# fadein \"black\" 0.5\n# waitandnext 0.5\n\n# textwindow \"nomal\"\n# textflame 1 1 \n# textboxarrow 0 2\n@フライシュッツ\n…はぁっ、はぁっ\n\n# voice 5027 \"freischotz_0018\"\n# serif 0\n# textflame 1 1 \n# move 502721 3 0\n# textwindow \"moya\"\n# textboxarrow 0 0\n@フライシュッツ\nあと一歩なのに…\n\n# serif 0\n# textwindow \"nomal\"\n# textflame 1 1 \n# textboxarrow 0 2\n@フライシュッツ\nやっぱり諦めたほうが\n\n# textflame 0 0\n@\n構えていた銃を下げ\n唇を噛み締める\n\n# bgm \"stop\"\n# face 502721 \"angry\"\n# textflame 1 1 \n# textboxarrow 0 2\n@フライシュッツ\n…ううん、マスターくんは\n「大丈夫、まだ間に合う」\nって言った！\n\n# textflame 1 1 \n# textboxarrow 0 2\n@フライシュッツ\nあたしの司る七元徳は\n『信仰』\n\n# textflame 1 1 \n# textboxarrow 0 2\n@フライシュッツ\nマスターくんの言葉を\n信じてる！！\n\n# bgmfile \"bgm203\" \"BgmGakuen004\" 0\n# textflame 1 1 \n# textboxarrow 0 2\n@フライシュッツ\n呪いなんかに負けないんだから！\n\n# textflame 0 0\n@\nフライシュッツは再び銃を構え\n昂然と顎を上げた\n\n# textflame 0 0\n@\n自分の呪いから逃げるのではなく\n立ち向かう\n\n# textflame 0 0\n@\nその思いが\n新たな力を呼び覚ます\n\n# voice 5027 \"freischotz_0029\"\n# fadein \"white\" 0.5\n# textflame 1 1\n# se \"SE_0602\"\n# textboxarrow 0 2\n@フライシュッツ\n『零式・一途な想弾』\n\n# textflame 0 0\n@\nフライシュッツの真剣な思いで\n生み出された弾丸は\n\n# textflame 0 0\n@\n見事チョコを持って逃げていた\n異族を射抜いた\n\n# textflame 0 0\n@\n一息つく間もなく\nフライシュッツは\nチョコレートを拾い上げる\n\n# voice 5027 \"freischotz_0005\"\n# face 502721 \"happy\"\n# textflame 1 1 \n# textboxarrow 0 2\n@フライシュッツ\n良かった…\n箱もキレイなままね…\n\n# textflame 0 0\n@\nギュッと箱ごとチョコレートを\n抱き締めると\n\n# textflame 0 0\n@\n後を追ってきたマスターに\nくるりと向き直った\n\n# voice 5027 \"freischotz_0001\"\n# face 502721 \"usual\"\n# textflame 1 1 \n# textboxarrow 0 2\n@フライシュッツ\nマスターくん\n\n# face 502721 \"shy\"\n# textflame 0 0\n@\nじわじわと顔が熱くなってきて\nやっぱり恥ずかしくて\nチョコレートで顔を隠してしまう\n\n# voice 5027 \"freischotz_0002\"\n# textflame 1 1 \n# textboxarrow 0 2\n@フライシュッツ\nおねーちゃんからの\nチョコレートだよ…っ！\n\n# textflame 0 0\n@\nおずおずと差し出されたそれに\nマスターは躊躇いがちに\n手を伸ばした\n\n# textflame 0 0\n@\nありがとう\nなんだか今日は君から\nたくさんもらったね\n\n# face 502721 \"sad\"\n# textflame 1 1 \n# textboxarrow 0 2\n@フライシュッツ\nたくさんは、いらなかった…？\n\n# textflame 0 0\n@\nううん、嬉しいよ\n\n# imageset 0 \"c502721\"\n# imagealpha 0 0 0\n# face 502721 \"happy\"\n# textflame 0 0\n@\nマスターが微笑むと\nフライシュッツもつられて\nにっこり微笑んだ\n\n# imagealpha 0 1 0\n# imagepos 0 0 0\n# fadein \"white\" 3\n# textwindow \"close\"\n# voice 5027 \"freischotz_event_0004\"\n;;「ほーら、マスターくん、バレンタインチョコだよ～♪おねーちゃんからもらえるなんて、マスターくんの幸せ者ー！」freischotz_event_0004"
	}
]