[
	{
		"ID": 50291203,
		"script": ";;アルベル_EP3\n# script \"lisp\"\n# background \"town\"\n# bgm \"bgm002\" 0\n# body 502911\n# pos 502911 3\n# mask 502911 off\n# face 502911 \"angry\"\n# textflame 1 1\n# textboxarrow 0 2\n# chara 502911\n# voice 5029 \"albell_0035\"\n@アルベル\nいやよ\n\n# textflame 0 0\n@\nアルベルが依頼を断るのに\n理由はないのか\n\n# textflame 1 1\n# textboxarrow 0 2\n# chara 502911\n# voice 5029 \"albell_0027\"\n@アルベル\nめんどくさいもの\n\n# textflame 0 0\n@\nあれから数日、\nアルベルの元には\n姫からの相談が尽きない\n\n# textflame 0 0\n@\n武器や機械については勿論\n彼女の綺麗な髪の毛に憧れ\n手入れの方法を尋ねる者も\n\n# textflame 0 0\n@\nもはや彼女のつれない態度を\n鵜呑みにする姫たちではない\n\n# face 502911 \"sad\"\n# textflame 1 1\n# textboxarrow 0 2\n# chara 502911\n# voice 5029 \"albell_0028\"\n@アルベル\nひとりひとりお願いされても…\nめんどくさい、でしょ\n\n# face 502911 \"shy\"\n# textflame 1 1\n# textboxarrow 0 2\n# chara 502911\n@アルベル\nだから…\nい、いっぺんに来なさいよ\n\n# face 502911 \"normal\"\n# textflame 1 1\n# textboxarrow 0 2\n# chara 502911\n# voice 5029 \"albell_0013\"\n@アルベル\nでも、やるやらないは\n私が決める、から…\n\n# textflame 0 0\n@\n照れ隠しの素振りに\nいっそう姫たちは夢中になり\n彼女へ殺到する\n\n# textflame 0 0\n@\n隊に溶け込み始めたアルベルを\n嬉しそうに眺めるマスター\n\n# face 502911 \"angry\"\n# textflame 1 1\n# textboxarrow 0 2\n# chara 502911\n# voice 5029 \"albell_0026\"\n@アルベル\nあなたも…っ\nにやにやしてないで助けてよ…！\n\n# face 502911 \"sad\"\n# textflame 1 1\n# textboxarrow 0 2\n# chara 502911\n# voice 5029 \"albell_0010\"\n@アルベル\nや、ちょっと、髪触るの、やめ…\nもぉぉっ…！\n\n# se \"SE_0740\"\n# alpha 502911 0 0.5\n# textflame 0 0\n@\n姫たちの溺愛に\nさすがに耐えかねたアルベルは\n人波をかきわけ出て行ってしまう\n\n# textflame 0 0\n@\nただ\nもう焦る必要もない\n\n;;演出:暗転（場面転換）\n;;背景:朽ち果てた教会\n# fadeout \"black\" 1.5\n# waitandnext 1.5\n\n# background \"ancient_church\"\n# face 502911 \"normal\"\n# waitandnext 1\n\n# fadein \"black\" 1\n# textflame 0 0\n@\nこの世界に来た時に見た景色\nそれに似た光景\n\n# textflame 0 0\n@\nアルベルはここを\nロボたちとの憩いの場にしていた\n\n# alpha 502911 1 0.5\n# textflame 1 1\n# textboxarrow 0 2\n# chara 502911\n@アルベル\nいっつも\n追ってきてくれるのね\n\n# textflame 0 0\n@\n小型飛行ロボをまとわせて\n朽ち果てた教会に入ってくるマスター\n\n# select \"迷惑かな？\" \"select_label_01\" \"また迷子になるつもり？\" \"select_label_02\" \"いっつも、俊足だよね\" \"select_label_03\"\n小型飛行ロボをまとわせて\n朽ち果てた教会に入ってくるマスター\n\n# label \"select_label_01\"\n# labeljump \"select_label_end\"\n# face 502911 \"shy\"\n# textflame 1 1\n# textboxarrow 0 2\n# chara 502911\n@アルベル\nそ、そんなこと、ない…けど\n\n# label \"select_label_02\"\n# labeljump \"select_label_end\"\n# face 502911 \"shy\"\n# textflame 1 1\n# textboxarrow 0 2\n# chara 502911\n@アルベル\nま、迷子って言うな…！\n\n# label \"select_label_03\"\n# labeljump \"select_label_end\"\n# textflame 1 1\n# textboxarrow 0 2\n# chara 502911\n@アルベル\n…実は、靴に仕掛けがあるの\n\n# label \"select_label_end\"\n# face 502911 \"normal\"\n# textflame 1 1\n# textboxarrow 0 2\n# chara 502911\n@アルベル\nそれより、お礼を言ってなかった\n切り出すタイミングもなかったし\n\n# face 502911 \"smile\"\n# textflame 1 1\n# textboxarrow 0 2\n# chara 502911\n# voice 5029 \"albell_0030\"\n@アルベル\nありがと…\n\n# textflame 1 1\n# textboxarrow 0 2\n# chara 502911\n@アルベル\n取りもってくれてたんだ\n私と、キル姫たちとのこと\n\n# textflame 0 0\n@\nみんなが、アルベルの不安を\n感じてのこと\nマスターだけの力ではない\n\n# textflame 1 1\n# textboxarrow 0 2\n# chara 502911\n# voice 5029 \"albell_0004\"\n@アルベル\n…ふふ\n\n# textflame 1 1\n# textboxarrow 0 2\n# chara 502911\n@アルベル\n他の姫たちが\nあなたについていく理由が\n少し、わかる気がする\n\n# textflame 0 0\n@\nアルベルは\nマスターに背を向けたまま\nボロボロの十字架を見上げる\n\n# face 502911 \"normal\"\n# textflame 1 1\n# textboxarrow 0 2\n# chara 502911\n@アルベル\n…元の世界に帰るまでだから\n\n# textflame 1 1\n# textboxarrow 0 2\n# chara 502911\n@アルベル\nそれまで、だから\n\n# textflame 0 0\n@\n振り返り\nマスターを見つめるアルベルの瞳\n\n# textflame 1 1\n# textboxarrow 0 2\n# chara 502911\n@アルベル\n知らない世界で\n知らない人たちがいて…\n\n# textflame 1 1\n# textboxarrow 0 2\n# chara 502911\n@アルベル\nそれでも私を\n必要としてくれる\n\n# textflame 1 1\n# textboxarrow 0 2\n# chara 502911\n@アルベル\n…それがわかったから\n\n# textflame 0 0\n@\nこの世界に迷い込んで初めて\nしっかりと外の世界に\n視野を拡げたアルベル\n\n# textflame 0 0\n@\n迷子が、帰るべき場所を\nもうひとつ見つけた\n\n# se \"SE_0602\"\n# textflame 0 0\n@\nそれと共に新スキル\n『チューンナップ』\nがもたらされる\n\n# textflame 0 0\n@\nそれは恐らく\nマスターだけでなく\n姫たちのための力となるだろう\n\n# face 502911 \"shy\"\n# textflame 1 1\n# textboxarrow 0 2\n# chara 502911\n@アルベル\n…………\n\n# textflame 0 0\n@\nでも、彼女の言葉は\n肝心な所が\nやっぱり聞こえない\n\n# textflame 0 0\n@\nマスク、たまには外してみない？\nと、それとなくマスターが問う\n\n# face 502911 \"sad2\"\n# textflame 1 1\n# textboxarrow 0 2\n# chara 502911\n# voice 5029 \"albell_0028\"\n@アルベル\n…………\n\n# face 502911 \"normal\"\n# textflame 1 1\n# textboxarrow 0 2\n# chara 502911\n# voice 5029 \"albell_0035\"\n@アルベル\nいやよ\n\n# textflame 0 0\n@\nアルベルが依頼を断るのに\n理由はないのか\n\n# face 502911 \"smile\"\n# textflame 1 1\n# textboxarrow 0 2\n# chara 502911\n@アルベル\nやるやらないは\n私が決めるの\n\n# textflame 1 1\n# textboxarrow 0 2\n# chara 502911\n@アルベル\n私が好きでついてくの\nみんなに\n\n# textflame 1 1\n# textboxarrow 0 2\n# chara 502911\n@アルベル\n私が好きでつけてるの\nマスクは\n\n# textflame 1 1\n# textboxarrow 0 2\n# chara 502911\n@アルベル\nそういうことだから\n\n# face 502911 \"angry\"\n# textflame 1 1\n# textboxarrow 0 2\n# chara 502911\n# voice 5029 \"albell_0013\"\n@アルベル\n…………\nめんどくさい女だって\n思ったわね？\n\n# textflame 0 0\n@\nマスターはアルベルを\n真っ直ぐ見つめ\nいたずらっぽく頷いた\n\n# imageset 0 \"c502911\"\n# imagealpha 0 0 0\n# textflame 0 0\n@\n好きでついてきてくれるんだ、\nと\n\n;;「バカじゃないの！　もう…」\n;;albell_0042\n# imagealpha 0 1 0\n# imagepos 0 0 0 \n# fadein \"white\" 3\n# voice 5029 \"albell_0042\"\n# textwindow \"close\"\n"
	}
]