[
	{
		"ID": 50341212,
		"script": ";;-----------------------------------------\n;;【PK】メラ_コラボキャラクエ_シナリオ190521深浦\n;;【EP2バトル前】\n;;スクリプト最後の背景：宿舎\n;;背景：宿舎\n;;-----------------------------------------\n# script \"lisp\"\n# background \"201_room\"\n# bgmfile \"bgm270\" \"BgmLostRagnarokEvent\" 0\n;;-----------------------------------------\n;;メラ\n# body 188\n# pos 188 3\n# scale 188 0.8 0\n# layer 188 2\n# alpha 188 0 0\n# mask 188 off\n;;-----------------------------------------\n;;【EP2バトル前】\n;;背景：宿舎\n# voice 5034 \"mela_0015\"\n# move 188 3 0\n# face 188 \"sad\"\n# alpha 188 1 0\n# mask 188 off\n# textflame 1 1\n# textboxarrow 0 2\n@メラ\n…時間がいくらあっても\nダメなんだ\n\n;;モノローグ\n# textflame 0 0\n@\n時空繰師として\n自身の意識を過去未来へと\n跳ばすことが出来るというメラ\n\n;;モノローグ\n@\n彼女は幾度も時空を行き来し\nこの世界のあらゆる事象を\n分析・観察し尽くした、が…\n\n# textflame 1 1\n# textboxarrow 0 2\n@メラ\n元の世界に帰る方法だけは\n見つからない…\n\n# textboxarrow 0 2\n@メラ\n何度やっても\n時空の壁に当たっちゃって\n元の世界の様子すらもわからない\n\n# textboxarrow 0 2\n@メラ\nあっちの弟と交信さえ出来れば\nあるいは、とも思ったんだけど…\n\n;;モノローグ\n# textflame 0 0\n@\n出会った当初の底抜けの明るさがない\n一体どれだけの時空跳躍を\n繰り返したのだろう\n\n# textflame 1 1\n# textboxarrow 0 2\n@メラ\n迷ってる時間もったいないし\n色々、たくさんやってみたんだよ？\n\n;;モノローグ\n# textflame 0 0\n@\n試行錯誤の回数は\nゆうに数千を超えたという\n\n# textflame 1 1\n# textboxarrow 0 2\n@メラ\n術式の構成変更、媒体の再検討\nロケーションの改め\n更に術の発動時期を変えてみたり…\n\n# voice 5034 \"mela_0027\"\n# textboxarrow 0 2\n@メラ\n時間は無限のはずなのに…\n\n;;モノローグ\n# textflame 0 0\n@\n肩を落とすメラ\n\n;;モノローグ\n@\nマスターは必死に頭を捻る\nまだ試していないことが\nあるんじゃないかな…？と\n\n# face 188 \"angry\"\n# textflame 1 1\n# textboxarrow 0 2\n@メラ\n考えられることは全部やったよ…！\n即！やったはずだよ…？\n\n;;モノローグ\n# textflame 0 0\n@\nふてくされ始めるメラに\nマスターはダメ元で提案する\n\n;;モノローグ\n@\n『何も行動しないこと』\n『時間を操作せずに過ごすこと』\nこれはまだ試していないのではと\n\n# face 188 \"surprise\"\n# textflame 1 1\n# textboxarrow 0 2\n@メラ\n行動、しない…？\n\n;;モノローグ\n# textflame 0 0\n@\nメラは目を丸くする\n\n;;モノローグ\n@\nそれでどうなるかはわからないし\nもしかしたらそのままこの世界で\n留まることになる可能性もある\n\n;;モノローグ\n@\nだけど未来で\n何か事態の解決策が見つかるかも…と\n\n# face 188 \"sad\"\n# textflame 1 1\n# textboxarrow 0 2\n@メラ\n…\n\n;;モノローグ\n# textflame 0 0\n@\n時空操術なんて使えない素人意見\n無責任ながら\n思いつくのはこのくらいだと\n\n# face 188 \"angry\"\n# textflame 1 1\n# textboxarrow 0 2\n@メラ\n───それやってみよう！\n\n;;モノローグ\n# textflame 0 0\n@\n即、快諾するメラ\nその表情は真剣だ\n\n;;モノローグ\n@\nそんなとき、\n異族が現れたという情報が入ってくる\n\n;;モノローグ\n@\n先程までのメラの落胆ぶりを考慮し\n戦闘任務もしばらくは休んでもらおう\nと気遣うマスター\n\n# voice 5034 \"mela_0012\"\n# textflame 1 1\n# textboxarrow 0 2\n@メラ\nはいはいっ！それはダメ！\n\n;;選択肢\n;;@\n;;A　でも休んでた方が…\n;;B　時空跳躍で疲れてないの？\n;;C　ダメなの…？\n# select \"でも休んでた方が…\" \"select_label_01\" \"時空跳躍で疲れてないの？\" \"select_label_02\" \"ダメなの…？\" \"select_label_03\"\nはいはいっ！それはダメ！\n\n;;アンサー\n;;A\n# label \"select_label_01\"\n# labeljump \"select_label_end\"\n# face 188 \"angry\"\n# textflame 1 1\n# textboxarrow 0 2\n@メラ\n『休む』は行動だからダメ！しない！\n\n;;B\n# label \"select_label_02\"\n# labeljump \"select_label_end\"\n# face 188 \"angry\"\n# textflame 1 1\n# textboxarrow 0 2\n@メラ\n無限に疲れたけど！\n\n;;C\n# label \"select_label_03\"\n# labeljump \"select_label_end\"\n# face 188 \"angry\"\n# textflame 1 1\n# textboxarrow 0 2\n@メラ\n即却下！\n\n# label \"select_label_end\"\n# voice 5034 \"mela_0004\"\n# face 188 \"smile\"\n# textflame 1 1\n# textboxarrow 0 2\n@メラ\n何も行動しないことを\n邪魔するヤツらは\nあたしがやっつけるからっ\n\n;;モノローグ\n# textflame 0 0\n@\n何か矛盾している気がするが\nメラの笑顔を前に議論の時間は\nもったいないように感じた"
	}
]