[
	{
		"ID": 510383214,
		"script": ";;-----------------------------------------\n;;■異族化アルマス　キャラクエ　シナリオ\n;;【ＥＰ３】\n;;スクリプト最後の背景：平原\n;;背景：平原\n;;-----------------------------------------\n# script \"lisp\"\n# background \"plain\"\n# bgmfile \"bgm400\" \"BgmIntegralNoahEvent\" 0\n;;-----------------------------------------\n;;異族化アルマス\n# body 5103831\n# pos 5103831 3\n# scale 5103831 0.8 0\n# layer 5103831 2\n# alpha 5103831 0 0\n# mask 5103831 off\n;;-----------------------------------------\n;;異族化アルマス一枚絵\n# imageset 0 \"c5103831\"\n# imagelayer 0 3\n# imagealpha 0 0 0\n;;-----------------------------------------\n;;【ＥＰ３】\n;;モノローグ\n# textflame 0 0\n@\nあれから数日後――\n\n;;モノローグ\n# move 5103831 3 0\n# face 5103831 \"normal\"\n# alpha 5103831 1 0.5\n# mask 5103831 off\n@\nアルマスとマスターは、\nまたあの日の花畑にいた\n\n;;モノローグ\n@\n今日は２人だけじゃない\n隊の姫たちも一緒だ\n\n;;モノローグ\n@\nどうして、みんなをここに呼んだの？\nと尋ねるマスター\n\n# voice 510383 \"almace_iz_0004\"\n# face 5103831 \"happy\"\n# textflame 1 1\n# textboxarrow 0 2\n@アルマス\nここは…\n私のお気に入りの場所\n\n# textboxarrow 0 2\n@アルマス\n私の一番好きな\nツキクサの花が咲く場所\n\n# textboxarrow 0 2\n@アルマス\nそれに…マスターと\n初めて出会ったのもここだった\n\n# textboxarrow 0 2\n@アルマス\n今まで、こんな気持ちに\nなったことはなかったけど…\n\n# textboxarrow 0 2\n@アルマス\n私の好きな場所を、\nマスターやみんなに\n教えたくなったの\n\n# textboxarrow 0 2\n@アルマス\nなんでかな\n\n;;モノローグ\n# textflame 0 0\n@\nマスターは返す\nそれもまた絆なんだと思う\nと\n\n# voice 510383 \"almace_iz_0013\"\n# face 5103831 \"normal\"\n# textflame 1 1\n# textboxarrow 0 2\n@アルマス\n絆…か\n\n;;モノローグ\n# textflame 0 0\n@\nマスターのおかげで、\n仲間との繋がりを手に入れたアルマス\n\n;;モノローグ\n@\nだが、それはアルマスにとっては\n諸刃の剣だと言える\n\n# face 5103831 \"sad\"\n# textflame 1 1\n# textboxarrow 0 2\n@アルマス\nもし、マスターや仲間たちが\n剪定の対象になったのなら、\nそのときは斬らないといけない\n\n# textboxarrow 0 2\n@アルマス\n今は、まだそうすることが\nできないかもしれないけど…\n\n# face 5103831 \"angry\"\n# textboxarrow 0 2\n@アルマス\nいつか、必ず覚悟を決める\n…それが今の私の正義だから\n\n;;モノローグ\n# textflame 0 0\n@\nそう思う反面、マスターが\n剪定する以外で世界を救う方法を\n見つけてほしいと願う\n\n;;モノローグ\n@\nマスターや仲間を剪定したくない\nその想いこそが絆なのだろうと\n感じるアルマス\n\n;;モノローグ\n@\nそして、ふと思ったことが\n口に出る\n\n# face 5103831 \"normal\"\n# textflame 1 1\n# textboxarrow 0 2\n@アルマス\nでも、思うんだ\n\n# textboxarrow 0 2\n@アルマス\n今まで理想の世界を創るため、\n世界を救うため、\n色々なものを奪ってきた…\n\n# textboxarrow 0 2\n@アルマス\nそんな私がもし、\n奪われる側になったら…\n\n;;モノローグ\n# textflame 0 0\n@\nマスターを見つめるアルマス\n\n# textflame 1 1\n# textboxarrow 0 2\n@アルマス\nそう…もし誰かに\nアナタを奪われたとしたら…\n\n# textboxarrow 0 2\n@アルマス\nそのとき、\n私はどうするのかしらね？\n\n;;モノローグ\n# textflame 0 0\n@\n彼女は心の中で、\nそうならぬよう願うのだった\n\n;;■一枚絵指定\n;;★６(イラストは同じ)\n;;一枚絵ボイス：アルマス「理想の世界を創るため、世界を救うため、そう考えて、\n;;私は色々なものを奪ってきた…。もし、誰かにアナタを奪われたとしたら…。\n;;そのとき、私はどうするのかしらね？」　almace_iz_kyara_0026\n;;ホワイトアウト\n# textflame 0 0\n# imagealpha 0 1 0\n# imagepos 0 0 0\n# fadein \"white\" 3\n# buttonsout 0 0\n# textwindow \"close\"\n# voice 510383 \"almace_iz_kyara_0026\"\n\n# frameout 0 1\n\n# waitandnext 0.8\n\n# fadeout \"black\" 1.5\n# waitandnext 1.5"
	}
]