[
	{
		"ID": 6001064,
		"script": "# script \"lisp\"\n# body 101111\n# mask 101111 off\n# pos 101111 3\n# scale 101111 0.8 0\n# textflame 1 1\n# textboxarrow 0 2\n@エクスカリバー\nあの子はもう…\n\n# face 101111 \"angry\"\n@エクスカリバー\n私と一緒にいるべきではないのです！\n"
	}
]