[
	{
		"ID": 6001051,
		"script": ";;第５話/校内中庭/アロンダイト登場\n# script \"lisp\"\n# background \"courtyard\"\n# bgm \"bgm002\" 0\n# body 100751\n# pos 100751 2\n# scale 100751 0.8 0\n# body 301851\n# pos 301851 4\n# scale 301851 0.8 0\n# alpha 301851 0 0\n# serif 0\n# textwindow \"close\"\n# serif 1\n# textboxarrow 1 1\n# chara 100751\n# voice 1007 \"Arondaito_0005\"\n# face 100751 \"happy\"\n@アロンダイト\nとてもよく似合っていますよ！\n\n# textwindow \"nomal\"\n# textflame 0 0\n@\nアロンダイトと…\n\n;;浴衣フォルカス登場\n# textflame 0 0\n# alpha 301851 1 0.5\n# face 301851 \"shy\"\n@\n浴衣姿のフォルカスがいた\n\n# textflame 0 0\n# face 301851 \"sad\"\n@\n思わず見とれていると、\nフォルカスが不安そうな顔になった\n\n# serif 1\n# textboxarrow 1 3\n# chara 301851\n# voice 3018 \"forcas_0031\"\n@フォルカス\nごめんなさい、せっかくだけど\n私やっぱり制服に着替えます…！\n\n# serif 1\n# textboxarrow 1 1\n# chara 100751\n# voice 10075 \"arondaito_kyara_1025\"\n# face 100751 \"angry\"\n@アロンダイト\nなに言ってるんですか、\nフォルカスさん\n今日は素直になるのでしょう？\n\n# serif 1\n# textboxarrow 1 1\n# chara 100751\n@アロンダイト\n場所も雰囲気もいつもと違う\nそれなら貴方自身も、\nいつもと変わらなければ\n\n# serif 1\n# textboxarrow 1 3\n# chara 301851\n# voice 3018 \"forcas_0019\"\n@フォルカス\nでも、さっきから黙ってるし…\n\n# textflame 0 0\n@\nフォルカスがいじらしく\n髪を触りながら、普段とは違う\n不安げな瞳で見つめてくる\n\n# serif 0\n# textflame 0 0\n@マスター\nごごごご、ごめん！！\n\n# serif 1\n# textboxarrow 1 1\n# chara 100751\n# voice 1007 \"Arondaito_0004\"\n# face 100751 \"happy\"\n@アロンダイト\nあまりにも似合っていて\n言葉が出なかったんですよね？\n\n;;文字小さく\n# serif 1\n# textboxarrow 1 3\n# textsize 16\n# chara 301851\n# face 301851 \"surprise\"\n@フォルカス\n…！！\n\n# serif 0\n# textsize 24\n# textflame 0 0\n@マスター\nえ、あ、うん！？\n\n# textflame 0 0\n# face 301851 \"shy\"\n@\n二人の間に\nなんとも言えない沈黙が流れる…\n\n# serif 1\n# textboxarrow 1 1\n# textsize 24\n# chara 100751\n# face 100751 \"normal\"\n@アロンダイト\nはい、そこまで\nもうすぐ理事長主催の\n肝試し大会が始まりますよ\n\n# textflame 0 0\n@\nアロンダイトの介入により、\nこの気まずさから解放された\n…かと思ったのだが\n\n# serif 1\n# textboxarrow 1 1\n# chara 100751\n# face 100751 \"happy\"\n@アロンダイト\nで、似合ってますよね、マスター？\n\n# serif 0\n# textflame 0 0\n@マスター\nえっ！？\n\n;;ディベロップではボイスが再生されませんでした\n# serif 1\n# textboxarrow 1 1\n# chara 100751\n# voice 1007 \"Arondaito_kyara_1027\"\n# face 100751 \"surprise\"\n@アロンダイト\nえ？\nそんな、似合ってませんでしたか…？\n\n# serif 0\n# textflame 0 0\n@マスター\nいや！\nそういうわけじゃなくて！\nその…\n\n# serif 1\n# textboxarrow 1 1\n# chara 100751\n# voice 1007 \"Arondaito_0020\"\n# face 100751 \"happy\"\n@アロンダイト\n…ふふっ\n\n# serif 1\n# textboxarrow 1 3\n# imageset 0 \"black\"\n# imagealpha 0 0 0\n# imagelayer 0 1\n# chara 301851\n# voice 3018 \"forcas_0042\"\n# face 301851 \"angry\"\n@フォルカス\nもうっ！キミ達は…っ！\n\n;;アロンダイト 浴衣フォルカス退場\n;;時間経過描写\n;;場所は同じでも昼→夕方に\n# bgm \"stop\"\n# serif 0\n# textwindow \"close\"\n# serif 1\n# textwindow \"close\"\n# imagealpha 0 1 0\n# imagepos 0 0 30\n# imageleftin 0 0.5\n\n# imagerightout 0 0.5\n# background \"festival_evening\"\n# pos 301851 3\n# alpha 100751 0 0\n# alpha 301851 0 0\n# serif 0\n# textwindow \"nomal\"\n# textflame 0 0\n@マスター\nあ、友人との\n待ち合わせ時間じゃない？\nあそこは混むから急いだ方が…\n\n# serif 0\n# textflame 0 0\n@マスター\n…フォルカス？\n\n;;浴衣フォルカス登場\n# serif 1\n# textwindow \"nomal\"\n# textboxarrow 1 2\n# mask 301851 off\n# alpha 301851 1 0.5\n# chara 301851\n# face 301851 \"sad\"\n@フォルカス\nあの子は…来ません\n来るわけが、ないん…です\n\n;;回想開始\n# fadeout \"black\" 0.5\n\n# bgm \"bgm004\" 0\n# fadein \"black\" 0.5\n# background \"schoolroad_afternoon\"\n# alpha 301851 0 0\n# alpha 100751 0 0\n# body 52\n# pos 52 2\n# face 52 \"sad\"\n# scale 52 0.8 0\n# body 51\n# pos 51 4\n# scale 51 0.8 0\n# serif 0\n# textwindow \"close\"\n# fillrect \"pink\" 0 0 0.2\n# serif 1\n# textwindow \"nomal\"\n# textboxarrow 1 3\n# chara 301811\n# voice 3018 \"forcas_0004\"\n@フォルカス\nねぇ、\n今度夏祭りがあるんだけど、\n一緒に行かない？\n\n;;文字小さくして小声感出す\n# serif 1\n# textboxarrow 1 1\n# textsize 18\n# chara 300111\n@ロンギヌス\n…うん\n\n# serif 1\n# textboxarrow 1 3\n# textsize 24\n# chara 301811\n@フォルカス\nねぇ、聞いてる？\n\n# serif 1\n# textboxarrow 1 1\n# chara 300111\n# voice 3001 \"ronginusu_0013\"\n@ロンギヌス\n…聞いてるよ\n\n# serif 1\n# textboxarrow 1 3\n# chara 301811\n# face 51 \"surprise\"\n@フォルカス\nちょっと！\n\n;;ロンギヌス怒り顔\n# serif 1\n# textboxarrow 1 1\n# chara 300111\n# face 52 \"angry\"\n@ロンギヌス\nさっきから\n返事してるよ！\n\n# serif 1\n# textboxarrow 1 1\n# chara 300111\n@ロンギヌス\nちゃんと行くよ！\n行けばいいんだもんね！\n\n# serif 1\n# textboxarrow 1 3\n# chara 301811\n# face 51 \"worry\"\n@フォルカス\n…………\n\n;;回想終了\n# fillrect \"pink\" 0 0 0\n# fadein \"black\" 0.5\n# background \"festival_evening\"\n# alpha 51 0 0\n# alpha 52 0 0\n# alpha 301851 1 0\n# fillrect \"pink\" 0 0 0\n# serif 1\n# textboxarrow 1 2\n# chara 301851\n# voice 3018 \"forcas_0017\"\n@フォルカス\nあの子のあんな姿、\n初めて見た\n\n# serif 1\n# textboxarrow 1 2\n# chara 301851\n@フォルカス\nやっぱり、\nもう私のこと\n本当に嫌いになったんだ…\n\n# serif 1\n# textboxarrow 1 2\n# chara 301851\n# face 301851 \"mad\"\n@フォルカス\nそうだよ…\nそうに決まってる…\n\n# serif 1\n# textboxarrow 1 2\n# chara 301851\n# voice 3018 \"forcas_0019\"\n@フォルカス\nなのに皆を巻き込んで…\n\n;;アロンダイト登場\n# serif 1\n# textboxarrow 1 1\n# pos 100751 1\n# leftin 100751 0.5\n# alpha 100751 1 0\n# move 301851 4 0.5\n# mask 301851 on\n# chara 100751\n# face 100751 \"normal\"\n@アロンダイト\nフォルカスさん…？\n\n# serif 0\n# textwindow \"nomal\"\n# textflame 0 0\n@マスター\n離れて、アロンダイト！\n\n# textflame 0 0\n@\n桃色髪のあの子が言った通り、\nフォルカスの浄化は\nまだ終わっていなかった…\n\n# fadeout \"black\" 0.5\n# body 301811\n# pos 301811 3\n# scale 301811 0.8 0\n# alpha 301811 0 0\n# mask 301811 off\n# brightness 301811 0.2 0\n\n# shakeloop 0\n# fadein \"black\" 0.5\n# alpha 100751 0 0\n# alpha 301851 0 0\n# alpha 301811 1 0\n# serif 1\n# textwindow \"close\"\n# fillrect \"black\" 0 0 0.2\n# serif 0\n# textwindow \"nomal\"\n# textflame 0 0\n@\n絶望に囚われたフォルカスから、\n黒く濃い霧が噴き出した\n"
	}
]