[
	{
		"ID": 6002021,
		"script": ";;2話戦闘前\n;;中庭\n# sclipt \"lisp\"\n# background \"courtyard\"\n# bgm \"bgm002\" 0\n# body 67\n# pos 67 3\n# scale 67 0.8 0\n# mask 67 off\n# alpha 67 0 0\n# body 500151\n# pos 500151 3\n# scale 500151 0.8 0\n# mask 500151 off\n# body 36\n# pos 36 4\n# scale 36 0.8 0\n# alpha 36 0 0\n# textflame 1 1\n# textboxarrow 0 2\n# chara 500151\n# face 500151 \"surprise\"\n@ケラウノス\nほら、早く！\nこっちこっち！\n\n# textflame 0 0\n@マスター\nわかった！\nわかったから\nそんなに引っ張らないで\n\n# textflame 1 1\n# textboxarrow 0 2\n# chara 500151\n# face 500151 \"happy\"\n# voice 50015 \"keraunosu_event_1002\"\n@ケラウノス\n実は前から\n目をつけてた子がいるんだ♪\n\n# chara 500151\n@ケラウノス\nこの時間なら一人で\n練習してるはずだからっ\n\n# textflame 0 0\n@マスター\nなんでこんなことに…\n\n# fadeout \"black\" 0.5\n# waitandnext 1\n\n;;回想シーン\n;;渡り廊下\n# fadein \"black\" 0.5\n# background \"connecting_corridor_daytime\"\n# mask 500151 on\n# move 500151 2 0\n# face 500151 \"normal\"\n# alpha 36 1 0\n# textflame 1 1\n# textboxarrow 0 3\n# bgm \"bgm006\" 0\n# chara 500421\n# fillrect \"pink\" 0 0 0.2\n# voice 5004 \"burafumasutora_0004\"\n@ブラフマーストラ\nアンタ、\n体育祭が終わるまで\nケラウノスと一緒に行動しなさい\n\n# textflame 0 0\n@マスター\nええっ？\n\n# textflame 0 0\n@マスター\nあの…\n理事長からはこの学院を\nそれとなく…\n\n# textflame 1 1\n# textboxarrow 0 3\n# chara 500421\n# voice 5004 \"burafumasutora_0005\"\n@ブラフマーストラ\nわかってるって！\nこの子と見回れば良いじゃない！\n一石二鳥ってやつよ\n\n# textflame 0 0\n@マスター\nそんなので良いんですか…\n\n# textflame 1 1\n# textboxarrow 0 1\n# chara 500151\n# face 500151 \"happy\"\n# voice 5001 \"keraunosu_0006\"\n@ケラウノス\nやったね！\nキミ、しばらくの間よろしく♪\n\n# chara 500151\n# face 500151 \"surprise\"\n# voice 5001 \"keraunosu_kyara_1006\"\n@ケラウノス\n早速だけどついてきて！\n\n# fadeout \"black\" 0.5\n# waitandnext 1\n\n;;回想シーン終了\n;;中庭\n# bgm \"bgm002\" 0\n# fadein \"black\" 0.5\n# background \"courtyard\"\n# mask 500151 off\n# face 500151 \"normal\"\n# alpha 36 0 0\n# move 500151 3 0\n# fillrect \"pink\" 0 0 0\n# textflame 0 0\n@マスター\n前途多難だなあ…\n\n# textflame 1 1\n# textboxarrow 0 2\n# chara 500151\n# face 500151 \"happy\"\n# voice 5001 \"keraunosu_0004\"\n@ケラウノス\nいたいた♪\nほら、キミも見てよ！\nあの子、かわいいでしょっ\n\n# textflame 0 0\n@\nケラウノスに袖を引かれ\n覗き込んだ先には\n\n# textflame 0 0\n@\n一人でダンスの\n練習をしている少女がいた\n\n;;ケラウノス退場\n;;ラブリュス登場\n;;渡り廊下\n# fadein \"white\" 0.5\n# background \"connecting_corridor_daytime\"\n# alpha 67 1 0\n# jump 67\n# alpha 500151 0 0\n# textwindow \"close\"\n# waitandnext 1\n\n;;ラブリュス退場\n;;ケラウノス登場\n;;中庭\n# fadein \"white\" 0.5\n# background \"courtyard\"\n# alpha 500151 1 0\n# alpha 67 0 0\n# textflame 1 1\n# textwindow \"nomal\"\n# textboxarrow 0 2\n# chara 500151\n# face 500151 \"normal\"\n@ケラウノス\nラブリュスっていって\n学院アイドルやってる子なんだ\n\n# chara 500151\n# face 500151 \"shy\"\n# voice 50015 \"keraunosu_event_1002\"\n@ケラウノス\n見た目もかわいいんだけど、\nああやって密かに努力してる姿が\nたまらないんだよ！\n\n# textflame 0 0\n@マスター\nそうなんだ…\n確かにかわいいね\n\n# textflame 1 1\n# textboxarrow 0 2\n# chara 500151\n# voice 5001 \"keraunosu_0040\"\n# face 500151 \"happy\"\n@ケラウノス\n君もそう思うでしょ！\nじゃ、行こっか！\n\n;;ケラウノス退場\n# textflame 0 0\n# rightout 500151 1\n# alpha 500151 0 0.7\n# imageset 0 \"black\"\n# imagealpha 0 0 0\n# imagelayer 0 1\n@\n建物の陰から出てケラウノスは\nラブリュスのもとに向かった\n\n# textwindow \"close\"\n# imagealpha 0 1 0\n# imagepos 0 0 30\n# imageleftin 0 0.5\n# waitandnext 1\n\n;;渡り廊下\n;;ラブリュス登場\n# imagerightout 0 0.5\n# background \"connecting_corridor_daytime\"\n# alpha 67 1 0\n# textflame 1 1\n# textwindow \"nomal\"\n# chara 200351\n@ラブリュス\nここでターンして…決めポーズ！\n\n# se \"SE_0502\"\n# fadein \"white\" 0.5\n# chara 200351\n# voice 2003 \"loveryus_0004\"\n# face 67 \"happy\"\n@ラブリュス\nラブリュスちゃんの\n超絶かわいい笑顔もばっちり\n\n;;ケラウノス登場\n# textboxarrow 0 1\n# pos 500151 2\n# move 67 4 0.5\n# mask 67 on\n# leftin 500151 0.5\n# alpha 500151 1 0\n# chara 500151\n# face 500151 \"happy\"\n# voice 50015 \"keraunosu_0004\"\n@ケラウノス\nその笑顔、最高だね！\n練習お疲れさまっ\n\n# jump 67\n# textflame 1 1\n# textboxarrow 0 3\n# chara 200351\n# voice 2003 \"loveryus_0022\"\n# face 67 \"shy\"\n@ラブリュス\nキャッ\n君、いつから見てたの～？\n恥ずかしいよ～っ\n\n# textboxarrow 0 1\n# chara 500151\n@ケラウノス\n一生懸命練習してるキミも\nすごくかわいいよ！\n\n# textboxarrow 0 3\n# chara 200351\n# voice 2003 \"loveryus_0030\"\n# face 67 \"happy\"\n@ラブリュス\nありがと～♪\nえっと、誰だっけ？\n\n# textboxarrow 0 1\n# chara 500151\n# face 500151 \"normal\"\n@ケラウノス\n私はケラウノス\nこっちはマスターね\n\n# textflame 0 0\n@マスター\nこんにちは…\n突然、ごめん\n\n# textflame 1 1\n# textboxarrow 0 1\n# chara 500151\n# voice 5001 \"keraunosu_kyara_1006\"\n# face 500151 \"happy\"\n@ケラウノス\nそれじゃ挨拶も済んだことだし\n今から三人でお茶しようよ！\n\n# textboxarrow 0 3\n# chara 200351\n# voice 2003 \"loveryus_0028\"\n# face 67 \"normal\"\n@ラブリュス\nあ～、それってナンパ？\nラブリュスちゃんは\n学院のアイドルだから～\n\n# chara 200351\n@ラブリュス\n誰かと特別仲良くしちゃ\nダメなんだよ～\n\n# chara 200351\n# voice 2003 \"loveryus_0004\"\n# face 67 \"happy\"\n@ラブリュス\nラブリュスちゃんは\nみんなのものなの♪\n\n# textboxarrow 0 1\n# chara 500151\n# voice 5001 \"keraunosu_0039\"\n@ケラウノス\nそっか、そっか\nじゃ、続きは喫茶店でしよう！\n\n# textflame 0 0\n@マスター\n…やっぱりケラウノスって、\n他人の話を全然聞かないな\n\n# textflame 0 0\n@\n呆れたマスターは二人から\n目を逸らした\n\n# textflame 0 0\n@\nふと、\n物陰からこちらを見ている\n少女の存在に気づく\n\n# bgm \"bgm005\" 0\n# textflame 1 1\n# textboxarrow 0 0\n@地味な女の子\n…なんで…どうしてなの？\n…ラブリュス\n\n# textflame 0 0\n@マスター\nあの子…\nさっきの女の子とは雰囲気が\n違うけど…\n\n# textflame 0 0\n@\n気になったマスターが彼女に\n近づこうとした瞬間――\n\n# fadeout \"black\" 0.5\n# waitandnext 1\n\n# shakeloop 0\n# fadein \"black\" 0.5\n# fillrect \"black\" 0 0 0.2\n# alpha 67 0 0\n# alpha 500151 0 0\n# textflame 0 0\n@\n少女の体から闇が噴き出した"
	}
]