[
	{
		"ID": 60043201,
		"script": "# script \"lisp\"\n# background \"mountain\"\n# bgm \"bgm002\" 0\n# body 600431\n# mask 600431 off\n# pos 600431 3\n# textboxarrow 0 2\n# chara 600431\n# textflame 0 0\n@\n明晰な頭脳と、\n杖の魔法力を駆使し、戦うカドケウス\n\n# textflame 0 0\n@\n特に諜報能力に長け、\n戦闘中は伝令役として、\nしっかりとみんなをサポートしている\n\n# textflame 0 0\n@\nだが…\n\n# textflame 1 0\n# chara 600431\n@カドケウス\n……♪\n…あ、マスター\n\n# voice 6004 \"kadokeusu_0022\"\n# chara 600431\n@カドケウス\nえ、これ？\nフルート♪\nいい音色だったでしょ？\n\n# voice 6004 \"kadokeusu_kyara_1004\"\n# chara 600431\n@カドケウス\nあれぇ？今の演奏聞いて、\n私のこと好きになっちゃったの？\nなぁんてね♪\n\n# voice 6004 \"kadokeusu_0004\"\n\n# chara 600431\n@カドケウス\nねぇ、ねぇ！\nせっかくのお休みなんだし、\nなにかして遊ぼうよぉ〜！\n\n# chara 600431\n@カドケウス\n…え？\nみんなで防護柵作り…？\n\n# face 600431 \"angry\"\n# voice 6004 \"kadokeusu_0013\"\n# chara 600431\n@カドケウス\nえぇ〜、メンドくさいよ〜\n私、不器用だし〜！\n\n# face 600431 \"normal\"\n# chara 600431\n@カドケウス\nそれよりもさ、買い物に行かない？\nそれともケーキ食べに行く？\n\n# textflame 0 0\n@\nというように、\n戦闘の時以外は自由気ままな彼女\n気ままと言うか、むしろ…\n\n# textflame 1 0\n# chara 600431\n@カドケウス\nねぇ、早く早く〜\n\n# face 600431 \"angry\"\n# voice 6004 \"kadokeusu_unit_1005\"\n# chara 600431\n@カドケウス\nえぇ〜！\n…もう、いいよ！\nじゃあ一人でフルート吹いてるから\n\n# face 600431 \"normal\"\n# chara 600431\n@カドケウス\nえ？\n手伝い…？私は…\n\n# voice 6004 \"kadokeusu_1034\"\n\n# chara 600431\n@カドケウス\nあっ！あそこにケーリュケイオン\nいるじゃん！\n彼女に手伝ってもらえば？\n\n# textflame 0 0\n@\nふり返るマスター\nしかし、そこには誰もおらず…\n\n# face 600431 \"smile\"\n# voice 6004 \"kadokeusu_0005\"\n# textflame 1 0\n# chara 600431\n@カドケウス\nアハハハ！騙された〜！\n君って結構 単純なんだね！\n\n# face 600431 \"happy\"\n# chara 600431\n@カドケウス\nじゃあね！\nまた今度ちゃんと手伝うから！\n\n# textflame 0 0\n@\nそう言い残し、去ってゆく彼女\n気ままと言うか…\n\n# textflame 0 0\n@\nわがままで、イタズラ好き\n結構、自分本位なのかも…？"
	}
]