[
	{
		"ID": 60043204,
		"script": "# script \"lisp\"\n# background \"forest\"\n# bgm \"bgm003\" 0\n# body 600431\n# mask 600431 off\n# pos 600431 3\n# face 600431 \"sad\"\n# textflame 0 0\n@\n防護柵が完成してから早一ヶ月\n\n# textflame 0 0\n@\nだが、いつまでもこの地に\nとどまっているわけにはいかない\n拠点を移動する時がやってきた\n\n# textflame 1 1\n# textboxarrow 0 2\n# voice 6004 \"kadokeusu_0017\"\n@カドケウス\nせっかくみんなで作ったのに\n離れなきゃいけないなんて\n残念だね……\n\n# textflame 0 0\n@\n悲しみの色を浮かべるカドケウス\n\n# face 600431 \"normal\"\n# textflame 1 1\n# textboxarrow 0 2\n# voice 6004 \"kadokeusu_0028\"\n@カドケウス\n…でも、ま！いっか！\nこんなボロ柵、\nいつかは壊れるんだし！\n\n# voice 6004 \"kadokeusu_0004\"\n@カドケウス\nまた新しいの作ればいいよね♪\n未練なんて別にないや\n\n# select \"本当にそう思ってるの？\" \"select_label_01\" \"意外とアッサリしてるんだね\" \"select_label_02\" \"無理してるんじゃないの？\" \"select_label_03\"\nまた新しいの作ればいいよね♪\n未練なんて別にないや\n\n# label \"select_label_01\"\n# labeljump \"select_label_end\"\n# textflame 1 1\n# textboxarrow 0 2\n@カドケウス\n私は過去にすがらない主義だからね！\n\n# label \"select_label_02\"\n# labeljump \"select_label_end\"\n# textflame 1 1\n# textboxarrow 0 2\n@カドケウス\nそ！\n思い出はまた作ればいいからね！\n\n# label \"select_label_03\"\n# labeljump \"select_label_end\"\n# textflame 1 1\n# textboxarrow 0 2\n@カドケウス\n無理なんてしてないよ？\nなんで？\n\n# face 600431 \"sad\"\n# label \"select_label_end\"\n# voice 6004 \"kadokeusu_0024\"\n@カドケウス\n…あっ！\n\n# textflame 0 0\n@\nマスターの合図で、\n防護柵に向かって飛んでくる\n数個の石つぶて\n\n# face 600431 \"angry\"\n# textflame 1 1\n# textboxarrow 0 2\n# voice 6004 \"kadokeusu_0011\"\n@カドケウス\nダメッ！！\n\n# textflame 0 0\n@\n彼女の力によって、\n石つぶては柵に当たる\n直前で破壊された\n\n# textflame 1 1\n# textboxarrow 0 2\n#se \"SE_0602\"\n@カドケウス\nふぅ…\n新奥義…\n『ソリッドケイン』！！\n\n# textflame 0 0\n@\n彼女のスキルは\n大幅にパワーアップしていた\nなぜなら…\n\n# face 600431 \"sad\"\n# textflame 1 1\n# textboxarrow 0 2\n# voice 6004 \"kadokeusu_kyara_1004\"\n@カドケウス\n知ってたんだ…？\n私がこの柵を…\n大事に思ってるの\n\n@カドケウス\nだって、この柵は…\n\n# voice 6004 \"kadokeusu_0008\"\n@カドケウス\n私とみんなを仲良くさせてくれた\n大切な思い出だから\n絶対に…守りたい…\n\n# textflame 0 0\n@\n涙ぐむ彼女\n\n# textflame 1 1\n# textboxarrow 0 2\n# voice 6004 \"kadokeusu_0016\"\n@カドケウス\nだから本当は…\n離れたくない…\n離れたくないんだよ〜！！\n\n# textflame 0 0\n@\nこらえていた熱いものが、\n瞳から一気に吹き出…\n\n# face 600431 \"smile\"\n# textflame 1 1\n# textboxarrow 0 2\n@カドケウス\nべ〜！\nウッソ〜！！\n\n# textflame 0 0\n@\n！？\n\n# face 600431 \"normal\"\n# textflame 1 1\n# textboxarrow 0 2\n# voice 6004 \"kadokeusu_0001\"\n@カドケウス\nもうズルいよ、マスター！\n私を試すようなことして〜\n\n# voice 6004 \"kadokeusu_0004\"\n@カドケウス\nあは？でもホントに泣いたと思った？\n泣くわけないでしょ！？\n私を誰だと思ってるの？\n\n# voice 6004 \"kadokeusu_0007\"\n@カドケウス\nイタズラ大好き、\nカドケウスちゃんだよ\n\n@カドケウス\n柵は置いて行っても…\nみんなで創り上げたって\n自信と喜びが胸にあれば…\n\n# face 600431 \"smile\"\n# voice 6004 \"kadokeusu_0033\"\n@カドケウス\n私はもっと強くなれる！\n防護柵がなくても、\n私がみんなを守っていく！！\n\n@カドケウス\n許してくれたみんなのため…\n私がみんなの盾になる！！\nそう決めたんだ！！\n\n# textflame 0 0\n@\n明るく言い放つ言葉の奥には、\n力強い決意がみなぎっていた\n\n# textflame 1 1\n# textboxarrow 0 2\n# voice 6004 \"kadokeusu_1034\"\n@カドケウス\nそれにしても君、\nさっき私がウソ泣きしてる時…\nもらい泣きしてなかった？\n\n# textflame 0 0\n@\n顔を赤くするマスター\n\n# face 600431 \"happy\"\n# textflame 1 1\n# textboxarrow 0 2\n# voice 6004 \"kadokeusu_0004\"\n@カドケウス\nあは♪\n君ってやっぱり…\n\n# imageset 0 \"c600431\"\n# imagealpha 0 0 0\n# imagepos 0 0 0\n# voice 6004 \"kadokeusu_kyara_1012\"\n@カドケウス\nかっこいいね♪\n\n# voice 6004 \"kadokeusu_kyara_0018\"\n# imagealpha 0 1 0\n# imagepos 0 0 0\n# fadein \"white\" 3\n# textwindow \"close\"\n\n# textwindow \"nomal\"\n# textflame 0 0\n@\n小悪魔な笑顔が、\nマスターを翻弄した"
	}
]