[
	{
		"ID": 60053202,
		"script": "# script \"lisp\"\n# background \"town\"\n# bgm \"bgm002\" 0\n# body 600532\n# mask 600532 off\n# pos 600532 3\n# textboxarrow 0 2\n# textflame 0 0\n@\n数日後、棚の上の本を取ろうと\n悪戦苦闘しているマスターに\n声をかけてきたのは…\n\n# voice 6005 \"keryukeion_0001\"\n# chara 600532\n# textflame 1 0\n@ケーリュケイオン\nあれ～？\n届かないの、マスター？\n私の魔法で取ったげよっか？\n\n# face 600532 \"surprise\"\n# chara 600532\n# textflame 1 0\n@ケーリュケイオン\nえ？また、ご褒美をよこせって\n言うんだろって…？\nもう～、そんなこと…\n\n# face 600532 \"mad2\"\n# chara 600532\n# textflame 1 0\n# voice 6005 \"keryukeion_0005\"\n@ケーリュケイオン\n当たり前じゃん！\n\n# chara 600532\n# textflame 1 0\n# voice 6005 \"keryukeion_0006\"\n@ケーリュケイオン\nてことで、よろしくね♪\nそれ～！\n\n# textflame 0 0\n@\n杖を使い、得意の魔法で\n本を取ってくれた彼女\nそして、やはり…\n\n# voice 6005 \"keryukeion_0029\"\n# chara 600532\n# textflame 1 0\n@ケーリュケイオン\nじゃあ、ご褒美よろしく♪\n\n# textflame 0 0\n@\nやれやれ…と、\nお駄賃を渡すマスター\n\n# select \"どうして、いつもご褒美をもらうの？\" \"select_label_01\" \"そのうち誰も頼まなくなっちゃうよ\" \"select_label_02\" \"そのお金、なんに使うの…？\" \"select_label_03\"\nやれやれ…と、\nお駄賃を渡すマスター\n\n# label \"select_label_01\"\n# labeljump \"select_label_end\"\n# textflame 1 0\n# face 600532 \"surprise\"\n# chara 600532\n@ケーリュケイオン\n…ダメ？\nやっぱりお金を取るのは\n\n# label \"select_label_02\"\n# labeljump \"select_label_end\"\n# textflame 1 0\n# face 600532 \"normal\"\n# chara 600532\n@ケーリュケイオン\nまぁね…確かにヤだよね\n\n# label \"select_label_03\"\n# labeljump \"select_label_end\"\n# textflame 1 0\n# face 600532 \"mad\"\n# chara 600532\n@ケーリュケイオン\n使い道は…私の自由でしょ♪\nでも…\n\n# label \"select_label_end\"　\n# textflame 1 0\n# voice 6005 \"keryukeion_0027\"\n# face 600532 \"normal\"\n# chara 600532\n@ケーリュケイオン\nまあ、仲間なんだから\nタダで手伝えって\n気持ちもわかるけど\n\n# voice 6005 \"keryukeion_0028\"\n# textflame 1 0\n# chara 600532\n@ケーリュケイオン\nこれは、\n獲物を奪取するのが得意だった…\n\n# textflame 1 0\n# chara 600532\n@ケーリュケイオン\n『ケーリュケイオンの杖』\nの記憶が影響してると思うんだ\n\n# textflame 1 0\n# chara 600532\n@ケーリュケイオン\nでもね、マスター\nこれだけは信じて？\n\n# textflame 1 0\n# chara 600532\n@ケーリュケイオン\n私は、楽して稼ごうとか\n人から騙し取ろうとは\n思ってないの\n\n# textflame 1 0\n# face 600532 \"mad2\"\n# chara 600532\n@ケーリュケイオン\n仕事をしたら、それに見合う報酬を\n受け取るのは当然っていうか…\nわかりやすいし、気持ちいいでしょ？\n\n# textflame 1 0\n# chara 600532\n@ケーリュケイオン\nがんばろうって、やる気も出るしね！\nその報酬で欲しいものが買えたり、\n食べたいものが食べられたり…\n\n# textflame 1 0\n# face 600532 \"smile\"\n# chara 600532\n@ケーリュケイオン\n夢が叶うって考えると\n張りがあるじゃん♪\n\n# textflame 1 0\n# chara 600532\n@ケーリュケイオン\nだから、私はちゃんと報酬は\nもらうようにしてるんだ♪\n\n# textflame 0 0\n@\nそういうところは、本当に\n大人の考え方を持ってるんだな…\nと少し感心するマスター\n\n# textflame 1 0\n# face 600532 \"surprise\"\n# chara 600532\n@ケーリュケイオン\nえ？私の夢…？\nそれは…\n\n# voice 6005 \"keryukeion_0004\"\n# textflame 1 0\n# face 600532 \"mad2\"\n# chara 600532\n@ケーリュケイオン\nえへへ、秘密♪\n女の子の秘密は、\nただでは教えられないな～？\n\n# textflame 1 0\n# chara 600532\n@ケーリュケイオン\n教えたら、ご褒美くれる？\nなんてね♪\n\n# textflame 0 0\n@\nやれやれ…と、\n頭をかくマスターだった"
	}
]