[
	{
		"ID": 6007013,
		"script": ";;1話　バトル後\n;;【指定】bgm004\n# script \"lisp\"\n# background \"courtyard\"\n# bgm \"bgm004\" 0\n# body 102511\n# alpha 102511 0 0\n# body 100111\n# alpha 100111 0 0\n# body 101\n# pos 101 4\n# scale 101 0.8 0\n# body 100\n# pos 100 3\n# scale 100 0.8 0\n# face 100 \"sad\"\n# alpha 101 0 0\n# mask 100 off\n# textflame 1 1\n# textboxarrow 0 3\n# chara 100111\n# textflame 0 0\n@マスター\nムラマサ…！\n大丈夫！？\n\n# textflame 1 1\n# textboxarrow 0 2\n# chara 102511\n# voice 1025 \"muramasa_0019\"\n@ムラマサ\nはい…\n申し訳ありません…\n\n# textflame 0 0\n@マスター\nいったい、なにがあったの…？\n\n# imageset 0 \"black\"\n# imagealpha 0 0 0\n# imagelayer 0 1\n# textflame 1 1\n# textboxarrow 0 2\n# chara 102511\n@ムラマサ\nはい、先ほど…\n\n;;――場面転換――\n;;【背景　道場】\n# imagealpha 0 1 0\n# imagepos 0 0 30\n# imageleftin 0 0.5\n# serif 0\n# textwindow \"close\"\n# serif 1\n# textwindow \"close\"\n# waitandnext 1\n\n# brightness 100 0.6 0\n# brightness 101 0.6 0\n# waitandnext 0.1\n\n# fillrect \"pink\" 0 0 0.2\n# alpha 101 1 0\n# move 100 1 0\n# mask 100 on\n# layer 100 4\n# face 100 \"normal\"\n# background \"arts_gym_daytime\"\n# imagerightout 0 0.5\n# serif 0\n# textwindow \"nomal\"\n# textflame 1 1\n# textboxarrow 0 3\n# chara 100111\n# face 101 \"angry\"\n@マサムネ\nさぁ！拙者から\n一本取ってみるがいい\n\n# textboxarrow 0 1\n# chara 102511\n# face 100 \"angry\"\n@ムラマサ\n…望むところ！！\n\n# se \"SE_5644\"\n# fadein \"white\" 0.5\n# waitandnext 0.1\n\n# fillrect \"pink\" 0 0 0.2\n# waitandnext 0.1\n\n# move 100 3 0.3\n# move 101 5 0.3\n# face 101 \"normal\"\n# textflame 0 0\n@\n間髪入れずにムラマサは\nマサムネに踏み込んだ…！\n\n# textflame 0 0\n@\nしかしマサムネは\n完全に読み切っていたかのように\n後ろに下がり竹刀をかわした…\n\n;;【指定】SE_4101\n# se \"SE_4101\"\n# fadein \"white\" 0.5\n# waitandnext 0.1\n\n# fillrect \"pink\" 0 0 0.2\n# waitandnext 0.1\n\n# move 100 1 0.2\n# move 101 3 0.3\n# face 100 \"sad\"\n# textflame 0 0\n@\nそして、目にも留まらぬ速さで\nムラマサの小手と面に竹刀を\n叩き込む！！\n\n# textflame 1 1\n# textboxarrow 0 1\n# chara 102511\n# voice 1025 \"muramasa_battle_0006\"\n@ムラマサ\nつぅぅぅ！！！\n\n# move 101 4 0.8\n# textboxarrow 0 3\n# chara 100111\n@マサムネ\n他愛もない…\nそなた、勝つ気があるのか？\n\n# textboxarrow 0 1\n# chara 102511\n# face 100 \"surprise\"\n@ムラマサ\nそれは…！\n\n# textboxarrow 0 3\n# chara 100111\n@マサムネ\nないな\nあるはずがない\nその剣のどこに勝ち気があった\n\n# textboxarrow 0 3\n# chara 100111\n@マサムネ\nそなたの剣は\n決して拙者には届かぬ\n届くはずがないのだ\n\n# textboxarrow 0 3\n# chara 100111\n# face 101 \"angry\"\n@マサムネ\nそれは、なにゆえか？\n\n# textboxarrow 0 1\n# chara 102511\n# face 100 \"angry\"\n@ムラマサ\nそれは…拙者が未熟ゆえ…！\n\n# textboxarrow 0 3\n# chara 100111\n# face 101 \"normal\"\n@マサムネ\n笑止…\n\n# textboxarrow 0 3\n# chara 100111\n@マサムネ\n…今のそなたでは\n絶対に拙者を越えることは\nできないと知れ\n\n# textboxarrow 0 3\n# chara 100111\n@マサムネ\nよし、拙者とお主で\n果し合いを行おう\n\n# textboxarrow 0 3\n# chara 100111\n@マサムネ\nその間、\n部活には顔を出さんでいい \n\n;;//回想終わり\n;;//背景 中庭に戻る\n# imagealpha 0 1 0\n# imagepos 0 0 30\n# imageleftin 0 0.5\n# serif 0\n# textwindow \"close\"\n# serif 1\n# textwindow \"close\"\n# waitandnext 1\n\n# brightness 100 1 0\n# brightness 101 1 0\n# waitandnext 0.1\n\n# fillrect \"pink\" 0 0.2 0\n# alpha 101 0 0\n# move 100 3 0\n# mask 100 off\n# face 100 \"sad\"\n# background \"courtyard\"\n# imagerightout 0 0.5\n# serif 0\n# textwindow \"nomal\"\n# textflame 0 0\n# chara 102511\n@マスター\nちょうどそんなことが…\n\n# textflame 1 1\n# textboxarrow 0 2\n# chara 102511\n# voice 1025 \"muramasa_0015\"\n@ムラマサ\n主君…急なこととは存じますが\nどうか一週間…\nよろしくお願いいたします…\n"
	}
]