[
	{
		"ID": 6010303,
		"script": ";;バトル終了\n;;森の中\n# script \"lisp\"\n# background \"forest\"\n# bgm \"bgm002\" 0\n# body 32\n# pos 32 3\n# mask 32 off\n# scale 32 0.8 0\n# textflame 1 1\n# textboxarrow 0 2\n# chara 32\n# face 32 \"usual\"\n@グリダヴォル\nあ、あれ…私…\nなんでこんなに\nすっきりしてるの…？\n\n# textboxarrow 0 2\n# chara 32\n# voice 6008 \"guridavoru_0028\"\n@グリダヴォル\nマスターに困ってることを話して、\nそれから…あれ？\n私、なにしたんだっけ？\n\n# textflame 0 0\n@\n異族を浄化したら、\nこれまでと同じように彼女もまた、\n前後の記憶を失っていた\n\n# serif 1\n# textboxarrow 1 2\n# chara 32\n# voice 6008 \"guridavoru_0004\"\n# face 32 \"normal\"\n@グリダヴォル\nまあ、いいや\nそれじゃ、そろそろ行くね？\n\n# serif 0\n# textboxarrow 0 0\n@マスター\nあ、待って\n牙克城学院ってどこか教えてくれない？\n\n# serif 1\n# textboxarrow 1 2\n# imageset 0 \"black\"\n# imagealpha 0 0 0\n# imagelayer 0 1\n# chara 32\n# face 32 \"usual\"\n@グリダヴォル\nそれなら…\n\n# serif 0\n# textwindow \"close\"\n# serif 1\n# textwindow \"close\"\n# imagealpha 0 1 0\n# imagepos 0 0 30\n# imageleftin 0 0.5\n\n;;牙克城学院校門前 ないので中庭\n# imagerightout 0 0.5\n# background \"courtyard\"\n# face 32 \"normal\"\n\n# serif 1\n# textflame 1 1\n# textwindow \"nomal\"\n# textboxarrow 1 2\n# chara 32\n@グリダヴォル\nはい、到着\nここが牙克城学院だよ\n私も通ってるの\n\n# serif 1\n# textboxarrow 1 2\n# chara 32\n# voice 6008 \"guridavoru_0005\"\n# face 32 \"happy\"\n@グリダヴォル\n困ったことがあったら\nいつでも言ってね\nどんなことでも力になるから！\n\n# serif 1\n# textboxarrow 1 2\n# chara 32\n# face 32 \"normal\"\n@グリダヴォル\nなんだったら、\n話を聞くだけでも\n助けになることもあると思うしね！\n\n# serif 0\n# textflame 0 0\n# textwindow \"nomal\"\n# textboxarrow 0 0\n@マスター\n…………\n\n# serif 1\n# textboxarrow 1 2\n# chara 32\n# voice 6008 \"guridavoru_0031\"\n# face 32 \"surprise\"\n@グリダヴォル\nあ、ご、ごめん\n余計なお世話だったよね\n私のバカ…\n\n# serif 0\n# textboxarrow 0 0\n@マスター\n待って、今のは違うんだ！\nこの前、迷惑かけちゃった人のことを\n思い出しただけで…\n\n# serif 0\n# textboxarrow 0 0\n@マスター\n僕は余計なお世話だなんて思わないよ\nすごくうれしかった\n\n# serif 1\n# textboxarrow 1 2\n# chara 32\n# voice 6008 \"guridavoru_0008\"\n# face 32 \"sad\"\n@グリダヴォル\nでも、怒る人もいるよ…？\n実際、何度も怒られたし…\n\n# serif 0\n# textboxarrow 0 0\n@マスター\nそれは素直に\nなれなかっただけじゃないかな\n\n# serif 0\n# textboxarrow 0 0\n@マスター\n困っている時、\n助けてくれる人がいたら、\nそれは絶対にうれしいよ\n\n# serif 0\n# textboxarrow 0 0\n@マスター\n…そうか\nあの時、ヤグルシの言葉は\n本当に本心だったんだ…\n\n# serif 1\n# textboxarrow 1 2\n# chara 32\n# voice 6008 \"guridavoru_0008\"\n# face 32 \"usual\"\n@グリダヴォル\nそんなふうに言ってくれる人、\n今まで一人もいなかった…\n\n# serif 1\n# textboxarrow 1 2\n# chara 32\n# voice 6008 \"guridavoru_0030\"\n# face 32 \"happy\"\n@グリダヴォル\nありがとう、マスター！\nすごくうれしい！\n\n# serif 0\n# textboxarrow 0 0\n@マスター\n僕の方こそだよ\nグリダヴォルのおかげで気づけたし\n\n# serif 0\n# textboxarrow 0 0\n@マスター\nなにより、\nそんな素敵な笑顔を見せてくれて\n\n# serif 1\n# textboxarrow 1 2\n# chara 32\n# voice 6008 \"guridavoru_0022\"\n# face 32 \"shy\"\n@グリダヴォル\n素敵…って、\nな、なに言ってるかな、\nマスターってば！？\n\n# serif 1\n# textboxarrow 1 2\n# chara 32\n# face 32 \"surprise\"\n@グリダヴォル\nあ、ああーっ！\nあっちに困ってる人が\nいるような気がするー！\n\n# serif 1\n# textboxarrow 1 2\n# chara 32\n# face 32 \"shy\"\n@グリダヴォル\nそ、そういうことだからっ！\nバイバイ、マスター！！\n\n;;グリダヴォル消す\n# textboxarrow 1 0\n# alpha 32 0 0.5\n# leftout 32 0.5\n\n# textflame 0 0\n@\n真っ赤になったグリダヴォル\n驚くほど棒読みで告げ、\n明後日の方向へ駆け出していった\n"
	}
]