[
	{
		"ID": 6010001,
		"script": "# script \"lisp\"\n# background \"courtyard\"\n# bgm \"bgm002\" 0\n# fadein \"white\" 3\n# textsize 35\n# textflame 0 0\n@\n　　　新イベント\n　ファンキル学園　開催！\n\n# body 32\n# pos 32 2\n# rightin 32 0.5\n# scale 32 0.8 0\n# body 31\n# pos 31 4\n# leftin 31 0.5\n# scale 31 0.8 0 \n# textsize 24\n# fadein \"white\" 0.5\n@\n今回の主役は\n「グリダヴォル」と「ヤグルシ」！\n\n# background \"classroom01\"\n# fadein \"white\" 0.5\n# move 32 3 0\n# mask 32 off\n# alpha 31 0 0\n# textsize 50\n@\n　　 学校で！\n\n# background \"seahouse\"\n# fadein \"white\" 0.5\n# body 201751\n# pos 201751 3\n# mask 201751 off\n# scale 201751 0.8 0\n# alpha 32 0 0\n@\n　　　海で！？\n\n# fadein \"black\" 1\n# alpha 201751 0 0\n# body 810004\n# pos 810004 3\n# scale 810004 0.8 0\n# mask 810004 off\n# brightness 810004 0.2 0\n# shakeloop 0\n# textsize 30\n@\n人々の心に潜む\n“異族”を倒せ！\n\n# fadein \"white\" 0.5\n# background \"beach\"\n# mask 201751 on\n# move 201751 4 0\n# face 201751 \"happy\"\n# alpha 201751 1 0\n# body 600851\n# pos 600851 2\n# scale 600851 0.8 0\n# alpha 810004 0 0\n# face 600851 \"happy\"\n# imageset 0 \"school_logo\"\n# imagealpha 0 0 0\n# textsize 24\n# shakestop\n@\nステージをクリアして\n水着になった「ヤグルシ」を\n仲間に入れよう！\n\n# imagealpha 0 1 0\n# imagepos 0 0 0 \n# fadein \"white\" 3\n# textwindow \"close\"\n\n# textwindow \"nomal\"\n# textflame 0 0\n@\n　　　「イベントクエスト」内\n　　　「ファンキル学園!」から\n　　　　　　今すぐ挑戦!\n"
	}
]