[
	{
		"ID": 60113202,
		"script": ";;【EP2】\n# script \"lisp\"\n# background \"town\"\n# bgm \"bgm002\" 0\n# body 601131\n# mask 601131 off\n# pos 601131 3\n# voice 6011 \"vanargand_0010\"\n# textflame 1 1\n# textboxarrow 0 2\n# face 601131 \"angry\"\n@ヴァナルガンド\n飲んれますか、マスターさん！？\n\n# textflame 0 0\n@\nは…はい、頂いてます\n\n# textflame 0 0\n@\n怯えつつ返事をするマスター\n\n# textflame 1 1\n# textboxarrow 0 2\n# face 601131 \"normal\"\n@ヴァナルガンド\nほんとれすか～？\n\n@ヴァナルガンド\n『女の酒を断る男は、\nオオカミに喰われて死んじまえ』\nって言うれしょ！？\n\n# textflame 0 0\n@\n…と、\n右手の爪を見せてくる彼女\n\n# textflame 0 0\n@\nいや、聞いたことないけど…\n心の中でしか呟けないマスター\n\n# textflame 1 1\n# textboxarrow 0 2\n# face 601131 \"angry\"\n@ヴァナルガンド\n言っときますけどね～！\nわたしはね～！\nわたしはね～…\n\n# face 601131 \"normal\"\n@ヴァナルガンド\nわ…わたしは…\n\n# voice 6011 \"vanargand_0015\"\n# face 601131 \"sad\"\n@ヴァナルガンド\nう…うぅぅぅ…\n\n# textflame 0 0\n@\nえぇっ！今度は泣き出した！？\n\n# select \"だ…大丈夫？\" \"select_label_01\" \"泣き上戸…なの？\" \"select_label_02\" \"な、なにが…あったの？\" \"select_label_03\"\nえぇっ！今度は泣き出した！？\n\n# label \"select_label_01\"\n# labeljump \"select_label_end\"\n# textflame 1 1\n# textboxarrow 0 2\n# chara 601131\n@ヴァナルガンド\nだ、だ、だいじょばないですぅ…\n\n# label \"select_label_02\"\n# labeljump \"select_label_end\"\n# textflame 1 1\n# textboxarrow 0 2\n# chara 601131\n@ヴァナルガンド\nな、泣いてなんかいません…！\n\n# label \"select_label_03\"\n# labeljump \"select_label_end\"\n# textflame 1 1\n# textboxarrow 0 2\n# chara 601131\n@ヴァナルガンド\nき、き、聞いてくれますか…？\n\n# label \"select_label_end\"\n# textflame 1 1\n# textboxarrow 0 2\n@ヴァナルガンド\nわたし…\nマスターさんに\n言いたいことが…\n\n# voice 6011 \"vanargand_0016\"\n@ヴァナルガンド\nずっと言いたかったのに…\n言えなかったこと…\nあるんですぅ～うぅぅぅ！\n\n# textflame 0 0\n@\n酔いも手伝い、\n号泣しながら\n訴えるヴァナルガンド\n\n# textflame 0 0\n@\nそれしても…\n彼女の“言いたいこと”って…？\n妙に気になってしまうマスターだった\n\n# textflame 1 1\n# textboxarrow 0 2\n# voice 6011 \"vanargand_0026\"\n@ヴァナルガンド\nうぅぅぅぅ…"
	}
]