[
	{
		"ID": 60111103,
		"script": "# script \"lisp\"\n# background \"foot_mountain_village\"\n# bgm \"bgm004\" 0\n# body 601111\n# mask 601111 off\n# pos 601111 3\n# textboxarrow 0 2\n# voice 6011 \"vanargand_0015\"\n# face 601111 \"amazed\"\n# textflame 1 1\n# chara 601111\n@ヴァナルガンド\nうぅ…どうすればいいのぉ～\n\n# textflame 0 0\n@\n崖下でうずくまるマスターを見つめ、\n頭を抱える彼女\n\n# textflame 1 1\n# chara 601111\n@ヴァナルガンド\nそれにしてもマスターさん、\nどうしてそんな所に…\n\n# voice 6011 \"vanargand_kyara_1007\"\n# face 601111 \"surprise\"\n# textflame 1 1\n# chara 601111\n@ヴァナルガンド\n…！\nあ…それは…\n\n# textflame 0 0\n@\n見ると、\nマスターが抱えていたのは\n小さな鳥のヒナ\n\n# textflame 1 1\n# chara 601111\n@ヴァナルガンド\nその子を助けようと…\nわざわざ、そんな所まで…？\n\n# face 601111 \"angry2\"\n# textflame 1 1\n# chara 601111\n@ヴァナルガンド\nわたし、言いましたよね？\n勝手な単独行動はダメだって\n\n# face 601111 \"amazed\"\n# textflame 1 1\n# chara 601111\n@ヴァナルガンド\nけど…\n\n# bgm \"stop\"\n# voice 6011 \"vanargand_0015\"\n# textflame 1 1\n# chara 601111\n@ヴァナルガンド\n…うぅぅぅ…\n\n# voice 6011 \"vanargand_unit_0009\"\n# face 601111 \"angry\"\n# textflame 1 1\n# textwindow \"toge\"\n# textsize 32\n# chara 601111\n@ヴァナルガンド\nわお～ん！！\n\n# bgm \"bgm001\" 0\n# textwindow \"nomal\"\n# textsize 24\n# textflame 0 0\n@\n突如響き渡る彼女の遠吠え\n\n# textflame 1 1\n# chara 601111\n@ヴァナルガンド\nその優しさ…感動しました！！\nヒナちゃんともども、\n絶対に…助けてみせます！！\n\n# voice 6011 \"vanargand_battle_0004\"\n# textflame 1 1\n# chara 601111\n@ヴァナルガンド\nたぁぁぁぁぁーっ！！\n\n# textflame 0 0\n@\n杖に置かれた右腕から巻き起こる\n巨大なオーラ\n\n# textflame 1 1\n# chara 601111\n@ヴァナルガンド\n届け！\nわたしの力～～～っ！！\n\n# textflame 0 0\n@\nそれは、まさに奇跡\n爪痕のような形の氷に乗り、\nマスターは彼女の元へと運ばれてきた\n\n# se \"SE_0602\"\n# face 601111 \"normal\"\n# textflame 1 1\n# chara 601111\n@ヴァナルガンド\nできました、マスターさん！\nわたしの新奥義\n『フェンリルクロー』です！！\n\n# textflame 0 0\n@\nそれはまさしく\n彼女が新たなるスキルに\n目覚めた瞬間だった\n\n# select \"君の言った通りだったね…\" \"select_label_01\" \"ありがとう…助かったよ…\" \"select_label_02\" \"勝手なことしてゴメンね\" \"select_label_03\"\nそれはまさしく\n彼女が新たなるスキルに\n目覚めた瞬間だった\n\n# label \"select_label_01\"\n# labeljump \"select_label_end\"\n# face 601111 \"angry2\"\n# textflame 1 1\n# chara 601111\n@ヴァナルガンド\nそうですよ、マスターさん\n\n# label \"select_label_02\"\n# labeljump \"select_label_end\"\n# face 601111 \"angry2\"\n# textflame 1 1\n# chara 601111\n@ヴァナルガンド\nもう、わたしが来たから良かったけど\n\n# label \"select_label_03\"\n# labeljump \"select_label_end\"\n# face 601111 \"angry2\"\n# textflame 1 1\n# chara 601111\n@ヴァナルガンド\nホントにしょうがない\nマスターさんですね\n\n# voice 6011 \"vanargand_event_1006\"\n# face 601111 \"usual\"\n# label \"select_label_end\"\n# textflame 1 1\n# chara 601111\n@ヴァナルガンド\nでも、わたしもしちゃいました\n\n# textflame 1 1\n# chara 601111\n@ヴァナルガンド\n勝手な単独行動\n\n# face 601111 \"smile\"\n# textflame 1 1\n# chara 601111\n@ヴァナルガンド\nこんなこと初めてです\n\n# textflame 1 1\n# chara 601111\n@ヴァナルガンド\nでも、それは…\nマスターさんを助けたかったから\n\n# textflame 0 0\n@\n彼女が微笑む\n\n# voice 6011 \"vanargand_0022\"\n# face 601111 \"surprise\"\n# textflame 1 1\n# chara 601111\n@ヴァナルガンド\nえ？\nマスターさんのいた場所ですか？\n聞こえたんです、マスターさんの声が\n\n# face 601111 \"usual\"\n# textflame 1 1\n# chara 601111\n@ヴァナルガンド\nわたし…耳いいんですよ？\n\n# face 601111 \"angry2\"\n# textflame 1 1\n# chara 601111\n@ヴァナルガンド\nもぅ、これは耳じゃありません\n髪の毛です！\n\n# voice 6011 \"vanargand_kyara_2011\"\n# textflame 1 1\n# chara 601111\n@ヴァナルガンド\nなんでも入る\n秘密のポケットです～\n\n# face 601111 \"normal\"\n# textflame 1 1\n# chara 601111\n@ヴァナルガンド\nほら？\n\n# textflame 0 0\n@\nそこから、そっと\n絆創膏を取り出して見せる彼女\n\n# face 601111 \"smile\"\n# textflame 1 1\n# chara 601111\n@ヴァナルガンド\nマスターさんがどこにいても…\n困った時は呼んでくださいね\n\n# voice 6011 \"vanargand_0004\"\n# imageset 0 \"c601111\"\n# imagealpha 0 0 0\n# textflame 1 1\n# chara 601111\n@ヴァナルガンド、\nどこにいても…\n必ず助けてあげますから\n\n# imagealpha 0 1 0\n# imagepos 0 0 0 \n# fadein \"white\" 3\n# voice 6011 \"vanargand_kyara_0027\"\n# textwindow \"close\"\n\n# textwindow \"nomal\"\n# textflame 0 0\n@\nそう言って、\nにっこり笑った彼女の瞳は\nとても優しかった"
	}
]