[
	{
		"ID": 6011043,
		"script": ";;//４章バトル終了\n# script \"lisp\"\n# background \"sea_stream_day\"\n# bgm \"bgm003\" 0\n# body 126\n# pos 126 3\n# scale 126 0.8 0\n# alpha 126 0 0\n# body 81\n# pos 81 3\n# scale 81 0.8 0\n# alpha 81 0 0\n# pos 202021 3\n# scale 202021 0.8 0\n# alpha 202021 0 0\n# pos 400561 5\n# scale 400561 0.8 0\n# alpha 400561 0 0\n# pos 300241 1\n# scale 300241 0.8 0\n# alpha 300241 0 0\n;;# body 80\n;;# pos 80 3\n;;# scale 80 0.8 0\n# layer 126 5\n# layer 81 4\n# layer 400561 3\n# layer 300241 2\n# layer 202021 1\n# face 300241 \"usual\"\n# face 126 \"surprise\"\n;;芭蕉扇ボイス用\n# body 500861\n# alpha 500861 0 0\n;;フライクーゲルボイス用\n# body 500271\n# alpha 500271 0 0\n# serif 0\n# textwindow \"close\"\n# serif 1\n# textwindow \"normal\"\n# textboxarrow 1 0\n@ラグ女生\nあれ…私、いまなにを…？\n\n# serif 1\n# textboxarrow 1 0\n@ラグ女生\nそ、そうだ！\nみんなと仲直りしなくちゃ！\nせっかくみんなと組んだんだもん…\n\n# serif 1\n# textboxarrow 1 0\n@ラグ女生\n同じ班なんだもん、\n友達の意見も尊重しなくちゃ！\n私が合わせることも大切だよね！\n\n;;//ラグ女生out\n# se \"SE_0740\"\n# serif 1\n# textwindow \"close\"\n# serif 0\n# textwindow \"normal\"\n;;# alpha 80 0 0.5\n# alpha 126 1 0.5\n# textflame 1 1\n# textboxarrow 0 2\n# chara 126\n@フライクーゲル\n今の子、友達のことを…\n\n# textflame 0 0\n@マスター\n歩み寄ることって大切だもんね\n今から始めても遅くはないよ\n班のみんなと友達になろう\n\n# face 126 \"shy\"\n# textflame 1 1\n# textboxarrow 0 2\n# chara 126\n# voice 50027 \"furaikugeru_0040\"\n@フライクーゲル\nマスター…\nそうだね、フレンズになるには、\n自分から歩み寄らなきゃだね！\n\n# face 126 \"normal\"\n# textflame 1 1\n# textboxarrow 0 2\n# chara 126\n# voice 50027 \"furaikugeru_0030\"\n@フライクーゲル\nサンクスマスター！\nわたし、がんばってみるね☆\n\n;;//時間経過を示す暗転\n# fadeout \"black\" 1.5\n# waitandnext 2\n\n# move 126 3 0\n# alpha 400561 1 0\n# alpha 300241 1 0\n# face 400561 \"usual\"\n# face 126 \"happy\"\n# waitandnext 0.1\n\n# bgm \"bgm002\" 0\n# fadein \"black\" 1\n# textflame 1 1\n# textboxarrow 0 2\n# chara 126\n# voice 50027 \"furaikugeru_0005\"\n@フライクーゲル\nあのキャンサーはとっても\nクールなシザースだね、与一！\nチョキチョキとキュートだよ！\n\n# face 400561 \"happy\"\n# textflame 1 1\n# textboxarrow 0 3\n# chara 400561\n# voice 40056 \"yoichi_0032\"\n@与一\nそ、そうですねっ\nとってもかわいいです…！\n\n# face 126 \"normal\"\n# textflame 1 1\n# textboxarrow 0 2\n# chara 126\n# voice 50027 \"furaikugeru_0003\"\n@フライクーゲル\nトライデントはなにを\n描いてるのかなー？\n\n# face 300241 \"happy\"\n# textflame 1 1\n# textboxarrow 0 1\n# chara 300241\n# voice 30024 \"toraidento_0020\"\n@トライデント\n私はあの川の流れだよー\nあー…やっぱり水はいいよね～\n\n# face 126 \"happy\"\n# textflame 1 1\n# textboxarrow 0 2\n# chara 126\n# voice 50027 \"furaikugeru_0039\"\n@フライクーゲル\nベリィビューティホーだよね☆\nわたしも大好きだよ！\n\n# face 81 \"angry\"\n# textflame 1 1\n# textboxarrow 0 2\n# chara 126\n# voice 50027 \"furaikugeru_0001\"\n@フライクーゲル\nマスターも一緒に描こう！\nビューティホーな絵にしようよ！\n\n# emotionbody 1081 6 81 -50 180\n# effectpattern 1081 2 0\n# effectstart 1081\n# alpha 126 0 0.5\n# alpha 400561 0 0.5\n# alpha 300241 0 0.5\n# alpha 81 1 0.5\n# textflame 1 1\n# textboxarrow 0 2\n# chara 81\n# voice 50086 \"bashosen_0013\"\n@芭蕉扇\nちょっとフライクーゲル！\n旦那様の隣は私の場所なんだから！\n\n# effectskip 1081\n# move 126 4 0\n# face 126 \"surprise\"\n# waitandnext 0.1\n\n# emotionbody 5002 2 126 0 250\n# effectpattern 5002 1 0\n# effectstart 5002\n# move 81 2 0.5\n# alpha 126 1 0.5\n# textflame 1 1\n# textboxarrow 0 3\n# chara 126\n# voice 50027 \"furaikugeru_0023\"\n@フライクーゲル\nワッツ？\nそんなこといつ決まったの？\n\n# effectskip 5002\n# face 202021 \"usual\"\n# textflame 1 1\n# textboxarrow 0 1\n# chara 81\n@芭蕉扇\nずーっと前からっ！\n\n# alpha 202021 1 0.5\n# move 81 1 0.5\n# move 126 5 0.5\n# textflame 1 1\n# textboxarrow 0 2\n# chara 202021\n# voice 20202 \"harpe_0004\"\n@ハルパー\nまあまあふたりとも、\nそういうのは勝負で決めましょう\n\n# textflame 1 1\n# textboxarrow 0 2\n# chara 202021\n@ハルパー\nせっかくの写生大会なのですから、\n絵の勝負で…ね？\n\n# emotionbody 5012 2 126 0 250\n# effectpattern 5012 1 0\n# effectstart 5012\n# textflame 1 1\n# textboxarrow 0 3\n# chara 126\n@フライクーゲル\nバトル？\n\n# effectskip 5012\n# face 81 \"normal\"\n# textflame 1 1\n# textboxarrow 0 1\n# chara 81\n@芭蕉扇\nはっ！？\nそ、それなら旦那様を描きたいわ！\nいつもの学園で、いつもの旦那様を！\n\n# textflame 1 1\n# textboxarrow 0 2\n# chara 202021\n# voice 20202 \"harpe_0032\"\n@ハルパー\nそれで構いません\nいいですね、フライクーゲルさん？\n\n# face 126 \"normal\"\n# textflame 1 1\n# textboxarrow 0 3\n# chara 126\n# voice 50027 \"furaikugeru_0032\"\n@フライクーゲル\nオールオッケー！\n\n# face 202021 \"happy\"\n# textflame 1 1\n# textboxarrow 0 2\n# chara 202021\n# voice 20202 \"harpe_0005\"\n@ハルパー\nふふふ…\nそれでは学園へ…！\n;;//４章終了\n"
	}
]