[
	{
		"ID": 6011033,
		"script": ";;//３話バトル終了\n# script \"lisp\"\n# background \"stairs_day\"\n# bgm \"bgm002\" 0\n# pos 202021 3\n# scale 202021 0.8 0\n# pos 400561 5\n# scale 400561 0.8 0\n# alpha 400561 0 0\n# pos 300241 1\n# scale 300241 0.8 0\n# alpha 300241 0 0\n# layer 202021 5\n# layer 400561 4\n# layer 300241 3\n# face 202021 \"usual\"\n# face 400561 \"surprise\"\n# face 300241 \"usual\"\n# serif 0\n# textwindow \"close\"\n# serif 1\n# textwindow \"normal\"\n# textboxarrow 1 0\n@ラグ女生\nす、すみませんでした…！\n\n;;//ラグ女生out\n# se \"SE_0740\"\n# serif 1\n# textwindow \"close\"\n# serif 0\n# textwindow \"normal\"\n# textflame 1 1\n# textboxarrow 0 2\n# chara 202021\n# voice 20202 \"harpe_0022\"\n@ハルパー\nあら、あなた達…\n\n# alpha 400561 1 0.5\n# alpha 300241 1 0.5\n# textflame 1 1\n# textboxarrow 0 3\n# chara 400561\n@与一\nえ、えっと…今のって…\n\n# face 202021 \"sad\"\n# textflame 1 1\n# textboxarrow 0 2\n# chara 202021\n@ハルパー\n…実はあの子の彼氏からも\n相談を受けていたんです\n\n# face 202021 \"happy\"\n# textflame 1 1\n# textboxarrow 0 2\n# chara 202021\n# voice 20202 \"harpe_0020\"\n@ハルパー\nですから、しっかりと\n喧嘩両成敗したってわけです\n彼氏のほうにも、それはもう…\n\n# face 400561 \"sad\"\n# emotionbody 4005 9 400561 -60 100\n# effectpattern 4005 6 0\n# effectstart 4005\n# textflame 1 1\n# textboxarrow 0 3\n# chara 400561\n# voice 40056 \"yoichi_0024\"\n@与一\nこ、怖くて\nそれ以上は聞けません…\n\n# face 202021 \"usual\"\n# effectskip 4005\n# textflame 1 1\n# textboxarrow 0 2\n# chara 202021\n@ハルパー\nそれで、みなさん揃って\nどうされたんですか？\n\n# face 300241 \"surprise\"\n# face 400561 \"usual\"\n# textflame 1 1\n# textboxarrow 0 1\n# chara 300241\n@トライデント\nあ、そうだった！\nマスターがフライクーゲルのことで\n相談があるんだって！\n\n# textflame 1 1\n# textboxarrow 0 2\n# chara 202021\n@ハルパー\nフライクーゲルさんのことで？\nそう…やっぱり\n最近、様子がおかしかったから\n\n# face 202021 \"happy\"\n# textflame 1 1\n# textboxarrow 0 2\n# chara 202021\n# voice 20202 \"harpe_0004\"\n@ハルパー\n…ふふっ\n任せてください\n私の策で見事解決に導いてあげます\n\n# face 202021 \"normal\"\n# textflame 1 1\n# textboxarrow 0 2\n# chara 202021\n# voice 20202 \"harpe_0028\"\n@ハルパー\nさて、どうすれば…\nこのエセモテ男を…\n\n# textflame 0 0\n@マスター\nエセモテ男って…\n;;//３章終了"
	}
]