[
	{
		"ID": 60113201,
		"script": ";;【ヴァナルガンド】\n;;スキル効果　EP3：デュエルスキル　EP4：バフスキル\n;;【EP1】\n# script \"lisp\"\n# background \"town\"\n# bgm \"bgm002\" 0\n# body 601131\n# mask 601131 off\n# pos 601131 3\n# alpha 601131 0 0\n# textflame 0 0\n@\n年明け─\n\n# textflame 0 0\n@\nささやかながら宴を開く\nマスターの隊\n\n# textflame 0 0\n@\nおいしい食事にお酒、\n盛り上がる姫たちを\n笑顔で見守るマスター\n\n# alpha 601131 1 1\n# textflame 1 1\n# textboxarrow 0 2\n# voice 6011 \"vanargand_0005\"\n# face 601131 \"usual\"\n@ヴァナルガンド\nうふふ、マスター\nお隣、いいですか？\n\n# textflame 0 0\n@\n…と、座ってきたのは、\nヴァナルガンドだ\n\n# textflame 0 0\n@\n去年はありがとう、\n今年もよろしくね\n\n# textflame 1 1\n# textboxarrow 0 2\n@ヴァナルガンド\nこちらこそです\n去年一年\n色んなことがあったけど…\n\n# voice 6011 \"vanargand_0003\"\n@ヴァナルガンド\n今年も、いい年にしましょうね\n\n# textflame 0 0\n@\nにこやかに話す彼女に、\nマスターが尋ねる\n\n# textflame 1 1\n# textboxarrow 0 2\n# voice 6011 \"vanargand_0022\"\n@ヴァナルガンド\n…え？お酒…ですか？\nはい、頂いてませんけど\n\n# textflame 0 0\n@\nまぁ新年くらいは\nそう言って、お酌するマスター\n\n# textflame 1 1\n# textboxarrow 0 2\n# voice 6011 \"vanargand_0004\"\n@ヴァナルガンド\nうふ、じゃあ一杯だけ\n\n# textflame 0 0\n@\n…と、盃を口に運ぶ彼女\n\n;;トゲトゲ吹き出し\n# serif 1\n# textwindow \"toge\"\n# textboxarrow 1 0\n@\nあっ！\nダメッ！！\n\n# serif 0\n# textwindow \"nomal\"\n# textflame 0 0\n@\n…え？\n\n# serif 1\n# textwindow \"close\"\n# serif 0\n# textwindow \"nomal\"\n# textflame 0 0\n@\n他の姫たちが叫ぶのも遅く、\nヴァナルガンドは…\n\n# textflame 1 1\n# textboxarrow 0 2\n# face 601131 \"sad\"\n@ヴァナルガンド\n…ごくっ\n\n# textflame 0 0\n@\nなんでダメなの…？\nねぇ、ヴァナルガンド\n\n# textflame 0 0\n@\nマスターが彼女に尋ねる\n\n# textflame 1 1\n# textboxarrow 0 2\n# voice 6011 \"vanargand_0009\"\n# face 601131 \"shy\"\n@ヴァナルガンド\n…あぁん？\n\n# textflame 0 0\n@\n…あれ？\nちょっと…\n目が座って…\n\n# textflame 1 1\n# textboxarrow 0 2\n# face 601131 \"angry\"\n@ヴァナルガンド\nなんれすって～！？\n\n# textflame 0 0\n@\n顔面真っ赤！！\nもう酔っ払ったの！？\n\n# textflame 1 1\n# textboxarrow 0 2\n# voice 6011 \"vanargand_0042\"\n@ヴァナルガンド\nうるさぁ～い！！マスターさん、\nそこに座って、\nわたしの話を聞きなはいっ！！\n\n# textflame 0 0\n@\nもしかしてヴァナルガンドって…\n酒乱！？\n\n# textflame 0 0\n@\n緊張感が走るマスターだった"
	}
]