[
	{
		"ID": 60201202,
		"script": ";;【EP2】(ウケ)\n# script \"lisp\"\n# background \"forest\"\n# bgm \"bgm002\" 0\n# body 602011\n# pos 602011 3\n# mask 602011 off\n# textflame 1 1\n# textboxarrow 0 2\n# chara 602011\n# voice 6020 \"ness_0004\"\n# face 602011 \"happy\"\n@ネス\n見て下さい、マスター\n\n# textboxarrow 0 2\n# chara 602011\n@ネス\n山菜やキノコがこんなにも採れました\n来た甲斐がありましたね\n\n# textflame 0 0\n@\nネスは野菜が好きなの？\nベジタリアンかな？\nとマスターが尋ねる\n\n# textflame 1 1\n# textboxarrow 0 2\n# chara 602011\n# face 602011 \"normal\"\n@ネス\n野菜と言うより\n体に良いものが好きなんです\n\n# textboxarrow 0 2\n# chara 602011\n@ネス\n甘いものや脂っこいものは\n体に毒ですからね\n\n# textflame 0 0\n@\nなるほど\nお金だけでなく\n食事の節制も心掛けているのか\n\n# textflame 1 1\n# textboxarrow 0 2\n# chara 602011\n# face 602011 \"happy\"\n@ネス\nあっ！果物！！\nラッキ～♪\n\n# textflame 0 0\n@\n…と、嬉しそうに、木からもぎ取る\n\n# textflame 0 0\n@\nあれ？甘いものは体に毒って…？\n\n# textflame 1 1\n# textboxarrow 0 2\n# chara 602011\n# face 602011 \"surprise\"\n@ネス\n…はっ！\n\n# textboxarrow 0 2\n# chara 602011\n# face 602011 \"worry\"\n@ネス\nいや、その…\n\n# textboxarrow 0 2\n# chara 602011\n@ネス\nた、食べ過ぎは良くないですが\nエネルギー確保のため\n糖分の適度な摂取は必要です！\n\n# textboxarrow 0 2\n# chara 602011\n@ネス\n欲に負け\nすぐ食べるなんてはしたない真似\nするわけないじゃないですか！\n\n# textboxarrow 0 2\n# chara 602011\n@ネス\n必要な分を取っておこうと\n思っただけですから！！\n\n# textflame 0 0\n@\n…と、焦り気味に話しながら\n袋に果実を詰め込んでいく\n\n# textflame 0 0\n@\nその様子を\nジーッっと見つめている\nマスター\n\n# textflame 1 1\n# textboxarrow 0 2\n# chara 602011\n@ネス\nなんですか！？\n疑ってるんですか！？\n\n# textflame 0 0\n@\nいや\nそこまで厳しく徹底できるなんて\n偉いな～と思って\n\n# textflame 1 1\n# textboxarrow 0 2\n# chara 602011\n# face 602011 \"sad\"\n@ネス\n…………\n\n# textboxarrow 0 2\n# chara 602011\n@ネス\nちょっと…\n厳し過ぎだと思いますか…？\n\n# textflame 0 0\n@\n彼女が不安な顔を見せた\n\n# select \"そんな事ないと思うよ\" \"select_label_01\" \"厳しいと感じる人もいるかもね…\" \"select_label_02\" \"感じ方は人それぞれだと思うよ\" \"select_label_03\"\n彼女が不安な顔を見せた\n\n# label \"select_label_01\"\n# labeljump \"select_label_end\"\n# textflame 1 1\n# textboxarrow 0 2\n# chara 602011\n@ネス\n…本当ですか？\n\n# label \"select_label_02\"\n# labeljump \"select_label_end\"\n# textflame 1 1\n# textboxarrow 0 2\n# chara 602011\n@ネス\nやはり…そうですよね\n\n# label \"select_label_03\"\n# labeljump \"select_label_end\"\n# textflame 1 1\n# textboxarrow 0 2\n# chara 602011\n@ネス\n少なからず…厳しいと思う人も…\n\n# label \"select_label_end\"\n# textboxarrow 0 2\n# chara 602011\n# face 602011 \"normal\"\n@ネス\nわたしに内包される『七元徳』が\nいくら節制とは言え…\n\n# textboxarrow 0 2\n# chara 602011\n# face 602011 \"sad\"\n@ネス\n正直…少し気にはしているんです\n\n# textboxarrow 0 2\n# chara 602011\n@ネス\n節制を強要し過ぎて\nみんなから疎ましく\n思われてるんじゃないかって…\n\n# textflame 0 0\n@\n俯く彼女にマスターが答える\n\n# textflame 0 0\n@\n君の節制が役に立ってると\nみんなが思える日が必ず来るよ\n\n# textflame 1 1\n# textboxarrow 0 2\n# chara 602011\n# textboxarrow 0 2\n# chara 602011\n# face 602011 \"normal\"\n@ネス\n…だといいですね\n\n# textflame 0 0\n@\n微笑んで見せたが\n彼女は明らかに\n少し無理をしていた"
	}
]