[
	{
		"ID": 60233201,
		"script": ";;さくら【EP1】（２月中旬）\n# script \"lisp\"\n# background \"corridor_daytime\"\n# bgm \"bgm002\" 0\n# body 145\n# pos 145 3\n# layer 145 1\n# mask 145 off\n# body 146\n# pos 146 4\n# layer 146 2\n# imageset 2 \"e180201_2\"\n# imagealpha 2 0 0\n# imagelayer 2 3\n# imagescale 2 0.8 0\n# face 145 \"surprise\"\n;;さくらボイス用\n# body 602331\n# alpha 602331 0 0\n# textflame 1 1\n# textboxarrow 0 2\n# chara 145\n@さくら\n演劇祭！？\n\n# imagepos 2 90 -180\n# textflame 1 1\n# textboxarrow 0 3\n# chara 146\n# voice 9966 \"cckero_g_0032\"\n@ケロちゃん\nそうや、なんか今度、\n全学園合同でやるみたいやで\n\n# face 145 \"happy\"\n# textflame 1 1\n# textboxarrow 0 2\n# chara 145\n# voice 60233 \"ccsakura_g_0041\"\n@さくら\nへ～！観たい、観たい！\n絶対、観たい！\n今から楽しみだよ！\n\n# textflame 0 0\n@\nキラキラと目を輝かせるさくら\n\n# textflame 1 1\n# textboxarrow 0 3\n# chara 146\n# voice 9966 \"cckero_g_0028\"\n@ケロちゃん\nいや、それがな…\n\n# face 145 \"surprise\"\n# textflame 1 1\n# textboxarrow 0 2\n# chara 145\n# voice 60233 \"ccsakura_g_0022\"\n@さくら\nん？どうしたの、ケロちゃん？\n\n# textflame 1 1\n# textboxarrow 0 3\n# chara 146\n@ケロちゃん\nそんなのん気なこと、\n言うてる場合やないみたいやで？\n\n# textflame 1 1\n# textboxarrow 0 2\n# chara 145\n# voice 60233 \"ccsakura_g_0028\"\n@さくら\nえ？どういうこと？\n\n# textflame 1 1\n# textboxarrow 0 3\n# chara 146\n@ケロちゃん\nちょっと覗きに行ってみるか\n\n# face 145 \"normal\"\n# imageset 0 \"black\"\n# imagealpha 0 0 0\n# imagelayer 0 1\n# textflame 1 1\n# textboxarrow 0 2\n# chara 145\n@さくら\nうん！\n\n;;――場面転換――\n# imagealpha 0 1 0\n# imagepos 0 0 30\n# imageleftin 0 0.5\n# serif 0\n# textwindow \"close\"\n# serif 1\n# textwindow \"close\"\n# waitandnext 1\n\n# background \"classroom03_morning\"\n# alpha 145 0 0\n# alpha 146 0 0\n# move 145 2 0\n# waitandnext 0.6\n\n# imagealpha 0 0 0.5\n# imagerightout 0 0.5\n# serif 0\n# textwindow \"normal\" \n# textflame 0 0\n@\n演劇祭の実行委員会を訪ねるさくら\n\n# move 145 3 0.5\n# alpha 145 1 0.5\n# textflame 1 1\n# textboxarrow 0 2\n# chara 145\n@さくら\nお邪魔しま～す\n\n# textflame 0 0\n@\nそこでは…\n\n# textflame 0 0\n@\n「私が主役に決まってるでしょ！」\n「は？あたしがやるっての！」\n「ふさわしいのはわたくしですわ」\n\n# face 145 \"surprise\"\n# textflame 1 1\n# textboxarrow 0 2\n# chara 145\n@さくら\nわぁ…すごい\n\n# textflame 0 0\n@\n自分が主役をやるべきだと、\n生徒たちが猛然と主張していた\n\n# imagealpha 2 1 0.5\n# textflame 1 1\n# textboxarrow 0 2\n# chara 146\n# voice 9966 \"cckero_g_0039\"\n@ケロちゃん\n白熱してるな、\n熱い青春って感じやな\n\n# textflame 0 0\n@\nさくらの襟元から\nひょいっと顔をのぞかせたケロちゃん\n\n# face 145 \"angry\"\n# textflame 1 1\n# textboxarrow 0 2\n# chara 145\n@さくら\nケロちゃんったら、\nのん気なこと言って！\n\n# face 145 \"normal\"\n# textflame 0 0\n@\nその後も議論を続ける生徒たち\n\n# textflame 0 0\n@\n「主役の性格が私と似ている」\n「主役の生い立ちが自分そっくり」\n\n# textflame 0 0\n@\nなどなど、主人公と自分自身の\n重なる部分をプレゼンする\n\n# face 145 \"happy\"\n# textflame 1 1\n# textboxarrow 0 2\n# chara 145\n# voice 60233 \"ccsakura_g_0041\"\n@さくら\nうわ～、\n誰が主役の座を射止めるんだろ？\n気になるけど…\n\n# face 145 \"sad\"\n# textflame 1 1\n# textboxarrow 0 2\n# chara 145\n@さくら\nみんな熱くなってるから…\nケンカになっちゃわないか\n心配だな…\n\n# textflame 0 0\n@\nしかし、ディスカッションを\n繰り広げていくうちに\n話はとんでもない方向に……\n\n;;ギザギザ吹き出し大きく\n# face 145 \"surprise\"\n# serif 0\n# textwindow \"close\"\n# serif 1\n# textwindow \"toge\"\n# textsize 32\n# textboxarrow 1 0\n# chara 145\n# voice 60233 \"ccsakura_g_0023\"\n@さくら\nえぇ～～～～っ！！\n主役は…わたし～～～っ！？\n\n# serif 1\n# textsize 24\n# textwindow \"close\"\n# serif 0\n# textwindow \"normal\"\n# textflame 1 1\n# textboxarrow 0 2\n# chara 145\n@さくら\nどどど…どうして！？\n\n# textflame 0 0\n@\n演劇の主人公は『魔法使い』の少女\nさくらちゃんの持つカードの力が、\n魔法を彷彿とさせるからピッタリ！\n\n# textflame 0 0\n@\n…という話になり、\n満場一致でさくらちゃんに\n決定したのだった\n\n# textflame 1 1\n# textboxarrow 0 2\n# chara 146\n# voice 9966 \"cckero_g_0021\"\n@ケロちゃん\nやったな、さくら！\nこれは大抜擢やで！\n\n# textflame 0 0\n@\nと、テンションアゲアゲで\n発破をかけるケロちゃん\n\n# face 145 \"sad\"\n# textflame 1 1\n# textboxarrow 0 2\n# chara 145\n# voice 60233 \"ccsakura_g_0028\"\n@さくら\nで、でも～\n\n# textflame 1 1\n# textboxarrow 0 2\n# chara 146\n@ケロちゃん\nなんや？そんな不安そうな顔して\n\n# textflame 1 1\n# textboxarrow 0 2\n# chara 145\n@さくら\nわたしに、できるかなぁ…？\n\n# textflame 1 1\n# textboxarrow 0 2\n# chara 146\n@ケロちゃん\nあま～い！\n\n# face 145 \"surprise\"\n# textflame 1 1\n# textboxarrow 0 2\n# chara 146\n@ケロちゃん\nええか、さくら？\n演技に大事なんは心や！\n魂で演じることなんや！\n\n# face 145 \"sad\"\n# textflame 1 1\n# textboxarrow 0 2\n# chara 145\n# voice 60233 \"ccsakura_g_0043\"\n@さくら\nなんでケロちゃんが\n熱くなってるのよ？\n\n# textflame 1 1\n# textboxarrow 0 2\n# chara 146\n@ケロちゃん\nそれにな、さくら\n\n# textflame 1 1\n# textboxarrow 0 2\n# chara 146\n@ケロちゃん\nみんな、期待してくれてるんやで？\nいっちょ決めたれや！\n\n# face 145 \"surprise\"\n# textflame 1 1\n# textboxarrow 0 2\n# chara 145\n@さくら\n…！\n\n# textflame 0 0\n@\n生徒たちの顔を見渡すさくら\n\n# face 145 \"normal\"\n# textflame 1 1\n# textboxarrow 0 2\n# chara 145\n# voice 60233 \"ccsakura_g_0003\"\n@さくら\n…うん、わかった\n\n# face 145 \"happy\"\n# textflame 1 1\n# textboxarrow 0 2\n# chara 145\n@さくら\nわたし…やってみるよ！！\n\n# textflame 0 0\n@\n高らかに宣言するさくらだった"
	}
]