[
	{
		"ID": 60233203,
		"script": ";;さくら【EP3】（２月中旬）\n# script \"lisp\"\n# background \"gymnasium\"\n# bgm \"bgm002\" 0\n# serif 0\n# textwindow \"close\"\n# serif 1\n# textwindow \"close\"\n# body 148\n# pos 148 3\n# layer 148 1\n# alpha 148 1 0\n# mask 148 off\n# body 146\n# pos 146 4\n# layer 146 2\n# alpha 146 0 0\n# imageset 1 \"mov2_1\"\n# imagealpha 1 0 0\n# imagelayer 1 2\n# imagescale 1 1.2 0\n;;さくらボイス用\n# body 602331\n# alpha 602331 0 0\n# subfillrect 1 \"black\" 0 0 1\n# waitandnext 0.3\n\n# imagealpha 1 1 0\n# imagepos 1 0 0\n# subfillrect 1 \"black\" 0.5 1 0\n# waitandnext 0.1\n\n# serif 0\n# textwindow \"normal\"\n# textflame 0 0\n@\nあれから数日後─\n\n# textflame 0 0\n@\n全学園合同で行なわれた演劇祭\n\n# imagealpha 1 0 1\n# textflame 1 1\n# textboxarrow 0 2\n# chara 148\n@さくら\nあぁ…\n\n# face 148 \"happy\"\n# textflame 1 1\n# textboxarrow 0 2\n# chara 148\n# voice 60233 \"ccsakura_g_0006\"\n@さくら\n楽しかった～～～っ！！\n\n# textflame 0 0\n@\nさくらは見事、\n主役を演じ切っていた\n\n# face 148 \"usual\"\n# textflame 0 0\n@\n舞台袖から舞台中央へと\n出てくるさくら\n\n# face 148 \"happy\"\n# textflame 1 1\n# textboxarrow 0 2\n# chara 148\n@さくら\nみなさん！\n本日はご観劇頂き、\n誠にありがとうございました！！\n\n# textflame 0 0\n@\n出演者たちと共に、観客に\n深々と礼をするさくらの表情は、\nとても晴れやかだった\n\n# fadeout \"black\" 1.5\n# waitandnext 1.5\n\n# face 148 \"normal\"\n# alpha 148 0 0\n# background \"rooftop_daytime\"\n# waitandnext 0.6\n\n# fadein \"black\" 1\n# textflame 0 0\n# textflame 0 0\n@\nそれから数日が経って─\n\n# alpha 148 1 0.5\n# textflame 1 1\n# textboxarrow 0 2\n# chara 148\n# voice 60233 \"ccsakura_g_0004\"\n@さくら\nふふ、数日前のことなのに\nなんか懐かしいね\n\n# textflame 0 0\n@\n屋上にやってくるさくら\n\n# alpha 146 1 0.5\n# textflame 1 1\n# textboxarrow 0 3\n# chara 146\n# voice 9966 \"cckero_g_0004\"\n@ケロちゃん\nほんまやな\nここで稽古しとったんが、\nすごく前のことみたいやな\n\n# face 148 \"usual\"\n# textflame 1 1\n# textboxarrow 0 2\n# chara 148\n# voice 60233 \"ccsakura_g_0005\"\n@さくら\nすごく充実した時間だったな\n\n# textflame 1 1\n# textboxarrow 0 3\n# chara 146\n@ケロちゃん\n時には、演技のことで\nケンカになる子もおったり\n色々あったな\n\n# textflame 1 1\n# textboxarrow 0 2\n# chara 148\n@さくら\nみんな真剣に練習して\n熱くなっちゃっただけだよ\n\n# textflame 1 1\n# textboxarrow 0 3\n# chara 146\n# voice 9966 \"cckero_g_0039\"\n@ケロちゃん\nほんま熱かった！\n稽古も本番も！！\n\n# face 148 \"usual\"\n# textflame 1 1\n# textboxarrow 0 2\n# chara 148\n# voice 60233 \"ccsakura_g_0039\"\n@さくら\nそうだよね！すごく熱くて、\n充実した時間を一緒に過ごしたから…\n\n# textflame 1 1\n# textboxarrow 0 2\n# chara 148\n@さくら\nみんなのこと、\nもっともっと大好きになれた\n\n# face 148 \"normal\"\n# textflame 1 1\n# textboxarrow 0 2\n# chara 148\n@さくら\nみんなと一緒に舞台に立ってる時、\nなんていうか…\n\n# face 148 \"happy\"\n# textflame 1 1\n# textboxarrow 0 2\n# chara 148\n@さくら\n「わたしたちって最高！」\nって瞬間があったの！！\n\n# se \"SE_0602\"\n# textflame 0 0\n@\nその友達を大切に想う心が、\nさくらにまた新たなる力\n『学園の思い出』を与えていた\n\n# face 148 \"usual\"\n# textflame 1 1\n# textboxarrow 0 2\n# chara 148\n@さくら\nまた、みんなと一緒にやりたいな\n\n# textflame 1 1\n# textboxarrow 0 3\n# chara 146\n# voice 9966 \"cckero_g_0004\"\n@ケロちゃん\nもう次回公演のこと、考えてるんか？\n\n# face 148 \"happy\"\n# textflame 1 1\n# textboxarrow 0 2\n# chara 148\n# voice 60233 \"ccsakura_g_0004\"\n@さくら\nうふふ、だってそうすれば…\nもっともっとみんなと\n仲良くなれると思うから！\n\n# imageset 4 \"c602331\"\n# imagealpha 4 0 0\n# imagelayer 4 5\n# textflame 0 0\n@\n嬉しそうにセリフを言い始めるさくら\nその笑顔はとても嬉しそうに、\nキラキラと輝いていた\n\n;;「えへへ、今日は楽しかったな…」\n;;ccsakura_bb_kyara_0026\n# imagealpha 4 1 0\n# imagepos 4 0 0 \n# fadein \"white\" 3\n# voice 60233 \"ccsakura_bb_kyara_0026\"\n# textwindow \"close\""
	}
]