[
	{
		"ID": 60241202,
		"script": ";;-----------------------------------------\n;;60241202\n;;メルリヌス　EP2\n;;-----------------------------------------\n# script \"lisp\"\n# background \"mov2_1\"\n# bgm \"bgm005\" 0\n;;メルリヌス\n# body 602411\n# pos 602411 3\n# scale 602411 1.0 0\n# layer 602411 1\n# mask 602411 off\n# alpha 602411 0 0\n;;カーテンフェード\n# imageset 0 \"black\"\n# imagealpha 0 0 0\n# imagelayer 0 1\n;;一枚絵\n# imageset 1 \"c602411\"\n# imagealpha 1 0 0\n# imagelayer 1 1\n;;霧エフェクト\n# envbody 1000 5 0\n# effectpattern 1000 1 0\n;;◆空---------------------------------------------------------\n# textflame 0 0\n@\nある時、異族との\n戦闘へ向かったマスターの隊\nしかし…\n\n;;◆平原（昼）-------------------------------------------------\n# imagepos 0 0 30\n# imagealpha 0 1 0\n# imageleftin 0 0.5\n# textwindow \"close\"\n# waitandnext 0.6\n\n# alpha 602411 1 0\n# face 602411 \"usual\"\n# background \"plain\"\n# waitandnext 0.5\n\n# imagealpha 0 0 0.5\n# imagerightout 0 0.5\n# waitandnext 0.5\n\n# textwindow \"normal\"\n# textflame 1 1\n# textboxarrow 0 2\n# voice 6024 \"merlinus_0002\"\n# face 602411 \"usual\"\n# chara 602411\n@メルリヌス\nねえ、どうしたの？\nにらめっこを続けるのは退屈よ\nしかけていきましょう\n\n# textflame 0 0\n@\n待ち伏せる敵…その規模が読めず\nマスターは姫達を押しとどめ\n相手の出方をうかがっていた\n\n# textflame 1 1\n# textboxarrow 0 2\n# voice 6024 \"merlinus_0034\"\n# face 602411 \"normal\"\n# chara 602411\n@メルリヌス\n探るまでもないわ\nきっと楽勝…遊んであげればいいの\n\n# textflame 1 1\n# textboxarrow 0 2\n# chara 602411\n@メルリヌス\nあ、そうだ♪\n様子見を決め込んでる相手には\n不意打ちが有効でしょ♪\n\n;;◆平原（昼霧）-----------------------------------------------\n# se \"SE_0621\"\n# subfillrect 1 \"white\" 1.0 0 0.4\n# effectstart 1000\n# textflame 0 0\n@\n言うが早いか、術を唱えて\nメルリヌスは周囲に深い霧を\n作り出し、さらに…\n\n;;爆発\n# se \"SE_8015\"\n# shake 0 0.7\n# fadein \"white\" 0.6\n# textflame 1 1\n# textboxarrow 0 2\n# voice 6024 \"merlinus_battle_0003\"\n# face 602411 \"smile\"\n# chara 602411\n@メルリヌス\nどっかーん！！\n\n# textflame 0 0\n@\n絶大な魔術の威力…\n激しい風と爆炎の術で\n敵の一団をメルリヌスは炙り出す\n\n# textflame 1 1\n# textboxarrow 0 2\n# voice 6024 \"merlinus_battle_0002\"\n# face 602411 \"normal\"\n# chara 602411\n@メルリヌス\nさあ、突撃開始ー♪\n\n;;メルリ退場\n# se \"SE_5575\"\n# leftout 602411 0.5\n# textflame 0 0\n@\nメルリヌスは霧の向こう側へと\nたった一人で突き進んでいき…\nやがて、その姿が見えなくなる\n\n# textflame 0 0\n@\nそのうちにマスターの周囲でも\n異族と姫達との乱戦が始まった\n\n# textflame 0 0\n@\nさいわい、メルリヌスの術で混乱した\n敵を打ち破ることは難しくなかった\n…だが…\n\n;;◆平原（昼弱霧）---------------------------------------------\n# imagepos 0 0 30\n# imagealpha 0 1 0\n# imageleftin 0 0.5\n# textwindow \"close\"\n# waitandnext 0.6\n\n# pos 602411 3\n# alpha 602411 1 0\n# face 602411 \"sad2\"\n# effectskip 1000\n# bgm \"bgm003\" 0\n# subfillrect 1 \"white\" 0 0 0.2\n# waitandnext 0.5\n\n# imagealpha 0 0 0.5\n# imagerightout 0 0.5\n# waitandnext 0.5\n\n# textwindow \"normal\"\n# textflame 1 1\n# textboxarrow 0 2\n# voice 6024 \"merlinus_battle_0005\"\n# chara 602411\n@メルリヌス\nはぁ…はぁ…\nどうしたのかしら、わたし…？\n\n# textflame 0 0\n@\n戦闘には圧勝したものの\n単騎で敵の群れに飛び込み挑んだ\nメルリヌスは、ひどく疲れた様子だ\n\n# textflame 1 1\n# textboxarrow 0 2\n# face 602411 \"sad\"\n# chara 602411\n@メルリヌス\nお、おかしいわね…？\n格上の魔獣相手でもないのに\n力の消耗がこんなに激しいなんて\n\n# textflame 0 0\n@\nそこへマスターが\nメルリヌスを追って駆けつけた\n\n# textflame 1 1\n# textboxarrow 0 2\n# voice 6024 \"merlinus_0008\"\n# face 602411 \"normal\"\n# chara 602411\n@メルリヌス\nあ…マスター…\nほら、もう敵は全部片づいたの\nたいしたことなかったわ\n\n# textflame 0 0\n@\n笑ってみせるメルリヌス…\nだが漂う霧のせいか…その姿が\nうっすらと、薄くぼやけた\n\n;;選択肢-----------------------------------------------------\n# select \"さすがに無謀だぞ\" \"select_label_01\" \"無茶をするな\" \"select_label_02\" \"本当に平気か？\" \"select_label_03\"\n笑ってみせるメルリヌス…\nだが漂う霧のせいか…その姿が\nうっすらと、薄くぼやけた\n\n;;選択肢１---------------------------------------------------\n# label \"select_label_01\"\n# labeljump \"select_label_end\"\n# textflame 1 1\n# textboxarrow 0 2\n# face 602411 \"surprise\"\n# chara 602411\n@メルリヌス\nべ、別にいつも通りに戦ったのよ\nただちょっと…\n力が出すぎちゃっただけ\n\n;;選択肢２---------------------------------------------------\n# label \"select_label_02\"\n# labeljump \"select_label_end\"\n# textflame 1 1\n# textboxarrow 0 2\n# face 602411 \"surprise\"\n# chara 602411\n@メルリヌス\nむ、無茶じゃないわ\nマスターのためと思って…\n力が少し、出すぎちゃったの\n\n;;選択肢３---------------------------------------------------\n# label \"select_label_03\"\n# labeljump \"select_label_end\"\n# textflame 1 1\n# textboxarrow 0 2\n# face 602411 \"surprise\"\n# chara 602411\n@メルリヌス\n平気よ、このくらい\n…思ったより強い力が出すぎて\n自分でもびっくりしてるけど\n\n;;合流-------------------------------------------------------\n# label \"select_label_end\"\n# textflame 1 1\n# textboxarrow 0 2\n# face 602411 \"sad\"\n# voice 6024 \"merlinus_0031\"\n# chara 602411\n@メルリヌス\nはぁ…そうよ…\n変だわ…元のように力を使えない\n魔力が…一度にたくさん出すぎて…\n\n# textflame 1 1\n# textboxarrow 0 2\n# chara 602411\n@メルリヌス\nだから…\nこの程度の戦いでくたびれるなんて…\n全然、思ってもみなくて…\n\n# textflame 1 1\n# textboxarrow 0 2\n# face 602411 \"amazed\"\n# chara 602411\n@メルリヌス\nウソじゃないわ…本当よ\n\n# textflame 0 0\n@\n困惑しつつも言い訳する彼女…\nそこでマスターはあえて\n諭すようにゆっくりと話す\n\n# textflame 0 0\n@\nそんな風に、後先を考えず\n一人で力を出しすぎるのは…\n『英雄』らしくないんじゃないか？\n\n# textflame 1 1\n# textboxarrow 0 2\n# face 602411 \"surprise\"\n# chara 602411\n@メルリヌス\nあ…\n\n# textflame 0 0\n@\nきみも不慣れな世界で\n戦うのはなかなか、思うように\nならないのだろうけれど…\n\n# textflame 0 0\n@\nまずは落ち着いて深呼吸\nはりきるのは、そのあとだ…と\n\n# textflame 1 1\n# textboxarrow 0 2\n# voice 6024 \"merlinus_0032\"\n# face 602411 \"usual\"\n# chara 602411\n@メルリヌス\n…そうね…\nがんばりすぎたかしら…\nわたしらしくもなかった\n\n# textflame 1 1\n# textboxarrow 0 2\n# face 602411 \"normal\"\n# chara 602411\n@メルリヌス\nふふっ…\nなんだか疲れちゃった\nマスター、ちょっと手を貸して\n\n;;◆平原（夕）-------------------------------------------------\n# imagepos 0 0 30\n# imagealpha 0 1 0\n# imageleftin 0 0.5\n# textwindow \"close\"\n# waitandnext 0.6\n\n# subfillrect 1 \"white\" 0 0.3 0\n# face 602411 \"normal\"\n# background \"plain_evening\"\n# waitandnext 0.5\n\n# imagealpha 0 0 0.5\n# imagerightout 0 0.5\n# waitandnext 0.5\n\n# textwindow \"normal\"\n# textflame 0 0\n@\n徐々にあたりの霧が晴れていく\n\n# textflame 0 0\n@\nその間、並んで腰を落ち着け\nひと息ついたマスターとメルリヌス\n\n# textflame 1 1\n# textboxarrow 0 2\n# voice 6024 \"merlinus_0030\"\n# chara 602411\n@メルリヌス\nありがとう…力が戻ったみたい\nあなたが近くに来てくれた\nそのおかげね、きっと…\n\n# textflame 1 1\n# textboxarrow 0 2\n# face 602411 \"shy\"\n# voice 6024 \"merlinus_0005\"\n# chara 602411\n@メルリヌス\nだとしたら、あなたはやっぱり\nわたしにとって特別なマスターなのよ\n\n# textwindow \"normal\"\n# textflame 0 0\n@\nと、そこへ…\n\n# brightness 602411 0.6 0\n# face 602411 \"surprise\"\n# se \"SE_5772\"\n# serif 1\n# textwindow \"toge\"\n# textsize 35\n# shake 0 0.6\n# textflame 1 0\n@異族\nグギャーッ！\n\n# serif 0\n# textsize 24\n# textwindow \"normal\"\n# textflame 0 0\n@\n敵の群れからはぐれ出たのか\n突然、一体の異族が襲いかかる！\n\n# textflame 0 0\n@\n飛びのくべきか、彼女をかばうべきか\n一瞬ためらうマスター\nしかしメルリヌスは…\n\n# textwindow \"top_close\"\n# se \"SE_4759\"\n# shake 0 0.6\n# brightness 602411 1.0 0\n# fadein \"white\" 0.3\n# textflame 1 1\n# textboxarrow 0 2\n# voice 6024 \"merlinus_battle_0001\"\n# face 602411 \"angry\"\n# chara 602411\n@メルリヌス\nたぁっ！\n\n# textflame 0 0\n@\n動じることなく、座ったままの姿勢で\n魔力を鋭く、絞り込み…\n見事、異族を打ち砕いた\n\n# textflame 1 1\n# textboxarrow 0 2\n# face 602411 \"surprise\"\n# chara 602411\n@メルリヌス\n…うまくいったわ\nこの世界でも拡散することなく\nわたしの力が、狙ったとおりに…\n\n# textflame 1 1\n# textboxarrow 0 2\n# voice 6024 \"merlinus_0003\"\n# face 602411 \"usual\"\n# chara 602411\n@メルリヌス\nそっか…そういうことか\nちょっと、わかった感じがした\n\n# se \"SE_0602\"\n# textflame 0 0\n@\n『ファントムミスト』\nメルリヌスは新たな力の制御の\n境地を得たようだ\n\n# textflame 1 1\n# textboxarrow 0 2\n# voice 6024 \"merlinus_0001\"\n# face 602411 \"normal\"\n# chara 602411\n@メルリヌス\n…これから、わたしは\nマスターとのちょうどいい距離を\n探してみようと思う\n\n# textflame 1 1\n# textboxarrow 0 2\n# chara 602411\n@メルリヌス\nあなたがわたしにくれる力を\nあなたと一緒に操れるように…ね\n\n# textflame 1 1\n# textboxarrow 0 2\n# voice 6024 \"merlinus_0004\"\n# face 602411 \"smile\"\n# chara 602411\n@メルリヌス\nとりあえず、そんな感じで…\nどう、マスター？\n\n;;◆一枚絵-----------------------------------------------------\n# textwindow \"close\"\n# fadein \"white\" 3\n# imagealpha 1 1 0\n# imagepos 1 0 0\n# alpha 602411 0 0\n# voice 6024 \"merlinus_kyara_0028\"\n# buttonsout 0 0\n# textwindow \"close\"\n;;「たまには、私の方から触っていい？　…ウソかどうかは、返答次第かしら？　ふふ♪」\n\n# frameout 0 1\n# waitandnext 0.8\n\n# fadeout \"black\" 1.5\n# waitandnext 1.5"
	}
]