[
	{
		"ID": 7010009,
		"script": "# script \"lisp\"\n# body 960021\n# pos 960021 3\n# mask 960021 off\n# textflame 1 1\n# textboxarrow 0 2\n# chara 960021\n# face 960021 \"usual\"\n# voice 8034 \"asmodeus_0004\"\n@アスモデウス\nあらあら\n思ってたより早い到着ね\n\n# face 960021 \"surprise\"\n# voice 8034 \"asmodeus_0009\"\n@アスモデウス\nなによその目は…\n\n# face 960021 \"happy\"\n# voice 8034 \"asmodeus_0005\"\n@アスモデウス\nうふふっ♪\n\n# voice 8034 \"asmodeus_0017\"\n@アスモデウス\nいいわ！\nいいわよ！\nその鋭い目！\n\n# face 960021 \"sad\"\n@アスモデウス\nそんな目で攻められるなんて\n考えただけでも\nビンビンきちゃう！\n\n# face 960021 \"happy\"\n# voice 8034 \"asmodeus_0018\"\n@アスモデウス\n私もお返しに、\nいーっぱいオ・シ・オ・キ\nしたくなっちゃうわ！\n\n# voice 8034 \"asmodeus_0021\"\n@アスモデウス\nああっ！\n昂ぶってきたわぁっ\n\n@アスモデウス\n久々に一曲、\n披露するわよぉっ！\n\n@アスモデウス\nお聞きなさい、\n私の可愛い玩具達！\n\n@アスモデウス\n題して…\n“色欲の賛火”！！"
	}
]