[
	{
		"ID": 710026041,
		"script": ";;----------------------------------------------\n;;710026041\n;;◆EP4:追撃\n;;----------------------------------------------\n# script \"lisp\"\n# background \"004_outland\"\n# bgm \"bgm005\" 0\n;;メルリヌス\n# body 602411\n# mask 602411 off\n# pos 602411 3\n# scale 602411 0.8 0\n# layer 602411 3\n# alpha 602411 0 0\n;;ダーインスレイブ\n# body 102811\n# pos 102811 4\n# scale 102811 0.8 0\n# layer 102811 1\n# mask 102811 on\n# alpha 102811 0 0\n;;フォルカス\n# body 301811\n# pos 301811 2\n# scale 301811 0.8 0\n# layer 301811 2\n# mask 301811 on\n# alpha 301811 0 0\n# body 802501\n# mask 802501 off\n# pos 802501 3\n# scale 802501 0.8 0\n# alpha 802501 0 0\n;;◆背景（３話までとは別の場所、村近く）\n# textflame 0 0\n@\nメルリヌスと共闘することになった\nダーインスレイヴとフォルカスは\n近くの村で聞き込みを行った\n\n# voice 3018 \"forcas_0002\"\n# alpha 102811 1 0.5\n# alpha 301811 1 0.5\n# textflame 1 1\n# textboxarrow 0 1\n# face 301811 \"usual\"\n# chara 301811\n@フォルカス\n新たな目撃証言が得られました\n魔獣エキドナは西の森に現れた模様\n\n# voice 1028 \"dainsleif_0003\"\n# face 102811 \"angry\"\n# textflame 1 1\n# textboxarrow 0 3\n# chara 102811\n@ダーインスレイヴ\n程近いな\n皆、ただちに追うぞ\n\n# alpha 102811 0 0.5\n# alpha 301811 0 0.5\n# alpha 602411 1 0.5\n# face 602411 \"smile\"\n# textflame 1 1\n# voice 6024 \"merlinus_0004\"\n# textboxarrow 0 2\n@メルリヌス\n了解よ♪\n\n# textwindow \"close\"\n# fadeout \"black\" 0.5\n# waitandnext 0.5\n\n;;背景（森）\n# alpha 102811 1 0\n# alpha 301811 1 0\n# alpha 602411 0 0\n# face 301811 \"sad\"\n# face 102811 \"normal\"\n# background \"forest\"\n# waitandnext 0.5\n\n# fadein \"black\" 0.5\n# waitandnext 0.5\n\n# voice 3018 \"forcas_0028\"\n# textwindow \"nomal\"\n# textflame 1 1\n# textboxarrow 0 1\n# chara 301811\n@フォルカス\n…………\n\n# voice 1028 \"dainsleif_0022\"\n# textflame 1 1\n# textboxarrow 0 3\n# chara 102811\n@ダーインスレイヴ\nどうしたフォルカス…\n思い詰めている様子だが\n\n# voice 3018 \"forcas_0027\"\n# face 301811 \"worry\"\n# textflame 1 1\n# textboxarrow 0 1\n# chara 301811\n@フォルカス\nいえ…なぜ\nエキドナのような異世界の存在が\n急に現れたのかと\n\n# textflame 1 1\n# textboxarrow 0 3\n# chara 102811\n@ダーインスレイヴ\n確かに…\nそれに加えて\n異族の動きも気になる\n\n# mask 602411 on\n# alpha 102811 0 0.5\n# alpha 301811 0 0.5\n# alpha 602411 1 0.5\n# face 602411 \"surprise\"\n# textflame 1 1\n# voice 6024 \"merlinus_0039\"\n# textboxarrow 0 2\n# chara 602411\n@メルリヌス\n異族って\nさっきからたくさん出てくる\n変な魔獣モドキの連中のこと？\n\n# move 102811 1 0\n# waitandnext 0.1\n\n# move 602411 4 0.5\n# alpha 102811 1 0.5\n# move 102811 2 0.5\n# textflame 1 1\n# textboxarrow 0 1\n# chara 102811\n@ダーインスレイヴ\nそうだ\n人を食らう化け物さ\n\n# face 602411 \"amazed\"\n# textflame 1 1\n# voice 6024 \"merlinus_0004\"\n# textboxarrow 0 3\n# chara 602411\n@メルリヌス\nその異族はどうして\nわたし達のエキドナ追跡を\n邪魔してくるのかしらね？\n\n# face 102811 \"sad\"\n# textflame 1 1\n# textboxarrow 0 1\n# chara 102811\n@ダーインスレイヴ\nそこだな、解せないのは…\n異族もなんらかの意図を\n持っているのか…\n\n# face 102811 \"angry\"\n# textflame 1 1\n# textboxarrow 0 1\n# chara 102811\n@ダーインスレイヴ\nあるいは…\n魔獣をこの世界に呼び寄せたのも\n異族を操る何者かの差し金か\n\n# voice 3018 \"forcas_0022\"\n# move 301811 3 0\n# mask 301811 off\n# alpha 102811 0 0.5\n# alpha 301811 1 0.5\n# alpha 602411 0 0.5\n# face 301811 \"surprise\"\n# textflame 1 1\n# textboxarrow 0 2\n# chara 301811\n@フォルカス\nまさか…\n\n# alpha 102811 1 0.5\n# alpha 301811 0 0.5\n# alpha 602411 1 0.5\n# face 602411 \"surprise\"\n# voice 6024 \"merlinus_0022\"\n# textflame 1 1\n# textboxarrow 0 3\n# chara 602411\n@メルリヌス\n何者、って…？\n\n# face 102811 \"happy\"\n# textflame 1 1\n# voice 1028 \"dainsleif_0004\"\n# textboxarrow 0 1\n# chara 102811\n@ダーインスレイヴ\nふっ…\n答えのない問いかもしれぬ\n一旦、忘れようか\n\n# alpha 102811 0 0.5\n# alpha 301811 1 0.5\n# alpha 602411 0 0.5\n# face 301811 \"usual\"\n# textflame 1 1\n# voice 3018 \"forcas_0003\"\n# textboxarrow 0 2\n# chara 301811\n@フォルカス\n…そうですね\n私も、深く疑うのはやめます\n\n# textflame 1 1\n# textboxarrow 0 2\n# chara 301811\n@フォルカス\nマスターから与えられた討伐任務を\n今は果たすのみです\n\n# alpha 102811 1 0.5\n# alpha 301811 0 0.5\n# alpha 602411 1 0.5\n# face 602411 \"amazed\"\n# textflame 1 1\n# textboxarrow 0 3\n# chara 602411\n@メルリヌス\n『マスター』…？\n\n# imageset 3 \"black\"\n# imagealpha 3 0 0\n# imagelayer 3 1\n# face 102811 \"angry\"\n# textflame 1 1\n# voice 1028 \"dainsleif_0010\"\n# textboxarrow 0 1\n# chara 102811\n@ダーインスレイヴ\nそもそも…\nわたしが問いたいことは他にある\n問うべきは、ただ一つ…\n\n# bgm \"stop\"\n# imagealpha 3 1 0\n# imagepos 3 0 30\n# imageleftin 3 0.5\n# textwindow \"close\"\n# waitandnext 0.6\n\n;;エキドナが姿を現す\n# alpha 802501 1 0\n# alpha 102811 0 0\n# alpha 602411 0 0\n# waitandnext 0.5\n\n# imagealpha 3 0 0.5\n# imagerightout 3 0.5\n# waitandnext 0.5\n\n# serif 0\n# textwindow \"nomal\"\n# textflame 0 0\n@\n逆巻く炎をまとう尾に\n火の粉を散らす巨大な翼\nそして人と同じ顔を持つ…\n\n# imagealpha 3 1 0\n# imagepos 3 0 30\n# imageleftin 3 0.5\n# textwindow \"close\"\n# waitandnext 0.5\n\n;;エキドナが姿を現す\n# alpha 802501 0 0\n# alpha 102811 1 0\n# alpha 602411 1 0\n# face 602411 \"angry\"\n# bgmfile \"bgm297_298\" \"BgmCUcollabo001\" 0\n# waitandnext 0.5\n\n# imagealpha 3 0 0.5\n# imagerightout 3 0.5\n# waitandnext 0.5\n\n# serif 0\n# textwindow \"nomal\"\n# textflame 1 1\n# voice 1028 \"dainsleif_0002\"\n# textboxarrow 0 1\n# chara 102811\n@ダーインスレイヴ\nあれだ！\n問おう、メルリヌス！\nあれこそがエキドナか？\n\n# voice 6024 \"merlinus_0007\"\n# textflame 1 1\n# textboxarrow 0 3\n# chara 602411\n@メルリヌス\nええ、間違いない\nついに見つけたわね\n\n# alpha 102811 0 0.5\n# alpha 301811 1 0.5\n# alpha 602411 0 0.5\n# textflame 1 1\n# voice 3018 \"forcas_0009\"\n# face 301811 \"worry\"\n# textboxarrow 0 2\n# chara 301811\n@フォルカス\n強大な力を感じる相手…\n説得の余地はなさそうです\n\n# alpha 301811 0 0.5\n# mask 102811 off\n# move 102811 3 0\n# alpha 102811 1 0.5\n# textflame 1 1\n# voice 1028 \"dainsleif_0005\"\n# textboxarrow 0 2\n# chara 102811\n@ダーインスレイヴ\n構うものか…\nこちらも力を示すのみ！\nさあ、行こう！"
	}
]