[
	{
		"ID": 710025041,
		"script": ";;第３話「聖ユグドラシル姫学院」\n;;翌日の放課後\n;;前場面と同じ背景\n# script \"lisp\"\n# background \"Schoolyard_daytime\"\n# bgmfile \"bgm183\" \"BgmGakuen003\" 0\n;;ロンギ制服\n# body 147\n# pos 147 5\n# scale 147 0.8 0\n# layer 147 3\n# alpha 147 0 0\n# face 147 \"happy\"\n;;ナーゲル制服\n# body 77\n# pos 77 3\n# scale 77 0.8 0\n# layer 77 5\n# alpha 77 0 0\n;;ケロちゃん\n# body 144\n# pos 144 2\n# scale 144 0.8 0\n# layer 144 2\n# alpha 144 0 0\n;;さくら\n# body 145\n# pos 145 2\n# scale 145 0.8 0\n# layer 145 2\n;;ケロちゃん\n# body 146\n# pos 146 5\n# scale 146 0.8 0\n# layer 146 1\n;;ロンギ魔法服\n# body 300191\n# pos 300191 3\n# scale 300191 0.8 0\n# layer 300191 4\n# alpha 300191 0 0\n# mask 300191 off\n# face 300191 \"angry\"\n# imageset 2 \"e180201_2\"\n# imagealpha 2 0 0\n# imagelayer 2 3\n# imagescale 2 0.64 0\n# imageset 3 \"e180201_1\"\n# imagealpha 3 0 0\n# imagelayer 3 4\n# imagescale 3 0.64 0\n# imageset 4 \"black\"\n# imagealpha 4 0 0\n# imagelayer 4 5\n;;さくらボイス用\n# body 602311\n# alpha 602311 0 0\n;;さくらボイス用\n# body 602321\n# alpha 602321 0 0\n;;ナーゲルボイス用\n# body 100661\n# alpha 100661 0 0\n# textflame 1 1\n# textboxarrow 0 1\n# chara 145\n@さくら\nえいっ\n\n# textflame 1 1\n# textboxarrow 0 3\n# chara 146\n# voice 9966 \"cckero_g_0049\"\n@ケロちゃん\nこにゃにゃちわー！\nそろっとるみたいやな\n\n# alpha 147 1 0.5\n# move 145 1 0.5\n# move 146 3 0.5\n# textflame 1 1\n# textboxarrow 0 3\n# chara 147\n@ロンギヌス\nこんにちは\nさくらちゃん、ケロちゃん\n\n# face 147 \"normal\"\n# textflame 1 1\n# textboxarrow 0 3\n# chara 147\n@ロンギヌス\nあれ\nさくらちゃん、制服？\n\n# face 145 \"happy\"\n# textflame 1 1\n# textboxarrow 0 1\n# chara 145\n# voice 60232 \"ccsakura_g_0020\"\n@さくら\nうん\nこれはわたしの通ってる学校のなんだ\n\n;;ケロちゃーんチェーック！\n# face 145 \"normal\"\n# textflame 1 1\n# textboxarrow 0 2\n# chara 146\n# voice 9966 \"cckero_g_0050\"\n@ケロちゃん\nワイのアイデアやで\n派手な衣装も華やかでええけど\n目立つさかいな\n\n# textflame 1 1\n# textboxarrow 0 2\n# chara 146\n@ケロちゃん\nこれやったら学校の中歩いてても\n転校生か、学校見学にしか\n見えへんやろ？\n\n# textflame 0 0\n@マスター\nなるほど、確かに…\n昨日の衣装じゃ目立つしね\n\n# textflame 0 0\n@マスター\nで、それで早速だけど\n今日やることを話すよ…\n\n;;場面転換\n;;ナーゲルリングの学校、ユグドラシル女学院の校門前があったら\n# fadeout \"black\" 1.5\n# waitandnext 1.5\n\n# face 145 \"surprise\"\n# move 145 2 0\n# move 147 4 0\n# alpha 146 0 0\n# imagealpha 2 1 0\n# imagepos 3 -80 -160\n# imagepos 2 -80 -160\n# background \"schoolgate_daytime\"\n# waitandnext 0.6\n\n# fadein \"black\" 1\n# textflame 0 0\n# textflame 1 1\n# textboxarrow 0 1\n# chara 145\n@さくら\n他の学校に入って\nこられちゃうだなんて…\nマスターさんって…？\n\n# textflame 1 1\n# textboxarrow 0 2\n# chara 146\n# voice 9966 \"cckero_g_0028\"\n@ケロちゃん\nしかもこの学園の副会長さんに会って\n直々に話を通そうちゅーわけやから\nたいしたもんやな\n\n# face 145 \"normal\"\n# textflame 0 0\n@マスター\nうん、昨日寝る前に考えたんだけど\n事件は他の学園でも起こってるし\nこの学園にも話を通した方が早いなと\n\n# textflame 1 1\n# textboxarrow 0 2\n# chara 146\n# voice 9966 \"cckero_g_0003\"\n@ケロちゃん\nそして、何かあったときに、いつでも\n駆けつけられるようにする、か\nやっぱり、たいしたもんや\n\n# textflame 0 0\n@マスター\nで、ケロちゃん\nなんでさくらちゃんに\n抱きかかえられてるの？\n\n# textflame 1 1\n# textboxarrow 0 2\n# chara 146\n@ケロちゃん\nああ、これか\nこれはカモフラージュや\n\n# textflame 1 1\n# textboxarrow 0 2\n# chara 146\n@ケロちゃん\nいきなりわいのようなもんが\nその辺を飛び回っていたとする\nすると、ちょっとした騒動もんや\n\n# textflame 1 1\n# textboxarrow 0 2\n# chara 146\n@ケロちゃん\nだからこうやって\nぬいぐるみの振りをしてるわけや\n\n# face 147 \"happy\"\n# textflame 1 1\n# textboxarrow 0 3\n# chara 147\n# voice 30019 \"ronginusu_0004\"\n@ロンギヌス\n振りなんかしなくても\nたださくらちゃんの手の上にいる\nだけで十分だませそうですけどね\n\n# textflame 1 1\n# textboxarrow 0 2\n# chara 146\n# voice 9966 \"cckero_g_0022\"\n@ケロちゃん\nなんやて、わいは封印の…\n\n# face 145 \"angry\"\n# textflame 1 1\n# textboxarrow 0 1\n# chara 145\n# voice 60232 \"ccsakura_g_0044\"\n@さくら\nケーローちゃーんー！\n\n;;場面転換\n;;執務室っぽいところがあればいいのですが\n# fadeout \"black\" 1.5\n# waitandnext 1.5\n\n# background \"student_council_room_02\"\n# face 145 \"normal\"\n# alpha 145 0 0\n# alpha 146 0 0\n# alpha 147 0 0\n# imagealpha 2 0 0\n# alpha 77 1 0\n# face 77 \"surprise\"\n# waitandnext 0.6\n\n# fadein \"black\" 1\n# textflame 1 1\n# textboxarrow 0 2\n# chara 77\n@ナーゲルリング\nそれで今日は何のようです？\nあと、気になったのですが、\n…見なれない人がいますね？\n\n# imagealpha 2 1 0.5\n# imagepos 2 90 -180\n# move 145 3 0\n# alpha 77 0 0.5\n# alpha 145 1 0.5\n# textflame 1 1\n# textboxarrow 0 2\n# chara 145\n@さくら\n初めまして、木之本桜といいます\n今日は大事な話があって\nお邪魔しました\n\n# textflame 0 0\n@マスター\nそうなんだ\nまずは話を聞いてほしい…\n\n;;時間経過\n# fadeout \"black\" 1.5\n# waitandnext 1.5\n\n# move 77 4 0\n# move 145 2 0\n# imagepos 2 -60 -180\n# alpha 77 1 0\n# face 77 \"angry\"\n# waitandnext 0.6\n\n# fadein \"black\" 1\n# textflame 1 1\n# textboxarrow 0 3\n# chara 77\n# voice 10066 \"nageruring_0028\"\n@ナーゲルリング\nにわかには信じられません\n確かに当学園で犯人不明の騒動が\n発生してるのも確かですが…\n\n# face 77 \"surprise\"\n# textflame 1 1\n# textboxarrow 0 3\n# chara 77\n@ナーゲルリング\nそちらの方にそれを予見する力が\nあるなんて\n\n# textflame 0 0\n@マスター\n信じてくれないんだ\n\n# face 77 \"normal\"\n# textflame 1 1\n# textboxarrow 0 3\n# chara 77\n@ナーゲルリング\nいえ、もし本当なら\n是非協力してほしい\n\n# textflame 1 1\n# textboxarrow 0 3\n# chara 77\n@ナーゲルリング\nでも、あまりに話が唐突過ぎて\n信じられないという気持ちが強いです\n\n# textflame 0 0\n@マスター\nそっか…\n\n# textflame 0 0\n@\nマスターはさくらたちが\n不思議な力を使えることまで話した\n\n# textflame 0 0\n@\nそれは以前のことで、\nナーゲルリングとは\n信頼関係を築けていると思ったからだ\n\n# textflame 0 0\n@\nただ異世界からきたことは\n伏せておいた\n\n# bgmfile \"bgm185\" \"BgmGakuen003\" 0\n# se \"SE_9038\"\n# face 145 \"surprise\"\n# textflame 1 1\n# textboxarrow 0 1\n# chara 145\n@さくら\nこれは…！？\n\n;;ケロちゃん表示\n# face 77 \"surprise\"\n# imagealpha 2 0 0.3\n# imagealpha 3 1 0.3\n# imagemoveto 3 -30 -50 0.3\n# textflame 1 1\n# textboxarrow 0 2\n# chara 146\n# voice 9966 \"cckero_g_0022\"\n@ケロちゃん\nさくら、どうした！？\n\n# emotionbody 0771 1 77 20 220\n# effectpattern 0771 2 0\n# effectstart 0771\n# textflame 1 1\n# textboxarrow 0 3\n# chara 77\n# voice 10066 \"nageruring_0022\"\n@ナーゲルリング\nな、なんです！\nぬいぐるみがしゃべった！？\n\n# effectskip 0771\n# textflame 0 0\n@マスター\nまさか、あの気配なのか？\n\n# face 145 \"angry\"\n# textflame 1 1\n# textboxarrow 0 1\n# chara 145\n@さくら\nうん、あっち！\n\n;;全キャラ消し\n;;できるのであれば、左にスライドしながら左に立ち絵を消して、かけていった感を出す;;足音SE\n;;ナーゲルリング立ち絵表示\n# se \"SE_5575\"\n# serif 0\n# textwindow \"close\"\n# alpha 145 0 0.5\n# leftout 145 0.5\n# imageleftout 3 0.5\n# alpha 146 0 0.5\n# leftout 146 0.5\n# waitandnext 1.5\n\n# serif 0\n# textwindow \"normal\"\n# textflame 1 1\n# textboxarrow 0 3\n# chara 77\n# voice 10066 \"nageruring_0023\"\n@ナーゲルリング\nちょ、ちょっと…！？\n\n;;場面転換\n;;中庭あたりの背景を\n;;――場面転換――\n# imagealpha 4 1 0\n# imagepos 4 0 30\n# imageleftin 4 0.5\n# serif 0\n# textwindow \"close\"\n# serif 1\n# textwindow \"close\"\n# waitandnext 1\n\n# move 147 3 0\n# move 77 5 0\n# alpha 77 0 0\n# move 145 3 0\n# move 144 4 0\n# alpha 145 1 0\n# alpha 144 1 0\n# background \"courtyard\"\n# waitandnext 0.6\n\n# se \"SE_9022\"\n# imagealpha 4 0 0.5\n# imagerightout 4 0.5\n# serif 0\n# textwindow \"normal\" \n# textflame 0 0\n@\nさくらを追ってやってきたのは\n校舎の端…そこには明らかに\n挙動のおかしな生徒がいた\n\n# textflame 0 0\n@マスター\nさくらちゃん、あの子が？\n\n# textflame 1 1\n# textboxarrow 0 2\n# chara 145\n@さくら\nうん、あの不思議な気配がする\n\n# face 77 \"angry\"\n# alpha 77 1 0.5\n# move 77 4 0.5\n# move 145 2 0.5\n# move 144 3 0.5\n# textflame 1 1\n# textboxarrow 0 3\n# chara 77\n@ナーゲルリング\nはぁはぁ、やっと追いついた…\n一体、こんな人気の少ないところで\nなにが…\n\n# face 77 \"surprise\"\n# textflame 1 1\n# textboxarrow 0 3\n# chara 77\n@ナーゲルリング\nって、あの生徒\n様子が、すごく変では…？\n\n# textflame 0 0\n@マスター\nさがって、ナーゲルリング！\n\n# textflame 0 0\n@\nすると生徒は地面にうずくまり\n次の瞬間―\n\n# se \"SE_5776\"\n# serif 1\n# textboxarrow 1 0\n@生徒\n――――！\n\n# face 77 \"sad\"\n# serif 0\n# textwindow \"normal\"\n# textflame 1 1\n# textboxarrow 0 3\n# chara 77\n# voice 10066 \"nageruring_0022\"\n@ナーゲルリング\nきゃっ！？\n\n# face 147 \"normal\"\n# serif 1\n# textwindow \"close\"\n# serif 0\n# textwindow \"normal\"\n# alpha 77 0 0.5\n# alpha 147 1 0.5\n# alpha 145 0 0.5\n# alpha 144 0 0.5\n# textflame 0 0\n@マスター\nいこう、ロンギヌス！\n\n# face 147 \"angry\"\n# textflame 1 1\n# textboxarrow 0 2\n# chara 147\n# voice 30019 \"ronginusu_0003\"\n@ロンギヌス\nは、はいっ！\n\n# se \"SE_9132\"\n# serif 0\n# textwindow \"close\"\n# fadein \"white\" 1\n# alpha 147 0 0\n# alpha 300191 1 0\n# waitandnext 2\n\n# move 146 4 0\n# move 145 3 0\n# mask 145 off\n# alpha 300191 0 0.5\n# alpha 145 1 0.5\n# alpha 146 1 0.5\n# serif 0\n# textwindow \"normal\"\n# textflame 1 1\n# textboxarrow 0 3\n# chara 146\n@ケロちゃん\nこっちもいくで、さくら！\n\n;;-----------\n;;バトル\n;;-----------\n# se \"SE_4705\"\n# textflame 1 1\n# textboxarrow 0 2\n# chara 145\n# voice 60232 \"ccsakura_g_0046\"\n@さくら\nうん、『封印解除』―！\n\n"
	}
]