[
	{
		"ID": 717040103,
		"script": "# script \"lisp\"\n# bgmfile \"bgm214_02\" \"BgmAncientKillers001\" 0\n# background \"ancient_back\"\n# imageset 0 \"bg_white\"\n# imagealpha 0 1 0\n# imagescale 0 3 0\n# imagepos 0 0 30\n# pos 401711 4\n# body 401711\n# alpha 401711 0 0\n# scale 401711 0.8 0\n# pos 103511 2\n# body 103511\n# alpha 103511 0 0\n# scale 103511 0.8 0\n# serif 0\n# textwindow \"close\"\n# serif 1\n# textwindow \"close\"\n# waitandnext 0.15\n\n# se \"SE_9022\"\n# imagealpha 0 0 2\n# serif 0\n# textwindow \"nomal\"\n# textflame 0 0\n# textalign \"center\"\n@\n全知の大樹・ユグドラシルから\n“欠落した歴史”が\n今再び紐解かれる―\n\n# se \"SE_0539\"\n# envbody 1701 8 0\n# effectpattern 1701 1 0\n# effectstart 1701\n# alpha 401711 1 1\n# alpha 103511 0 0\n# move 401711 3 0\n# scale 401711 0.8 0\n# mask 401711 off\n# fadein \"black\" 1\n# textflame 0 0\n# textsize 28\n# textalign \"center\"\n# waitandnext 1\n@\n七元徳の“勇気”を顕現した\n[0000FF]「スイハ」[-]\n\n# se \"SE_5509\"\n# voice 4017 \"suiha_battle_0004\"\n# textflame 0 0\n# textsize 28\n# textalign \"center\"\n# fadein \"white\" 0.5\n@\n七元徳の“勇気”を顕現した\n[0000FF]「スイハ」[-]\n\n# se \"SE_0539\"\n# fadein \"black\" 1\n# pos 103511 3\n# scale 103511 0.8 0\n# alpha 103511 1 1\n# alpha 401711 0 0\n# mask 103511 off\n# textflame 0 0\n# textalign \"center\"\n# waitandnext 1\n@\n七元徳の“愛情”を顕現した\n[00FF00]「ダモクレス」[-]\n\n# se \"SE_0548\"\n# voice 1035 \"damocles_0005\"\n# textflame 0 0\n# textsize 28\n# textalign \"center\"\n# fadein \"white\" 0.5\n@\n七元徳の“愛情”を顕現した\n[00FF00]「ダモクレス」[-]\n\n# se \"SE_0602\"\n# fadein \"white\" 1\n# pos 103511 2\n# mask 103511 on\n# mask 401711 on\n# move 401711 4 0\n# scale 401711 0.8 0\n# scale 103511 0.8 0\n# alpha 401711 1 0\n# textflame 0 0\n# textalign \"center\"\n# voice 1035 \"damocles_battle_0004\"\n# voicedelay 4017 \"suiha_0029\" 0.8\n# face 401711 \"happy\"\n# face 103511 \"happy\"\n@\nふたりの固有スキルは\n自身のみならず、\n味方のステータスを大幅アップ！\n\n# alpha 401711 1 0\n# alpha 103511 0 0\n# se \"SE_5594\"\n# fadein \"white\" 0.5\n# move 401711 3 0\n# scale 401711 0.8 0\n# mask 401711 off\n# textflame 0 0\n# textsize 28\n# textalign \"center\"\n# voice 4017 \"suiha_unit_0013\"\n# face 401711 \"normal\"\n@\nスキル[FF0000]『揺るぎなき信念』[-]は\n命中を大幅アップ！\n\n# alpha 401711 0 0\n# alpha 103511 1 0\n# se \"SE_5594\"\n# fadein \"white\" 0.5\n# move 103511 3 0\n# scale 103511 0.8 0\n# mask 103511 off\n# textflame 0 0\n# textsize 28\n# textalign \"center\"\n# voice 1035 \"damocles_kyara_1006\"\n# face 103511 \"happy\"\n@\nスキル[FF0000]『全てを包み込む愛』[-]は\n物攻を大幅アップ！\n\n# se \"SE_4780\"\n# fadeout \"black\" 2\n# serif 0\n# textwindow \"close\"\n# serif 1\n# textwindow \"close\"\n# waitandnext 2\n\n# pos 103611 3\n# body 103611\n# alpha 103611 0 0\n# scale 103611 0.8 0\n# pos 502711 3\n# body 502711\n# alpha 502711 0 0\n# scale 502711 0.8 0\n# pos 302511 3\n# body 302511\n# alpha 302511 0 0\n# scale 302511 0.8 0\n# alpha 401711 0 0\n# alpha 103511 0 0\n# fadein \"black\" 1\n# serif 0\n# textwindow \"nomal\"\n# textalign \"center\"\n# textflame 0 0\n@\nピックアップガチャは…\n\n# se \"SE_5594\"\n# alpha 103611 1 0\n# fadein \"white\" 0.5\n# scale 103611 0.8 0\n# mask 103611 off\n# textflame 0 0\n# textsize 28\n# textalign \"center\"\n# voice 1036 \"ragnarok_unit_0005\"\n# face 103611 \"angry\"\n@\n『ラグナロク』\n\n# se \"SE_5594\"\n# alpha 103611 0 0\n# alpha 502711 1 0\n# fadein \"white\" 0.5\n# scale 502711 0.8 0\n# mask 502711 off\n# textflame 0 0\n# textalign \"center\"\n# voice 5027 \"freischotz_unit_0013\"\n# face 502711 \"angry\"\n@\n『フライシュッツ』\n\n# move 401711 4 0\n# move 103511 2 0\n# se \"SE_5594\"\n# alpha 502711 0 0\n# alpha 302511 1 0\n# fadein \"white\" 0.5\n# scale 302511 0.8 0\n# mask 302511 off\n# textflame 0 0\n# textalign \"center\"\n# voice 3025 \"minerva_unit_0012\"\n# face 302511 \"angry\"\n@\n『ミネルヴァ』\n\n# se \"SE_0602\"\n# mask 302511 on\n# mask 502711 on\n# mask 103611 on\n# move 302511 1 0\n# move 502711 5 0\n# layer 103611 3\n# layer 302511 2\n# layer 502711 2\n# fadein \"white\" 0.5\n# scale 302511 0.8 0\n# scale 502711 0.8 0\n# scale 103611 0.8 0\n# alpha 302511 1 0\n# alpha 502711 1 0\n# alpha 103611 1 0\n# textflame 0 0\n# textalign \"center\"\n# face 401711 \"normal\"\n# face 103511 \"normal\"\n@\n3体のエンシェントキラーズも\n[FF0000]登場！！[-]\n\n# fadein \"white\" 0.5\n# mask 401711 on\n# mask 103511 on\n# alpha 401711 1 0\n# alpha 103511 1 0\n# alpha 302511 0 0\n# alpha 502711 0 0\n# alpha 103611 0 0\n# voice 4017 \"suiha_0005\"\n# voice 1035 \"damocles_0004\"\n# textflame 0 0\n# textalign \"center\"\n@\n5月はまだまだこれから！\nスキル詳細はお知らせをチェック！\n"
	}
]