[
	{
		"ID": 718010101,
		"script": "# script \"lisp\"\n# background \"2nd_anniversary_mypage\"\n# bgm \"bgm002\" 0\n# buttonsout 0 0\n# textwindow \"close\"\n;;ティルフィング\n# body 101411\n# pos 101411 3\n# scale 101411 0.8 0\n# alpha 101411 0 0\n# body 24\n# pos 24 2\n# scale 24 0.8 0\n;;デュリン\n# body 0\n# pos 0 4\n# scale 0 0.8 0\n;;ラグナロク賀正\n# body 103621\n# pos 103621 1\n# scale 103621 0.8 0\n# alpha 103621 0 0\n;;グリード人気投票\n# body 101481\n# pos 101481 5\n# scale 101481 0.8 0\n# alpha 101481 0 0\n;;シタ\n# body 3201611\n# pos 3201611 1\n# scale 3201611 0.8 0\n# alpha 3201611 0 0\n;;ゲイボルグ\n# body 3300711\n# pos 3300711 5\n# scale 3300711 0.8 0\n# alpha 3300711 0 0\n;;グリード\n# body 101471\n# pos 101471 4\n# scale 101471 0.8 0\n# alpha 101471 0 0\n;;ラグナロク\n# body 103611\n# pos 103611 2\n# scale 103611 0.8 0\n# alpha 103611 0 0\n;;シストルム\n# body 2601311\n# pos 2601311 1\n# scale 2601311 0.8 0\n# alpha 2601311 0 0\n;;与一\n# body 2400511\n# pos 2400511 3\n# scale 2400511 0.8 0\n# alpha 2400511 0 0\n;;芭蕉扇\n# body 2500811\n# pos 2500811 5\n# scale 2500811 0.8 0\n# alpha 2500811 0 0\n;;シェキナー\n# body 2400711\n# pos 2400711 5\n# scale 2400711 0.8 0\n# alpha 2400711 0 0\n;;ブリューナク\n# body 2500711\n# pos 2500711 3\n# scale 2500711 0.8 0\n# alpha 2500711 0 0\n;;ラブリュス\n# body 2200311\n# pos 2200311 1\n# scale 2200311 0.8 0\n# alpha 2200311 0 0\n;;ヴァナルガンド\n# body 2601111\n# pos 2601111 1\n# scale 2601111 0.8 0\n# alpha 2601111 0 0\n;;エロース\n# body 2400411\n# pos 2400411 3\n# scale 2400411 0.8 0\n# alpha 2400411 0 0\n;;フライクーゲル\n# body 2500211\n# pos 2500211 5\n# scale 2500211 0.8 0\n# alpha 2500211 0 0\n;;メイデン\n# body 802009\n# pos 802009 3\n# scale 802009 0.8 0\n# alpha 802009 0 0\n# fadeout \"black\" 0\n# envbody 1000 10 0\n# effectpattern 1000 2 0\n# effectstart 1000\n# envbody 1004 14 0\n# effectpattern 1004 1 0\n# effectstart 1004\n# waitandnext 0.1\n\n# se \"SE_0607\"\n# fadein \"black\" 1\n# waitandnext 1\n\n# wait 2\n# face 0 \"happy\"\n# textflame 1 1\n# textboxarrow 0 3\n# textwindow \"nomal\"\n# textsize 28\n# voice 9999 \"durin_event_1001\"\n@デュリン\n新年あけましておめでとっ！\n\n# wait 3\n# face 24 \"happy\"\n# textflame 1 1\n# textboxarrow 0 1\n# textwindow \"nomal\"\n# textsize 24\n# voice 1014 \"tyrufing_n_event_1001\"\n@ティルフィング\nあけましておめでとうございます\nもしよければ、\n一緒に初詣などいかがでしょうか？\n\n# wait 1\n# face 0 \"usual\"\n# textflame 1 1\n# textboxarrow 0 3\n# voice 9999 \"durin_0005\"\n# textwindow \"nomal\"\n@デュリン\nファンキルは年始から\n飛ばしていくわよ～！！\n新しいユニットが沢山登場するわ！！\n\n# se \"SE_0624\"\n# textwindow \"close\"\n# fadeout \"white\" 2\n# waitandnext 2\n\n# effectskip 1000\n# effectskip 1004\n# envbody 1001 11 0\n# effectpattern 1001 2 0\n# effectstart 1001\n# alpha 0 0 0\n# alpha 24 0 0\n# bgmfile \"bgm281\" \"BgmNewYear001\" 0\n# background \"ancient_back\"\n# waitandnext 0.1\n\n# fadein \"white\" 1\n# waitandnext 1\n\n# wait 1\n# move 103621 2 0.5\n# alpha 103621 1 0.5\n# move 101481 4 0.5\n# alpha 101481 1 0.5\n# textflame 0 0\n# textwindow \"nomal\"\n# textalign \"center\"\n@\n人気ユニットが\n装いを新たに\n登場！\n\n# wait 1\n# se \"SE_4780\"\n# fadein \"white\" 0.5\n# mask 103621 off\n# alpha 101481 0 0\n# move 103621 3 0\n# textflame 0 0\n# textsize 28\n# textalign \"center\"\n@\n晴れ着に身を包んだ\nラグナロク\n\n# wait 3\n# move 101481 3 0\n# textflame 1 1\n# face 103621 \"happy\"\n# voice 1036 \"ragnarok_event_0001\"\n# textboxarrow 0 2\n@ラグナロク\nあけましておめでとう\n今年もヨロシクね\n\n# wait 1\n# se \"SE_9022\"\n# fadein \"white\" 0.5\n# effectskip 1001\n# envbody 1002 8 0\n# effectpattern 1002 1 0\n# effectstart 1002\n;;# background \"ancient_back\"\n# mask 101481 off\n# alpha 103621 0 0\n# alpha 101481 1 0\n# textalign \"center\"\n# textsize 27\n# textflame 0 0\n@\n人気投票1位を獲得した\nティルフィング\n\n# wait 5\n# textsize 24\n# textflame 1 1\n# face 101481 \"happy\"\n# voice 10148 \"tyrufing_Kn_kyara_1001\"\n# textboxarrow 0 2\n@ティルフィング\nありがとうございます。マスター\nあなたの票と添えられたその気持ち\n確かに届いています\n\n# wait 2\n# fadein \"white\" 0.5\n# effectskip 1002\n# face 103621 \"normal\"\n# background \"town\"\n# alpha 103621 1 0\n# alpha 101481 0 0\n# textalign \"center\"\n# voice 1036 \"ragnarok_0005\"\n# textflame 0 0\n@\nお正月イベント\n[FF7F50]『初春にして君を想う』[-]\n開催！\n\n# se \"SE_0647\"\n# textwindow \"close\"\n# fadeout \"white\" 1.5\n# waitandnext 1.5\n\n# alpha 103621 0 0\n# bgmfile \"bgm266\" \"BgmLostRagnarokBattle001\" 0\n# background \"fairy_world\"\n# waitandnext 0.5\n\n# fadein \"white\" 1\n# waitandnext 1\n\n# wait 1\n# se \"SE_0548\"\n# textwindow \"nomal\"\n# move 3201611 4 0.3\n# move 3300711 2 0.3\n# alpha 3201611 1 0.3\n# alpha 3300711 1 0.3\n# face 3300711 \"usual\"\n# textalign \"center\"\n# envbody 1003 8 0\n# effectpattern 1003 1 0\n# effectstart 1003\n# textflame 0 0\n@\nさらに\nロストラグナロク編から\n新ユニット2体登場！\n\n# wait 1\n# se \"SE_0613\"\n# fadein \"white\" 0.5\n# background \"angel_world\"\n# mask 3201611 off\n# alpha 3300711 0 0\n# move 3201611 3 0\n# move 3300711 3 0\n# textalign \"center\"\n# textflame 0 0\n@\n契約を重視する\nメタトロンを纏いし\n慈愛の監視者\n\n# wait 2\n# face 3201611 \"angry\"\n# textalign \"center\"\n# textsize 27\n# voice 320161 \"shita_t_unit_0013\"\n# textflame 0 0\n@\n[0dc128]<<ジェイル>>　　[-]\nシタ・[0dc128]聖鎖[-]・メタトロン\n\n# wait 1\n# se \"SE_0552\"\n# fadein \"white\" 0.5\n# background \"beast_world\"\n# mask 3300711 off\n# alpha 3300711 1 0\n# alpha 3201611 0 0\n# textalign \"center\"\n# textsize 24\n# textflame 0 0\n@\nケルベロスを宿した\n無口でミステリアスな\n多重人格者\n\n# wait 2\n# face 3300711 \"angry\"\n# textalign \"center\"\n# voice 330071 \"gaiborugu_ge_kyara_0019\"\n# textsize 27\n# textflame 0 0\n@\n[0000FF]<<プラント>>[-]\nゲイボルグ・[0000FF]獣刻[-]・ケルベロス\n\n# textwindow \"close\"\n# fadeout \"white\" 1.5\n# waitandnext 1.5\n\n# effectskip 1003\n# alpha 3300711 0 0\n# envbody 1006 10 0\n# effectpattern 1006 2 0\n# effectstart 1006\n# background \"sea_resort_day\"\n# alpha 2601311 1 0\n# alpha 2400511 1 0\n# alpha 2500811 1 0\n# face 2601311 \"smile\"\n# face 2400511 \"smile\"\n# bgmfile \"bgm240\" \"BgmSeaEventBattle\" 0\n# waitandnext 0.5\n\n# se \"SE_5594\"\n# fadein \"white\" 1\n# waitandnext 1\n\n# wait 1\n# se \"SE_0600\"\n# textwindow \"nomal\"\n# textalign \"center\"\n# voice 6013 \"sistrum_0006\"\n# voicedelay 4005 \"yoichi_0005\" 0.6\n# voicedelay 5008 \"bashosen_0005\" 1.2\n@\n海上編復刻記念ガチャ3種\n開催！\n\n# wait 2\n# alpha 2601311 0 0.5\n# alpha 2400511 0 0.5\n# alpha 2500811 0 0.5\n# alpha 2400711 1 0.5\n# alpha 2500711 1 0.5\n# alpha 2200311 1 0.5\n# face 2500711 \"smile\"\n# face 2400711 \"smile\"\n# voice 4007 \"shekina_0005\"\n# voicedelay 5007 \"buryunaku_0006\" 0.5\n# voicedelay 2003 \"loveryus_0006\" 1\n# textwindow \"nomal\"\n# textalign \"center\"\n@\n海上編復刻記念ガチャは\n各STEPで対象海上編ユニット\n[FF0000]1体確定！[-]\n\n# wait 2\n# alpha 2400711 0 0.5\n# alpha 2500711 0 0.5\n# alpha 2200311 0 0.5\n# alpha 2601111 1 0.5\n# alpha 2400411 1 0.5\n# alpha 2500211 1 0.5\n# voice 6011 \"vanargand_0004\"\n# voicedelay 4004 \"erosu_0002\" 0.5\n# voicedelay 5002 \"furaikugeru_0005\" 1\n# face 2601111 \"smile\"\n# face 2400411 \"smile\"\n# face 2500211 \"smile\"\n# textwindow \"nomal\"\n# textalign \"center\"\n@\nSTEP4,STEP7は\n対象海上編ユニット\n[FF0000]2体確定！[-]\n\n# textwindow \"close\"\n# fadeout \"white\" 1.5\n# waitandnext 1.5\n\n# effectskip 1006\n# alpha 2601111 0 0\n# alpha 2400411 0 0\n# alpha 2500211 0 0\n# alpha 101471 1 0\n# alpha 103611 1 0\n# bgmfile \"bgm214\" \"BgmAncientKillers001\" 0\n# background \"antiquity\"\n# waitandnext 0.5\n\n# se \"SE_0647\"\n# fadein \"white\" 1\n# waitandnext 1\n\n# wait 1\n# textwindow \"nomal\"\n# textalign \"center\"\n# textflame 0 0\n@\n[FF0000]「粛清の黒」[-]\n[6495ED]「白き正義の執行者たち」[-]\n復刻！\n\n# textwindow \"close\"\n# fadeout \"white\" 1.5\n# waitandnext 1.5\n\n# face 24 \"happy2\"\n# alpha 101471 0 0\n# alpha 103611 0 0\n# alpha 24 1 0\n# alpha 0 1 0\n# background \"2nd_anniversary_mypage\"\n# bgm \"bgm001\" 0\n# envbody 1005 14 0\n# effectpattern 1005 1 0\n# effectstart 1005\n# waitandnext 0.5\n\n# fadein \"white\" 1\n# waitandnext 1\n\n# wait 1\n# textsize 24\n# textwindow \"nomal\"\n# textflame 1 1\n# voice 1014 \"tyrufing_0005\"\n# textboxarrow 0 1\n@ティルフィング\nマスター\n今年も豪華なCPが\n沢山ありますよ！\n\n# wait 1\n# textwindow \"nomal\"\n# textflame 1 1\n# voice 9999 \"durin_0005\"\n# textboxarrow 0 3\n@デュリン\n「新春ふくびきチケット2018」\nが登場よ！色んなところで配るわ\n頑張って集めなさい！\n\n# wait 1\n# face 24 \"happy\"\n# textwindow \"nomal\"\n# textflame 1 1\n# textsize 28\n# alpha 802009 1 0.5\n# move 24 1 0.5\n# move 0 5 0.5\n# voice 1014 \"tyrufing_0006\"\n# textboxarrow 0 1\n@ティルフィング\n[FF8C00]「おみくじメタルガーデン」[-]が\n1日1回限定で開催されます\n\n# wait 1\n# face 0 \"happy\"\n# face 24 \"happy2\"\n# textwindow \"nomal\"\n# voice 9999 \"durin_0047\"\n# textflame 1 1\n# textsize 24\n# textboxarrow 0 3\n@デュリン\n新年最初の運試し！\nレアなアイテムが手に入るかも！\n毎日クリアしなさいよね！\n\n# wait 1\n# face 0 \"serious\"\n# textwindow \"nomal\"\n# textsize 30\n# voice 9999 \"durin_0006\"\n# textflame 1 1\n@デュリン\nお知らせを逃さずチェックよ!!"
	}
]