[
	{
		"ID": 718080901,
		"script": ";;【告知内容】\n;;黒ロンギ・スイハ  ガチャ追加\n;;-----------------------------------------\n# script \"lisp\"\n# buttonsout 0 0\n# background \"sea_fireworks\"\n# bgmfile \"bgm240\" \"BgmSeaEventBattle\" 0\n;;ロンギヌス\n# body 2300121\n# pos 2300121 2\n# scale 2300121 0.8 0\n# brightness 2300121 0 0\n# alpha 2300121 1 0\n;;スイハ\n# body 2401711\n# pos 2401711 4\n# mask 2401711 off\n# mask 2300121 off\n# scale 2401711 0.8 0\n# brightness 2401711 0 0\n# alpha 2401711 1 0\n# face 2401711 \"usual\"\n;;アルマス\n# body 3103811\n# pos 3103811 2\n# scale 3103811 0.8 0\n# alpha 3103811 0 0\n;;ティターニア\n# body 139\n# pos 139 4\n# scale 139 0.8 0\n# alpha 139 0 0\n;;-----------------------------------------\n# se \"SE_4706\"\n# textflame 0 0\n# textwindow \"nomal\"\n# textalign \"center\"\n# textsize 28\n@\n新海上編ユニット\n登場！\n\n# textwindow \"close\"\n# fadeout \"black\" 0.5\n# waitandnext 0.5\n\n# mask 2401711 off\n# mask 2300121 off\n# move 2300121 3 0\n# move 2401711 3 0\n# alpha 2401711 0 0\n# alpha 2300121 0 0\n# brightness 2401711 1 0\n# brightness 2300121 1 0\n# envbody 1002 11 0\n# effectpattern 1002 2 0\n# effectstart 1002\n# background \"sea_beach_day\"\n# waitandnext 0.5\n\n# fadein \"black\" 0.5\n# waitandnext 0.5\n\n# alpha 2300121 1 0.5\n# textwindow \"nomal\"\n# textalign \"center\"\n# textsize 24\n@\n[FF0000]ブラックキラーズ[-]\nロンギヌス\n\n# face 2300121 \"smile\"\n# voice 230012 \"ronginusu_k_event_0014\"\n# textflame 1 1\n# textwindow \"nomal\"\n# textsize 24\n@ロンギヌス\nこの時期の太陽は\n本当に力が\n有り余ってますね…\n\n# alpha 2300121 0 0.5\n# alpha 2401711 1 0.5\n# textflame 0 0\n# textwindow \"nomal\"\n# textalign \"center\"\n# textsize 24\n@\n[00BFFF]エンシェントキラーズ[-]\nスイハ\n\n# face 2401711 \"normal\"\n# textflame 1 1\n# textwindow \"nomal\"\n# textsize 24\n# voice 4017 \"suiha_event_0014\"\n@フライシュッツ\nなんだか、とても暑いですね\n（早くどこかで氷菓子が食べたい…）\n\n# fadein \"white\" 0.5\n# mask 2401711 on\n# mask 2300121 on\n# move 2401711 4 0\n# move 2300121 2 0\n# alpha 2300121 1 0\n# face 2401711 \"smile\"\n# textflame 0 0\n# textwindow \"nomal\"\n# textalign \"center\"\n# textsize 23\n@\n海上編新ユニット7STEPガチャ登場\nSTEP1は[FF0000]ピックアップユニット１体確定[-]\n\n# textwindow \"close\"\n# fadeout \"black\" 0.5\n# waitandnext 0.5\n\n# mask 2401711 on\n# mask 2300121 on\n# move 2401711 4 0\n# move 2300121 2 0\n# alpha 2401711 1 0\n# alpha 2300121 1 0\n# background \"sea_fireworks\"\n# waitandnext 0.5\n\n# fadein \"black\" 0.5\n# se \"SE_0647\"\n# waitandnext 0.5\n\n# textflame 0 0\n# textwindow \"nomal\"\n# textalign \"center\"\n# textsize 24\n@\n[00BFFF]『＃恋の革命キャンペーン』[-]\n開催！！\n\n# textflame 0 0\n# textwindow \"nomal\"\n# textalign \"center\"\n# textsize 24\n@\n[FF0000]武具錬成値2倍＆錬成費用割引！[-]\n全てのクエストでの消費APが1に！！\nユニット&武具強化のチャンス！！！\n\n# textflame 0 0\n# textwindow \"nomal\"\n# textalign \"center\"\n# textsize 24\n@\n他にも豪華CP開催！！\n詳しくはお知らせをチェック！\n今月もファンキルが熱い！！\n\n# textwindow \"close\"\n# fadeout \"black\" 0.5\n# waitandnext 0.5"
	}
]