[
	{
		"ID": 718100101,
		"script": "# script \"lisp\"\n# background \"201_beast_night\"\n# bgmfile \"bgm071\" \"BgmHalloween001\" 0\n;;-----------------------------------------\n;;ハロウィンモラルタ\n# body 3104071\n# pos 3104071 2\n# mask 3104071 on\n# scale 3104071 0.8 0\n# alpha 3104071 1 0\n;;ハロウィンベガルタ\n# body 3104171\n# pos 3104171 4\n# mask 3104171 on\n# scale 3104171 0.8 0\n# alpha 3104171 1 0\n# body 3104011\n# pos 3104011 2\n# mask 3104011 off\n# brightness 3104011 0 0\n# layer 3104011 23\n# scale 3104011 0.8 0\n# alpha 3104011 0 0\n# body 3104111\n# pos 3104111 4\n# layer 3104111 24\n# mask 3104011 off\n# brightness 3104111 0 0\n# scale 3104111 0.8 0\n# alpha 3104111 0 0\n# body 3201211\n# pos 3201211 4\n# scale 3201211 0.8 0\n# alpha 3201211 0 0\n# body 3400411\n# pos 3400411 2\n# scale 3400411 0.8 0\n# alpha 3400411 0 0\n# body 3100211\n# pos 3100211 3\n# scale 3100211 0.8 0\n# alpha 3100211 0 0\n# body 3503111\n# pos 3503111 5\n# scale 3503111 0.8 0\n# alpha 3503111 0 0\n# body 3602511\n# pos 3602511 1\n# scale 3602511 0.8 0\n# alpha 3602511 0 0\n# body 3103811\n# pos 3103811 2\n# mask 3103811 off\n# layer 3103811 1\n# scale 3103811 0.8 0\n# alpha 3103811 0 0\n# body 139\n# pos 139 4\n# mask 139 off\n# layer 139 2\n# scale 139 0.8 0\n# alpha 139 0 0\n;;-----------------------------------------\n;;//背景：紙芝居のような舞台\n# textwindow \"close\"\n# fadeout \"black\" 0.1\n# imageset 0 \"st_thickcurtain_left\"\n# imagealpha 0 0 0 \n# imageset 1 \"st_thickcurtain_right\"\n# imagealpha 1 0 0 \n# imageset 2 \"st_thickcurtain_top\"\n# imagealpha 2 0 0 \n# frameout 0 0.5\n# waitandnext 0.1\n\n# imagepos 0 -180 0\n# imagepos 1 180 0\n# imagepos 2 0 450\n# imagealpha 1 1 0\n# imagealpha 0 1 0\n# imagealpha 2 1 0\n# waitandnext 0.2\n\n# fadein \"black\" 0.5\n# waitandnext 0.5\n\n# envbody 1001 4 0\n# effectstart 1001\n# envbody 1002 3 0\n# effectstart 1002\n# alpha 3104111 1 0.5\n# alpha 3104011 1 0.5\n# voice 1040 \"morallta_event_1011\"\n# voice 1041 \"beagallta_event_1010\"\n# textwindow \"nomal\"\n# textflame 1 1\n@？？？\nトリック・オア・トリート！！\n\n@？？？\nいたずらしちゃうぞ～！\n\n# fadein \"black\" 0.5\n# textwindow \"close\"\n# effectskip 1001\n# effectskip 1002\n# alpha 3104111 0 0\n# alpha 3104011 0 0\n# waitandnext 0.5\n\n# se \"SE_0600\"\n# textalign \"center\"\n# textwindow \"nomal\"\n# textflame 0 0\n@\nハロウィンの季節に\n仮装した彼女たちが登場！！\n\n# se \"SE_0635\"\n# envbody 1000 10 0\n# effectstart 1000\n# imagemoveto 0 -540 0 2\n# imagemoveto 1 540 0 2\n# waitandnext 1\n\n# jump 3104071\n# waitandnext 0.3\n\n# jump 3104171\n# waitandnext 0.3\n\n# textwindow \"nomal\"\n# textflame 1 1\n# textboxarrow 0 1\n@モラルタ\nがおー！\n赤ずきんだよ\n\n# textboxarrow 0 3\n@ベガルタ\nきゃっ！\n狼だよ、ぐすん\n\n# voice 1040 \"morallta_0004\"\n# textflame 1 1\n# textboxarrow 0 1\n@モラルタ\n4周年の前に\nハロウィンだ！！\n\n# voice 1041 \"beagallta_0004\"\n# textboxarrow 0 3\n@ベガルタ\n…お菓子を下さい\nハロウィンだ\n\n# bgm \"stop\"\n# textwindow \"close\"\n# fadeout \"black\" 0.5\n# waitandnext 0.5\n\n# imagealpha 1 0 0\n# imagealpha 0 0 0\n# imagealpha 2 0 0\n# framein 1 0\n# background \"ancient_back\"\n# effectskip 1000\n# alpha 3104171 0 0\n# alpha 3104071 0 0\n# brightness 3201211 0 0\n# brightness 3400411 0 0\n# mask 3201211 off\n# mask 3400411 off\n# waitandnext 0.5\n\n# bgmfile \"bgm291\" \"BgmLostRagnarokSideStory\" 0\n# fadein \"black\" 0.5\n# waitandnext 0.5\n\n# se \"SE_0540\"\n# textalign \"center\"\n# textwindow \"nomal\"\n# textflame 0 0\n# alpha 3400411 1 0.5\n# alpha 3201211 1 0.5\n@\nロストラグナロク新ユニット\n登場\n\n# textwindow \"close\"\n# alpha 3400411 0 0.5\n# alpha 3201211 0 0.5\n# waitandnext 0.5\n\n\n# voice 320121 \"srand_ge_0004\"\n# se \"SE_0502\"\n# face 3201211 \"happy\"\n# textflame 1 1\n# textwindow \"nomal\"\n# textboxarrow 0 2\n# alpha 3201211 1 0.5\n# brightness 3201211 1 0\n# brightness 3400411 1 0\n# move 3201211 3 0\n# move 3400411 3 0\n@スラーンド\nスラーンド・獣刻・セトだ！\n偉大なる強さ、見せてやろうっ！\n…な～んてね♪\n\n# textwindow \"close\"\n# alpha 3201211 0 0.5\n# waitandnext 0.5\n\n# voice 340031 \"erosu_t_0004\"\n# se \"SE_0502\"\n# textwindow \"nomal\"\n# face 3400411 \"happy\"\n# alpha 3400411 1 0.5\n@エロース\nエロース・聖鎖・ハニエルですよぉ♪\n真なる愛を、教導しに来ました～\n断れませんよぉ。これは強制なので！\n\n# textwindow \"close\"\n# fadeout \"black\" 0.5\n# waitandnext 0.5\n\n# alpha 3400411 0 0\n# background \"2nd_anniversary_mypage\"\n# waitandnext 0.5\n\n# envbody 1003 10 0\n# effectstart 1003\n# fadein \"black\" 0.5\n# waitandnext 0.5\n\n# alpha 3100211 1 0.5\n# alpha 3503111 1 0.5\n# alpha 3602511 1 0.5\n# textwindow \"nomal\"\n# textalign \"center\"\n# textflame 0 0\n@\n4周年直前！\n特大ガチャ開催！！\n\n# textalign \"center\"\n# textwindow \"nomal\"\n# textflame 0 0\n@\n最大444連無料\nカウントダウンガチャ\n開催中！\n\n# alpha 139 1 0.5\n# alpha 3103811 1 0.5\n# alpha 3100211 0 0.5\n# alpha 3503111 0 0.5\n# alpha 3602511 0 0.5\n# textalign \"center\"\n# face 3103811 \"happy1\"\n# textwindow \"nomal\"\n# textflame 0 0\n@\n4周年カウントダウン！\n絶成長キャンペーン！\n開催！！\n\n# textalign \"center\"\n# textwindow \"nomal\"\n# textflame 0 0\n@\nハロウィンや\n4周年カウントダウン\nなど\n\n# textcolor \"red\"\n# textalign \"center\"\n# textsize 36\n# textwindow \"nomal\"\n# textflame 0 0\n@\nお得なイベント開催中！\n\n"
	}
]