[
	{
		"ID": 718110801,
		"script": "# script \"lisp\"\n# background \"plain\"\n# bgmfile \"bgm317\" \"BgmReZerocollobo\" 0\n;;エミリア\n# body 3602711\n# pos 3602711 3\n# scale 3602711 0.8 0\n# layer 3602711 3\n# alpha 3602711 0 0\n# mask 3602711 off\n;;レム\n# body 3202911\n# pos 3202911 3\n# scale 3202911 0.8 0\n# layer 3202911 3\n# alpha 3202911 0 0\n# mask 3202911 off\n;;スバル\n# body 174\n# pos 174 2\n# scale 174 0.8 0\n# layer 174 3\n# alpha 174 0 0\n# mask 174 off\n;;ペテルギウス\n# body 3808611\n# pos 3808611 4\n# scale 3808611 0.8 0\n# layer 3808611 3\n# alpha 3808611 0 0\n# mask 3808611 on\n# envbody 1000 8 13\n# effectpattern 1000 1 13\n# effectstart 1000\n# se \"SE_4781\"\n# textwindow \"nomal\"\n# textalign \"center\"\n# fadein \"white\" 2\n# waitandnext 2\n# textsize 30\n# imageset 0 \"bg_white_circle\"\n# imagealpha 0 0 0\n# imagelayer 0 1\n# imagescale 0 1.5 0\n# waitandnext 0.1\n@\n[8A2BE2]Re：ゼロから始める異世界生活[-]\nコラボスタート！\n\n# imagealpha 0 1 0\n# imagepos 0 0 30\n# textalign \"center\"\n# textsize 30\n@\n[8A2BE2]Re：ゼロから始める異世界生活[-]\nコラボスタート！\n\n# textalign \"center\"\n# textsize 30\n@\n新たに[FF0000]2ユニット[-]が登場！\n\n# textsize 24\n# voice 6027 \"emiria_unit_0005\"\n@？？？\n精霊術の使い手を舐めないこと\n敵に回すと、怖いんだから\n\n# imagealpha 0 0 0\n# se \"SE_0575\"\n# fadein \"white\" 0.5\n# alpha 3602711 1 0\n# textwindow \"nomal\"\n# textalign \"center\"\n# voice 6027 \"emiria_unit_0006\"\n@\n『エミリア』\n精霊の祝福がありますように\n\n# textwindow \"close\"\n# fadeout \"black\" 0.5\n# waitandnext 1\n\n# imagealpha 0 1 0\n# alpha 3602711 0 0\n# fadein \"black\" 0.5\n# textwindow \"nomal\"\n# voice 2029 \"remu_kyara_0015\"\n@？？？\nふふっ。レムは鬼がかりました\n\n# imagealpha 0 0 0\n# se \"SE_0575\"\n# fadein \"white\" 0.5\n# alpha 3202911 1 0\n# textwindow \"nomal\"\n# textalign \"center\"\n# voice 2029 \"remu_unit_0010\"\n@\n『レム』\nレムがどうにかしてみせます\n\n# se \"SE_0050\"\n# bgm \"stop\"\n# textalign \"center\"\n# fadeout \"black\" 2\n# waitandnext 2\n@\n『レム』\nレムがどうにかしてみせます\n\n;;暗転挟む\n# effectskip 1000\n# alpha 3202911 0 0\n# background \"imperial_city\"\n# bgmfile \"bgm318\" \"BgmReZerocollobo\" 0\n# fadein \"white\" 0.5\n# alpha 174 1 0\n# alpha 3808611 1 0\n# textwindow \"nomal\"\n# textalign \"center\"\n# textsize 30\n@\nストーリークエスト&\n[FF0000]討伐戦登場！！[-]\n\n# move 3202911 4 0\n# move 3602711 2 0\n# fadein \"white\" 0.5\n# alpha 174 0 0\n# alpha 3808611 0 0\n# mask 3602711 on\n# mask 3202911 on\n# alpha 3602711 1 0\n# alpha 3202911 1 0\n# textalign \"center\"\n# textsize 24\n@\n[FF0000]ギルドメンバーと協力して、\n豪華報酬を手に入れよう！[-]\n\n# textflame 0 0\n# textalign \"center\"\n@\nストーリーを更に楽しむために、\n[MENUー→データダウンロード→ボイスのみ]\nからボイスデータをダウンロードしよう！\n\n# textalign \"center\"\n@\n[FF8000]スバル、パック[-]のボイスが\n[0000FF]再生されるぞ！[-]\n詳しくはお知らせをチェック！\n\n# textflame 1 1\n# face 3602711 \"happy\"\n# face 3202911 \"happy\"\n# voice 6027 \"emiria_0004\"\n# voice 2029 \"remu_0004\"\n# textalign \"center\"\n# textsize 30\n@\n[FF0000]他にもお得なCP開催中！[-]\nこちらもお知らせをチェック！"
	}
]