[
	{
		"ID": 719090101,
		"script": ";;-----------------------------------------\n# script \"lisp\"\n# background \"bg_white\"\n# bgm \"stop\"\n;;-----------------------------------------\n;;\n# body 2103811\n# pos 2103811 3\n# scale 2103811 0.8 0\n# layer 2103811 3\n# mask 2103811 off\n# alpha 2103811 0 0\n;;\n# body 2100231\n# pos 2100231 3\n# scale 2100231 0.8 0\n# layer 2100231 3\n# mask 2100231 off\n# alpha 2100231 0 0\n# brightness 2100231 0 0\n;;\n# body 2303111\n# pos 2303111 3\n# scale 2303111 0.8 0\n# layer 2303111 5\n# mask 2303111 off\n# alpha 2303111 0 0\n# brightness 2303111 0 0\n;;\n# body 2104211\n# pos 2104211 3\n# scale 2104211 0.8 0\n# layer 2104211 3\n# mask 2104211 off\n# alpha 2104211 0 0\n# brightness 2104211 0 0\n;;ベルディア\n# body 809411\n# pos 809411 3\n# scale 809411 1.4 0\n# layer 809411 2\n# alpha 809411 0 0\n# mask 809411 off\n;;ゆんゆん\n# body 2502611\n# pos 2502611 2\n# scale 2502611 0.8 0\n# layer 2502611 2\n# alpha 2502611 0 0\n;;ウィズ\n# body 2601811\n# pos 2601811 4\n# scale 2601811 0.8 0\n# layer 2601811 2\n# alpha 2601811 0 0\n;;-----------------------------------------\n# imageset 3 \"bg_white_circle\"\n# imagealpha 3 0 0\n# imagescale 3 1.5 0\n# imageset 4 \"bg_white\"\n# imagealpha 4 0 0\n# imagescale 4 1.5 0\n# imageset 2 \"mov2_2\"\n# imagescale 2 1.15 0\n# imagealpha 2 0 0\n# imageset 0 \"e190701_map\"\n# imagealpha 0 0 0\n# imageset 1 \"e170701_logo\"\n# imagescale 1 1 0\n# imagealpha 1 0 0\n# imagelayer 1 5\n# imageset 5 \"black\"\n# imagealpha 5 0 0\n# imagelayer 5 1\n;;-----------------------------------------\n# fadein \"black\" 3\n# textwindow \"close\"\n# waitandnext 4\n\n# fadein \"white\" 0.3\n# imagealpha 2 1 0\n# imagepos 2 0 -590\n# waitandnext 0.3\n\n# se \"SE_0057\"\n# imagealpha 4 1 0.8\n# imagepos 4 0 0\n# waitandnext 0.8\n\n# se \"SE_0050\"\n# imagealpha 4 0 0.8\n# imagealpha 2 0 1\n# envbody 1201 3 0\n# imagealpha 0 1 0.8\n# imagepos 0 0 15\n# waitandnext 1\n\n# textwindow \"nomal\"\n# textalign \"center\"\n# textflame 0 0\n@\n　\nいつかの時間軸、どこかの世界線で…\n\n# textalign \"center\"\n# textflame 0 0\n@\n　\n青い海に浮かぶ常夏の島がある─\n    \n# fadein \"white\" 2\n# bgmfile \"bgm348\" \"BgmSeaEventBattle003\" 0\n# background \"sea_palmbeach_day\"\n# textwindow \"close\"\n# imagealpha 0 0 0\n# imagealpha 1 1 0\n# imagepos 1 0 0\n# waitandnext 4\n\n# imagealpha 1 0 1\n# imagepos 1 0 0\n# waitandnext 1\n\n# textwindow \"nomal\"\n# textalign \"center\"\n# textsize 32\n# textflame 0 0\n@\nファントム オブ キル\n[0000FF]海上編[-]\n\n# fadein \"white\" 1\n# textwindow \"nomal\"\n# textalign \"center\"\n# textsize 34\n# textflame 0 0\n@\nファントム オブ [FF69B4]ラブ[-]\n開催中！\n\n# alpha 2103811 1 1\n# waitandnext 1\n# textwindow \"nomal\"\n# textalign \"center\"\n# textsize 34\n# textflame 0 0\n@\nファントム オブ [FF69B4]ラブ[-]\n開催中！\n\n# textwindow \"nomal\"\n# face 2103811 \"sad\"\n# voice 210381 \"almace_0027\"\n# textsize 24\n# textflame 1 1\n@アルマス\nはぁ～…\n夏も終わるっていうのに\n毎日なんなのよ、この暑さは\n\n# face 2103811 \"surprise\"\n# textsize 24\n# textflame 1 1\n@アルマス\nえ？そんなことより\n新しい仲間を紹介したい？\n\n# voice 210381 \"almace_0028\"\n# face 2103811 \"sad\"\n@アルマス\n別にいいけど…\n\n# textsize 18\n@アルマス\nもう少し私のことも\n気にかけてくれたっていいのに…\n\n;;アルマス消す\n# textwindow \"close\"\n# alpha 2103811 0 0.5\n# waitandnext 1.2\n\n# alpha 2303111 1 0.5\n# waitandnext 1\n\n# textwindow \"nomal\"\n# fadein \"white\" 0.5\n# se \"SE_0014\"\n# brightness 2303111 1 0\n# textalign \"center\"\n# textsize 28\n# textflame 0 0\n@\nカシウス・獣刻・ウロボロス\n海上編ver.\n\n# voice 230311 \"cassius_ge_event_1008\"\n# face 2303111 \"smile\"\n# textsize 24\n# textflame 1 1\n@カシウス\n季節を楽しむ…そんな感覚\n今までのわたしにはなかったわ\n\n;;消す\n# textwindow \"close\"\n# alpha 2303111 0 0.5\n# waitandnext 1.2\n\n# alpha 2100231 1 0.5\n# waitandnext 1\n\n# textwindow \"nomal\"\n# fadein \"white\" 0.5\n# se \"SE_0014\"\n# brightness 2100231 1 0\n# textalign \"center\"\n# textsize 28\n# textflame 0 0\n@\nレーヴァテイン・獣刻・バハムート\n海上編ver.\n\n# voice 210023 \"revatein_ge_event_1007\"\n# face 2100231 \"shy\"\n# textsize 24\n# textflame 1 1\n@レーヴァテイン\n似合ってるって…？\nふふっ。ありがと\n\n;;消す\n# textwindow \"close\"\n# alpha 2100231 0 0.5\n# waitandnext 1.2\n\n# alpha 2104211 1 0.5\n# waitandnext 1\n\n# textwindow \"nomal\"\n# fadein \"white\" 0.5\n# se \"SE_0014\"\n# brightness 2104211 1 0\n# textalign \"center\"\n# textsize 28\n# textflame 0 0\n@\nモラベガ・妖精結合・ピスカ\n海上編ver.\n\n# voice 210421 \"morabeaga_l_event_1008\"\n# face 2104211 \"smile\"\n# textsize 24\n# textflame 1 1\n@モラベガ\n海の中を泳ぐのって\n人魚姫みたいで素敵だよねっ\n\n;;消す\n# textwindow \"close\"\n# alpha 2104211 0 0.5\n# waitandnext 1\n\n# alpha 2103811 1 0.5\n# waitandnext 0.5\n\n# voice 210381 \"almace_0028\"\n# face 2103811 \"sad\"\n# textwindow \"nomal\"\n# textflame 1 1\n@アルマス\nたしかに頼りになりそうな\nキル姫だけど…\n\n# textsize 16\n@アルマス\n私だって、敵を倒したり\nマスターを守ったりしてるのに…\n\n;;暗転挟む\n# imagealpha 5 1 0\n# imagepos 5 0 30\n# imageleftin 5 0.5\n# textwindow \"close\"\n# waitandnext 0.5\n\n# alpha 2103811 0 0\n# waitandnext 0.2\n\n# imagealpha 5 0 0.5\n# imagerightout 5 0.5\n# waitandnext 0.6\n\n# fadein \"white\" 0.5\n# move 2100231 1 0\n# mask 2100231 on\n# face 2100231 \"smile\"\n# alpha 2100231 1 0\n# move 2303111 3 0\n# mask 2303111 on\n# face 2303111 \"smile\"\n# alpha 2303111 1 0\n# move 2104211 5 0\n# mask 2104211 on\n# face 2104211 \"smile\"\n# alpha 2104211 1 0\n# voice 210023 \"revatein_ge_0020\"\n# voice 230311 \"cassius_ge_0020\"\n# voice 210421 \"morabeaga_l_0004\"\n# textwindow \"nomal\"\n# se \"SE_0015\"\n# textalign \"center\"\n# textsize 28\n# textflame 0 0\n@\nピックアップガチャで\n海上編新ユニットGETのチャンス！！\nさらに特別なガチャも登場！！\n\n# fadein \"white\" 0.5\n# textalign \"center\"\n# textsize 28\n# textflame 0 0\n@\n加えて、\n新たなストーリークエストも追加！\n\n# face 2303111 \"normal\"\n# voice 230311 \"cassius_ge_0002\"\n# textsize 24\n# textflame 1 1\n@カシウス\n夏が過ぎ、春を待って\nまた夏が来る…\n季節はまさに円環の因子…\n\n# face 2100231 \"surprise\"\n# voice 210023 \"revatein_ge_0034\"\n@レーヴァテイン\nよくわかんないけど、\n夏休みにやり残したことはない？\n\n# face 2104211 \"normal\"\n# voice 210421 \"morabeaga_l_0032\"\n@モラベガ\n楽しかった夏もあと少し\nもっとマスターと、\nいろんなところに行きたいなあ…！\n\n;;暗転大きめ\n# bgm \"stop\"\n# se \"SE_0619\"\n# fadeout \"black\" 1.5\n# waitandnext 1.5\n\n# alpha 2303111 0 0\n# alpha 2100231 0 0\n# alpha 2104211 0 0\n# textwindow \"close\"\n# background \"sea_beach_day\"\n# bgmfile \"bgm208\" \"BgmKScollabo001\" 0\n# waitandnext 0.2\n\n# fadein \"black\" 1\n# waitandnext 1.5\n\n# textwindow \"nomal\"\n# textalign \"center\"\n# textsize 28\n# textflame 0 0\n@\n『ファンキル』ｘ『このすば』\nコラボ開催中！\nストーリークエスト後編追加！\n\n# fadein \"white\" 0.5\n# se \"SE_0014\"\n# alpha 2502611 1 0\n# alpha 2601811 1 0\n# face 2502611 \"angry\"\n# face 2601811 \"angry\"\n# textalign \"center\"\n# textsize 26\n# textflame 0 0\n@\nコラボレイドイベント\n[9400D3]この騒がしい強敵達に粛清を！[-]\n開催中！\n\n# textalign \"center\"\n# textsize 28\n# textflame 0 0\n@\n巨大蛙やベルディアを倒して…\n[FF0000]豪華報酬[-]をGETしよう！\n\n# alpha 2502611 0 0.5\n# alpha 2601811 0 0.5\n# alpha 809411 1 0.5\n# waitandnext 0.6\n# textalign \"center\"\n# textsize 28\n# textflame 0 0\n@\n巨大蛙やベルディアを倒して…\n[FF0000]豪華報酬[-]をGETしよう！\n\n# voice 8094 \"verdia_unit_0010\"\n# textflame 1 1\n# textboxarrow 0 2\n# textsize 24\n@ベルディア\nこの俺、自ら相手してやろう\n\n;;暗転挟む\n# imagealpha 5 1 0\n# imagepos 5 0 30\n# imageleftin 5 0.5\n# textwindow \"close\"\n# waitandnext 0.5\n\n# alpha 809411 0 0\n# voice 8094 \"verdia_0038\"\n# waitandnext 2.5\n\n# imagealpha 5 0 0.5\n# imagerightout 5 0.5\n# waitandnext 0.5\n\n# textwindow \"nomal\"\n# textalign \"center\"\n# textsize 28\n# textflame 0 0\n@\n詳しくはお知らせをチェック！\n\n# fadein \"white\" 0.5\n# se \"SE_0062\"\n# textalign \"center\"\n# textsize 28\n# textflame 0 0\n@\nまだまだ暑い9月\n今月もファンキルが熱い！\n\n;;暗転大きめ\n# bgm \"stop\"\n# se \"SE_0619\"\n# fadeout \"black\" 2.5\n# waitandnext 3\n# textwindow \"nomal\"\n# textalign \"center\"\n# textsize 28\n@\nまだまだ暑い9月\n今月もファンキルが熱い！"
	}
]