[
	{
		"ID": 719092001,
		"script": ";;-----------------------------------------\n# script \"lisp\"\n# background \"101_hole\"\n# bgmfile \"bgm314\" \"BgmLostRagnarokBattle005\" 0\n;;-----------------------------------------\n;;あばりｓ\n# body 3401011\n# pos 3401011 3\n# scale 3401011 0.8 0\n# layer 3401011 3\n# mask 3401011 off\n# alpha 3401011 0 0\n# brightness 3401011 0 0\n;;けらうのｓ\n# body 3500111\n# pos 3500111 3\n# scale 3500111 0.8 0\n# layer 3500111 3\n# mask 3500111 off\n# alpha 3500111 0 0\n# brightness 3500111 0 0\n;;あるてみｓ\n# body 3400111\n# pos 3400111 3\n# scale 3400111 0.8 0\n# layer 3400111 3\n# mask 3400111 off\n# alpha 3400111 0 0\n# brightness 3400111 0 0\n;;ふらいくーげｒ\n# body 3500211\n# pos 3500211 3\n# scale 3500211 0.8 0\n# layer 3500211 3\n# mask 3500211 off\n# alpha 3500211 0 0\n# brightness 3500211 0 0\n;;ヴぁなるがんｄ\n# body 3601111\n# pos 3601111 3\n# scale 3601111 0.8 0\n# layer 3601111 5\n# mask 3601111 off\n# alpha 3601111 0 0\n# brightness 3601111 0 0\n;;えろーｓ\n# body 400441\n# pos 400441 3\n# scale 400441 0.8 0\n# layer 400441 3\n# mask 400441 off\n# alpha 400441 0 0\n# body 400444\n# pos 400444 3\n# scale 400444 0.8 0\n# layer 400444 3\n# mask 400444 off\n# alpha 400444 0 0\n;;しｓとるｍ\n# body 601311\n# pos 601311 3\n# scale 601311 0.8 0\n# layer 601311 3\n# mask 601311 off\n# alpha 601311 0 0\n# body 601314\n# pos 601314 3\n# scale 601314 0.8 0\n# layer 601314 3\n# mask 601314 off\n# alpha 601314 0 0\n;;らぶりゅｓ\n# body 200335\n# pos 200335 3\n# scale 200335 0.8 0\n# layer 200335 3\n# mask 200335 off\n# alpha 200335 0 0\n;;-----------------------------------------\n# imageset 1 \"bg_white_circle\"\n# imagealpha 1 0 0\n# imagepos 1 0 0\n# imagelayer 1 4\n# imagescale 1 1.4 0\n# imageset 2 \"bg_white_circle\"\n# imagealpha 2 0 0\n# imagepos 2 0 0\n# imagelayer 2 5\n# imagescale 2 1.5 0\n;;-----------------------------------------\n# envbody 11111 8 0\n# effectpattern 11111 1 0\n;;-----------------------------------------\n# fadein \"black\" 2\n# textwindow \"close\"\n# waitandnext 3\n\n# move 3500111 2 0\n# mask 3500111 on\n# alpha 3500111 1 0.5\n# move 3401011 4 0\n# mask 3401011 on\n# alpha 3401011 1 0.5\n# se \"SE_1051\"\n# textwindow \"nomal\"\n# textflame 0 0\n# textalign \"center\"\n# textsize 32\n@\nクラスチェンジ開放ユニット\n5体追加！\n\n# alpha 3500111 0 0.5\n# alpha 3401011 0 0.5\n# move 3400111 1 0\n# mask 3400111 on\n# alpha 3400111 1 0.5\n# move 3500211 3 0\n# mask 3500211 on\n# alpha 3500211 1 0.5\n# move 3601111 5 0\n# mask 3601111 on\n# alpha 3601111 1 0.5\n# se \"SE_1051\"\n# textwindow \"nomal\"\n# textflame 0 0\n# textalign \"center\"\n# textsize 32\n@\nクラスチェンジ開放ユニット\n5体追加！\n\n# alpha 3601111 0 0.8\n# alpha 3400111 0 0.8\n# alpha 3500211 0 0.8\n# face 3401011 \"usual\"\n# waitandnext 0.8\n# textwindow \"nomal\"\n# textflame 0 0\n# textalign \"center\"\n# textsize 32\n@\nクラスチェンジ開放ユニット\n5体追加！\n\n# brightness 3500111 1 0\n# brightness 3401011 1 0\n# brightness 3400111 1 0\n# brightness 3500211 1 0\n# brightness 3601111 1 0\n# waitandnext 0.2\n# textwindow \"nomal\"\n# textflame 0 0\n# textalign \"center\"\n# textsize 32\n@\nクラスチェンジ開放ユニット\n5体追加！\n\n# imagealpha 1 1 0.2\n# imagepos 1 0 0\n# move 3401011 3 0\n# mask 3401011 off\n# alpha 3401011 1 0.5\n# effectstart 11111\n# se \"SE_0517\"\n# textwindow \"nomal\"\n# textflame 0 0\n# textalign \"center\"\n# textsize 24\n@\n　\nアバリス・D. plug・パズズ\n\n# imagealpha 1 0 0\n# imagepos 1 0 0\n# face 3401011 \"angry\"\n# voice 340101 \"abaris_a_unit_0009\"\n# fadein \"white\" 0.7\n# se \"SE_9040\"\n# textwindow \"nomal\"\n# textflame 0 0\n# textalign \"center\"\n@\nVertex3 開放！\n【 ロングハンター 】\n\n# imagealpha 1 1 0.2\n# imagepos 1 0 0\n# alpha 3401011 0 0.5\n# move 3500111 3 0\n# mask 3500111 off\n# alpha 3500111 1 0.5\n# se \"SE_0517\"\n# textwindow \"nomal\"\n# textflame 0 0\n# textalign \"center\"\n@\n　\nケラウノス・獣刻・テュポーン\n\n# imagealpha 1 0 0\n# imagepos 1 0 0\n# face 3500111 \"angry\"\n# voice 350011 \"keraunosu_ge_kyara_0020\"\n# fadein \"white\" 0.7\n# se \"SE_9040\"\n# textwindow \"nomal\"\n# textflame 0 0\n# textalign \"center\"\n@\n【 ブラストマスター 】\n【 サイキックシューター 】\n【 マシーナリー 】\n\n# imagealpha 1 1 0.2\n# imagepos 1 0 0\n# alpha 3500111 0 0.5\n# move 3400111 3 0\n# mask 3400111 off\n# alpha 3400111 1 0.5\n# se \"SE_0517\"\n# textwindow \"nomal\"\n# textflame 0 0\n# textalign \"center\"\n@\n　\nアルテミス・獣刻・マスターテリオン\n\n# imagealpha 1 0 0\n# imagepos 1 0 0\n# face 3400111 \"angry\"\n# voice 340011 \"arutemisu_ge_unit_0009\"\n# fadein \"white\" 0.7\n# se \"SE_9040\"\n# textwindow \"nomal\"\n# textflame 0 0\n# textalign \"center\"\n@\n【 サンダーマスター 】\n【 ヴェノムハザード 】\n【 トレースハンター 】\n\n# imagealpha 1 1 0.2\n# imagepos 1 0 0\n# alpha 3400111 0 0.5\n# face 3500211 \"usual\"\n# move 3500211 3 0\n# mask 3500211 off\n# alpha 3500211 1 0.5\n# se \"SE_0517\"\n# textwindow \"nomal\"\n# textflame 0 0\n# textalign \"center\"\n@\n　\nフライクーゲル・聖鎖・アズラエル\n\n# imagealpha 1 0 0\n# imagepos 1 0 0\n# face 3500211 \"normal\"\n# voice 350021 \"furaikugeru_t_unit_0009\"\n# fadein \"white\" 0.7\n# se \"SE_9040\"\n# textwindow \"nomal\"\n# textflame 0 0\n# textalign \"center\"\n@\n【 シャドウマスター 】\n【 ゼロシューター 】\n【 ガンスリンガー 】\n\n# imagealpha 1 1 0.2\n# imagepos 1 0 0\n# alpha 3500211 0 0.5\n# move 3601111 3 0\n# mask 3601111 off\n# alpha 3601111 1 0.5\n# se \"SE_0517\"\n# textwindow \"nomal\"\n# textflame 0 0\n# textalign \"center\"\n@\n　\nヴァナルガンド・聖鎖・サリエル\n\n# imagealpha 1 0 0\n# imagepos 1 0 0\n# face 3601111 \"happy\"\n# voice 360111 \"vanargand_t_kyara_0014\"\n# fadein \"white\" 0.7\n# se \"SE_9040\"\n# textwindow \"nomal\"\n# textflame 0 0\n# textalign \"center\"\n@\n【 フローズンマスター 】\n【 ハーミット 】\n【 ルーンキャスター 】\n\n# se \"SE_5535\"\n# fadein \"white\" 0.7\n# face 3500111 \"happy\"\n# face 3401011 \"happy\"\n# face 3400111 \"happy\"\n# face 3500211 \"happy\"\n# face 3601111 \"happy\"\n# voice 350011 \"keraunosu_ge_0020\"\n# voicedelay 340101 \"abaris_a_0020\" 1\n# alpha 3601111 0 0\n# move 3500111 4 0\n# mask 3500111 on\n# alpha 3500111 1 0\n# move 3401011 2 0\n# mask 3401011 on\n# alpha 3401011 1 0\n# textwindow \"nomal\"\n# textflame 0 0\n# textalign \"center\"\n# textsize 30\n@\nクラスチェンジユニット\nピックアップ5STEPガチャ開催！\n\n# alpha 3500111 0 0\n# alpha 3401011 0 0\n# se \"SE_5535\"\n# fadein \"white\" 0.7\n# voicedelay 340011 \"arutemisu_ge_0021\" 1.5\n# voicedelay 350021 \"furaikugeru_t_0020\" 0.8\n# voice 360111 \"vanargand_t_0021\"\n# move 3400111 5 0\n# mask 3400111 on\n# alpha 3400111 1 0\n# move 3500211 1 0\n# mask 3500211 on\n# alpha 3500211 1 0\n# move 3601111 3 0\n# mask 3601111 on\n# alpha 3601111 1 0\n# textwindow \"nomal\"\n# textflame 0 0\n# textalign \"center\"\n# textsize 30\n@\nおまけでクラスチェンジ素材を\n大量ゲット！\n\n;;暗転大きめ\n# bgm \"stop\"\n# se \"SE_0619\"\n# fadeout \"black\" 1.5\n# waitandnext 1.3\n# textalign \"center\"\n# textsize 30\n@\nおまけでクラスチェンジ素材を\n大量ゲット！\n\n# alpha 3601111 0 0\n# alpha 3400111 0 0\n# alpha 3500211 0 0\n# effectskip 11111\n# textwindow \"close\"\n# background \"aerial_shoot\"\n# bgm \"bgm036\" 0\n# waitandnext 0.2\n\n# fadein \"black\" 1\n# waitandnext 1.5\n\n# textwindow \"nomal\"\n# textflame 0 0\n# textalign \"center\"\n# textsize 38\n@\n[FF0000]覚醒ユニット[-]\n2体登場！\n\n# imagealpha 1 1 0.5\n# imagepos 1 0 0\n# imagealpha 2 1 0.5\n# imagepos 2 0 0\n# se \"SE_2520\"\n# alpha 400441 1 0.5\n# textflame 0 0\n# textalign \"center\"\n# textsize 36\n@\nエロース\n[FF0000]覚醒！[-]\n\n# se \"SE_9182\"\n# fadein \"white\" 0.7\n# alpha 400441 0 0\n# alpha 400444 1 0\n# envbody 1002 11 0\n# effectpattern 1002 2 0\n# effectstart 1002\n# imagealpha 1 0 0\n# imagealpha 2 0 0\n# textalign \"center\"\n# textsize 36\n@\nエロース\n[FF0000]覚醒！[-]\n\n# imageset 0 \"black\"\n# imagealpha 0 0 0\n# imagelayer 0 1\n# voice 4004 \"erosu_unit_0008\"\n# textflame 1 1\n# textsize 24\n# textboxarrow 0 2\n@エロース\nそのハート、\n撃ちぬいちゃいます♪\n\n;;暗転挟む\n# imagealpha 0 1 0\n# imagepos 0 0 30\n# imageleftin 0 0.3\n# textwindow \"close\"\n# waitandnext 0.3\n\n# effectskip 1002\n# alpha 400444 0 0\n# waitandnext 0.2\n\n# imagealpha 0 0 0.3\n# imagerightout 0 0.3\n# waitandnext 0.3\n\n# imagealpha 1 1 0.5\n# imagepos 1 0 0\n# imagealpha 2 1 0.5\n# imagepos 2 0 0\n# se \"SE_2520\"\n# alpha 601311 1 0.5\n# textwindow \"nomal\"\n# textflame 0 0\n# textalign \"center\"\n# textsize 36\n@\nシストルム\n[FF0000]覚醒！[-]\n\n# se \"SE_9182\"\n# fadein \"white\" 0.7\n# alpha 601311 0 0\n# alpha 601314 1 0\n# envbody 1002 11 0\n# effectpattern 1002 2 0\n# effectstart 1002\n# imagealpha 1 0 0\n# imagealpha 2 0 0\n# textalign \"center\"\n# textsize 36\n@\nシストルム\n[FF0000]覚醒！[-]\n\n# voice 6013 \"sistrum_kyara_0020\"\n# textflame 1 1\n# textsize 24\n# textboxarrow 0 2\n@シストルム\nもっともっとやれるにゃ！\n\n;;暗転挟む\n# imagealpha 0 1 0\n# imagepos 0 0 30\n# imageleftin 0 0.3\n# textwindow \"close\"\n# waitandnext 0.3\n\n# effectskip 1002\n# alpha 601314 0 0\n# waitandnext 0.2\n\n# imagealpha 0 0 0.3\n# imagerightout 0 0.3\n# waitandnext 0.3\n\n# textwindow \"nomal\"\n# textflame 0 0\n# textalign \"center\"\n# textsize 32\n@\nイベントクエスト\n「淘汰の彼方に」開催！\nさらに…\n\n# se \"SE_2520\"\n# fadein \"white\" 0.7\n# alpha 200335 1 0\n# textflame 0 0\n# textalign \"center\"\n# textsize 36\n@\nラブリュス\n神器登場！\n\n# fadein \"white\" 0.5\n# voice 2003 \"loveryus_kyara_0015\"\n# textflame 0 0\n# textalign \"center\"\n# textsize 32\n@\n神器探求\n「聖愛斧・ラブリュス」開催！\n\n# fadein \"white\" 0.5\n# alpha 200335 0 0\n# textflame 0 0\n# textalign \"center\"\n# textsize 32\n@\n詳しくは\nお知らせをチェック！\n\n;;暗転(大)\n# bgm \"stop\"\n# fadeout \"black\" 2\n# se \"SE_0050\"\n# textwindow \"nomal\"\n# textalign \"center\"\n# textsize 32\n# waitandnext 2\n@\n詳しくは\nお知らせをチェック！"
	}
]