[
	{
		"ID": 719021501,
		"script": ";;-----------------------------------------\n;;タガタメ　ギルドレイドマイペ\n;;-----------------------------------------\n# script \"lisp\"\n# background \"101_plain_daytime\"\n# bgmfile \"bgm322\" \"Bgm3Tcollabo004\" 0\n;;-----------------------------------------\n;;アハト\n# body 202711\n# pos 202711 2\n# scale 202711 0.8 0\n# alpha 202711 0 0\n;;フィーア\n# body 602611\n# pos 602611 4\n# scale 602611 0.8 0\n# alpha 602611 0 0\n;;-----------------------------------------\n# imageset 1 \"bg_white_circle\"\n# imagealpha 1 0 0\n# imagepos 1 0 0\n# imagelayer 1 4\n# imagescale 1 1.4 0\n;;-----------------------------------------\n# fadein \"white\" 1\n# textwindow \"nomal\"\n# textflame 0 0\n# textalign \"center\"\n# textsize 30\n@\n[DC143C]誰ガ為のアルケミスト[-]\nコラボイベント\n\n# se \"SE_2523\"\n# textalign \"center\"\n# textsize 36\n@\nファントム オブ アルケミスト\n[FF0000]ギルドレイド[-]開催！！\n\n# se \"SE_0540\"\n# textwindow \"close\"\n# imagealpha 1 1 1\n# imagepos 1 0 0\n# waitandnext 1.5\n\n# alpha 202711 1 1.5\n# alpha 602611 1 1.5\n# waitandnext 1.5\n\n# fadein \"white\" 0.5\n# imagealpha 1 0 0\n# textwindow \"nomal\"\n# textflame 0 0\n# textalign \"center\"\n# textsize 30\n@\n[191970]ギルド[-]に加入して\nレイドボスに挑戦！\n\n# textalign \"center\"\n# textsize 30\n@\nギルドメンバーと協力し\nギルド対抗ランキング上位入賞で\n[FFA500]豪華報酬[-]をゲットしよう!!\n\n# alpha 202711 0 0\n# alpha 602611 0 0\n# se \"SE_2520\"\n# fadein \"white\" 0.5\n# textalign \"center\"\n# textsize 30\n@\n詳しくはお知らせをチェック！\n\n# fadeout \"black\" 1.5\n# waitandnext 1.5\n# textalign \"center\"\n# textsize 30\n@\n詳しくはお知らせをチェック！"
	}
]