[
	{
		"ID": 7771031,
		"script": ";;【EP3】戦闘前\n# script \"lisp\"\n# background \"town\"\n# bgm \"bgm003\" 0\n# body 201921\n# pos 201921 1\n# scale 201921 0.8 0\n# body 102521\n# pos 102521 3\n# scale 102521 0.8 0\n# body 501731\n# pos 501731 5\n# scale 501731 0.8 0\n# layer 102521 3\n# layer 201921 2\n# layer 501731 1\n# textflame 1 1\n# textboxarrow 0 1\n# voice 2019 \"chihyu_0002\"\n# face 501731 \"usual\"\n# face 201921 \"usual\"\n# chara 201921\n@シユウ\nねぇねぇ！おまえとおまえも\nつよいいぞくっていうの\nたおしにいくんだろ？\n\n# textboxarrow 0 2\n# voice 1025 \"muramasa_0013\"\n# face 102521 \"angry\"\n# chara 102521\n@ムラマサ\nせ、拙者はそのつもりで…ござる！\n\n# textboxarrow 0 3\n# face 501731 \"angry\"\n# chara 501731\n@グリモワール\n…でぇ？\nワタシがどうするつもりかなんて、\nキミには関係ないでしょ\n\n# emotionbody 5902 10 201921 -80 225\n# effectpattern 5902 2 0\n# effectstart 5902\n# textboxarrow 0 1\n# voice 2019 \"chihyu_0004\"\n# face 201921 \"happy\"\n# chara 201921\n@シユウ\nたおしにいくなら\nシユウときょうそうしよう！\n\n# effectskip 5902\n# se \"SE_6510\"\n# emotionbody 5501 6 501731 60 160\n# effectpattern 5501 2 1\n# effectstart 5501\n# textboxarrow 0 3\n# chara 501731\n@グリモワール\nキミ、もう少しくらい\n人の話を聞いたらぁ！？\n\n# effectskip 5501\n# textboxarrow 0 2\n# voice 1025 \"muramasa_0004\"\n# face 102521 \"happy\"\n# chara 102521\n@ムラマサ\nふふっ…\nシユウさんは最初にあった時から\nこんな感じでしたよね…でござる\n\n# textboxarrow 0 3\n# face 501731 \"usual\"\n# chara 501731\n@グリモワール\n…そういうキミは、\n最初はそんな変な言葉遣い\nしてなかったのに\n\n# textboxarrow 0 3\n# chara 501731\n# face 501731 \"angry\"\n@グリモワール\nむ～、どうしてこんな変なヤツらと\n同じ扱いなのかしら！\n最初の、あの時からそうだったわ…\n\n;;//画面フェードアウト\n;;//ムラマサとグリモワールとシユウの出会いに関して\n;;――場面転換――\n# imageset 1 \"bg_white\"\n# imagealpha 1 0 0\n# imagescale 1 10 0\n# serif 1\n# textwindow \"close\"\n# serif 0\n# textwindow \"close\"\n# fadeout \"white\" 2.3\n# waitandnext 2.7\n\n# alpha 102521 0 0\n# alpha 201921 0 0\n# alpha 501731 0 0\n# imagepos 1 0 0\n# imagealpha 1 1 0\n# fadein \"white\" 1\n# serif 0\n# textwindow \"nomal\"\n# textflame 0 0\n@\nティルフィング達と同様、\nパラシュとマサムネ、\nそしてフライクーゲルの三人も、\n\n# alpha 200411 0 0\n# body 200411\n# pos 200411 3\n# scale 200411 0.8 0\n# textflame 0 0\n@\nマスターの指示の下、手分けして\n新たなキラープリンセス探索の\n任に就いていた――\n\n# background \"forest\"\n# bgm \"bgm002\" 0.3\n# serif 1\n# textwindow \"close\"\n# serif 0\n# textwindow \"close\"\n# imagealpha 1 0 1\n# waitandnext 1.1\n\n# alpha 200411 1 0.5\n# serif 0\n# textwindow \"nomal\"\n# textflame 1 1\n# textboxarrow 0 2\n# face 200411 \"smile\"\n# chara 200411\n@パラシュ\n…さて、まずは問題の\n新人キラープリンセスがこの辺りに\nいるかどうかをはっきりさせないと…\n\n# textboxarrow 0 2\n# chara 200411\n@パラシュ\n捕まえられるか、\nすぐ近くにいるとわかったら\nマスターに連絡して合流しよう\n\n# textboxarrow 0 2\n# voice 2004 \"parashu_0028\"\n# chara 200411\n@パラシュ\nそれで、この辺で見たって話だけど…\nどこにいるのかな？\n\n# textboxarrow 0 2\n# chara 200411\n@パラシュ\nすごく子どもっぽい外見で、\n天真爛漫そのものって聞いたけど…\n\n# bgm \"stop\" 0.5\n# waitandnext 0.5\n\n;;//SE:藪から飛び出る音\n# se \"SE_5584\"\n# waitandnext 1\n\n;;//SE:転がる音\n# emotionbody 7777 11 200411 90 200\n# effectpattern 7777 1 0\n# effectstart 7777\n# bgm \"bgm006\" 0\n# se \"SE_9430\"\n# alpha 201921 1 0.5\n# move 200411 4 0.5\n# leftin 201921 0.5\n# shake 0 0.3\n# serif 1\n# textboxarrow 1 1\n# textboxarrow 0 0\n# face 200411 \"angry02\"\n# chara 201921\n@シユウ\nぷはぁ～！\n\n;;//驚いて言葉が出ない\n# effectskip 7777\n# serif 1\n# textwindow \"close\"\n# serif 0\n# textwindow \"nomal\"\n# textboxarrow 0 3\n# chara 200411\n@パラシュ\n…………\n\n# emotionbody 5100 2 201921 10 250\n# effectpattern 5100 1 1\n# effectstart 5100\n# textboxarrow 0 1\n# face 201921 \"usual\"\n# chara 201921\n@シユウ\n…お？なんだ？\nもしかして、シユウになにかようか？\n\n# effectskip 5100\n# textboxarrow 0 3\n# voice 2004 \"parashu_0040\"\n# face 200411 \"smile\"\n# chara 200411\n@パラシュ\n…なるほど、君がシユウか…！\n確かに、聞いた通りだな\n\n# textboxarrow 0 3\n# chara 200411\n@パラシュ\nさぁ、ボクと一緒に\nマスターのところへ行こう！\n\n# textboxarrow 0 1\n# face 201921 \"happy\"\n# chara 201921\n@シユウ\nんー…\nシユウをつかまえることが\nできたらいいぞ！\n\n;;//SE：駆け出す音\n;;//シユウアウト\n# emotionbody 5001 1 200411 25 280\n# effectpattern 5001 2 0\n# effectstart 5001\n# se \"SE_9430\"\n# alpha 201921 0 0.5\n# leftout 201921 0.5\n# move 200411 2 0.5\n# imageset 0 \"black\"\n# imagealpha 0 0 0\n# imagelayer 0 1\n# textboxarrow 0 1\n# voice 2004 \"parashu_0022\"\n# face 200411 \"angry02\"\n# chara 200411\n@パラシュ\nあ、ちょっと、君！？\n待ってくれ…！！\n\n;;――場面転換――\n# effectskip 5001\n# alpha 100111 0 0\n# body 100111\n# pos 100111 1\n# scale 100111 0.8 0\n# imagealpha 0 1 0\n# imagepos 0 0 30\n# imageleftin 0 0.5\n# serif 0\n# textwindow \"close\"\n# serif 1\n# textwindow \"close\"\n# face 102521 \"angry\"\n# waitandnext 1\n\n# bgm \"bgm003\" 0.3\n# alpha 102521 1 0\n# alpha 200411 0 0\n# background \"forest\"\n# imagealpha 0 0 0.5\n# imagerightout 0 0.5\n# serif 0\n# textwindow \"nomal\"\n# textflame 1 1\n# textboxarrow 0 2\n# voice 1025 \"muramasa_battle_0002\"\n# chara 102521\n@ムラマサ\n…タァッ！\n…セイッ！\n\n# textboxarrow 0 2\n# face 102521 \"sad\"\n# chara 102521\n@ムラマサ\n…ふぅ…\n…どれだけ剣を振ったところで\n未熟な身のままでは…\n\n# alpha 100111 1 0.5\n# textboxarrow 0 1\n# face 100111 \"nutual\"\n# face 102521 \"surprise\"\n# chara 100111\n@マサムネ\n…いや、\nそう卑下したものでもなかろう\nなかなかの剣筋であった\n\n# emotionbody 1001 1 102521 20 310\n# effectpattern 1001 2 0\n# effectstart 1001\n# move 102521 4 0.3\n# textboxarrow 0 3\n# voice 1025 \"muramasa_0023\"\n# chara 102521\n@ムラマサ\n！！\nど、どなたですか！？\n\n# effectskip 1001\n# textboxarrow 0 1\n# voice 1001 \"masamune_0031\"\n# face 100111 \"unhappy\"\n# chara 100111\n@マサムネ\n驚かせてすまない\n拙者、マサムネと申す\n怪しい者ではござらん\n\n# textboxarrow 0 3\n# voice 1025 \"muramasa_0022\"\n# face 102521 \"sad\"\n# chara 102521\n@ムラマサ\nせ、拙者…？ござらん…？\nあ、私、ムラマサです…\n\n# textboxarrow 0 1\n# face 100111 \"nutual\"\n# chara 100111\n@マサムネ\n教会が、そなたのような\n新たなキラープリンセスを\n探しておるのだ\n\n# textboxarrow 0 1\n# face 100111 \"unhappy\"\n# chara 100111\n@マサムネ\nどの主君にも仕えていない、\n浪人とも言うべき状況…\n決して、褒められたものではない\n\n# textboxarrow 0 3\n# voice 1025 \"muramasa_0027\"\n# chara 102521\n@ムラマサ\nで、ですが、\n私なんかじゃ、仕えたくても\n誰も相手してくれないんじゃ…\n\n# textboxarrow 0 1\n# voice 1001 \"masamune_0004\"\n# face 100111 \"nutual\"\n# chara 100111\n@マサムネ\n…どんな名刀も、\n使う者次第では\nなまくらになってしまう\n\n# textboxarrow 0 1\n# face 100111 \"happy\"\n# chara 100111\n@マサムネ\nだが、少なくとも拙者には\n先ほどの剣筋を見る限り\nそなたがなまくらとは思わなかったぞ\n\n# textboxarrow 0 1\n# face 100111 \"nutual\"\n# chara 100111\n@マサムネ\nそなたはもっと、\n自分の力を信じてみてはどうだ？\n\n# textboxarrow 0 3\n# face 102521 \"surprise\"\n# chara 102521\n@ムラマサ\n私の…力…\n\n# move 200411 1 0\n# move 201921 3 0\n# textboxarrow 0 1\n# voice 1001 \"masamune_0003\"\n# chara 100111\n@マサムネ\n…ふむ…\n\n# bgm \"stop\" 0.5\n# waitandnext 0.5\n\n;;//SE:藪から飛び出る音\n# se \"SE_5584\"\n# waitandnext 1\n\n;;//SE:転がる音\n# bgm \"bgm006\" 0\n# se \"SE_9430\"\n# emotionbody 5903 10 201921 95 225\n# effectpattern 5903 3 0\n# effectstart 5903\n# alpha 100111 0 0.5\n# alpha 102521 0 0.5\n# alpha 201921 1 0.5\n# leftin 201921 0.5\n# serif 1\n# textboxarrow 1 2\n# textboxarrow 0 0\n# voice 2019 \"chihyu_0005\"\n# face 201921 \"happy\"\n# chara 201921\n@シユウ\nあーははははははははは！！！！\n\n# se \"SE_5575\"\n# effectskip 5903\n# serif 1\n# textwindow \"close\"\n# serif 0\n# textwindow \"nomal\"\n# alpha 200411 1 0.5\n# leftin 200411 0.5\n# move 201921 5 0.5\n# textboxarrow 0 1\n# chara 200411\n@パラシュ\n…あっ、マサムネ！\nあの子を捕まえるのを\n手伝ってくれないか！？\n\n# alpha 200411 0 0.3\n# alpha 201921 0 0.3\n# alpha 100111 1 0.5\n# alpha 102521 1 0.5\n# textboxarrow 0 1\n# face 100111 \"nutual\"\n# chara 100111\n@マサムネ\nふむ、なかなか手強い相手のようだな\n…心得た！\nムラマサよ、お主もついてこい！\n\n# imageset 0 \"black\"\n# imagealpha 0 0 0\n# imagelayer 0 1\n# textboxarrow 0 3\n# voice 1025 \"muramasa_0022\"\n# face 102521 \"surprise\"\n# chara 102521\n@ムラマサ\nえっ？\nあっ、は…はいっ！！\n\n;;――場面転換――\n# alpha 500211 0 0\n# move 501731 2 0\n# move 201921 1 0.5\n# body 500211\n# pos 500211 4\n# scale 500211 0.8 0\n# imagealpha 0 1 0\n# imagepos 0 0 30\n# imageleftin 0 0.5\n# serif 0\n# textwindow \"close\"\n# serif 1\n# textwindow \"close\"\n# waitandnext 1\n\n# bgm \"bgm002\" 0.3\n# alpha 102521 0 0\n# alpha 100111 0 0\n# alpha 501731 1 0.5\n# background \"forest\"\n# imagealpha 0 0 0.5\n# imagerightout 0 0.5\n# serif 0\n# textwindow \"nomal\"\n# textflame 1 1\n# textboxarrow 0 1\n# face 501731 \"usual\"\n# chara 501731\n@グリモワール\n…………\n\n# alpha 500211 1 0.5\n# textboxarrow 0 3\n# face 500211 \"happy\"\n# chara 500211\n@フライクーゲル\nヘーイ　ユー！\nこんなところでなにしてるの？\n\n# textboxarrow 0 1\n# face 501731 \"angry\"\n# chara 501731\n@グリモワール\n…見てわからない？\n本を読んでるんだから、\n邪魔しないで！\n\n# textboxarrow 0 3\n# face 500211 \"sad\"\n# chara 500211\n@フライクーゲル\nソーリーソーリー☆\n…でも、本を読むならもうちょっと\n場所を選んだ方がグッドじゃない？\n\n# textboxarrow 0 1\n# chara 501731\n@グリモワール\nそんなの、ワタシの勝手でしょ！\n誰かの邪魔になってるわけでも\nないんだし…\n\n;;//SE:藪から飛び出る音\n# se \"SE_5584\"\n# waitandnext 1\n\n;;//SE:転がる音\n# se \"SE_6525\"\n# effectskip 1112\n# emotionbody 1112 11 501731 -90 190\n# effectpattern 1112 2 0\n# effectstart 1112\n# se \"SE_6525\"\n# effectskip 1113\n# emotionbody 1113 11 500211 -90 220\n# effectpattern 1113 2 0\n# effectstart 1113\n# se \"SE_9430\"\n# serif 1\n# textboxarrow 1 0\n# voice 2019 \"chihyu_0022\"\n# face 201921 \"happy\"\n# face 501731 \"surprise\"\n# face 500211 \"surprise\"\n# chara 201921\n@シユウ\nあーははは…あっ！\n\n# effectskip 1112\n# effectskip 1113\n# se \"SE_9347\"\n# serif 1\n# textwindow \"close\"\n# serif 0\n# textwindow \"nomal\"\n# alpha 201921 1 0.5\n# leftin 201921 0.5\n# move 501731 3 0.5\n# move 500211 5 0.5\n# waitandnext 0.5\n# textboxarrow 0 2\n# chara 501731\n@グリモワール\nええっ！？\n\n;;//SE:ぶつかる音\n;;//画面フラッシュ\n# se \"SE_4759\"\n# fadein \"white\" 0.3\n# shake 0 0.7\n# face 501731 \"angry\"\n# waitandnext 0.4\n\n# emotionbody 5560 6 501731 60 170\n# effectpattern 5560 1 1\n# effectstart 5560\n# textboxarrow 0 2\n# chara 501731\n@グリモワール\nいたあ…っ！\nちょ、ちょっとキミ！？\nいきなりなんなの！？\n\n# effectskip 5560\n# emotionbody 6666 9 201921 -50 160\n# effectpattern 6666 6 0\n# effectstart 6666\n# textboxarrow 0 1\n# voice 2019 \"chihyu_0031\"\n# face 201921 \"sad\"\n# chara 201921\n@シユウ\n…うーん、ごめんなさい\nちゃんとまえみてなかったー\n\n# effectskip 6666\n# textboxarrow 0 3\n# face 500211 \"happy\"\n# chara 500211\n@フライクーゲル\nアーユーオーライ？\nこういうこともあるから\n気をつけないとね☆\n\n# textboxarrow 0 2\n# chara 501731\n@グリモワール\n余計なお世話よ！\nでぇ？…さっきからなんなの？\nワタシになんか用でもあるわけぇ？\n\n# textboxarrow 0 3\n# face 500211 \"surprise\"\n# chara 500211\n@フライクーゲル\nイエス！\nユーがグリモワールでしょ？\n探してたんだよね～\n\n# emotionbody 5881 9 501731 60 185\n# effectpattern 5881 1 0\n# effectstart 5881\n# textboxarrow 0 2\n# face 501731 \"usual\"\n# chara 501731\n@グリモワール\n…ワタシを？なんで？\nてか、なんでそんなに\nテンション高いの…？\n\n# effectskip 5881\n# textboxarrow 0 3\n# face 500211 \"happy\"\n# chara 500211\n@フライクーゲル\nあはは☆\n細かいことは気にせず、\nマスターに会ってみるといいね！\n\n# emotionbody 5200 3 500211 10 290\n# effectpattern 5200 1 3\n# effectstart 5200\n# move 200411 1 0\n# textboxarrow 0 3\n# chara 500211\n@フライクーゲル\nそろそろここに着く頃…\nオー、エブリバディ、\nナイスタイミング！\n\n# se \"SE_5575\"\n# effectskip 5200\n# move 500211 5 0.5\n# alpha 201921 0 0.3\n# alpha 200411 1 0\n# leftin 200411 0.5\n# textboxarrow 0 1\n# voice 2004 \"parashu_0008\"\n# face 200411 \"smile\"\n# chara 200411\n@パラシュ\nやっと追いついた！\n…おや、マスターに\nフライクーゲルもいたのか！\n\n# alpha 810004 0 0\n# body 810004\n# pos 810004 3\n# mask 810004 off\n# scale 810004 0.8 0\n# textboxarrow 0 3\n# face 500211 \"normal\"\n# face 501731 \"angry\"\n# face 200411 \"angry01\"\n# chara 500211\n@フライクーゲル\n…でも、あいさつは後回しだね！\nまずはこいつらを\n追い払ってからだよ☆\n\n# se \"SE_0617\"\n# serif 0\n# textwindow \"close\"\n# move 100111 3 0\n# alpha 501731 0 0.3\n# alpha 500211 0 0.3\n# alpha 200411 0 0.3\n# alpha 810004 1 0.5\n# waitandnext 2\n\n# alpha 810004 0 0.3\n# alpha 500211 1 0.5\n# alpha 200411 1 0.5\n# alpha 100111 1 0.5\n# serif 0\n# textwindow \"nomal\"\n# textboxarrow 0 1\n# face 200411 \"angry02\"\n# face 100111 \"nutual\"\n# chara 200411\n@パラシュ\n君達は後ろに下がって、\nマスターを守っていてくれ\nマサムネ、フライクーゲル、行くよ！\n"
	}
]