[
	{
		"ID": 780040012,
		"script": ";;アルベル探求編接触時\n# script \"lisp\"\n# body 502911\n# pos 502911 3\n# scale 502911 0.8 0\n# textflame 1 1\n# textboxarrow 0 2\n# chara 502911\n# mask 502911 off\n# face 502911 \"angry\"\n# voice 5029 \"albell_0007\"\n@アルベル\nふっ…\n\n# voice 5029 \"albell_unit_0006\"\n@アルベル\n負けてあげる義理はないわ"
	}
]