[
	{
		"ID": 780100014,
		"script": ";;ロフィア編_探究_ボス接触時\n# body 602811\n# pos 602811 3\n# scale 602811 0.8 0\n# alpha 602811 1 0\n# mask 602811 off\n# textflame 1 1\n# textboxarrow 0 2\n# face 602811 \"angry\"\n# voice 6028 \"rofia_unit_0008\"\n@ロフィア\nお砂糖パワー！"
	}
]