[
	{
		"ID": 820303,
		"script": ";;2話_3_3　背景：王都（可能ならば裏路地っぽいところ）\n# script \"lisp\"\n# background \"imperial_city\"\n# bgm \"bgm005\" 0\n# body 400131\n# pos 400131 3\n# scale 400131 0.8 0\n# body 0\n# pos 0 5\n# scale 0 0.8 0\n# alpha 0 0 0\n# body 28\n# pos 28 1\n# scale 28 0.8 0\n# alpha 28 0 0\n# body 24\n# pos 24 3\n# scale 24 0.8 0\n# alpha 24 0 0\n# body 101411\n# alpha 101411 0 0\n# mask 400131 off\n# face 400131 \"angry\"\n# face 0 \"serious2\"\n# face 28 \"trouble\"\n# face 24 \"angry\"\n# textboxarrow 0 2\n@アルテミス\n逃すな！！\n一人残らず、確実に仕留めろ！！\n\n# alpha 400131 0 0.5\n# alpha 24 1 0.5\n# alpha 0 1 0.5\n# alpha 28 1 0.5\n# textboxarrow 0 3\n@デュリン\nクッ…！\nティルフィング、分が悪い！\n退くわよ！\n\n# body 200471\n# pos 200471 3\n# scale 200471 0.8 0\n# alpha 200471 0 0\n# face 28 \"surprise\"\n# mask 200471 off\n# textboxarrow 0 1\n@レン\n退くったって、どうすんのよ！？\nこうも囲まれちゃあ…\n\n# alpha 24 0 0.5\n# alpha 28 0 0.5\n# alpha 0 0 0.5\n# alpha 200471 1 0.5\n# textboxarrow 0 2\n@グラトニー\n“黒式・烈空断”！！！\n\n;;※地面に攻撃するグラトニー…あたり一面に土煙が上がる。\n# se \"SE_5223\"\n# envbody 1402 5 0\n# effectpattern 1402 2 0\n# effectstart 1402\n# fadein \"red\" 0.5\n# shake 1 0.5\n# waitandnext 2.0\n\n# alpha 24 1 0.5\n# alpha 200471 0 0.5\n# face 24 \"surprise\"\n# textboxarrow 0 2\n@ティルフィング\nえ…！？\n\n# alpha 24 0 0.5\n# alpha 400131 1 0.5\n# mask 200471 on\n# face 200471 \"happy\"\n# textboxarrow 0 2\n@アルテミス\n目隠し…！？\n…惑うな！包囲を広げ、迎え討て！！\n\n# effectskip 1402\n# alpha 24 0 0.5\n# alpha 400131 0 0.5\n# alpha 200471 1 0.5\n# voice 20047 \"parashu_k_0004\"\n# textboxarrow 0 2\n@グラトニー\nクク…教科書通りの動きだ…\nい…一点集中で突けば、\n突破できるかもね…\n\n# move 24 2 0\n# alpha 24 1 0.5\n# move 200471 4 0.5\n# textboxarrow 0 1\n@ティルフィング\nパラシュ、アナタ…\n\n# face 200471 \"usual\"\n# textboxarrow 0 3\n@グラトニー\nボ、ボクには\nグラトニーという名がある…\nそこらのパラシュと一緒にするな…\n\n# face 24 \"sad\"\n# textboxarrow 0 1\n@ティルフィング\n…どうして、助けてくれるの…？\n\n# textboxarrow 0 3\n@グラトニー\n言っとくが、\n君らのためなんかじゃない…\nか、勘違いしないで\n\n# face 24 \"surprise\"\n# textboxarrow 0 1\n@ティルフィング\nえ…？\n\n# face 200471 \"sad\"\n# textboxarrow 0 3\n@グラトニー\nまったく…\n\n@グラトニー\nお前らの暑苦しい思考に“暴食”の\n名を持つこのボクが、\n喰らいつくされるなんて…\n\n# face 200471 \"usual\"\n@グラトニー\n…あのむさくるしい\nテンガロンハットに、これ以上\nガタガタ言われちゃかなわない…\n\n# body 40\n# pos 40 3\n# scale 40 0.8 0\n# alpha 40 0 0\n@グラトニー\nただ、それだけのことだよ\n\n# face 24 \"sad\"\n# move 200471 5 0.5\n# move 24 1 0.5\n# alpha 40 1 0.5\n# textboxarrow 0 2\n@エドガー\n…！\n君は…カルロさんのために…\n\n# layer 40 1\n# layer 24 4\n# layer 75 3\n# layer 200471 2\n# body 75\n# pos 75 3\n# scale 75 0.8 0\n# alpha 75 0 0\n# textboxarrow 0 3\n@グラトニー\nモタモタしてると、\n攻め込んでくるよ？\nまぁ、ボクの知ったことじゃないけど\n\n# alpha 75 1 0.5\n# alpha 40 0 0.5\n# move 24 1 0.5\n# move 200471 5 0.5\n# layer 0 5\n# textboxarrow 0 2\n@リベリオン\n…どうやら、黒奏官も\n姿を消したようだ\n\n# face 0 \"serious\"\n@リベリオン\nこの機を逃す手はない\n大聖堂へ急ぐぞ\n\n# alpha 24 0 0.5\n# move 0 1 0\n# alpha 0 1 0.5\n# textboxarrow 0 1\n# voice 9999 \"durin_0003\"\n@デュリン\nええ！\nみんな、行くわよ！\nアンタも…\n\n# face 24 \"normal\"\n# face 200471 \"sad\"\n# textboxarrow 0 3\n@グラトニー\n…お、お前達とともに\nするつもりなんてない…\nさっさと失せなよ\n\n# alpha 24 1 0.5\n# alpha 0 0 0.5\n# textboxarrow 0 1\n# voice 1014 \"tyrufing_0030\"\n@ティルフィング\n…ありがとう、グラトニー…\n…行きましょう、マスター！！\n\n# se \"SE_5575\"\n# body 6\n# pos 6 1\n# scale 6 0.8 0\n# alpha 6 0 0\n# alpha 24 0 0.5\n# textboxarrow 0 0\n# waitandnext 1\n\n# alpha 6 1 0.5\n# textboxarrow 0 1\n@ディーン\n一点突破だ！\nティルフィングに続け！！\n\n# alpha 6 0 0.5\n# alpha 200471 0 0.5\n# alpha 75 0 0.5\n# alpha 24 1 0.5\n# move 24 3 0\n# face 24 \"mad2\"\n# textboxarrow 0 2\n# voice 1014 \"tyrufing_0029\"\n@ティルフィング\n…ウォォォォォォーッ！！！\n\n;;※王都部隊の包囲網を、一気に突き抜けてゆく一行。\n# se \"SE_9086\"\n# fadein \"red\" 0.5\n# shake 1 0.5\n# waitandnext 1\n\n# alpha 24 0 0.5\n# alpha 400131 1 0.5\n# move 400131 3 0\n# face 400131 \"nutual\"\n# voice 4001 \"arutemisu_0037\"\n@アルテミス\nクッ…！\n行かせるな！！ヤツらを止めろ！！\n\n;;※駆け去ってゆく一行。その後ろ姿を見つめながら、ガクリと膝をつくグラトニー。\n# se \"SE_5575\"\n# leftout 400131 0.5\n# textboxarrow 0 0\n# waitandnext 1\n\n# alpha 200471 1 1\n# textboxarrow 0 2\n# move 200471 3 0\n@グラトニー\nハァ…ハァ…。ま、まったく…\n\n@グラトニー\nあんな甘い考えで\n生き抜こうだなんて…\n無謀にも程があるよ…\n\n# layer 200471 1\n# layer 100161 2\n# body 100161\n# pos 100161 4\n# scale 100161 0.8 0\n# alpha 100161 0 0\n# face 200471 \"usual\"\n@グラトニー\n…君もそう思うだろ、ラース？\n\n;;※音もなく、グラトニーの背後に現れるラース。\n# move 200471 2 0.5\n# alpha 100161 1 0.5\n# textboxarrow 0 3\n@ラース\n…………\n\n# face 200471 \"sad\"\n# textboxarrow 0 1\n@グラトニー\nど、どの道…ボクはもう長くはない…\n長年連れ添った\n君の手にかかるのなら、本望だよ…\n\n# imageset 0 \"black\"\n# imagealpha 0 0 0\n# imagelayer 0 1\n@グラトニー\nただ…どうか、\nボクの戯れ言に耳を貸してほしい…\n\n;;※刀を振り上げるラース…フラッシュとともにシーン終了。\n# se \"SE_5542\"\n# imagealpha 0 1 0\n# imagepos 0 0 30\n# fadein \"red\" 0.5\n# serif 0\n# textwindow \"close\"\n# serif 1\n# textwindow \"close\"\n# effectbody 1000 6 0 0\n# effectpattern 1000 1 1\n# effectstart 1000\n# waitandnext 0.5\n\n# effectbody 2000 6 0 0\n# effectpattern 2000 1 1\n# effectstart 2000\n# waitandnext 0.5\n\n# fadein \"white\" 0.5\n# imagealpha 0 0 0.5\n# waitandnext 1\n\n# alpha 200471 0 2\n# waitandnext 2\n\n# move 100161 3 0.5\n# serif 0\n# textwindow \"normal\"\n# textboxarrow 0 2\n@ラース\n…………\n\n"
	}
]