[
	{
		"ID": 902090003,
		"script": ";;【戦闘後】\n# script \"lisp\"\n# background \"park_area\"\n# bgmfile \"bgm167\" \"BgmPJZero001\" 0\n# body 23\n# pos 23 1\n# scale 23 0.8 0\n# face 23 \"angry_1\"\n# body 1200641\n# pos 1200641 3\n# scale 1200641 0.8 0\n# body 960017\n# pos 960017 5\n# scale 960017 0.8 0\n# textflame 1 1\n# textboxarrow 0 3\n# chara 960017\n# voice 8031 \"belphegor_battle_0006\"\n# face 960017 \"amazed\"\n@ベルフェゴール\nグウウウ…この私が…\n木偶（でく）ごときにっ…\nあり得ない…\n\n# serif 0\n# textboxarrow 0 3\n# chara 960017\n# voice 8031 \"belphegor_0013\"\n@ベルフェゴール\nまだよぉ…まだ…貯蔵庫の\n“意思”さえ取り込めば…\nこの程度の傷、すぐにぃっ…\n\n# serif 1\n# textboxarrow 1 2\n# chara 1200641\n# voice 12006 \"dagdam_0022\"\n# face 1200641 \"normal_1\"\n@ダグダ\nその貯蔵庫というのは、\nこれのことか？\nたった今、叩き潰してやったが\n\n# serif 1\n# textboxarrow 1 2\n# chara 1200641\n@ダグダ\n人々から吸い取った\n“意思”は返してもらう\n\n# serif 0\n# textboxarrow 0 3\n# chara 960017\n# voice 8031 \"belphegor_0038\"\n# face 960017 \"angry\"\n@ベルフェゴール\nなぁっ！？\n…よくも、よくもぉっ\n…私のっ、大切な養分をぉぉっ！\n\n# serif 1\n# textboxarrow 1 0\n# face 23 \"angry_2\"\n# face 1200641 \"angry\"\n@ゼロ＆ダグダ\nベルフェゴール\nこれで終わりだぁっ！\n\n# se \"SE_5909\"\n# fadein \"red\" 1\n\n# serif 0\n# textboxarrow 0 0\n# body 18\n# pos 18 5\n# scale 18 0.8 0\n# alpha 18 0 0\n# body 24\n# pos 24 1\n# scale 24 0.8 0\n# alpha 24 0 0\n# body 19\n# pos 19 3\n# scale 19 0.8 0\n# alpha 19 0 0\n# alpha 960017 0 1\n# chara 960017\n# voice 8031 \"belphegor_prolo_1004\"\n@ベルフェゴール\nギャアアアアアアアアアアアアア！！\n\n# serif 0\n# textboxarrow 0 3\n# textboxarrow 1 0\n# alpha 23 0 0.5\n# alpha 1200641 0 0.5\n# leftin 18 0.5\n# alpha 18 1 0.5\n# leftin 24 0.5\n# alpha 24 1 0.5\n# leftin 19 0.5\n# alpha 19 1 0.5\n# chara 18\n# voice 9993 \"valyn_0006\"\n@ヴァリン\nやった！\nついにベルフェゴールを倒したわ！\n\n# serif 1\n# textboxarrow 1 1\n# chara 24\n@ティルフィング\n貯蔵庫にあった\n“意思”を助け出した人達に\n戻してあげましょう！\n\n# serif 1\n# textboxarrow 1 1\n# chara 24\n@ティルフィング\nこの液体を飲ませれば良いと思います\n\n# serif 0\n# textboxarrow 0 3\n# chara 18\n# voice 9993 \"valyn_0032\"\n@ヴァリン\n分かったわ\nこれで繭の中から抜け出した人達も\n少しは持ち直すでしょっ\n\n# serif 1\n# textboxarrow 1 2\n# chara 19\n# voice 9991 \"arun_0038\"\n# face 19 \"worry\"\n@アルン\n本当に良かった…\nあぐっ？\n\n# serif 0\n# textboxarrow 0 3\n# chara 18\n# voice 9993 \"valyn_0089\"\n# face 18 \"surprise\"\n@ヴァリン\nアルン！？どうしたのっ？\nどこか怪我してたっ？\n\n# serif 1\n# textboxarrow 1 2\n# chara 19\n@アルン\n…いえ、もう大丈夫です\n一瞬、痛みが走っただけで\n…なんだったんでしょう？\n\n# serif 0\n# textboxarrow 0 3\n# chara 18\n# face 18 \"normal_2\"\n@ヴァリン\n戦いの中で気づかないうちに\n怪我してることもあるわ\nあとで診てみましょう\n\n# serif 1\n# textboxarrow 1 2\n# chara 19\n# voice 9991 \"arun_0031\"\n@アルン\n…ごめんなさい\n\n# serif 0\n# textboxarrow 0 2\n# textboxarrow 1 0\n# alpha 19 0 0.5\n# pos 960017 3\n# alpha 960017 1 0.5\n# voice 8031 \"belphegor_0004\"\n# voicedelay 8031 \"belphegor_0005\" 0.5\n# chara 960017\n# face 960017 \"smile\"\n@ベルフェゴール\nアハッ…\nアハハハハハハハハハハハハハ！\n\n# serif 1\n# textboxarrow 1 1\n# alpha 24 0 0.5\n# alpha 23 1 0.5\n# chara 23\n# voice 11002 \"laevateinm_0022\"\n# face 23 \"surprise\"\n@ゼロ\nなにっ？\nまだ生きてやがったのか！？\n\n# serif 0\n# textboxarrow 0 3\n# chara 18\n# voice 9993 \"valyn_0018\"\n# face 18 \"trouble\"\n@ヴァリン\nそんなっ…\n\n# serif 1\n# textboxarrow 1 2\n# chara 960017\n# voice 8031 \"belphegor_0007\"\n# face 960017 \"normal\"\n@ベルフェゴール\n安心なさい…私はもうダメよ…\nだけどねぇ、可笑しくて仕方ないのぉ\n\n# serif 1\n# textboxarrow 1 2\n# chara 960017\n# face 960017 \"amazed\"\n@ベルフェゴール\nだってそうでしょう？\n\n# serif 1\n# textboxarrow 1 2\n# chara 960017\n# voice 8031 \"belphegor_0004\"\n# face 960017 \"normal\"\n@ベルフェゴール\nあなた達、木偶（でく）に\n未来なんてないのに、\n必死になって抗い続けてぇ…\n\n# serif 1\n# textboxarrow 1 2\n# chara 960017\n@ベルフェゴール\nきっと…\nこの先、思い知ることになるわぁ…\n\n# serif 1\n# textboxarrow 1 2\n# chara 960017\n@ベルフェゴール\n私の『夢の国』が\nどれだけ優しい世界だったのか…\n\n# serif 1\n# textboxarrow 1 2\n# chara 960017\n# face 960017 \"amazed\"\n@ベルフェゴール\n幸せな奴隷になれば…\n絶望に苛まれながら\n死ぬこともなかったというのにぃ…\n\n# serif 1\n# textboxarrow 1 2\n# chara 960017\n# voice 8031 \"belphegor_0020\"\n# face 960017 \"smile\"\n@ベルフェゴール\nそれじゃ、お先に失礼するわねぇ…\nどうせ、すぐに\n地獄で再会するでしょうけどぉ\n\n# serif 1\n# textboxarrow 1 2\n# chara 960017\n@ベルフェゴール\nあなたたちが生き残る可能性なんて、\nゼロなんだからぁ\n\n# serif 0\n# textboxarrow 0 1\n# chara 23\n# face 23 \"angry_2\"\n@ゼロ\nもし生き残る可能性がゼロだとしても\n俺たちは一歩踏み出す\nそして０を１に変えてみせる！\n\n# serif 1\n# textboxarrow 1 2\n# chara 960017\n# voice 8031 \"belphegor_0006\"\n# face 960017 \"normal\"\n@ベルフェゴール\n本当に…お馬鹿な木偶（でく）ねぇ…\nそんなに言うのなら…\n試してみるといいわぁ\n\n# serif 1\n# textboxarrow 1 2\n# chara 960017\n# voice 8031 \"belphegor_0020\"\n@ベルフェゴール\nあなた達がこの世界の理に…\n適っているのかどうかぁ\n魔壁の扉を開けておいてあげるぅ…\n\n# serif 1\n# textboxarrow 1 2\n# chara 960017\n# face 960017 \"smile\"\n@ベルフェゴール\n私はせっかくだから地獄の底の底まで\n堕ちてみることにするわぁ\n\n# serif 1\n# textboxarrow 1 2\n# chara 960017\n# voicedelay 8031 \"belphegor_0005\" 0.5\n@ベルフェゴール\nあなた達が絶望とともに\n堕ちてくるのが楽しみねぇ…\nアハハハハハハハハ――\n\n# se \"SE_5236\"\n# serif 0\n# textboxarrow 0 3\n# textboxarrow 1 0\n# pos 19 5\n# rightin 19 0.5\n# alpha 18 0 0.5\n# alpha 19 1 0.5\n# alpha 960017 0 1\n# chara 19\n# face 19 \"angry\"\n@アルン\n…ベルフェゴールの体が、\n崩れ去っていきます\n\n# serif 1\n# textboxarrow 1 1\n# chara 23\n# voice 11002 \"laevateinm_0019\"\n# face 23 \"angry_1\"\n@ゼロ\n俺たちの勝ちだ\n\n# serif 1\n# textboxarrow 1 1\n# imageset 0 \"black\"\n# imagealpha 0 0 0\n# imagelayer 0 1\n# chara 23\n# voice 11002 \"laevateinm_0002\"\n# face 23 \"surprise\"\n@ゼロ\n…おい！魔壁を見てみろ！\n一部が変化し始めてるぞっ…？\n\n# serif 0\n# textwindow \"close\"\n# serif 1\n# textwindow \"close\"\n# imagealpha 0 1 0\n# imagepos 0 0 30\n# imageleftin 0 0.5\n\n# imagerightout 0 0.5\n# background \"makabe\"\n# alpha 23 0 0\n# alpha 19 0 0\n\n# fadeout \"black\" 0.5\n# shake 1 1\n\n# fadein \"black\" 0.5\n# background \"makabe_gate\"\n"
	}
]