[
	{
		"ID": 902100003,
		"script": "# script \"lisp\"\n# background \"laboratory_area\"\n# bgm \"bgm104\" 0\n# body 23\n# pos 23 1\n# scale 23 0.8 0\n# body 1300111\n# pos 1300111 5\n# scale 1300111 0.8 0\n# body 300111\n# pos 300111 3\n# scale 300111 0.8 0\n# textflame 1 1\n# textboxarrow 0 1\n# chara 23\n# voice 11002 \"laevateinm_0024\"\n# face 23 \"surprise\"\n@ゼロ\nお前っ？\n…どうしてここに\n\n# serif 1\n# textboxarrow 1 3\n# chara 1300111\n@ロンギヌス♂\n…俺のイミテーションが、\nそこの女の世話になったようだな\nその借りくらいは返す\n\n# serif 0\n# textboxarrow 0 2\n# chara 300111\n@ロンギヌス♀\nあ…あのっ…でしたら私の代わりに\nマスターと同行して下さいっ\n…お願いしますっ\n\n# serif 1\n# textboxarrow 1 3\n# chara 1300111\n@ロンギヌス♂\n…分かった\n\n# serif 0\n# textboxarrow 0 2\n# body 18\n# pos 18 5\n# face 18 \"normal_1\"\n# alpha 18 0 0\n# scale 18 0.8 0\n# chara 300111\n# face 300111 \"happy\"\n@ロンギヌス♀\nありがとうございます！\n\n# serif 1\n# textboxarrow 1 3\n# rightin 18 0.5\n# alpha 18 1 0.5\n# alpha 1300111 0 0.5\n# voicedelay 9993 \"valyn_0036\" 0.5\n# face 18 \"normal_2\"\n@ヴァリン\nヤクモ！魔法陣の上に乗って！\n…先に行ってる\nアマネちゃんをお願いねっ\n\n# serif 0\n# textboxarrow 0 2\n# body 24\n# pos 24 1\n# alpha 24 0 0\n# scale 24 0.8 0\n# chara 300111\n# face 300111 \"angry\"\n@ロンギヌス♀\nはい…行ってきます\n\n# serif 1\n# textboxarrow 1 1\n# imageset 0 \"black\"\n# imagealpha 0 0 0\n# imagelayer 0 1\n# imageset 2 \"P0_005\"\n# imagealpha 2 0 0\n# leftin 24 0.5\n# alpha 24 1 0.5\n# alpha 23 0 0.5\n# chara 24\n# face 24 \"sad\"\n@ティルフィング\nどうか…お気をつけて\n私も別の方法を見つけ出したら\nすぐに…\n\n;;天上へ向かうシーン？\n# serif 0\n# textwindow \"close\"\n# serif 1\n# textwindow \"close\"\n# se \"SE_0666\"\n# fadeout \"white\" 3\n\n;;一枚絵表示？\n# fadein \"white\" 1\n# imagealpha 2 1 0\n# imagepos 2 0 30\n\n;;【魔壁付近】\n# imagealpha 0 1 0\n# imagepos 0 0 30\n# imageleftin 0 0.5\n# imagelayer 2 0\n\n# imagerightout 0 0.5\n# background \"makabe_gate\"\n# imagealpha 2 0 0\n# alpha 24 0 0\n# alpha 18 0 0\n# alpha 300111 0 0\n# body 20\n# pos 20 3\n# scale 20 0.8 0\n# body 1200641\n# pos 1200641 5\n# scale 1200641 0.8 0\n# body 25\n# pos 25 1\n# scale 25 0.8 0\n\n# serif 0\n# textwindow \"nomal\"\n# textboxarrow 0 2\n# chara 20\n# voice 9992 \"aska_prolo_1008\"\n# face 20 \"irregular\"\n@アスカ\nダグダさん！\n\n# serif 1\n# textwindow \"nomal\"\n# textboxarrow 1 3\n# voice 12006 \"dagdam_0005\"\n# face 1200641 \"smile_1\"\n@ダグダ\nアスカ…\nお父さんと会えて良かったな\n\n# serif 0\n# textboxarrow 0 2\n# chara 20\n# voice 9992 \"aska_0004\"\n# face 20 \"smile\"\n@アスカ\nうん！\nお父さんを助けてくれて、\nありがとう！\n\n# serif 1\n# textboxarrow 1 1\n# chara 25\n# voice 9985 \"askadad_prolo_1011\"\n# face 25 \"smile\"\n@アスカの父親\n本当にありがとうございました\n\n# serif 1\n# textboxarrow 1 1\n# body 19\n# pos 19 3\n# scale 19 0.8 0\n# alpha 19 0 0\n# chara 25\n# voice 9985 \"askadad_prolo_2011\"\n@アスカの父親\n…辛い現状は変わりませんが、\n必ず娘を守り抜いてみせます\n皆さんも頑張って下さい\n\n# serif 0\n# textboxarrow 0 2\n# alpha 19 1 0.5\n# alpha 20 0 0.5\n# chara 19\n# voice 9991 \"arun_0032\"\n# face 19 \"smile\"\n@アルン\nはい！\n\n# serif 0\n# textboxarrow 0 2\n# chara 19\n# voice 9991 \"arun_prolo_1029\"\n# face 19 \"angry\"\n@アルン\n皆さん、行きましょう\n魔壁を越えて大樹ユグドラシルへ！\n\n# serif 1\n# textboxarrow 1 1\n# leftin 23 0.5\n# alpha 23 1 0.5\n# alpha 25 0 0.5\n# chara 23\n# voice 11002 \"laevateinm_unit_1012\"\n# face 23 \"angry_2\"\n@ゼロ\n扉を開くぞ！\n\n# se \"SE_0667\"\n# fadeout \"white\" 2\n# serif 0\n# textwindow \"close\"\n# serif 1\n# textwindow \"close\"\n# alpha 19 0 0\n# alpha 1200641 0 0\n# alpha 18 1 0\n# face 23 \"surprise\"\n# face 18 \"surprise\"\n\n# fadein \"white\" 1\n# background \"white\"\n# serif 0\n# textwindow \"nomal\"\n# textboxarrow 0 1\n# chara 23\n# voice 11002 \"laevateinm_0024\"\n@ゼロ\n…なにっ？\n\n# serif 1\n# textwindow \"nomal\"\n# textboxarrow 1 3\n# chara 18\n# voice 9993 \"valyn_0022\"\n@ヴァリン\nなんでっ…\nどうなってるのよ、これ！？\n"
	}
]