[
	{
		"ID": 907060003,
		"script": ";;戦闘後【ユグドラシルの根元】\n# script \"lisp\"\n# background \"cocutos\"\n# bgmfile \"bgm168\" \"BgmPJZero001\" 0\n# body 960027\n# pos 960027 3\n# scale 960027 0.8 0\n# mask 960027 off\n# textflame 1 1\n# textboxarrow 0 2\n# chara 960027\n# voice 8038 \"satan_prolo_1002_1\"\n# face 960027 \"happy\"\n@サタン\nクフフフフ\n良いねえ、\nその怒りすごく良いよ\n\n# textboxarrow 0 2\n# chara 960027\n# voice 8038 \"satan_prolo_1002_2\"\n@サタン\nキミ達のお陰で\nボクはかなり強化された\n\n# body 1600111\n# pos 1600111 5\n# scale 1600111 0.8 0\n# body 23\n# pos 23 1\n# scale 23 0.8 0\n# alpha 23 0 0\n# alpha 1600111 0 0\n# textboxarrow 0 2\n# chara 960027\n# voice 8038 \"satan_prolo_1002_3\"\n@サタン\nだから、\nいくら攻撃しても無駄なんだよねぇ\n\n# alpha 23 1 0.5\n# alpha 1600111 1 0.5\n# alpha 960027 0 0.3\n# textboxarrow 0 1\n# chara 23\n# voice 11002 \"laevateinm_ww_movie1_1001\"\n# face 23 \"angry_2\"\n# face 1600111 \"angry_1\"\n@ゼロ\nくそっ…刃が全く通らない\nどうなってやがる！？\n\n# serif 1\n# textboxarrow 1 3\n# chara 1600111\n# voice 16001 \"asklepiosm_0011\"\n@アスクレピオス\n少し落ち着け、イライラ王子\n奴も魔王だ\n\n# serif 1\n# textboxarrow 1 3\n# chara 1600111\n# voice 16001 \"asklepiosm_0028\"\n# face 1600111 \"normal\"\n@アスクレピオス\nルシファーのようになんらかの\n方法で力を得ているんだよ\n\n# textboxarrow 0 1\n# chara 23\n@ゼロ\nうるせえ、腹黒メガネ！\nお前はアルンの傷を治すことに\n集中してろ！\n\n# serif 1\n# textboxarrow 1 3\n# chara 1600111\n# voice 16001 \"asklepiosm_0015\"\n# face 1600111 \"sad\"\n@アスクレピオス\n最善は尽くしてるよ…\nでも、あまり良くないね…\n\n# textboxarrow 0 1\n# chara 23\n# voice 11002 \"laevateinm_0013\"\n# face 23 \"angry_1\"\n@ゼロ\n…チッ\n\n# alpha 23 0 0.3\n# alpha 1600111 0 0.3\n# alpha 960027 1 0.5\n# serif 1\n# textboxarrow 1 2\n# textboxarrow 0 0\n# chara 960027\n# voice 8038 \"satan_0003\"\n# face 960027 \"normal\"\n@サタン\n良いねえ\nキミは本当に良いよ、ゼロ\n\n# serif 1\n# textboxarrow 1 2\n# chara 960027\n@サタン\nそこの木偶が\n死にそうになっていて、\nすごく怒っているんだろ？\n\n# serif 1\n# textboxarrow 1 2\n# chara 960027\n@サタン\nボクが作り出した、\nただの木偶人形なんかに\n感情移入しちゃって\n\n# leftin 23 0.5\n# alpha 23 1 0\n# move 960027 5 0.5\n# textboxarrow 0 1\n# textboxarrow 1 3\n# chara 23\n# voice 11002 \"laevateinm_0010\"\n# face 23 \"angry_2\"\n@ゼロ\n木偶人形だと？\nアルンは人間だろうが！\n\n# serif 1\n# textboxarrow 1 3\n# chara 960027\n# voice 8038 \"satan_prolo_1003_1\"\n# face 960027 \"happy\"\n@サタン\nクフフフフ\nアルンを作った甲斐があったなあ\n\n# serif 1\n# textboxarrow 1 3\n# chara 960027\n# voice 8038 \"satan_prolo_1003_2\"\n# face 960027 \"normal\"\n@サタン\nボクは人間に\nとても興味があるんだ\n神魔契約で地上の支配権を得たとき、\n\n# serif 1\n# textboxarrow 1 3\n# chara 960027\n# voice 8038 \"satan_prolo_1003_3\"\n@サタン\n改めて人間達を見て、\nなんて卑小で脆弱な存在なんだろう\nと思ったよ\n\n# serif 1\n# textboxarrow 1 3\n# chara 960027\n# voice 8038 \"satan_prolo_1003_4\"\n@サタン\nそして同時に、とても多様で\n複雑だとも感じたんだ\n\n# serif 1\n# textboxarrow 1 3\n# chara 960027\n# voice 8038 \"satan_prolo_1004_1\"\n@サタン\nボク達に支配され、\n養分にされるだけの存在なのに、\nその“心”は非論理的で不可解だ\n\n# serif 1\n# textboxarrow 1 3\n# chara 960027\n# voice 8038 \"satan_prolo_1004_2\"\n@サタン\nそれなのに\n“心”が大きく揺れ動くとき、\nボク達ですら驚く程の力を発揮する\n\n# serif 1\n# textboxarrow 1 3\n# chara 960027\n# voice 8038 \"satan_prolo_1004_3\"\n@サタン\nこんな面白い観察対象は\n他にないと思ったよ\n\n# serif 1\n# textboxarrow 1 3\n# chara 960027\n# voice 8038 \"satan_prolo_1005_1\"\n@サタン\n中でも、勝ち目なんてないのに\nいつまでもボク達に抵抗し続けている\nラグナロクの人間達は興味深かった\n\n# serif 1\n# textboxarrow 1 3\n# chara 960027\n# voice 8038 \"satan_prolo_1005_2\"\n@サタン\nあんなに強い“意思”は\n一体どこから来るのか\n\n# serif 1\n# textboxarrow 1 3\n# chara 960027\n# voice 8038 \"satan_prolo_1005_3\"\n# face 960027 \"happy\"\n@サタン\n知りたくて知りたくて\n堪らなくなったんだ\nだからアルンを作った\n\n# textboxarrow 0 1\n# chara 23\n# voice 11002 \"laevateinm_0010\"\n# face 23 \"angry_1\"\n@ゼロ\n…嘘をつくな！\n\n# serif 1\n# textboxarrow 1 3\n# chara 960027\n# voice 8038 \"satan_0027\"\n# face 960027 \"normal\"\n@サタン\n嘘なんかじゃない\n\n# serif 1\n# textboxarrow 1 3\n# chara 960027\n@サタン\nボクはラグナロクの人間達を\n観察したくてアルンという\n木偶人形を送り込んだんだよ\n\n# serif 1\n# textboxarrow 1 3\n# chara 960027\n@サタン\nボクの魔力が\nキミ達のキラーズとかいうのに\n反応しちゃったのは誤算だったけど、\n\n# serif 1\n# textboxarrow 1 3\n# chara 960027\n# voice 8038 \"satan_0005\"\n# face 960027 \"happy\"\n@サタン\nそれも嬉しい誤算になったな\n\n# serif 1\n# textboxarrow 1 3\n# chara 960027\n# face 960027 \"normal\"\n@サタン\nアルンの目を通して観察するキミ達は\n本当に興味深かった\n\n# serif 1\n# textboxarrow 1 3\n# chara 960027\n@サタン\n人間のもつ“意思”の力っていうのは\nなんて凄いんだろう\n\n# serif 1\n# textboxarrow 1 3\n# chara 960027\n# face 960027 \"happy\"\n@サタン\nボクも楽しくなって、\nたまにアルンを通してキミ達を\n手伝ってしまったよ\n\n# textboxarrow 0 1\n# chara 23\n@ゼロ\n…いい加減なことを抜かすな\n\n# serif 1\n# textboxarrow 1 3\n# chara 960027\n# face 960027 \"normal\"\n@サタン\n本当だって\n\n# serif 1\n# textboxarrow 1 3\n# chara 960027\n@サタン\nベルフェゴール攻略のヒントを得た、\nアルンの夢は\n\n# serif 1\n# textboxarrow 1 3\n# chara 960027\n@サタン\nボクがベルフェゴールとアルンの\n意識を繋いでやったから\n見ることができたんだよ\n\n# serif 1\n# textboxarrow 1 3\n# chara 960027\n@サタン\n第一魔壁だって開けてあげただろ\n\n# textboxarrow 0 1\n# chara 23\n# voice 11002 \"laevateinm_0009\"\n# face 23 \"angry_2\"\n@ゼロ\nそれ以上、\nふざけたことを口にしたら\n叩っ斬るぞ！\n\n# textboxarrow 0 1\n# chara 23\n@ゼロ\nアルンは人間だ！\n俺達のマスターだ！\nここまで一緒に戦ってきた仲間だ！\n\n# textboxarrow 0 1\n# chara 23\n# voice 11002 \"laevateinm_0029\"\n@ゼロ\n断じて、\nてめえの人形なんかじゃない！！\n\n# serif 1\n# textboxarrow 1 3\n# chara 960027\n# voice 8038 \"satan_prolo_1006_1\"\n# face 960027 \"happy\"\n@サタン\nクフフフフ！\nそう、それ！\nその“怒り”が最高なんだ\n\n# serif 1\n# textboxarrow 1 3\n# chara 960027\n# voice 8038 \"satan_prolo_1006_2\"\n# face 960027 \"normal\"\n@サタン\nでもさあ、ゼロ\nちょっと考えれば分かることだよ\n\n# serif 1\n# textboxarrow 1 3\n# chara 960027\n# voice 8038 \"satan_prolo_1006_3\"\n@サタン\nただの人間にキミ達のマスターが\n務まると思うのかい？\n\n# serif 1\n# textboxarrow 1 3\n# chara 960027\n@サタン\nキミ達のもつキラーズは\nそれぞれ異なっている\n\n# serif 1\n# textboxarrow 1 3\n# chara 960027\n@サタン\nだったらバイブスだって\n適合不適合の差があるはずだ\nそれなのにアルンは全員と適合した\n\n# serif 1\n# textboxarrow 1 3\n# chara 960027\n# face 960027 \"happy\"\n@サタン\nこれは本来、\n不自然なことだよね？\n\n# textboxarrow 0 1\n# chara 23\n# voice 11002 \"laevateinm_0024\"\n# face 23 \"sad\"\n@ゼロ\nそれは…\nたまたまだろっ…\n\n# serif 1\n# textboxarrow 1 3\n# chara 960027\n# voice 8038 \"satan_0004\"\n@サタン\nクフフフフ！\n反論になってないよ\n\n# serif 1\n# textboxarrow 1 3\n# chara 960027\n# face 960027 \"normal\"\n@サタン\nアルンのバイブスは\nボクの魔力が元になってるからね\n通常の人間のものより遥かに強力だ\n\n# serif 1\n# textboxarrow 1 3\n# chara 960027\n@サタン\n特に魔獣の血肉を埋め込まれた\nキミ達とは相性が良いに決まってる\n\n# serif 1\n# textboxarrow 1 3\n# chara 960027\n# voice 8038 \"satan_prolo_1007_1\"\n# face 960027 \"happy\"\n@サタン\nアルンはねぇ、人間じゃない\n\n# serif 1\n# textboxarrow 1 3\n# chara 960027\n# voice 8038 \"satan_prolo_1007_2\"\n@サタン\nキミ達を観察するために\nボクが作ったただの木偶人形なのさぁ\n\n# textboxarrow 0 1\n# chara 23\n# voice 11002 \"laevateinm_prolo_2041\"\n# face 23 \"angry_2\"\n@ゼロ\n黙れ…\n黙れ、このクソ悪魔があああっ！！"
	}
]