[
	{
		"ID": 9101242,
		"script": ";;//戦闘4\n# script \"lisp\"\n# background \"town_night\"\n# bgmfile \"bgm071\" \"BgmHalloween001\" 0\n;;ダモクレス\n# body 103521\n# pos 103521 4\n# mask 103521 on\n# alpha 103521 1 0\n# scale 103521 0.8 0\n;;ネス\n# body 602021\n# pos 602021 2\n# mask 602021 off\n# alpha 602021 1 0\n# face 602021 \"sad\"\n# scale 602021 0.8 0\n# textflame 1 1\n# textboxarrow 0 1\n# chara 602021\n# face 103521 \"sad\"\n# voice 6020 \"ness_0028\"\n@ネス\n街に異族が出現する原因に\nついて考えたのですが…\n今日はお祭りで人が多いですよね？\n\n@ネス\n特にお菓子のあるところには\n必ずたくさんの人間がいます\n\n# face 602021 \"angry\"\n@ネス\nこれはわたしの推測ですが…\n異族がお菓子の匂いをたどって\n人間を探しているとしたら…\n\n# textflame 0 0\n@\nその推測が正しければ\n人が大勢集まっている場所に異族が\nまた現れる可能性が高いと、マスター\n\n# face 103521 \"surprise\"\n# textflame 1 1\n# textboxarrow 0 3\n# chara 103521\n@ダモクレス\nあ、そうだ！さっきね、\n広場の方で子ども達が騒いでたの\nきっとお菓子配ってるんだと思う！\n\n# face 103521 \"angry\"\n# voice 1035 \"damocles_battle_0004\"\n@ダモクレス\nネス、マスター！\n一緒に行こう!\n\n# textflame 1 1\n# textboxarrow 0 1\n# chara 602021\n# voice 6020 \"ness_battle_0003\"\n@ネス\nそうですね！\n人々を異族から守らなければ…\n\n# face 103521 \"happy\"\n# textflame 1 1\n# textboxarrow 0 3\n# chara 103521\n@ダモクレス\nネスと一緒なら\nお菓子もらえるもんね!\n\n# se \"SE_6510\"\n# emotionbody 5501 6 602021 50 220\n# effectpattern 5501 2 1\n# effectstart 5501\n# textflame 1 1\n# textboxarrow 0 1\n# chara 602021\n# voice 6020 \"ness_0011\"\n@ネス\nもらいません！\n\n# effectskip 5501\n# textflame 0 0\n@\n理由はどうあれ、\n人の多い場所に向かうという\n意見は一致した\n\n@\nダモクレスの案内で\n人の集まる広場へと急いだ…"
	}
]