[
	{
		"ID": 9101252,
		"script": ";;//戦闘5\n# script \"lisp\"\n# background \"town_night\"\n# bgmfile \"bgm071_072\" \"BgmHalloween001\" 0\n;;ダモクレス\n# layer 103521 1\n# body 103521\n# pos 103521 4\n# mask 103521 on\n# alpha 103521 1 0\n# face 103521 \"usual\"\n# scale 103521 0.8 0\n;;ネス\n# face 602021 \"happy\"\n# body 602021\n# pos 602021 2\n# mask 602021 off\n# alpha 602021 1 0\n# scale 602021 0.8 0\n# textflame 0 0\n@\n広場の異族をすべて討伐し、\nほっとひと息つく一行\n\n# voice 6020 \"ness_0004\"\n# textflame 1 1\n# textboxarrow 0 1\n# chara 602021\n@ネス\n間に合ってよかったです…\n\n# textflame 0 0\n@\n異族に襲われかけ座り込んだ魔女に、\nマスターが、怪我はないかと\n声をかける\n\n# serif 1\n@魔女のおばさん\n…驚いた！\nあんた達、キル姫だったのかい！\n\n# serif 1\n# textwindow \"close\"\n# serif 0\n# textflame 0 0\n@\n多くの人は“恍惚の斬殺者”という\n通り名でキラープリンセスを忌み嫌う\n\n@\n太古のエンシェントキラーズは\n英雄として人々に慕われていたから、\n復活後は辛いことも多かったはずだ\n\n# face 602021 \"sad\"\n# voice 6020 \"ness_0003\"\n# textflame 1 1\n# textboxarrow 0 1\n# chara 602021\n@ネス\n…はい\n\n# textflame 0 0\n@\nネスはなにかを覚悟したように、\n硬い表情で短く返事をした\n\n# face 103521 \"happy\"\n# voice 1035 \"damocles_0004\"\n# textflame 1 1\n# textboxarrow 0 3\n# chara 103521\n@ダモクレス\nそーだよ！\nおばさん、大丈夫？\n\n# textflame 0 0\n@\nダモクレスは、嫌われることも\n恐れていないように見える\n\n@\nそれが、この世のすべてを愛し、\nありのままを受け入れるという\nダモクレスらしさなのだろう\n\n# serif 1\n@魔女のおばさん\n…そうかい、\n助けてくれてありがとうね！\n\n# face 602021 \"usual\"\n# serif 0\n# textflame 0 0\n@\n思いがけない感謝の言葉に\nネスの表情が\n少しやわらいだように見えた\n\n# face 103521 \"shy\"\n# serif 0\n# textflame 1 1\n# textboxarrow 0 3\n# chara 103521\n# voice 1035 \"damocles_0030\"\n@ダモクレス\nおばさんにもらったカップケーキ、\nすっごくおいしかったよ～！\nごちそうさまでした！\n\n# serif 1\n@魔女のおばさん\nあははは、おもしろい子だね！\nねえ、お礼と言ってはなんだけど、\n袋のお菓子も、もらってくれるかい？\n\n# se \"SE_6504\"\n# emotionbody 5200 3 103521 10 270\n# effectpattern 5200 1 3\n# effectstart 5200\n# face 103521 \"happy\"\n# serif 0\n# textflame 1 1\n# textboxarrow 0 3\n# chara 103521\n# voice 1035 \"damocles_0020\"\n@ダモクレス\nわー！\nこんなにたくさん！いいの！？\nありがとう～！\n\n# face 602021 \"angry\"\n# textflame 1 1\n# textboxarrow 0 1\n# chara 602021\n# voice 6020 \"ness_0011\"\n@ネス\nダモクレス！ダメです！\nお礼なんていいんです、\n\n# textflame 1 1\n# textboxarrow 0 1\n# chara 602021\n@ネス\nわたし達は\nお菓子をお返しにきたんです！\n\n# serif 1\n@魔女のおばさん\nそりゃまた、どうして？\n口に合わなかったかい？\n\n# serif 0\n# textflame 0 0\n@\nネスとおばさんが話している間に\nダモクレスはすでに袋を開け、\nお菓子を取り出している\n\n# textflame 1 1\n# textboxarrow 0 3\n# chara 103521\n# voice 1035 \"damocles_0006\"\n@ダモクレス\nいっただきまーす！（モグモグ）\nすっごいおいしいよー！\nほら、ネスも食べて食べて！\n\n# textflame 0 0\n@\nダモクレスがネスの口に\nカップケーキをひとくちねじ込む\n\n# face 602021 \"shy\"\n# textflame 1 1\n# textboxarrow 0 1\n# chara 602021\n# voice 6020 \"ness_0021\"\n@ネス\nムグ！！\n…お…おいしい！！\n\n# serif 1\n@魔女のおばさん\nそうかい、そうかい！\nそのお菓子も、あんたらに\n食べてもらって喜んでるよ！\n\n# serif 1\n@魔女のおばさん\nじゃあ、また来年ね\n『ハッピーハロウィン』！\n\n# serif 1\n# textwindow \"close\"\n# serif 0\n# textflame 0 0\n@\nそう言うと、\n魔女のおばさんは立ち上がって\n広場の出口へと歩きだした\n\n# textflame 1 1\n# textboxarrow 0 3\n# chara 103521\n# voice 1035 \"damocles_0030\"\n@ダモクレス\nおばさーん！愛してるよー！\nごちそうさまー！！\n\n# textflame 1 1\n# textboxarrow 0 1\n# chara 602021\n# voice 6020 \"ness_0030\"\n@ネス\nあ、ありがとうございます！\n\n# textflame 0 0\n@\n魔女のおばさんはふりかえり、\nにっこり笑って手を振ってくれた\n\n# face 103521 \"usual\"\n# textflame 1 1\n# textboxarrow 0 3\n# chara 103521\n# voice 1035 \"damocles_0020\"\n@ダモクレス\nやったー！\nお菓子いっぱい、嬉しいなー！\n\n# face 602021 \"sad\"\n# textflame 1 1\n# textboxarrow 0 1\n# chara 602021\n# voice 6020 \"ness_0027\"\n@ネス\nで、でも、こんなにたくさんの\nお菓子は規律に反します…\n私達から子ども達に配るとか…\n\n# textflame 1 1\n# textboxarrow 0 3\n# chara 103521\n@ダモクレス\nでもさ、きっとクレス達からの\nお菓子は誰も受け取らないと思うよ\n\n# textflame 1 1\n# textboxarrow 0 1\n# chara 602021\n# voice 6020 \"ness_0028\"\n@ネス\nそ、それもそうですね…\nしかし、これでは節制が…\n\n# face 103521 \"happy\"\n# textflame 1 1\n# textboxarrow 0 3\n# chara 103521\n# voice 1035 \"damocles_0004\"\n@ダモクレス\nあのね、ネス！\nこのお菓子には、おばさんの愛が\nたっくさんつまってるんだよ！\n\n@ダモクレス\nだから、まるごと受け取って\nクレス達で食べればいいんだよ！\n\n# voice 1035 \"damocles_kyara_1006\"\n@ダモクレス\n愛があれば問題ないよ～！\n\n# textflame 0 0\n@\nマスターも、お菓子はみんなで食べる\nというダモクレスの意見に賛同した\n\n# face 602021 \"angry\"\n# textflame 1 1\n# textboxarrow 0 1\n# chara 602021\n# voice 6020 \"ness_0001\"\n@ネス\nマスター！\n\n# textflame 0 0\n@\nネスは棒を手に取り、\n叩く構えを見せた\n\n@\nただし、食べる量を『節制』するため\nネスが規律を作って厳正に管理すれば\n問題ないのでは、と解決策を提示する\n\n\n# textflame 1 1\n# textboxarrow 0 1\n# chara 602021\n# voice 6020 \"ness_0040\"\n@ネス\nなるほど…\nおまかせください！\nわたしが厳正に管理します！\n\n# textflame 1 1\n# textboxarrow 0 3\n# chara 103521\n# voice 1035 \"damocles_0004\"\n@ダモクレス\nじゃあ、厳正に管理される前に\nたくさん食べちゃおう！\nいただきます！\n\n# voice 1035 \"damocles_0021\"\n@ダモクレス\nわー！\nこのクッキーもおいしい！\nネスも、ほら！あーんして！\n\n# face 602021 \"happy\"\n# textflame 1 1\n# textboxarrow 0 1\n# chara 602021\n# voice 6020 \"ness_0022\"\n@ネス\nわわ！…むぐ！！\nはぁ、おいしい～！\n\n# textflame 0 0\n@\nお菓子を食べて喜ぶネスとダモクレス\n微笑ましいふたりの姿に\nマスターも思わず笑みがこぼれる\n\n@\n年に一度くらいは、こういう日が\nあってもいいんじゃないかな、と\n思うマスターだった\n\n# imageset 1 \"bg_white\"\n# imagealpha 1 0 0\n# imagescale 1 10 0\n# fadeout \"white\" 2\n# waitandnext 2\n\n# imagepos 1 0 0\n# imagealpha 1 1 0\n# waitandnext 0.5\n\n# serif 0\n# textwindow \"close\"\n# bgm \"bgm003\" 0\n# imagealpha 1 0 0\n# fadein \"white\" 1\n;;(ED)\n;;Sweet dreams…\n;;//背景：部屋の中\n# waitandnext 1\n# face 602021 \"usual\"\n# face 103521 \"usual\"\n\n# textwindow \"nomal\"\n# textflame 1 1\n# textboxarrow 0 3\n# chara 103521\n# voice 1035 \"damocles_0001\"\n@ダモクレス\nこの時代は面白いね！\nこんな風に愛があふれるお祭りって\nまだほかにもあるの？\n\n# textflame 0 0\n@\nと、ダモクレスが\nマスターにたずねる\n\n@\n次はクリスマスかなぁ、と\nマスターがつぶやく\n\n# se \"SE_6502\"\n# emotionbody 5100 2 602021 10 240\n# effectpattern 5100 1 1\n# effectstart 5100\n# textflame 1 1\n# textboxarrow 0 1\n# chara 602021\n# voice 6020 \"ness_0023\"\n@ネス\nクリスマスですか？\nまた大騒ぎになるんですか？\nお祭りは年に一度じゃないんですか？\n\n# textflame 0 0\n@\n驚いたネスが質問をかさねる\n\n@\nハロウィンは年に一度だけど、\nこの世界では季節ごとにお祭りや\nイベントがあってさ…\n\n@\nその度にみんなでパーティをして、\nごちそうを食べたりするんだよ、と\nマスターが答える\n\n# textflame 1 1\n# textboxarrow 0 1\n# chara 602021\n# voice 6020 \"ness_0001\"\n@ネス\nマスター、ちょっといいですか？\n\n@ネス\nえっと、参考までに聞きたいんですが\nクリスマスには、どんなごちそうが\n登場するんですか？\n\n# textflame 0 0\n@\n一般的なクリスマスディナーには、\nチキンやケーキが多いかな、と返す\n\n# face 602021 \"shy\"\n# textflame 1 1\n# textboxarrow 0 1\n# chara 602021\n# voice 6020 \"ness_0039\"\n@ネス\nそうですか…\n参考までに聞いただけで、\n私は全然興味ありませんけどね\n\n# face 103521 \"happy\"\n# textflame 1 1\n# textboxarrow 0 3\n# chara 103521\n@ダモクレス\nクレスは興味あるよ！\nクリスマスのケーキってどんなの？\n何味？どれくらいおいしいの？\n\n# textflame 0 0\n@\nたとえば、ブッシュドノエルという、\n木の形を模したチョコレートケーキや\n\n@\n雪のように真っ白な生クリームに\nサンタの飾りとイチゴがのった\nショートケーキなど\n\n@\nいろんな種類のおいしいケーキが\nお店にたくさん並ぶ、という解説に、\nダモクレスは目を輝かせる\n\n# se \"SE_6522\"\n# emotionbody 5903 10 103521 80 230\n# effectpattern 5903 3 0\n# effectstart 5903\n# textflame 1 1\n# textboxarrow 0 3\n# chara 103521\n# voice 1035 \"damocles_0041\"\n@ダモクレス\nうわー！すごいね！\nクリスマス、楽しみだなー！\n\n# effectskip 5903\n# face 602021 \"shy\"\n# textflame 1 1\n# textboxarrow 0 1\n# chara 602021\n@ネス\n…………\n\n# se \"SE_6504\"\n# emotionbody 9898 3 602021 10 240\n# effectpattern 9898 1 3\n# effectstart 9898\n# face 602021 \"happy\"\n# voice 6020 \"ness_0004\"\n@ネス\nふふっ、ケーキかぁ～♪\n\n# textflame 0 0\n@\n興味ない、と言いながら\nネスが嬉しそうに笑ったのを\nマスターは見逃さなかった\n\n@\nクリスマス、楽しみだね、と\nネスに声をかける\n\n# face 602021 \"normal\"\n# textflame 1 1\n# textboxarrow 0 1\n# chara 602021\n# voice 6020 \"ness_0022\"\n@ネス\n私は興味ありませんってば\nえ？…笑ってました？\n…マスターの見間違いですよ！？\n\n# textflame 0 0\n@\nそういって強がるネスの顔が\nみるみる赤く染まっていく\n\n# face 602021 \"shy\"\n# textflame 1 1\n# textboxarrow 0 1\n# chara 602021\n# voice 6020 \"ness_0010\"\n@ネス\n…もう！！見ないでください！！\n叩きますよっ！！えいっ！えいっ！\n\n;;(おしまい)\n# textflame 0 0\n@\n顔を真っ赤にしながら\nぽかぽかと棒で叩いてくるネスは\nとても可愛らしかった\n"
	}
]