[
	{
		"ID": 91030101,
		"script": ";;【指定】bgm010\n;;【３話】『最後の指令』　背景：祭壇\n# script \"lisp\"\n# background \"altar\"\n# bgm \"bgm010\" 0\n# body 101411\n# pos 101411 3\n# alpha 101411 0 0\n# body 24\n# pos 24 3\n# scale 24 0.8 0\n# layer 24 2\n# mask 24 off\n# body 960031\n# pos 960031 3\n# scale 960031 0.8 0\n# mask 960031 off\n# alpha 960031 0 0\n# body 0\n# pos 0 5\n# scale 0 0.8 0\n# alpha 0 0 0\n# layer 0 13\n# textflame 1 1\n# face 24 \"mad2\"\n# textboxarrow 0 2\n@ティルフィング\n神々の考えを…\n私が、正してみせる！！！\n\n# alpha 24 0 0.5\n# alpha 960031 1 0.5\n# face 960031 \"worry\"\n# voice 9975 \"raphael_0026\"\n# textboxarrow 0 2\n@ラファエル\n『なんと傲慢な…』\n\n# entry 960 960031\n# pos 960 3\n# scale 960 0.8 0\n# mask 960 off\n# face 960031 \"angry\"\n@ラファエル\n『欲深き人類よ…\nその罪の重さを知りなさい…！！』\n\n;;※ドォンと爆発的な光のオーラを発するラファエル。\n# se \"SE_9090\"\n# fadein \"white\" 0.5\n# face 24 \"angry\"\n# shake 0 1\n# scale 960 1.1 0.5\n# alpha 960 0 1\n# layer 960 4\n# waitandnext 1\n\n# alpha 960031 0 0.5\n# alpha 24 1 0.5\n# alpha 0 1 0.5\n# face 0 \"angry\"\n# textboxarrow 0 3\n@デュリン\nグ…！！！\nな、なんて強烈な…！？\n\n# voice 1014 \"tyrufing_0038\"\n# textboxarrow 0 2\n@ティルフィング\nだ、大丈夫！\nこんなことでは、私は怯まない！！\n\n# alpha 960031 1 0.5\n# alpha 24 0 0.5\n# alpha 0 0 0.5\n# voice 9975 \"raphael_0007\"\n# textboxarrow 0 2\n@ラファエル\n『その言葉に、\n偽りはないようですね…』\n\n@ラファエル\n『なにが、\nアナタのココロを\n支えているのですか…？』\n\n# alpha 960031 0 0.5\n# alpha 24 1 0.5\n# textboxarrow 0 2\n@ティルフィング\n紡がれてきた、人々の想い…！\n平穏な世を願う、\n人々の希望よ…！\n\n# alpha 960031 1 0.5\n# alpha 24 0 0.5\n# voice 9975 \"raphael_0003\"\n# textboxarrow 0 2\n# face 960031 \"worry\"\n@ラファエル\n『なるほど…\nその人類の希望が、\n神々に通ずるものか…』\n\n@ラファエル\n『試してみなさい』\n\n# alpha 960031 0 0.5\n# alpha 24 1 0.5\n# face 24 \"mad2\"\n# textboxarrow 0 2\n@ティルフィング\n…行きます！！！\n\n;;※ドンッと凄まじい勢いでラファエルに向かってゆくティルフィング\n# textboxarrow 0 0\n# leftout 24 0.3\n# alpha 24 0 0.3\n# se \"SE_9092\"\n# pos 960031 2\n# waitandnext 0.3\n\n# move 24 4 0\n# mask 24 on\n# mask 960031 on\n# alpha 960031 1 0.1\n# waitandnext 0.1\n\n# rightin 24 0.3\n# alpha 24 1 0.3\n# waitandnext 0.5\n\n# voice 9975 \"raphael_0009\"\n# pos 0 3\n# textboxarrow 0 1\n@ラファエル\n『前に面した時よりも、\n俊敏さに磨きがかかっている\nようですね…』\n\n;;※手をかざすラファエル。ティルフィングの前に、光の壁が生じる。\n# se \"SE_9127\"\n# fadein \"white\" 0.5\n# face 24 \"angry\"\n# waitandnext 0.5\n\n# alpha 960031 0 0.5\n# alpha 24 0 0.5\n# alpha 0 1 0.5\n# textboxarrow 0 2\n@デュリン\n光の壁！\n\n# alpha 960031 1 0.5\n# alpha 24 1 0.5\n# alpha 0 0 0.5\n# pos 0 5\n# voice 1014 \"tyrufing_0029\"\n# face 24 \"mad2\"\n@ティルフィング\n…ハァァァァァーッ！！！！\n\n;;※構わず光の壁に斬りつけるティルフィング。ギャギャギャっと火花が散り、光の壁が切り裂かれる。\n# se \"SE_4601\"\n# effectbody 700 1 0 0\n# effectstart 700\n# waitandnext 0.3\n\n# se \"SE_9080\"\n# effectbody 701 2 0 0\n# effectstart 701\n# waitandnext 0.3\n\n# se \"SE_9182\"\n# fadein \"red\" 0.5\n# shake 0 0.5\n# waitandnext 0.7\n\n# textboxarrow 0 2\n# move 24 3 0.3\n# waitandnext 0.5\n\n# alpha 0 1 0.5\n# textboxarrow 0 3\n@デュリン\n壁を切り裂いた…！？\n…いける！！！\n\n# voice 9975 \"raphael_0015\"\n# textboxarrow 0 1\n@ラファエル\n『剣に迷いがない…\n小細工は意味をなさぬようですね…』\n\n# textboxarrow 0 2\n@ティルフィング\n人のココロは、\nアナタ達の想像を超えた力を\n生み出すの！！\n\n@ティルフィング\n私達は、\nアナタの駒じゃない…！！！\n\n@ティルフィング\n…“ショック・トゥ・キル”！！！！\n\n;;※渾身の一撃を放つティルフィング。凄まじい衝撃波に、ざわめくユグドラシルの葉。\n# serif 0\n# textwindow \"close\"\n# waitandnext 0.5\n\n# se \"SE_8009\"\n# effectbody 702 1 -50 0\n# effectstart 702\n# layer 960 0\n# scale 960 0.8 0\n# pos 960 2\n# mask 960 on\n# alpha 960 1 0\n# waitandnext 0.3\n\n# serif 0\n# textwindow \"nomal\"\n# textboxarrow 0 3\n@デュリン\nやった！！！\n\n# bgmfile \"bgm188\" \"BgmStory007\" 0\n# waitandnext 0.5\n\n# textboxarrow 0 1\n# voice 9975 \"raphael_0004\"\n# face 960031 \"normal\"\n@ラファエル\n『アナタは“運命の子”と呼ばれ…\n人類が希望を寄せる存在…』\n\n# textboxarrow 0 2\n# voice 1014 \"tyrufing_0024\"\n# face 24 \"surprise\"\n@ティルフィング\nな…！？\n;;※ティルフィングの攻撃を、人差し指で止めているラファエル。\n\n# face 0 \"worry\"\n# textboxarrow 0 3\n@デュリン\nひ、人差し指ひとつで…\nティルフィングの攻撃を止めた…！？\n\n# voice 9975 \"raphael_0020\"\n# textboxarrow 0 1\n@ラファエル\n『一瞬にして消し去っては…\nその希望とやらを\n断ち切ることはかなわぬでしょう』\n\n@ラファエル\n『少し…\n相手をして\n差し上げましょうか』\n\n# se \"SE_9135\"\n# scale 960 2 0.5\n# shake 1 1\n# alpha 960 0 1\n# layer 960 4\n# waitandnext 1\n\n# fadein \"white\" 0.5\n# face 24 \"sad\"\n# move 24 4 0.2\n# shake 0 0.5\n# waitandnext 0.5\n\n# voice 1014 \"tyrufing_0037\"\n# textboxarrow 0 3\n@ティルフィング\nガッ…！！！！\n…カハッ！！！！\n\n@デュリン\nティルフィング！！！\n\n# bgmfile \"bgm189\" \"BgmStory007\" 0\n# waitandnext 0.5\n\n# voice 1014 \"tyrufing_0038\"\n@ティルフィング\nな、なんて、桁外れな力なの…！\n\n# textboxarrow 0 1\n@ラファエル\n『いたぶるような真似は、\n好みませんが…』\n\n;;※フッと姿を消すラファエル。\n# textboxarrow 0 0\n# se \"SE_5257\"\n# alpha 960031 0 0.5\n# waitandnext 0.5\n\n# pos 960031 5\n# textboxarrow 0 3\n@デュリン\n！？\n消えた…！？\n\n;;※ティルフィングの背後に姿を現すラファエル。\n# alpha 0 0 0.5\n# se \"SE_5776\"\n# alpha 960031 1 0.5\n# textboxarrow 0 3\n@ラファエル\n『叶わぬ夢を抱かせては、\nあまりに不憫…』\n\n# voice 1014 \"tyrufing_0022\"\n# face 24 \"surprise\"\n# textboxarrow 0 3\n@ティルフィング\n！？\n\n;;※ティルフィングの背に、光の衝撃波を撃つラファエル\n# se \"SE_9066\"\n# fadein \"white\" 0.5\n# waitandnext 0.5\n\n# face 24 \"sad\"\n# textboxarrow 0 3\n@ティルフィング\nガッ！！！！\n\n;;※空中に弾き飛ばされるティルフィング。同時に、フッと姿を消すラファエル。\n# se \"SE_5257\"\n# textboxarrow 0 1\n# move 24 2 0.3\n# fadein \"red\" 0.5\n# alpha 960031 0 0.3\n# shake 0 0.5\n# waitandnext 0.5\n\n# textboxarrow 0 3\n# alpha 0 1 0.5\n@デュリン\nティルフィング！！！！\n\n# textboxarrow 0 1\n# pos 960031 1\n@ティルフィング\nう…うぐっ！！！\n\n;;※フッと、再びティルフィングの背後に姿を現すラファエル。\n# se \"SE_5776\"\n# alpha 960031 1 0.3\n# waitandnext 0.5\n\n# face 960031 \"angry\"\n# textboxarrow 0 1\n@ラファエル\n『その希望の芽を断つ…』\n\n@ラファエル\n『それが、\n私にできるせめてもの慈しみと\n言えましょう…』\n;;※手を掲げるラファエル。\n\n@ティルフィング\nう、うぁ…！！！\n\n;;※ドンッとティルフィングに撃ち落とされる、巨大な雷柱。\n# se \"SE_5784\"\n# fadein \"white\" 0.5\n# alpha 0 0 0\n# alpha 960031 0 0.5\n# move 24 5 0.2\n# waitandnext 0.5\n\n# shake 1 0.5\n# textboxarrow 0 3\n@ティルフィング\nガッ！！！！！\n;;※凄まじい勢いで、地面に叩き付けられるティルフィング。\n\n# pos 0 3\n@ティルフィング\nグガッ…！！！！！\n\n# alpha 24 0 0.5\n# waitandnext 0.5\n\n\n# textboxarrow 0 2\n# alpha 0 1 0.5\n@デュリン\nティルフィング！！！\n\n# move 960031 3 0\n# mask 960031 off\n# face 960031 \"normal\"\n# alpha 0 0 0.5\n# alpha 960031 1 0.5\n# voice 9975 \"raphael_0041\"\n# textboxarrow 0 2\n@ラファエル\n『さぁ…\n立ちなさい』\n\n# pos 24 3\n# pos 0 5\n@ラファエル\n『まだ、始まったばかりですよ』\n\n# bgm \"stop\"\n# serif 0\n# textwindow \"close\"\n# subfillrect 1 \"black\" 1 0 1\n# waitandnext 1\n\n# serif 0\n# textwindow \"nomal\"\n# textboxarrow 0 0\n# voice 1014 \"tyrufing_0015\"\n@ティルフィング\nう…うぐっ…\n…つ…強過ぎ…る\n\n# bgmfile \"bgm198\" \"Bgm3Tcollabo002\" 0\n# waitandnext 0.5\n\n# serif 1\n# alpha 0 0 0.5\n# face 0 \"angry\"\n@デュリン\nティ、ティルフィング、\nしっかり！！\n\n# serif 1\n@デュリン\nここで終わったら、\nすべてが水の泡なのよ！？\n\n# textboxarrow 0 0\n@ティルフィング\nグッ…\n\n# serif 1\n@デュリン\nエ、エイレーネ様の想いも！\n闘っている、みんなの想いも！\n\n# serif 1\n@デュリン\nそのすべてが\n無に帰ってしまうのよ…っ！！\n\n# textboxarrow 0 0\n@ティルフィング\n…う\n…うぐっ！\n\n# serif 1\n@デュリン\n私達が生きてきた世界が！\n人類の未来が！\n\n# serif 1\n@デュリン\nそのすべてが、\n潰えてしまうのよ…！！！\n\n# textboxarrow 0 0\n@ティルフィング\nうぐ！\nググ…！！！\n\n# serif 1\n@デュリン\nお願い！\n立って！！\n\n# serif 1\n@デュリン\nこの世界の人々の、\n希望を支えに！！！\n\n# pos 960031 3\n# alpha 960031 0 0\n# serif 1\n# textwindow \"close\"\n# serif 0\n# textboxarrow 0 0\n@ティルフィング\nウッ…\nウァァァァァーッ！！！\n\n;;※力を振り絞り、立ち上がるティルフィング。フッと、その目の前に現れるラファエル。\n# face 24 \"mad2\"\n# subfillrect 1 \"black\" 0.5 1 0\n# textboxarrow 0 2\n# alpha 24 1 0.5\n# waitandnext 1.5\n\n# alpha 24 0 0.5\n# bgm \"stop\"\n# alpha 960031 1 0.5\n# textboxarrow 0 2\n@ラファエル\n『ですから…その希望を断ち切ると\n申しているのが、\n理解できませんか…？』\n\n# alpha 960031 0 0.5\n# alpha 24 1 0.5\n# alpha 0 1 0.5\n# face 24 \"surprise\"\n# textboxarrow 0 2\n@ティルフィング\n！？\n\n# textboxarrow 0 3\n# alpha 0 1 0.5\n@デュリン\nティ…\n\n;;※次の瞬間…ドンッとティルフィングの腹部を貫通する光の衝撃波。\n# alpha 0 0 0\n# se \"SE_9066\"\n# serif 0\n# face 24 \"sad\"\n# textwindow \"close\"\n# effectbody 710 1 0 0\n# effectpattern 710 1 14\n# effectstart 710\n# subfillrect 0 \"red\" 0.5 0 1\n# shake 1 0.5\n# brightness 24 0 0\n# waitandnext 0.5\n\n# subfillrect 0 \"red\" 0.5 1 0\n# brightness 24 1 0.5\n# alpha 0 1 0.5\n# waitandnext 0.8\n\n# serif 0\n# textwindow \"nomal\"\n# textboxarrow 0 2\n@ティルフィング\n！！！！！！\n\n# textboxarrow 0 2\n@デュリン\n！！！！\n\n;;※静寂…やがて、こと切れたようにドサリと崩れ落ちるティルフィング。\n# se \"SE_3001\"\n# alpha 24 0 0.5\n# waitandnext 0.5\n\n# bgm \"bgm004\" 0\n# face 0 \"cry\"\n# textboxarrow 0 3\n@デュリン\nあ…ああ…！！！\n\n@デュリン\nティ…ティル…フィング…\n;;※沈黙したままのティルフィング。\n\n# alpha 0 0 0.5\n# alpha 960031 1 0.5\n# voice 9975 \"raphael_0020\"\n# textboxarrow 0 2\n@ラファエル\n『アナタ達人類の最後の希望が、\n今ここに潰えました…\n\n@ラファエル\n『そこの者…\n街へ戻り、\n人間達に伝えるのです…』\n\n@ラファエル\n『希望の灯は、\n消え去ったと…』\n\n@ラファエル\n『天に祈り、\n終末の時を穏やかに待つのだと』\n\n# move 0 3 0\n# alpha 0 1 0.5\n# alpha 960031 0 0.5\n# textboxarrow 0 2\n@デュリン\nグッ…\n\n# alpha 0 0 0.5\n# alpha 960031 1 0.5\n# textboxarrow 0 2\n@ラファエル\n『のちほど…わずかながら、\n新たなる箱庭に連れてゆく民を\n選別に向かいます』\n\n@ラファエル\n『そこに選ばれることを、\n心待ちにするよう…』\n\n# imageset 2 \"bg_white\"\n# imagealpha 2 0 0\n# imagelayer 2 3\n# imageset 3 \"bg_white\"\n# imagealpha 3 0 0\n# imagelayer 3 4\n# alpha 0 1 0.5\n# alpha 960031 0 0.5\n# face 0 \"angry\"\n# textboxarrow 0 2\n@デュリン\n…う…うぁぁぁぁぁーっ！！！\n;;※感情のままに突っ込んでゆくデュリン。\n\n# leftout 0 0.3\n# alpha 0 0 0.3\n# waitandnext 0.3\n\n# pos 0 3\n# waitandnext 0.1\n\n# alpha 0 1 0.3\n# rightin 0 0.3\n# alpha 960031 1 0.2\n# mask 960031 on\n# imagepos 2 0 30\n# imagepos 3 0 30\n# move 960031 2 0\n# textboxarrow 0 2\n@ラファエル\n『…フン』\n\n;;【指定】SE_9127 1秒後　SE_5529\n;;※ブンと光の壁を出現させるラファエル。感電するように激突するデュリン。\n# se \"SE_9127\"\n# imagescale 2 0.5 0.5\n# imagealpha 2 0.4 0.5\n# imagescale 3 0.7 0.5\n# imagealpha 3 0.4 0.5\n# waitandnext 1\n\n# se \"SE_5529\"\n# alpha 960031 0 0\n# imagealpha 3 0 0\n# imagealpha 2 0 0\n# fadein \"red\" 0.5\n# shake 1 0.5\n# waitandnext 0.5\n\n# textboxarrow 0 2\n@デュリン\nガッ…！！\n…グ…グギギ！\n\n# alpha 0 0 1\n# waitandnext 1\n\n# alpha 960031 1 0.5\n# move 960031 3 0\n# mask 960031 off\n# face 960031 \"worry\"\n# voice 9975 \"raphael_0014\"\n# textboxarrow 0 2\n@ラファエル\n『愚かな…\nなんと聞き分けのない\n種族なのでしょう、アナタ達は…』\n\n# imagescale 2 1 0\n# imagescale 3 1 0\n@ラファエル\n『どれだけ諭そうとも…\nアナタ方が聞き入れることは\nないのですね…』\n;;※手を掲げるラファエル。\n\n# face 960031 \"angry\"\n@ラファエル\n『ならば…\nこれ以上のやり取りは、\n不要…』\n\n# voice 9975 \"raphael_0029\"\n# imageset 0 \"yggdrasill\"\n# imagealpha 0 0 0\n# imagescale 0 1.2 0\n@ラファエル\n『消え果てなさい…！』\n\n# bgm \"bgm031\" 0\n# waitandnext 0.5\n\n# select \"う…うう…っ！！\" \"select_label_01\" \"ク…クソーッ！！\" \"select_label_01\"\n『消え果てなさい…！』\n\n# label \"select_label_01\"\n# face 960031 \"surprise\"\n@ラファエル\n『！！\nなに…？』\n;;※ユグドラシルの大樹を振り返るラファエル。\n\n# textwindow \"close\"\n# imagealpha 0 1 0\n# imagepos 0 0 -600\n# fadein \"white\" 3\n# waitandnext 3\n\n# select \"う…ううっ…うぁぁぁぁーっ！！！\" \"select_label_02\" \"う…ううっ…うぁぁぁぁーっ！！！\" \"select_label_02\"\n『！！\nなに…？』\n\n;;※ザァッと葉をざわめかせる、ユグドラシルの大樹。慌てて、主人公に向き直るラファエル。\n# label \"select_label_02\"\n# textwindow \"nomal\"\n# voice 9975 \"raphael_0022\"\n# textboxarrow 0 0\n@ラファエル\n『！？』\n\n# imagealpha 0 0 0.5\n# textboxarrow 0 2\n# voice 9975 \"raphael_0023\"\n# face 960031 \"worry\"\n@ラファエル\n『ユグドラシルが…\nこの者の怒りに\n呼応しているのですか…！？』\n\n;;※ザァッと葉をざわめかせる、ユグドラシルの大樹。\n@ラファエル\n『中立の立場で\nあらねばならないアナタが…\n感情的に…！？』\n\n# voice 9975 \"raphael_0015\"\n# face 960031 \"angry\"\n@ラファエル\n『…クッ！』\n\n;;※慌てて飛び立つラファエル。\n# se \"SE_9092\"\n# waitandnext 0.5\n\n@ラファエル\n『不測の事態が\nあってはいけません…\nもはや、ここまで！！』\n;;※手を掲げるラファエル。\n\n@ラファエル\n『眠りにつくのです、\nユグドラシル…！！！』\n\n;;※強力な光の波動を、主人公に向け発するラファエル。\n# imageset 3 \"black\"\n# imagealpha 3 0 0\n# imagelayer 3 1\n# body 6\n# pos 6 4\n# scale 6 0.8 0\n# alpha 6 0 0\n# body 40\n# pos 40 2\n# scale 40 0.8 0\n# alpha 40 0 0\n# se \"SE_9066\"\n# fadein \"white\" 0.5\n# waitandnext 0.5\n\n# select \"グ…！！！\" \"select_label_04\" \"グ…！！…グギギ…！！\" \"select_label_04\"\n『眠りにつくのです、\nユグドラシル…！！！』\n\n# label \"select_label_04\"\n# imagealpha 3 1 0\n# imagepos 3 0 30\n# imageleftin 3 0.5\n# serif 0\n# textwindow \"close\"\n# serif 1\n# textwindow \"close\"\n# waitandnext 1\n\n;;※その頃、ディーン達…ユグドラシルで起きている異常に気付く人々。\n# imagealpha 3 0 0.5\n# background \"imperial_city_destroyed\"\n# alpha 960031 0 0\n# alpha 6 1 0\n# alpha 40 1 0\n# imagerightout 3 0.5\n# serif 0\n# textwindow \"nomal\"\n# textflame 0 0\n@\nグランデル凱旋門広場付近\n\n# body 960029\n# pos 960029 3\n# scale 960029 0.8 0\n# mask 960029 off\n# alpha 960029 0 0\n# textflame 1 1\n# face 6 \"angry\"\n# textboxarrow 0 3\n# voice 9997 \"deen_0016\"\n@ディーン\n！？\nお、おい…\nユグドラシルがっ…\n\n# face 40 \"irregular\"\n# textboxarrow 0 1\n# voice 9982 \"edgar_0017\"\n@エドガー\nあんなにも、\n葉をざわめかせて！\n\n# imageset 3 \"black\"\n# imagealpha 3 0 0\n# imagelayer 3 1\n# alpha 6 0 0.5\n# alpha 40 0 0.5\n# alpha 960029 1 0.5\n# textboxarrow 0 2\n# voice 9972 \"michael_0022\"\n@ミカエル\n『！！\nユグドラシルが…\n抗い始めた…！？』\n\n# body 128\n# pos 128 5\n# scale 128 0.8 0\n# alpha 128 0 0\n# body 129\n# pos 129 3\n# scale 129 0.8 0\n# alpha 129 0 0\n# mask 129 off\n# body 4\n# pos 4 3\n# scale 4 0.8 0\n# alpha 4 0 0\n# layer 4 2\n# imagealpha 3 1 0\n# imagepos 3 0 30\n# imageleftin 3 0.5\n# serif 0\n# textwindow \"close\"\n# serif 1\n# textwindow \"close\"\n# waitandnext 1\n\n;;※一方、フレンネル達。\n# imagealpha 3 0 0.5\n# alpha 960029 0 0\n# alpha 129 1 0\n# alpha 4 0 0\n# imagerightout 3 0.5\n# serif 0\n# textwindow \"nomal\"\n# textflame 0 0\n@\n王都広場付近\n\n# body 960030\n# pos 960030 3\n# scale 960030 0.8 0\n# mask 960030 off\n# alpha 960030 0 0\n# textflame 1 1\n# textboxarrow 0 2\n@フレンネル\nユグドラシルが、\n抗い始めた…？\n\n# alpha 129 0 .5\n# alpha 960030 1 0.5\n# textboxarrow 0 2\n# voice 9971 \"gabriel_0004\"\n@ガブリエル\n『予想外の反応ですが…\nラファエルが手をかけようと\nしているのでしょう…』\n\n# alpha 960030 0 0.5\n# alpha 4 1 0.5\n# face 4 \"angry\"\n@トト\n…！？\n待ってよ！\nじゃあ…ティルフィングは！？\n\n# body 28\n# pos 28 1\n# scale 28 0.8 0\n# alpha 28 0 0\n# alpha 4 0 0.5\n# alpha 960030 1 0.5\n# voice 9971 \"gabriel_0005\"\n@ガブリエル\n『その段階に入ったとあらば…\n言うに及びませんね』\n\n# face 28 \"trouble\"\n# face 128 \"surprise\"\n# alpha 960030 0 0.5\n# alpha 4 1 0.5\n# alpha 28 1 0.5\n# alpha 128 1 0.5\n# textboxarrow 0 2\n@トト\nそ、そんな…！？\n\n# textboxarrow 0 1\n# voice 9984 \"ren_0018\"\n@レン\nティ、ティルフィングが負けた…！？\n\n# textboxarrow 0 3\n@ノーブル\nわ、私達の希望が…！\n\n# alpha 4 0 0.5\n# alpha 28 0 0.5\n# alpha 128 0 0.5\n# alpha 960030 1 0.5\n# textboxarrow 0 2\n# voice 9971 \"gabriel_0007\"\n@ガブリエル\n『アナタ達の希望の芽は、\n潰えたということ…』\n\n@ガブリエル\n『人類よ…\nすべてを悟るのです』\n\n# bgm \"stop\"\n# alpha 960030 0 0.5\n# alpha 4 1 0.5\n@トト\nそんな！\nそんなの、ウソだよ…！！\n\n@トト\nティルフィングが、\n負けるわけがないんだ…！！！\n\n# alpha 4 0 0.5\n# alpha 960030 1 0.5\n# voice 9971 \"gabriel_0027\"\n@ガブリエル\n『いいえ、それが現実です』\n\n@ガブリエル\n『アナタ方は、\n現実を受け入れるべき…』\n\n# bgm \"bgm035\" 0\n# alpha 960030 0 0.5\n# alpha 4 1 0.5\n# alpha 28 1 0.5\n# alpha 128 1 0.5\n@トト\n頑張ってよ！\n頑張ってよ、\nティルフィングーッ！！！！\n\n# textboxarrow 0 1\n# face 28 \"angry\"\n@レン\n！！\nそうよ…\n\n@レン\n何のために、\nここまでやってきたのよ！\n…頑張ってよ！！！\n\n# serif 1\n@市民Ａ\nそ、そうだ！\n俺達の希望が、\n潰えるはずがないんだ！！\n\n# serif 1\n@市民Ｂ\n頑張れ！！！\n大天使なんかに負けるなーっ！！！！\n;;※その声援が、街全体に広がり…やがて、グランエクスペリ全体からの、ウォォォォォォォーッという巨大な叫びとなる。\n\n# pos 129 2\n# serif 1\n# textwindow \"close\"\n# serif 0\n# alpha 4 0 0.5\n# alpha 128 0 0.5\n# alpha 28 0 0.5\n# alpha 960030 1 0.5\n# voice 9971 \"gabriel_0026\"\n# textboxarrow 0 2\n@ガブリエル\n『愚かな…\nそのように騒ぎ立てたところで…』\n\n# mask 129 on\n# move 960030 4 0.5\n# mask 960030 on\n# alpha 129 1 0.5\n# textboxarrow 0 1\n@フレンネル\n…アナタ方は、\nわかっていない\n\n# textboxarrow 0 3\n@ガブリエル\n『…？』\n\n# textboxarrow 0 1\n@フレンネル\n言ったはずだ…\n人を想う気持ちが、\n力を生むのだと！\n\n# imageset 3 \"black\"\n# imagealpha 3 0 0\n# imagelayer 3 1\n@フレンネル\nアナタ方には、到底理解できぬ…\n想像をはるかに超えた力が\n生まれるのだと…！！\n\n# imagealpha 3 1 0\n# imagepos 3 0 30\n# imageleftin 3 0.5\n# serif 0\n# textwindow \"close\"\n# serif 1\n# textwindow \"close\"\n# waitandnext 1\n\n;;※再び、ユグドラシル。強力な光の波動を、主人公に向けているラファエル。\n# imagealpha 3 0 0.5\n# alpha 129 0 0\n# alpha 960030 0 0\n# alpha 960031 1 0\n# background \"altar\"\n# imagerightout 3 0.5\n# serif 0\n# textwindow \"nomal\"\n# textflame 0 0\n@\n世界樹ユグドラシル付近・上空\n\n# face 960031 \"surprise\"\n# textflame 1 1\n# textboxarrow 0 2\n# voice 9975 \"raphael_0022\"\n@ラファエル\n！！\nこれは…\n\n# se \"SE_0678\"\n# fadein \"white\" 0.5\n# waitandnext 0.5\n\n# face 960031 \"worry\"\n@ラファエル\n『これは…結界…！？』\n\n# select \"グ…！！！\" \"select_label_05\" \"うぐぐ…！！！\" \"select_label_05\"\n『これは…結界…！？』\n\n# label \"select_label_05\"\n# face 960031 \"worry\"\n@ラファエル\n『まさか、\nそのような策を\n施しているとは！』\n\n# face 960031 \"angry\"\n# voice 9975 \"raphael_0007\"\n@ラファエル\n『構いません…\n力ずくで、\nねじ伏せてみせましょう…！』\n\n;;※さらに強力な光の波動を照射するラファエル。\n# se \"SE_9000\"\n# fadein \"white\" 0.5\n# waitandnext 0.5\n\n# select \"うっ…うぐ…！！\" \"select_label_06\" \"ぐ…ぐぁ…！！\" \"select_label_06\"\n『構いません…\n力ずくで、\nねじ伏せてみせましょう…！』\n\n# label \"select_label_06\"\n# face 960031 \"surprise\"\n@ラファエル\n『…？\nあれは…\n何の騒ぎです…？』\n\n# face 0 \"angry\"\n# alpha 960031 0 0.5\n# alpha 0 1 0.5\n@デュリン\nグッ…\nあ、あれは…\n人々の声援だわ…\n\n# alpha 0 0 0.5\n# alpha 960031 1 0.5\n@ラファエル\n『声援…？』\n\n# alpha 960031 0 0.5\n# alpha 0 1 0.5\n@デュリン\nき、聞こえるでしょう…\nティルフィング！\n\n@デュリン\nさぁ、\n目を開けてっ…\n\n# serif 1\n@ティルフィング\n…う\n\n# serif 1\n# textwindow \"close\"\n# serif 0\n# alpha 0 0 0.5\n# alpha 960031 1 0.5\n@ラファエル\n『！！』\n\n# alpha 960031 0 0.5\n# alpha 0 1 0.5\n@デュリン\nた、立つのよ、\nティルフィング！\n\n@デュリン\n人類の心の叫びを、\n受け止めて！\n\n# voice 1014 \"tyrufing_0015\"\n# serif 1\n@ティルフィング\nう…うぐっ…っ！！\n\n@デュリン\nティルフィング！\n\n# serif 1\n@ティルフィング\nき…聞こえ…る…\n\n# serif 1\n@ティルフィング\nみ…みんなの…\n声が…\n\n# serif 1\n# textwindow \"close\"\n# serif 0\n# alpha 0 0 0.5\n# alpha 960031 1 0.5\n# face 960031 \"angry\"\n# voice 9975 \"raphael_0026\"\n@ラファエル\n『そのような手負いの身で、\nいったいなにが\nできるというのです…？』\n\n# alpha 960031 0 0.5\n# alpha 0 1 0.5\n@デュリン\nた、立ち上がって、\nティルフィング！！\n\n@デュリン\nラファエルが、\nこの人の結界を\n打ち崩す前に…！！\n\n# alpha 0 0 0.5\n# alpha 960031 1 0.5\n@ラファエル\n『…残念ですが、\nそれはかないません』\n\n# face 0 \"worry\"\n# alpha 960031 0 0.5\n# alpha 0 1 0.5\n@デュリン\nえ…？\n\n# select \"うっ…うぁぁぁぁぁ…！！！\" \"select_label_07\" \"うぐ…！！…ぐぁぁぁぁぁーっ！！！\" \"select_label_07\"\nえ…？\n\n# label \"select_label_07\"\n# se \"SE_9063\"\n# fadein \"white\" 0.5\n# waitandnext 0.5\n\n@デュリン\n！？\nけ、結界が…！？\n\n# alpha 0 0 0.5\n# alpha 960031 1 0.5\n# se \"SE_9111\"\n# voice 9975 \"raphael_0007\"\n@ラファエル\n『間に合わなかったようですね\nさぁ…\nこれで、終わりです！』\n\n@ラファエル\n『消え果てなさい、\nユグドラシル…！！！』\n\n# se \"SE_9066\"\n# fadein \"white\" 0.5\n# waitandnext 0.5\n\n# face 0 \"angry\"\n# alpha 960031 0 0.5\n# alpha 0 1 0.5\n@デュリン\nダ…ダメーッ！！！！\n\n# serif 0\n# textwindow \"close\"\n# subfillrect 1 \"black\" 0.5 0 1\n# waitandnext 0.5\n\n# se \"SE_8009\"\n# effectbody 708 1 0 0\n# effectpattern 708 1 7\n# effectstart 708\n# waitandnext 0.3\n\n# subfillrect 1 \"black\" 0.2 1 0\n# serif 0\n# textwindow \"nomal\"\n# alpha 0 0 0.5\n# alpha 960031 1 0.5\n# face 960031 \"surprise\"\n@ラファエル\n『！！』\n\n# face 24 \"angry\"\n# pos 0 3\n# mask 24 off\n# alpha 960031 0 0.5\n# alpha 24 1 0.5\n# voice 1014 \"tyrufing_0007\"\n@ティルフィング\nま…まだです…！\n\n# face 0 \"happy\"\n# pos 960031 3\n# alpha 24 0 0.5\n# alpha 0 1 0.5\n# textboxarrow 0 2\n@デュリン\nティルフィング…！！\n\n# alpha 0 0 0.5\n# alpha 960031 1 0.5\n# textboxarrow 0 2\n# face 960031 \"angry\"\n@ラファエル\n『…なんと、\n諦めが悪いのでしょう』\n\n# alpha 960031 0 0.5\n# alpha 24 1 0.5\n# face 24 \"mad2\"\n# textboxarrow 0 2\n@ティルフィング\nわ、私は…\n何度でも立ち上がってみせる！\n人々の想いが紡がれている限り…！！"
	}
]