[
	{
		"ID": 91030103,
		"script": ";;【指定】bgm010\n;;●３－５＜戦闘画面＞　背景：祭壇、王都（２つ出て来るので、差異をつけるためにグランエクスペリ？）\n# script \"lisp\"\n# background \"altar\"\n# bgm \"bgm010\" 0\n# body 101411\n# pos 101411 3\n# alpha 101411 0 0\n# body 24\n# pos 24 5\n# layer 24 2\n# scale 24 0.8 0\n# body 960031\n# pos 960031 1\n# scale 960031 0.8 0\n# textflame 1 1\n# face 960031 \"angry\"\n# face 24 \"angry\"\n# voice 1014 \"tyrufing_0015\"\n# textboxarrow 0 3\n@ティルフィング\nわ、私は…\n何度でも立ち上がってみせる！\n人々の想いが紡がれている限り…！！\n\n# face 960031 \"worry\"\n# textboxarrow 0 1\n# voice 9975 \"raphael_0026\"\n@ラファエル\n『なんと、諦めの悪い…\n完全に終わらせぬ限り、\n同じことの繰り返しですね…』\n\n;;※ラファエルが、再び光のオーラをまとい始める。\n# face 960031 \"angry\"\n@ラファエル\n『いいでしょう…\nならば、その肉体…完全に消し去って\n差し上げましょう…！』\n\n# face 24 \"mad2\"\n# textboxarrow 0 3\n@ティルフィング\n負けない！\n私は負けない、絶対に！\n\n@ティルフィング\nみんなの想いが、\nまだ生き続けているんだもの！！！\n\n;;※ドンッとラファエルに向かい飛び立つティルフィング。\n# textboxarrow 0 1\n@ラファエル\n『もはや、アナタとの闘いに、\nこれ以上の意味はない！』\n\n# body 0\n# pos 0 5\n# scale 0 0.8 0\n# alpha 0 0 0\n# layer 0 3\n# voice 9975 \"raphael_0029\"\n@ラファエル\n『最大限の力をもって、\n一瞬にして終わらせましょう！』\n\n;;※ドンッとティルフィングに向かってくるラファエル。\n# se \"SE_9092\"\n# move 960031 2 0.3\n# move 24 4 0.3\n# waitandnext 0.5\n\n# alpha 0 1 0.5\n# face 0 \"angry\"\n# textboxarrow 0 3\n@デュリン\n！！\nティルフィング、よけて…！！！\n\n# face 24 \"angry\"\n@ティルフィング\nいいえ！\n私は逃げない！！\n\n# face 24 \"mad2\"\n@ティルフィング\n人間の想いを…そのココロの力を…\n神々に伝えなければ、\nなにも意味がないのだから…！！！\n\n# face 960031 \"worry\"\n# face 24 \"angry\"\n# voice 9975 \"raphael_0015\"\n# textboxarrow 0 1\n@ラファエル\n『愚かな！』\n\n# face 960031 \"angry\"\n@ラファエル\n『思い上がった人類よ…\nそのか弱き力では、\n私の足止めすら…』\n\n\n# body 127\n# pos 127 3\n# scale 127 0.8 0\n# alpha 127 0 0\n# layer 127 1\n# bgmfile \"bgm154\" \"BgmPJZero001\" 0\n# voice 9983 \"kokusohkan_0028\"\n# serif 1\n@？？？\nな、ならば…\nそこに魔の力が加われば、\nどうだ…？\n\n# serif 1\n# textwindow \"close\"\n# serif 0\n# face 960031 \"surprise\"\n@ラファエル\n『！？』\n\n;;※突如、割って入るように飛び込んでくる影…アルン。\n# alpha 127 1 0.5\n# face 127 \"angry\"\n# waitandnext 0.5\n\n# face 24 \"surprise\"\n# textboxarrow 0 3\n@デュリン\nアルン…！？\n\n# voice 9975 \"raphael_0015\"\n# textboxarrow 0 1\n@ラファエル\n『どういうことです…？\n記憶の中の人格は、\n消し去ったはず…』\n\n# textboxarrow 0 2\n@アルン\nこの…\nたったひと束の髪の毛が、\n私を繋ぎ止めてくれたんだ…\n\n# face 24 \"angry\"\n# face 960031 \"worry\"\n# textboxarrow 0 3\n@デュリン\n髪の毛…？\n\n# textboxarrow 0 2\n@アルン\nち、地上から天上へ向かう時…\nこのティルフィングの髪を媒体に、\n私はやってきたんだよ…\n\n# textboxarrow 0 3\n@デュリン\nそうか…座標！\n\n@デュリン\n座標たるティルフィングが\n近くにいるから、\n自我を失わずに済んだのね！\n\n# textboxarrow 0 2\n@アルン\nそ、それだけじゃない…\nこんなところでヘマをすれば…\nアイツに顔向けできなくなる…\n\n@アルン\n私が自我を失うことを、\n許さないヤツがいるんだよ…\n\n# textboxarrow 0 1\n@ラファエル\n『なに…？』\n\n# textboxarrow 0 2\n@アルン\nこの身体に刻まれた記憶が…\nあの男と交わした約束が…\n私を繋ぎ止めているんだ…！\n\n# textboxarrow 0 3\n@デュリン\n！！\n“ゼロ”…\n\n# voice 9975 \"raphael_0028\"\n# textboxarrow 0 1\n@ラファエル\n『なるほど…\nその身体に流れる、\n悪魔の血もまた…』\n\n@ラファエル\n『私の術を拒んだ一因ということ\nですか…』\n\n# voice 9983 \"kokusohkan_0029\"\n# textboxarrow 0 2\n@アルン\nその魔の血があれば…\n足止めもかなうのではないか…？\n…ウォォォォォォォーッ！！！！\n\n;;※ガシッとラファエルにしがみつく黒奏官。\n# move 127 2 0.3\n# move 960031 1 0.3\n# waitandnext 0.5\n\n# serif 1\n# textboxarrow 1 1\n# face 960031 \"surprise\"\n@ラファエル\n『！？\nなにを…！？』\n\n# serif 1\n# textwindow \"close\"\n# serif 0\n# textwindow \"nomal\"\n# textboxarrow 0 1\n@アルン\n…ティルフィング！\n私に構わず、\nラファエルを討つんだ！\n\n# voice 1014 \"tyrufing_0024\"\n# face 24 \"surprise\"\n# textboxarrow 0 3\n@ティルフィング\nな…！？\n\n# face 960031 \"worry\"\n@デュリン\nバカな…！？\nそんなことしたら…\n\n# textboxarrow 0 1\n@アルン\n構わない！\n\n@アルン\n私は…\n人形なんかで\n終わりたくはないんだ！\n\n# face 24 \"angry\"\n@アルン\n私は…アルンとして、\n人類の未来のために\n果ててゆきたい…！！\n\n# textboxarrow 0 3\n@デュリン\nアルン！\n\n# voice 9975 \"raphael_0015\"\n# face 960031 \"angry\"\n# serif 1\n# textboxarrow 1 1\n@ラファエル\n『グ！\nこ、駒の分際で…！！』\n\n# serif 1\n# textwindow \"close\"\n# serif 0\n# textwindow \"nomal\"\n# textboxarrow 0 1\n@アルン\n駒…？\n違うな…\n\n@アルン\n私の名は、アルン…\nれっきとした人間だ\n\n@アルン\n…ティルフィング！\n早くするんだっ…\n\n# face 24 \"sad\"\n# textboxarrow 0 3\n@ティルフィング\nでも…\n\n# textboxarrow 0 1\n@アルン\n惑うな！！\n\n@アルン\nその剣は…\n人類の未来を切り拓くために\nあるのだろう…！？\n\n# face 24 \"surprise\"\n# textboxarrow 0 3\n@ティルフィング\n！！\n\n# textboxarrow 0 1\n@アルン\nそこには…\n世の人々の想いが\n込められているんだ！\n\n@アルン\nこの…私の想いも！！\n\n# face 24 \"angry\"\n# textboxarrow 0 3\n@ティルフィング\n！！\n\n# voice 9975 \"raphael_0026\"\n# entry 9600311 960031\n# pos 9600311 1\n# scale 9600311 0.8 0\n# alpha 9600311 1 0\n# serif 1\n# textboxarrow 1 1\n@ラファエル\n『…グ！\nこの…人形めが！』\n\n;;※ブーンと光を帯び始めるラファエルの身体。\n# se \"SE_9110\"\n# scale 9600311 1.5 0.5\n# alpha 9600311 0 0.5\n# layer 9600311 4\n# shake 0 0.5\n# waitandnext 0.5\n\n# serif 1\n# textwindow \"close\"\n# serif 0\n# textwindow \"nomal\"\n# textboxarrow 0 1\n# voice 9983 \"kokusohkan_0015\"\n@アルン\nクッ…！！\n…早くするんだ！！！\n\n# textboxarrow 0 3\n@デュリン\nティルフィング！\nアルンの想いを、\n受け止めて！\n\n# face 24 \"mad2\"\n# textboxarrow 0 3\n@ティルフィング\n…わかったわ\n\n;;※ドンッと上空高く飛び上がるティルフィング。\n# se \"SE_9092\"\n# textboxarrow 0 2\n# move 24 3 0.2\n# waitandnext 0.4\n\n# face 960031 \"worry\"\n# serif 1\n# textboxarrow 1 1\n@ラファエル\n『…！？』\n\n# serif 1\n# textwindow \"close\"\n# serif 0\n# textwindow \"nomal\"\n# textboxarrow 0 2\n@ティルフィング\nアルン…\nアナタの想い…\n決して無駄にはしない！！！\n\n# face 960031 \"surprise\"\n# serif 1\n# textboxarrow 1 1\n@ラファエル\n『…！？\nま、待て！』\n\n# serif 1\n# textwindow \"close\"\n# serif 0\n# textwindow \"nomal\"\n# textboxarrow 0 1\n@アルン\n…やれーっ！！！\n\n# textboxarrow 0 2\n# voice 9974 \"tyrufing_pok_collabo0301_0013\"\n@ティルフィング\n“ショック・トゥ・キル”！！！！\n\n# serif 0\n# textwindow \"close\"\n# subfillrect 1 \"black\" 0.4 0 1\n# waitandnext 0.4\n\n# se \"SE_8009\"\n# effectbody 702 1 0 0\n# effectpattern 702 1 7\n# effectstart 702\n# waitandnext 0.3\n\n# face 960031 \"worry\"\n# face 24 \"angry\"\n# face 127 \"normal\"\n# subfillrect 1 \"black\" 0.2 1 0\n# serif 1\n# textboxarrow 1 1\n@ラファエル\n『ガッ！！！！！』\n\n# serif 1\n# textwindow \"close\"\n# serif 0\n# textwindow \"nomal\"\n# textboxarrow 0 1\n@アルン\nグフッ…！！！！\n\n# textboxarrow 0 3\n@デュリン\nアルン！！！\n\n# textboxarrow 0 1\n@アルン\n…ゼ…ゼロ\n約束は、果たした…ぞ…\n\n;;※力なく落下してゆくアルン。\n# alpha 127 0 0.5\n# waitandnext 0.5\n\n# textboxarrow 0 3\n@デュリン\nアルンーッ！！！\n\n;;※慌てて追いかけてゆくデュリン。\n# alpha 0 0 0.5\n# waitandnext 0.5\n\n# face 960031 \"angry\"\n# textboxarrow 0 1\n@ラファエル\n『…グ…グフッ！\nこ、この大天使ラファエルが…\nい、異物ごときに…！？』\n\n# face 24 \"mad2\"\n# textboxarrow 0 2\n@ティルフィング\n私じゃない…\nアナタを討ったのは、\n人々の意志…\n\n@ティルフィング\n人の想いを軽んじたことが、\nアナタの敗因よ…\n\n# imageset 3 \"black\"\n# imagealpha 3 0 0\n# imagelayer 3 1\n# face 960031 \"worry\"\n# voice 9975 \"raphael_0037\"\n# textboxarrow 0 1\n@ラファエル\n『…グ！\n…ググ！\n…ガハッ！！！！！』\n\n# imagealpha 3 1 0\n# imagepos 3 0 30\n# imageleftin 3 0.5\n# serif 0\n# textwindow \"close\"\n# serif 1\n# textwindow \"close\"\n# waitandnext 1\n\n;;※その頃…王都の街。グリードを追いつめているガブリエル。\n# imagealpha 3 0 0.5\n# bgm \"bgm005\" 0\n# alpha 24 0 0\n# alpha 960031 0 0\n# body 101471\n# pos 101471 3\n# scale 101471 0.8 0\n# body 960030\n# pos 960030 3\n# scale 960030 0.8 0\n# mask 960030 off\n# alpha 960030 0 0\n# mask 101471 off\n# background \"imperial_city_destroyed\"\n# imagerightout 3 0.5\n# serif 0\n# textwindow \"nomal\"\n# face 101471 \"sad\"\n# textflame 0 0\n@\n王都広場付近\n\n# textflame 1 1\n# textboxarrow 0 2\n# voice 10147 \"tyrufing_k_0026\"\n@グリード\n…ハァ…ハァ\n…グッ！\n\n;;※スッと目の前に現れるガブリエル。\n# alpha 101471 0 0.5\n# alpha 960030 1 0.5\n# textboxarrow 0 2\n# voice 9971 \"gabriel_0004\"\n@ガブリエル\n『どうしました？\n私の相手をしてくれるのでは\nなかったのですか…？』\n\n# alpha 960030 0 0.5\n# alpha 101471 1 0.5\n# face 101471 \"angry\"\n# textboxarrow 0 2\n@グリード\n…クッ！\n\n# alpha 101471 0 0.5\n# alpha 960030 1 0.5\n# voice 9971 \"gabriel_0005\"\n# textboxarrow 0 2\n@ガブリエル\n『さぁ…\nこれで終わりに…』\n\n# voice 9971 \"gabriel_0022\"\n@ガブリエル\n『！！』\n\n# alpha 960030 0 0.5\n# alpha 101471 1 0.5\n# textboxarrow 0 2\n@グリード\nなに…？\n私のトドメを刺すんじゃないの…？\n\n# alpha 101471 0 0.5\n# alpha 960030 1 0.5\n# imageset 3 \"black\"\n# imagealpha 3 0 0\n# imagelayer 3 1\n# textboxarrow 0 2\n@ガブリエル\n『アナタの始末は…\nのちほどつけて差し上げましょう…』\n\n# alpha 960030 0 0.5\n# se \"SE_9092\"\n# face 101471 \"surprise\"\n# waitandnext 0.5\n\n# alpha 101471 1 0.5\n# textboxarrow 0 2\n@グリード\n！？\nどこへ…？\n\n# imagealpha 3 1 0\n# imagepos 3 0 30\n# imageleftin 3 0.5\n# serif 0\n# textwindow \"close\"\n# serif 1\n# textwindow \"close\"\n# waitandnext 1\n\n# imagealpha 3 0 0.5\n# alpha 101471 0 0\n# body 6\n# pos 6 1\n# scale 6 0.8 0\n# body 40\n# pos 40 5\n# scale 40 0.8 0\n# body 42\n# pos 42 3\n# scale 42 0.8 0\n# imagerightout 3 0.5\n# serif 0\n# textwindow \"nomal\"\n# textflame 0 0\n# face 42 \"surprise\"\n# face 6 \"sad\"\n# face 40 \"irregular\"\n@\nグランデル凱旋門付近\n\n# textflame 1 1\n# voice 9997 \"deen_0016\"\n# textboxarrow 0 1\n@ディーン\nお、おい！\nヤベェって、あれ…\n\n# voice 9980 \"tybalt_0022\"\n# textboxarrow 0 2\n@ティバルト\n街ごと…\n一気に破壊する気か…？\n\n# body 960029\n# pos 960029 3\n# scale 960029 0.8 0\n# alpha 960029 0 0\n# mask 960029 off\n# textboxarrow 0 3\n# voice 9982 \"edgar_0017\"\n@エドガー\nマズい！\n…逃げるんだ！！\n\n# alpha 40 0 0.5\n# alpha 42 0 0.5\n# alpha 6 0 0.5\n# alpha 960029 1 0.5\n# voice 9972 \"michael_0010\"\n# textboxarrow 0 2\n@ミカエル\n『！！』\n\n# alpha 960029 0 0.5\n# alpha 40 1 0.5\n# alpha 42 1 0.5\n# alpha 6 1 0.5\n# face 6 \"angry\"\n# textboxarrow 0 1\n@ディーン\n…あ？\n\n@ディーン\nなんだ…\n光の玉が消えたぞ…？\n\n# alpha 40 0 0.5\n# alpha 42 0 0.5\n# alpha 6 0 0.5\n# alpha 960029 1 0.5\n# textboxarrow 0 2\n@ミカエル\n『しもべ達よ…\n後は任せましたよ…』\n\n# textboxarrow 0 0\n# alpha 960029 0 0.5\n# se \"SE_9092\"\n# waitandnext 0.8\n\n# alpha 40 1 0.5\n# alpha 42 1 0.5\n# alpha 6 1 0.5\n# textboxarrow 0 3\n@エドガー\nなんだ…！？\nどこへ行ったんだ…！？\n\n# textboxarrow 0 2\n@ティバルト\nあの方向…\nユグドラシルへと\n向かったのか…？"
	}
]