[
	{
		"ID": 917060205,
		"script": ";;【EP4】『巨獣に抗うための力』/背景：森の奥の泉\n# background \"tree_cavern\"\n# bgmfile \"bgm250_251\" \"BgmRisecollabo002\" 0\n# body 202611\n# pos 202611 5\n# scale 202611 0.8 0\n# alpha 202611 0 0\n# body 103711\n# pos 103711 1\n# scale 103711 0.8 0\n# alpha 103711 0 0\n# body 101914\n# pos 101914 2\n# scale 101914 0.8 0\n# body 24\n# pos 24 4\n# scale 24 0.8 0\n# alpha 24 0 0\n# body 301311\n# pos 301311 4\n# scale 301311 0.8 0\n# alpha 301311 0 0\n# body 101471\n# pos 101471 2\n# scale 101471 0.8 0\n# alpha 101471 0 0\n# body 502811\n# pos 502811 4\n# scale 502811 0.8 0\n# voice 1019 \"kanon_0001\"\n# textflame 1 1\n# textboxarrow 0 1\n# chara 101914\n# face 101914 \"surprise\"\n# face 502811 \"sad\"\n@カノン\nあなた、大丈夫！？\n\n# textboxarrow 0 3\n# chara 502811\n@ガブリエル\n…はい\n\n# alpha 101914 0 0.5\n# alpha 101471 1 0.5\n# alpha 24 1 0.5\n# alpha 502811 0 0.5\n# voice 1014 \"tyrufing_0024\"\n# textboxarrow 0 3\n# chara 24\n# face 101471 \"angry\"\n# face 24 \"angry\"\n@ティルフィング\n来ます！\n\n# voice 10147 \"tyrufing_k_0003\"\n# textboxarrow 0 1\n# chara 101471\n@グリード\n迎え撃ちます！\n\n# textboxarrow 0 3\n# chara 24\n# face 24 \"mad2\"\n@ティルフィング\nあなたは少し休んでいて下さい\n見たところ、かなりダメージが\nあるようです\n\n# voice 10147 \"tyrufing_k_0026\"\n# textboxarrow 0 1\n# chara 101471\n@グリード\nそんなことはありません\nまだ私は戦えます\n\n# textboxarrow 0 3\n# chara 24\n@ティルフィング\n『今は』ということです\n回復したら合流して下さい\nここは私に任せていただきます\n\n# body 802301\n# pos 802301 3\n# alpha 802301 0 0\n# mask 802301 off\n# move 101914 2 0\n# alpha 101914 1 0.5\n# alpha 101471 0 0.5\n# textboxarrow 0 1\n# chara 101914\n# face 101914 \"angry\"\n@カノン\nティルフィング！私も！\n\n# voice 1014 \"tyrufing_0029\"\n# textboxarrow 0 3\n# chara 24\n@ティルフィング\nカノンさんは彼女達を\nお願いします！\n…はああああああっ！\n\n;;ティルフィングがディアブロに向かっていく。その間にガブリエルに近づくイルダーナ\n# fadein \"black\" 1\n# alpha 802301 1 0\n# alpha 101914 0 0\n# alpha 24 0 0\n# waitandnext 0.5\n# serif 0\n# textwindow \"close\"\n\n# se \"SE_5234\"\n# imageset 0 \"black\"\n# imagealpha 0 0 0\n# imagelayer 0 1\n# effectbody 2347 4 0 0\n# effectstart 2347\n# shake 0 1\n# fadein \"red\" 1\n# waitandnext 1\n\n;;イルダーナがガブリエルに平手打ちをする\n# layer 301311 1\n# move 502811 2 0\n# imagealpha 0 1 0\n# imagepos 0 0 30\n# imageleftin 0 0.5\n# serif 0\n# textwindow \"close\"\n# serif 1\n# textwindow \"close\"\n# waitandnext 1\n\n# imagealpha 0 0 0.5\n# imagerightout 0 0.5\n# alpha 802301 0 0\n# alpha 502811 1 0\n# alpha 301311 1 0\n# face 301311 \"angry\"\n# waitandnext 0.1\n\n# sedelay \"SE_9620\" 0.5\n# move 301311 3 0.2\n# waitandnext 0.5\n\n# fadein \"white\" 0.5\n# waitandnext 0.7\n\n# serif 0\n# textwindow \"nomal\"\n# move 301311 4 0.5\n# voice 5028 \"gabriel_dg_0037\"\n# textboxarrow 0 1\n# chara 502811\n# face 502811 \"sad\"\n@ガブリエル\n…っ！\n\n# voice 3013 \"ildana_0009\"\n# textboxarrow 0 3\n# chara 301311\n@イルダーナ\n自分一人が犠牲になって\nどうにかなるとでも思った？\n\n# textboxarrow 0 3\n# chara 301311\n@イルダーナ\nそんなものが通用するような\n相手じゃないでしょ\n\n# textboxarrow 0 1\n# chara 502811\n@ガブリエル\n…わかっています　\n\n# voice 5028 \"gabriel_dg_0015\"\n# textboxarrow 0 1\n# chara 502811\n@ガブリエル\nでもこれ以上、\n私達のせいで誰かが傷つくのを\n見ていられなかったんです\n\n# voice 3013 \"ildana_0037\"\n# textboxarrow 0 3\n# chara 301311\n@イルダーナ\n結局『声』の言いなりになっても\n誰かを傷つけることになるんだよ？\nだったら私達がどうにかしなきゃ\n\n# textboxarrow 0 1\n# chara 502811\n# face 502811 \"angry\"\n@ガブリエル\nそれもわかっています！\n\n# voice 5028 \"gabriel_dg_0037\"\n# textboxarrow 0 1\n# chara 502811\n@ガブリエル\nだけど…\nどうにかってどうするんですか！\nそれが見つからないじゃないですか！\n\n# layer 101471 1\n# textboxarrow 0 3\n# chara 301311\n@イルダーナ\n…………\nそうなんだけどさ！\n\n;;そこでグリードが立ち上がる\n# layer 101471 2\n# alpha 101471 1 0.5\n# move 101471 3 0\n# move 502811 1 0.5\n# move 301311 5 0.5\n# textboxarrow 0 2\n# chara 101471\n# face 101471 \"normal\"\n@グリード\n見つからないなら\n切り拓くだけです\n\n# textboxarrow 0 3\n# chara 301311\n# face 301311 \"sad\"\n@イルダーナ\n…グリード、\nあなたは休んでいた方がいい\n\n# textboxarrow 0 2\n# chara 101471\n# face 101471 \"angry\"\n@グリード\nいえ、十分休ませていただきました\nあなた達の不安は、\nこの剣で振り払ってみせます！\n\n# textboxarrow 0 3\n# chara 301311\n@イルダーナ\n…グリード\n\n# voice 10147 \"tyrufing_k_0029\"\n# textboxarrow 0 2\n# chara 101471\n@グリード\nはあああああっ！\n\n;;ディアブロに向かっていくグリード\n# seif 0\n# textwindow \"close\"\n# alpha 802301 1 0.5\n# alpha 101471 0 0.5\n# alpha 502811 0 0.5\n# alpha 301311 0 0.5\n# waitandnext 1\n\n# se \"SE_9092\"\n# fadein \"white\" 0.5\n# shake 0 0.5\n# waitandnext 1\n\n# layer 101914 1\n# alpha 802301 0 0.5\n# alpha 301311 1 0.5\n# alpha 101914 1 0.5\n# move 301311 4 0\n# move 101914 2 0\n# voice 1019 \"kanon_0002\"\n# serif 0\n# textwindow \"nomal\"\n# textboxarrow 0 1\n# chara 101914\n# face 101914 \"usual\"\n@カノン\n…あのさ、ちょっといい？\nイルダーナ、どうしたの？\n\n# textboxarrow 0 1\n# chara 101914\n@カノン\nあなたは自分が\n不可能だと思えることを\n探してたんじゃないの？\n\n# voice 3013 \"ildana_0037\"\n# textboxarrow 0 3\n# chara 301311\n@イルダーナ\nそれは…そうだけど\nでもどうしたらいいか…\nだって相手は『神』なんだよ！\n\n# textboxarrow 0 1\n# chara 101914\n# face 101914 \"angry\"\n@カノン\nそんなの関係ない！\n相手が誰でも思いついたことは\nなんでもやるの\n\n# textboxarrow 0 1\n# chara 101914\n@カノン\n失敗を恐れてたら\nなにもできない！\n\n# textboxarrow 0 1\n# chara 101914\n@カノン\n私は少なくともそうしてきた\n失敗ばっかりだけど…\nなにかしなきゃ道は切り拓けないの！\n\n# textboxarrow 0 3\n# chara 301311\n@イルダーナ\n…カノン\n\n# voice 1019 \"kanon_0001\"\n# textboxarrow 0 1\n# chara 101914\n@カノン\nあと、そこのあなた\n聞いておきたいんだけどさ\n\n# move 101914 3 0.5\n# alpha 502811 1 0.5\n# textboxarrow 0 1\n# chara 502811\n# face 502811 \"surprise\"\n@ガブリエル\n…なんでしょう\n\n# textboxarrow 0 2\n# chara 101914\n@カノン\nあなた自身は生きたくないの？\n自分を犠牲に…って諦める前にさ\nそれを聞かせてほしい\n\n# voice 5028 \"gabriel_dg_1017\"\n# textboxarrow 0 1\n# chara 502811\n@ガブリエル\n…え？\n\n# voice 1019 \"kanon_0014\"\n# textboxarrow 0 2\n# chara 101914\n# face 101914 \"usual\"\n@カノン\nだーかーら、\n生きたくないのって聞いてるの！\nあなたがどう思ってるのか！\n\n# textboxarrow 0 1\n# chara 502811\n# face 502811 \"angry\"\n@ガブリエル\n…生きたいに、\n決まってるじゃないですか\n\n# textboxarrow 0 2\n# chara 101914\n# face 101914 \"angry\"\n@カノン\nだったらなんでそんな簡単に\n諦めちゃうのよ、バカー！\n\n# move 101471 2 0\n# voice 5028 \"gabriel_dg_0037\"\n# textboxarrow 0 1\n# chara 502811\n@ガブリエル\n…っ！\n\n;;ディアブロに吹き飛ばされてくるグリード\n;;SEで木などに激突する音\n;;グリードが吹き飛ばされたことを演出する\n# face 101471 \"angry\"\n# se \"SE_5830\"\n# serif 0\n# textwindow \"close\"\n# shake 0 1\n# rightin 101471 0.5\n# alpha 101471 1 0.5\n# alpha 502811 0 0.5\n# alpha 301311 0 0.5\n# alpha 101914 0 0.5\n# fadein \"red\" 1\n# waitandnext 1\n\n# serif 0\n# textwindow \"nomal\"\n# move 301311 4 0\n# alpha 101471 1 0.5\n# alpha 301311 1 0.5\n# textboxarrow 0 3\n# chara 301311\n# face 301311 \"angry\"\n@イルダーナ\nグリード！\n\n# voice 10147 \"tyrufing_k_0037\"\n# textboxarrow 0 1\n# chara 101471\n@グリード\nくっ…、大丈夫です！\nあなた達は下がっていてください\n\n@グリード\n誰も犠牲になんてさせません\n私のものを勝手に奪わせるなんて…\n\n# se \"SE_5582\"\n# voice 10147 \"tyrufing_k_unit_0012\"\n@グリード\nこの戦いに勝利し、全てを守ります\n…行きます！\n\n# textboxarrow 0 0\n# alpha 101471 0 0.5\n# waitandnext 0.7\n\n;;グリード、再びディアブロへ向かっていく\n# move 502811 2 0\n# alpha 502811 1 0.5\n# textboxarrow 0 1\n# chara 502811\n# face 502811 \"surprise\"\n@ガブリエル\nグリードさん！\n\n# move 502811 1 0.5\n# move 301311 5 0.5\n# alpha 101914 1 0.5\n# textboxarrow 0 2\n# chara 101914\n# face 101914 \"angry\"\n@カノン\nまだわからないの？\nあなた達以外、\n誰もまだ諦めてない！\n\n# voice 1019 \"kanon_0011\"\n# textboxarrow 0 2\n# chara 101914\n@カノン\nなのに、あなた達が\n先に諦めていいわけが\nないでしょう？\n\n# voice 3013 \"ildana_0024\"\n# textboxarrow 0 3\n# chara 301311\n# face 301311 \"sad\"\n@イルダーナ\nカノン…\nどうしてあなたはそこまで\n強くいられるの？\n\n# textboxarrow 0 2\n# chara 101914\n# face 101914 \"usual\"\n@カノン\n別に、強いわけじゃないよ\n失敗ばっかりだしね\n…でも、私は一人じゃない\n\n@カノン\nこの剣には、\n色んな人の思いが詰まってる\n\n@カノン\nそしてそれは、\nなににも負けないって信じてる\n\n# voice 3013 \"ildana_0029\"\n# textboxarrow 0 3\n# chara 301311\n# face 301311 \"angry\"\n@イルダーナ\n…行こう、ガブリエル！\n\n@イルダーナ\n例え相手が『神』だろうが、\n私達は私達のやりたいことを\nやるんだ！\n\n# voice 5028 \"gabriel_dg_0003\"\n# textboxarrow 0 1\n# chara 502811\n# face 502811 \"angry\"\n@ガブリエル\n…はい！\nまるで目が覚めた気分です\n\n# voice 1019 \"kanon_0029\"\n# textboxarrow 0 2\n# chara 101914\n# face 101914 \"angry\"\n@カノン\nよーし！二人とも、私に続いて！\n例え神が相手でも、一緒に道を\n切り拓くのよ！たあああああっ！\n"
	}
]