[
	{
		"ID": 26,
		"period_id": 9,
		"floor": 10,
		"lotteryRatio": 50,
		"unit_UnitUnit": 860006,
		"magicBullet_BattleskillSkill": 500000301,
		"hp": 403,
		"strength": 488,
		"vitality": 314,
		"intelligence": 0,
		"mind": 0,
		"agility": 0,
		"dexterity": 0,
		"lucky": 0,
		"weakPoint_element": "4.0",
		"weakPoint_weapon": "6.0",
		"weakPoint_unitType": "2.0",
		"zeny": 23,
		"trust_rate": 0.0,
		"player_exp": 18,
		"unit_exp": 11,
		"drop_ratio": 1000,
		"drop_deck_id": 37
	},
	{
		"ID": 27,
		"period_id": 9,
		"floor": 10,
		"lotteryRatio": 47,
		"unit_UnitUnit": 830004,
		"magicBullet_BattleskillSkill": 0,
		"hp": 365,
		"strength": 444,
		"vitality": 285,
		"intelligence": 0,
		"mind": 0,
		"agility": 0,
		"dexterity": 0,
		"lucky": 0,
		"weakPoint_element": "4.0",
		"weakPoint_weapon": "2.0",
		"weakPoint_unitType": "6.0",
		"zeny": 28,
		"trust_rate": 0.0,
		"player_exp": 24,
		"unit_exp": 15,
		"drop_ratio": 1000,
		"drop_deck_id": 38
	},
	{
		"ID": 28,
		"period_id": 9,
		"floor": 10,
		"lotteryRatio": 3,
		"unit_UnitUnit": 830008,
		"magicBullet_BattleskillSkill": 0,
		"hp": 419,
		"strength": 511,
		"vitality": 330,
		"intelligence": 0,
		"mind": 0,
		"agility": 0,
		"dexterity": 0,
		"lucky": 0,
		"weakPoint_element": "4.0",
		"weakPoint_weapon": "2.0",
		"weakPoint_unitType": "6.0",
		"zeny": 41,
		"trust_rate": 0.009999999776482582,
		"player_exp": 48,
		"unit_exp": 31,
		"drop_ratio": 550,
		"drop_deck_id": 39
	},
	{
		"ID": 129,
		"period_id": 10,
		"floor": 10,
		"lotteryRatio": 50,
		"unit_UnitUnit": 860006,
		"magicBullet_BattleskillSkill": 500000301,
		"hp": 406,
		"strength": 480,
		"vitality": 295,
		"intelligence": 0,
		"mind": 0,
		"agility": 0,
		"dexterity": 0,
		"lucky": 0,
		"weakPoint_element": "4.0",
		"weakPoint_weapon": "6.0",
		"weakPoint_unitType": "2.0",
		"zeny": 23,
		"trust_rate": 0.0,
		"player_exp": 18,
		"unit_exp": 11,
		"drop_ratio": 1000,
		"drop_deck_id": 209
	},
	{
		"ID": 130,
		"period_id": 10,
		"floor": 10,
		"lotteryRatio": 47,
		"unit_UnitUnit": 830004,
		"magicBullet_BattleskillSkill": 0,
		"hp": 424,
		"strength": 516,
		"vitality": 332,
		"intelligence": 0,
		"mind": 0,
		"agility": 0,
		"dexterity": 0,
		"lucky": 0,
		"weakPoint_element": "4.0",
		"weakPoint_weapon": "2.0",
		"weakPoint_unitType": "6.0",
		"zeny": 28,
		"trust_rate": 0.0,
		"player_exp": 24,
		"unit_exp": 15,
		"drop_ratio": 1000,
		"drop_deck_id": 210
	},
	{
		"ID": 131,
		"period_id": 10,
		"floor": 10,
		"lotteryRatio": 3,
		"unit_UnitUnit": 830008,
		"magicBullet_BattleskillSkill": 0,
		"hp": 424,
		"strength": 516,
		"vitality": 332,
		"intelligence": 0,
		"mind": 0,
		"agility": 0,
		"dexterity": 0,
		"lucky": 0,
		"weakPoint_element": "4.0",
		"weakPoint_weapon": "2.0",
		"weakPoint_unitType": "6.0",
		"zeny": 41,
		"trust_rate": 0.009999999776482582,
		"player_exp": 48,
		"unit_exp": 31,
		"drop_ratio": 550,
		"drop_deck_id": 211
	}
]