[
	{
		"ID": 53,
		"period_id": 9,
		"floor": 19,
		"lotteryRatio": 66,
		"unit_UnitUnit": 830008,
		"magicBullet_BattleskillSkill": 0,
		"hp": 457,
		"strength": 540,
		"vitality": 332,
		"intelligence": 0,
		"mind": 0,
		"agility": 0,
		"dexterity": 0,
		"lucky": 0,
		"weakPoint_element": "2.0",
		"weakPoint_weapon": "2.0",
		"weakPoint_unitType": "4.0",
		"zeny": 27,
		"trust_rate": 0.0,
		"player_exp": 27,
		"unit_exp": 13,
		"drop_ratio": 1100,
		"drop_deck_id": 73
	},
	{
		"ID": 54,
		"period_id": 9,
		"floor": 19,
		"lotteryRatio": 30,
		"unit_UnitUnit": 840004,
		"magicBullet_BattleskillSkill": 0,
		"hp": 478,
		"strength": 581,
		"vitality": 374,
		"intelligence": 0,
		"mind": 0,
		"agility": 0,
		"dexterity": 0,
		"lucky": 0,
		"weakPoint_element": "2.0",
		"weakPoint_weapon": "4.0",
		"weakPoint_unitType": "2.0",
		"zeny": 32,
		"trust_rate": 0.0,
		"player_exp": 34,
		"unit_exp": 18,
		"drop_ratio": 1100,
		"drop_deck_id": 74
	},
	{
		"ID": 55,
		"period_id": 9,
		"floor": 19,
		"lotteryRatio": 4,
		"unit_UnitUnit": 840004,
		"magicBullet_BattleskillSkill": 0,
		"hp": 478,
		"strength": 581,
		"vitality": 374,
		"intelligence": 0,
		"mind": 0,
		"agility": 0,
		"dexterity": 0,
		"lucky": 0,
		"weakPoint_element": "2.0",
		"weakPoint_weapon": "4.0",
		"weakPoint_unitType": "2.0",
		"zeny": 47,
		"trust_rate": 0.009999999776482582,
		"player_exp": 69,
		"unit_exp": 36,
		"drop_ratio": 600,
		"drop_deck_id": 75
	},
	{
		"ID": 156,
		"period_id": 10,
		"floor": 19,
		"lotteryRatio": 66,
		"unit_UnitUnit": 830008,
		"magicBullet_BattleskillSkill": 0,
		"hp": 616,
		"strength": 578,
		"vitality": 308,
		"intelligence": 0,
		"mind": 0,
		"agility": 0,
		"dexterity": 0,
		"lucky": 0,
		"weakPoint_element": "2.0",
		"weakPoint_weapon": "2.0",
		"weakPoint_unitType": "4.0",
		"zeny": 27,
		"trust_rate": 0.0,
		"player_exp": 27,
		"unit_exp": 13,
		"drop_ratio": 1100,
		"drop_deck_id": 245
	},
	{
		"ID": 157,
		"period_id": 10,
		"floor": 19,
		"lotteryRatio": 30,
		"unit_UnitUnit": 840004,
		"magicBullet_BattleskillSkill": 0,
		"hp": 655,
		"strength": 501,
		"vitality": 270,
		"intelligence": 0,
		"mind": 0,
		"agility": 0,
		"dexterity": 0,
		"lucky": 0,
		"weakPoint_element": "2.0",
		"weakPoint_weapon": "4.0",
		"weakPoint_unitType": "2.0",
		"zeny": 32,
		"trust_rate": 0.0,
		"player_exp": 34,
		"unit_exp": 18,
		"drop_ratio": 1100,
		"drop_deck_id": 246
	},
	{
		"ID": 158,
		"period_id": 10,
		"floor": 19,
		"lotteryRatio": 4,
		"unit_UnitUnit": 840004,
		"magicBullet_BattleskillSkill": 0,
		"hp": 655,
		"strength": 501,
		"vitality": 270,
		"intelligence": 0,
		"mind": 0,
		"agility": 0,
		"dexterity": 0,
		"lucky": 0,
		"weakPoint_element": "2.0",
		"weakPoint_weapon": "4.0",
		"weakPoint_unitType": "2.0",
		"zeny": 47,
		"trust_rate": 0.009999999776482582,
		"player_exp": 69,
		"unit_exp": 36,
		"drop_ratio": 600,
		"drop_deck_id": 247
	}
]