[
	{
		"ID": 1,
		"period_id_BoostPeriod": 90,
		"boot_rate": 2.0,
		"increase_price": 1.0
	},
	{
		"ID": 2,
		"period_id_BoostPeriod": 111,
		"boot_rate": 2.0,
		"increase_price": 1.0
	},
	{
		"ID": 3,
		"period_id_BoostPeriod": 118,
		"boot_rate": 2.0,
		"increase_price": 1.0
	},
	{
		"ID": 4,
		"period_id_BoostPeriod": 136,
		"boot_rate": 2.0,
		"increase_price": 1.0
	},
	{
		"ID": 5,
		"period_id_BoostPeriod": 139,
		"boot_rate": 2.0,
		"increase_price": 1.0
	},
	{
		"ID": 6,
		"period_id_BoostPeriod": 144,
		"boot_rate": 2.0,
		"increase_price": 1.0
	},
	{
		"ID": 7,
		"period_id_BoostPeriod": 159,
		"boot_rate": 2.0,
		"increase_price": 1.0
	},
	{
		"ID": 8,
		"period_id_BoostPeriod": 175,
		"boot_rate": 2.0,
		"increase_price": 1.0
	},
	{
		"ID": 9,
		"period_id_BoostPeriod": 185,
		"boot_rate": 2.0,
		"increase_price": 1.0
	},
	{
		"ID": 10,
		"period_id_BoostPeriod": 187,
		"boot_rate": 2.0,
		"increase_price": 1.0
	},
	{
		"ID": 11,
		"period_id_BoostPeriod": 191,
		"boot_rate": 2.0,
		"increase_price": 1.0
	},
	{
		"ID": 12,
		"period_id_BoostPeriod": 209,
		"boot_rate": 2.0,
		"increase_price": 1.0
	},
	{
		"ID": 13,
		"period_id_BoostPeriod": 226,
		"boot_rate": 2.0,
		"increase_price": 1.0
	},
	{
		"ID": 14,
		"period_id_BoostPeriod": 227,
		"boot_rate": 1.0,
		"increase_price": 0.800000011920929
	},
	{
		"ID": 15,
		"period_id_BoostPeriod": 230,
		"boot_rate": 2.0,
		"increase_price": 0.800000011920929
	},
	{
		"ID": 16,
		"period_id_BoostPeriod": 236,
		"boot_rate": 2.0,
		"increase_price": 1.0
	},
	{
		"ID": 17,
		"period_id_BoostPeriod": 245,
		"boot_rate": 2.0,
		"increase_price": 1.0
	},
	{
		"ID": 18,
		"period_id_BoostPeriod": 247,
		"boot_rate": 2.0,
		"increase_price": 0.800000011920929
	},
	{
		"ID": 19,
		"period_id_BoostPeriod": 251,
		"boot_rate": 2.0,
		"increase_price": 1.0
	},
	{
		"ID": 20,
		"period_id_BoostPeriod": 254,
		"boot_rate": 2.0,
		"increase_price": 1.0
	},
	{
		"ID": 21,
		"period_id_BoostPeriod": 257,
		"boot_rate": 2.0,
		"increase_price": 0.800000011920929
	},
	{
		"ID": 22,
		"period_id_BoostPeriod": 263,
		"boot_rate": 2.0,
		"increase_price": 1.0
	},
	{
		"ID": 23,
		"period_id_BoostPeriod": 267,
		"boot_rate": 2.0,
		"increase_price": 0.800000011920929
	},
	{
		"ID": 24,
		"period_id_BoostPeriod": 273,
		"boot_rate": 1.0,
		"increase_price": 0.800000011920929
	},
	{
		"ID": 25,
		"period_id_BoostPeriod": 287,
		"boot_rate": 2.0,
		"increase_price": 1.0
	},
	{
		"ID": 26,
		"period_id_BoostPeriod": 293,
		"boot_rate": 2.0,
		"increase_price": 1.0
	},
	{
		"ID": 27,
		"period_id_BoostPeriod": 306,
		"boot_rate": 2.0,
		"increase_price": 1.0
	},
	{
		"ID": 28,
		"period_id_BoostPeriod": 312,
		"boot_rate": 2.0,
		"increase_price": 0.800000011920929
	},
	{
		"ID": 29,
		"period_id_BoostPeriod": 318,
		"boot_rate": 2.0,
		"increase_price": 1.0
	},
	{
		"ID": 30,
		"period_id_BoostPeriod": 321,
		"boot_rate": 2.0,
		"increase_price": 1.0
	},
	{
		"ID": 31,
		"period_id_BoostPeriod": 327,
		"boot_rate": 2.0,
		"increase_price": 1.0
	},
	{
		"ID": 32,
		"period_id_BoostPeriod": 338,
		"boot_rate": 1.0,
		"increase_price": 0.800000011920929
	},
	{
		"ID": 33,
		"period_id_BoostPeriod": 346,
		"boot_rate": 2.0,
		"increase_price": 0.800000011920929
	},
	{
		"ID": 34,
		"period_id_BoostPeriod": 355,
		"boot_rate": 2.0,
		"increase_price": 1.0
	},
	{
		"ID": 35,
		"period_id_BoostPeriod": 363,
		"boot_rate": 1.0,
		"increase_price": 0.800000011920929
	}
]