[
	{
		"ID": 1,
		"group_no": 1,
		"detail": "APの全回復等に使用出来る姫石1個（固有有償姫石）です。\n\n【固有有償姫石】\nご利用されているプラットフォームでご購入された姫石になります。\n他のプラットフォームでお客様データをご利用される場合、姫石の移動やご利用は出来ません。\n\n【固有無償姫石】\nご利用されているプラットフォームでご購入された際におまけとしてお贈りした姫石となります。\n他のプラットフォームでお客様データをご利用される場合、姫石の移動やご利用は出来ません。\n\n未使用姫石の詳細は\n[MENU」→[未使用姫石の確認]からご確認ください。",
		"image_url": "",
		"image_width": 0,
		"image_height": 0
	},
	{
		"ID": 2,
		"group_no": 2,
		"detail": "姫石4個（固有有償姫石）とボーナス姫石2個（固有無償姫石）です。\n\n【固有有償姫石】\nご利用されているプラットフォームでご購入された姫石になります。\n他のプラットフォームでお客様データをご利用される場合、姫石の移動やご利用は出来ません。\n\n【固有無償姫石】\nご利用されているプラットフォームでご購入された際におまけとしてお贈りした姫石となります。\n他のプラットフォームでお客様データをご利用される場合、姫石の移動やご利用は出来ません。\n\n\n未使用姫石の詳細は\n[MENU」→[未使用姫石の確認]からご確認ください。",
		"image_url": "",
		"image_width": 0,
		"image_height": 0
	},
	{
		"ID": 3,
		"group_no": 3,
		"detail": "姫石7個（固有有償姫石）とボーナス姫石6個（固有無償姫石）です。\n\n【固有有償姫石】\nご利用されているプラットフォームでご購入された姫石になります。\n他のプラットフォームでお客様データをご利用される場合、姫石の移動やご利用は出来ません。\n\n【固有無償姫石】\nご利用されているプラットフォームでご購入された際におまけとしてお贈りした姫石となります。\n他のプラットフォームでお客様データをご利用される場合、姫石の移動やご利用は出来ません。\n\n未使用姫石の詳細は\n[MENU」→[未使用姫石の確認]からご確認ください。",
		"image_url": "",
		"image_width": 0,
		"image_height": 0
	},
	{
		"ID": 4,
		"group_no": 4,
		"detail": "姫石14個（固有有償姫石） と ボーナス姫石11個（固有無償姫石）です。\n\n【固有有償姫石】\nご利用されているプラットフォームでご購入された姫石になります。\n他のプラットフォームでお客様データをご利用される場合、姫石の移動やご利用は出来ません。\n\n【固有無償姫石】\nご利用されているプラットフォームでご購入された際におまけとしてお贈りした姫石となります。\n他のプラットフォームでお客様データをご利用される場合、姫石の移動やご利用は出来ません。\n\n未使用姫石の詳細は\n[MENU」→[未使用姫石の確認]からご確認ください。",
		"image_url": "",
		"image_width": 0,
		"image_height": 0
	},
	{
		"ID": 5,
		"group_no": 5,
		"detail": "姫石25個（固有有償姫石）とボーナス姫石26個（固有無償姫石）です。\n\n【固有有償姫石】\nご利用されているプラットフォームでご購入された姫石になります。\n他のプラットフォームでお客様データをご利用される場合、姫石の移動やご利用は出来ません。\n\n【固有無償姫石】\nご利用されているプラットフォームでご購入された際におまけとしてお贈りした姫石となります。\n他のプラットフォームでお客様データをご利用される場合、姫石の移動やご利用は出来ません。\n\n\n未使用姫石の詳細は\n[MENU」→[未使用姫石の確認]からご確認ください。",
		"image_url": "",
		"image_width": 0,
		"image_height": 0
	},
	{
		"ID": 6,
		"group_no": 6,
		"detail": "姫石49個（固有有償姫石） とボーナス姫石52個（固有無償姫石）です。\n\n【固有有償姫石】\nご利用されているプラットフォームでご購入された姫石になります。\n他のプラットフォームでお客様データをご利用される場合、姫石の移動やご利用は出来ません。\n\n【固有無償姫石】\nご利用されているプラットフォームでご購入された際におまけとしてお贈りした姫石となります。\n他のプラットフォームでお客様データをご利用される場合、姫石の移動やご利用は出来ません。\n\n未使用姫石の詳細は\n[MENU」→[未使用姫石の確認]からご確認ください。",
		"image_url": "",
		"image_width": 0,
		"image_height": 0
	},
	{
		"ID": 7,
		"group_no": 7,
		"detail": "姫石83個（固有有償姫石）とボーナス姫石119個（固有無償姫石）です。\n\n【固有有償姫石】\nご利用されているプラットフォームでご購入された姫石になります。\n他のプラットフォームでお客様データをご利用される場合、姫石の移動やご利用は出来ません。\n\n【固有無償姫石】\nご利用されているプラットフォームでご購入された際におまけとしてお贈りした姫石となります。\n他のプラットフォームでお客様データをご利用される場合、姫石の移動やご利用は出来ません。\n\n未使用姫石の詳細は\n[MENU」→[未使用姫石の確認]からご確認ください。",
		"image_url": "",
		"image_width": 0,
		"image_height": 0
	}
]