[
	{
		"ID": 1,
		"gear_GearGear": 12003,
		"skill_BattleskillSkill": 300000019,
		"skill_level": 1,
		"release_rank": 0,
		"skill_group": 1
	},
	{
		"ID": 2,
		"gear_GearGear": 12003,
		"skill_BattleskillSkill": 300000020,
		"skill_level": 1,
		"release_rank": 0,
		"skill_group": 2
	},
	{
		"ID": 3,
		"gear_GearGear": 40001,
		"skill_BattleskillSkill": 300000021,
		"skill_level": 1,
		"release_rank": 0,
		"skill_group": 1
	},
	{
		"ID": 4,
		"gear_GearGear": 41002,
		"skill_BattleskillSkill": 300000021,
		"skill_level": 1,
		"release_rank": 0,
		"skill_group": 1
	},
	{
		"ID": 5,
		"gear_GearGear": 120031,
		"skill_BattleskillSkill": 300000019,
		"skill_level": 1,
		"release_rank": 0,
		"skill_group": 1
	},
	{
		"ID": 6,
		"gear_GearGear": 120031,
		"skill_BattleskillSkill": 300000020,
		"skill_level": 1,
		"release_rank": 0,
		"skill_group": 2
	},
	{
		"ID": 7,
		"gear_GearGear": 32002,
		"skill_BattleskillSkill": 300000019,
		"skill_level": 1,
		"release_rank": 0,
		"skill_group": 1
	},
	{
		"ID": 8,
		"gear_GearGear": 23002,
		"skill_BattleskillSkill": 300000019,
		"skill_level": 1,
		"release_rank": 0,
		"skill_group": 1
	},
	{
		"ID": 9,
		"gear_GearGear": 13001,
		"skill_BattleskillSkill": 300000019,
		"skill_level": 1,
		"release_rank": 0,
		"skill_group": 1
	},
	{
		"ID": 10,
		"gear_GearGear": 32003,
		"skill_BattleskillSkill": 300000022,
		"skill_level": 1,
		"release_rank": 0,
		"skill_group": 1
	},
	{
		"ID": 11,
		"gear_GearGear": 43009,
		"skill_BattleskillSkill": 400000058,
		"skill_level": 1,
		"release_rank": 0,
		"skill_group": 1
	},
	{
		"ID": 12,
		"gear_GearGear": 14007,
		"skill_BattleskillSkill": 300000021,
		"skill_level": 1,
		"release_rank": 0,
		"skill_group": 1
	},
	{
		"ID": 13,
		"gear_GearGear": 220013,
		"skill_BattleskillSkill": 300000005,
		"skill_level": 1,
		"release_rank": 0,
		"skill_group": 1
	},
	{
		"ID": 14,
		"gear_GearGear": 23003,
		"skill_BattleskillSkill": 300000020,
		"skill_level": 1,
		"release_rank": 0,
		"skill_group": 1
	}
]