[
	{
		"ID": 1,
		"quest_type_CommonQuestType": 3,
		"quest_s_id": 210002001,
		"priority": 1,
		"entity_type_CommonRewardType": 1,
		"entity_id": 700111,
		"quantity": 1
	},
	{
		"ID": 2,
		"quest_type_CommonQuestType": 3,
		"quest_s_id": 210002001,
		"priority": 2,
		"entity_type_CommonRewardType": 1,
		"entity_id": 700121,
		"quantity": 1
	},
	{
		"ID": 3,
		"quest_type_CommonQuestType": 3,
		"quest_s_id": 210002001,
		"priority": 3,
		"entity_type_CommonRewardType": 1,
		"entity_id": 700131,
		"quantity": 1
	},
	{
		"ID": 4,
		"quest_type_CommonQuestType": 3,
		"quest_s_id": 210002001,
		"priority": 4,
		"entity_type_CommonRewardType": 1,
		"entity_id": 700141,
		"quantity": 1
	},
	{
		"ID": 5,
		"quest_type_CommonQuestType": 3,
		"quest_s_id": 210002001,
		"priority": 5,
		"entity_type_CommonRewardType": 1,
		"entity_id": 700151,
		"quantity": 1
	},
	{
		"ID": 6,
		"quest_type_CommonQuestType": 3,
		"quest_s_id": 210002001,
		"priority": 6,
		"entity_type_CommonRewardType": 1,
		"entity_id": 700161,
		"quantity": 1
	},
	{
		"ID": 7,
		"quest_type_CommonQuestType": 3,
		"quest_s_id": 210002001,
		"priority": 7,
		"entity_type_CommonRewardType": 1,
		"entity_id": 700211,
		"quantity": 1
	},
	{
		"ID": 8,
		"quest_type_CommonQuestType": 3,
		"quest_s_id": 210002001,
		"priority": 8,
		"entity_type_CommonRewardType": 1,
		"entity_id": 700221,
		"quantity": 1
	},
	{
		"ID": 9,
		"quest_type_CommonQuestType": 3,
		"quest_s_id": 210002001,
		"priority": 9,
		"entity_type_CommonRewardType": 1,
		"entity_id": 700231,
		"quantity": 1
	},
	{
		"ID": 10,
		"quest_type_CommonQuestType": 3,
		"quest_s_id": 210002001,
		"priority": 10,
		"entity_type_CommonRewardType": 1,
		"entity_id": 700241,
		"quantity": 1
	},
	{
		"ID": 11,
		"quest_type_CommonQuestType": 3,
		"quest_s_id": 210002001,
		"priority": 11,
		"entity_type_CommonRewardType": 1,
		"entity_id": 700251,
		"quantity": 1
	},
	{
		"ID": 12,
		"quest_type_CommonQuestType": 3,
		"quest_s_id": 210002001,
		"priority": 12,
		"entity_type_CommonRewardType": 1,
		"entity_id": 700261,
		"quantity": 1
	},
	{
		"ID": 13,
		"quest_type_CommonQuestType": 3,
		"quest_s_id": 210002002,
		"priority": 1,
		"entity_type_CommonRewardType": 1,
		"entity_id": 700211,
		"quantity": 1
	},
	{
		"ID": 14,
		"quest_type_CommonQuestType": 3,
		"quest_s_id": 210002002,
		"priority": 2,
		"entity_type_CommonRewardType": 1,
		"entity_id": 700221,
		"quantity": 1
	},
	{
		"ID": 15,
		"quest_type_CommonQuestType": 3,
		"quest_s_id": 210002002,
		"priority": 3,
		"entity_type_CommonRewardType": 1,
		"entity_id": 700231,
		"quantity": 1
	},
	{
		"ID": 16,
		"quest_type_CommonQuestType": 3,
		"quest_s_id": 210002002,
		"priority": 4,
		"entity_type_CommonRewardType": 1,
		"entity_id": 700241,
		"quantity": 1
	},
	{
		"ID": 17,
		"quest_type_CommonQuestType": 3,
		"quest_s_id": 210002002,
		"priority": 5,
		"entity_type_CommonRewardType": 1,
		"entity_id": 700251,
		"quantity": 1
	},
	{
		"ID": 18,
		"quest_type_CommonQuestType": 3,
		"quest_s_id": 210002002,
		"priority": 6,
		"entity_type_CommonRewardType": 1,
		"entity_id": 700261,
		"quantity": 1
	},
	{
		"ID": 19,
		"quest_type_CommonQuestType": 3,
		"quest_s_id": 210002002,
		"priority": 7,
		"entity_type_CommonRewardType": 1,
		"entity_id": 700311,
		"quantity": 1
	},
	{
		"ID": 20,
		"quest_type_CommonQuestType": 3,
		"quest_s_id": 210002002,
		"priority": 8,
		"entity_type_CommonRewardType": 1,
		"entity_id": 700321,
		"quantity": 1
	},
	{
		"ID": 21,
		"quest_type_CommonQuestType": 3,
		"quest_s_id": 210002002,
		"priority": 9,
		"entity_type_CommonRewardType": 1,
		"entity_id": 700331,
		"quantity": 1
	},
	{
		"ID": 22,
		"quest_type_CommonQuestType": 3,
		"quest_s_id": 210002002,
		"priority": 10,
		"entity_type_CommonRewardType": 1,
		"entity_id": 700341,
		"quantity": 1
	},
	{
		"ID": 23,
		"quest_type_CommonQuestType": 3,
		"quest_s_id": 210002002,
		"priority": 11,
		"entity_type_CommonRewardType": 1,
		"entity_id": 700351,
		"quantity": 1
	},
	{
		"ID": 24,
		"quest_type_CommonQuestType": 3,
		"quest_s_id": 210002002,
		"priority": 12,
		"entity_type_CommonRewardType": 1,
		"entity_id": 700361,
		"quantity": 1
	},
	{
		"ID": 25,
		"quest_type_CommonQuestType": 3,
		"quest_s_id": 210002003,
		"priority": 1,
		"entity_type_CommonRewardType": 1,
		"entity_id": 700311,
		"quantity": 1
	},
	{
		"ID": 26,
		"quest_type_CommonQuestType": 3,
		"quest_s_id": 210002003,
		"priority": 2,
		"entity_type_CommonRewardType": 1,
		"entity_id": 700321,
		"quantity": 1
	},
	{
		"ID": 27,
		"quest_type_CommonQuestType": 3,
		"quest_s_id": 210002003,
		"priority": 3,
		"entity_type_CommonRewardType": 1,
		"entity_id": 700331,
		"quantity": 1
	},
	{
		"ID": 28,
		"quest_type_CommonQuestType": 3,
		"quest_s_id": 210002003,
		"priority": 4,
		"entity_type_CommonRewardType": 1,
		"entity_id": 700341,
		"quantity": 1
	},
	{
		"ID": 29,
		"quest_type_CommonQuestType": 3,
		"quest_s_id": 210002003,
		"priority": 5,
		"entity_type_CommonRewardType": 1,
		"entity_id": 700351,
		"quantity": 1
	},
	{
		"ID": 30,
		"quest_type_CommonQuestType": 3,
		"quest_s_id": 210002003,
		"priority": 6,
		"entity_type_CommonRewardType": 1,
		"entity_id": 700361,
		"quantity": 1
	},
	{
		"ID": 31,
		"quest_type_CommonQuestType": 3,
		"quest_s_id": 210002003,
		"priority": 7,
		"entity_type_CommonRewardType": 1,
		"entity_id": 700371,
		"quantity": 1
	},
	{
		"ID": 32,
		"quest_type_CommonQuestType": 3,
		"quest_s_id": 210003001,
		"priority": 1,
		"entity_type_CommonRewardType": 1,
		"entity_id": 700411,
		"quantity": 1
	},
	{
		"ID": 33,
		"quest_type_CommonQuestType": 3,
		"quest_s_id": 210003001,
		"priority": 2,
		"entity_type_CommonRewardType": 1,
		"entity_id": 700421,
		"quantity": 1
	},
	{
		"ID": 34,
		"quest_type_CommonQuestType": 3,
		"quest_s_id": 210003001,
		"priority": 3,
		"entity_type_CommonRewardType": 1,
		"entity_id": 700431,
		"quantity": 1
	},
	{
		"ID": 35,
		"quest_type_CommonQuestType": 3,
		"quest_s_id": 210003001,
		"priority": 4,
		"entity_type_CommonRewardType": 1,
		"entity_id": 700441,
		"quantity": 1
	},
	{
		"ID": 36,
		"quest_type_CommonQuestType": 3,
		"quest_s_id": 210003001,
		"priority": 5,
		"entity_type_CommonRewardType": 1,
		"entity_id": 700451,
		"quantity": 1
	},
	{
		"ID": 37,
		"quest_type_CommonQuestType": 3,
		"quest_s_id": 210003001,
		"priority": 6,
		"entity_type_CommonRewardType": 1,
		"entity_id": 700461,
		"quantity": 1
	},
	{
		"ID": 38,
		"quest_type_CommonQuestType": 3,
		"quest_s_id": 210003001,
		"priority": 7,
		"entity_type_CommonRewardType": 1,
		"entity_id": 700471,
		"quantity": 1
	},
	{
		"ID": 39,
		"quest_type_CommonQuestType": 3,
		"quest_s_id": 210003002,
		"priority": 1,
		"entity_type_CommonRewardType": 1,
		"entity_id": 700471,
		"quantity": 1
	},
	{
		"ID": 40,
		"quest_type_CommonQuestType": 3,
		"quest_s_id": 210003002,
		"priority": 2,
		"entity_type_CommonRewardType": 1,
		"entity_id": 700511,
		"quantity": 1
	},
	{
		"ID": 41,
		"quest_type_CommonQuestType": 3,
		"quest_s_id": 210003002,
		"priority": 3,
		"entity_type_CommonRewardType": 1,
		"entity_id": 700521,
		"quantity": 1
	},
	{
		"ID": 42,
		"quest_type_CommonQuestType": 3,
		"quest_s_id": 210003002,
		"priority": 4,
		"entity_type_CommonRewardType": 1,
		"entity_id": 700531,
		"quantity": 1
	},
	{
		"ID": 43,
		"quest_type_CommonQuestType": 3,
		"quest_s_id": 210003002,
		"priority": 5,
		"entity_type_CommonRewardType": 1,
		"entity_id": 700541,
		"quantity": 1
	},
	{
		"ID": 44,
		"quest_type_CommonQuestType": 3,
		"quest_s_id": 210003002,
		"priority": 6,
		"entity_type_CommonRewardType": 1,
		"entity_id": 700551,
		"quantity": 1
	},
	{
		"ID": 45,
		"quest_type_CommonQuestType": 3,
		"quest_s_id": 210003002,
		"priority": 7,
		"entity_type_CommonRewardType": 1,
		"entity_id": 700561,
		"quantity": 1
	},
	{
		"ID": 46,
		"quest_type_CommonQuestType": 3,
		"quest_s_id": 210003003,
		"priority": 1,
		"entity_type_CommonRewardType": 1,
		"entity_id": 700511,
		"quantity": 1
	},
	{
		"ID": 47,
		"quest_type_CommonQuestType": 3,
		"quest_s_id": 210003003,
		"priority": 2,
		"entity_type_CommonRewardType": 1,
		"entity_id": 700521,
		"quantity": 1
	},
	{
		"ID": 48,
		"quest_type_CommonQuestType": 3,
		"quest_s_id": 210003003,
		"priority": 3,
		"entity_type_CommonRewardType": 1,
		"entity_id": 700531,
		"quantity": 1
	},
	{
		"ID": 49,
		"quest_type_CommonQuestType": 3,
		"quest_s_id": 210003003,
		"priority": 4,
		"entity_type_CommonRewardType": 1,
		"entity_id": 700541,
		"quantity": 1
	},
	{
		"ID": 50,
		"quest_type_CommonQuestType": 3,
		"quest_s_id": 210003003,
		"priority": 5,
		"entity_type_CommonRewardType": 1,
		"entity_id": 700551,
		"quantity": 1
	},
	{
		"ID": 51,
		"quest_type_CommonQuestType": 3,
		"quest_s_id": 210003003,
		"priority": 6,
		"entity_type_CommonRewardType": 1,
		"entity_id": 700561,
		"quantity": 1
	},
	{
		"ID": 52,
		"quest_type_CommonQuestType": 3,
		"quest_s_id": 210003003,
		"priority": 7,
		"entity_type_CommonRewardType": 1,
		"entity_id": 700571,
		"quantity": 1
	},
	{
		"ID": 53,
		"quest_type_CommonQuestType": 3,
		"quest_s_id": 210004001,
		"priority": 1,
		"entity_type_CommonRewardType": 1,
		"entity_id": 700611,
		"quantity": 1
	},
	{
		"ID": 54,
		"quest_type_CommonQuestType": 3,
		"quest_s_id": 210004001,
		"priority": 2,
		"entity_type_CommonRewardType": 1,
		"entity_id": 700621,
		"quantity": 1
	},
	{
		"ID": 55,
		"quest_type_CommonQuestType": 3,
		"quest_s_id": 210004002,
		"priority": 1,
		"entity_type_CommonRewardType": 1,
		"entity_id": 700621,
		"quantity": 1
	},
	{
		"ID": 56,
		"quest_type_CommonQuestType": 3,
		"quest_s_id": 210004002,
		"priority": 2,
		"entity_type_CommonRewardType": 1,
		"entity_id": 700631,
		"quantity": 1
	},
	{
		"ID": 57,
		"quest_type_CommonQuestType": 3,
		"quest_s_id": 210004003,
		"priority": 1,
		"entity_type_CommonRewardType": 1,
		"entity_id": 700631,
		"quantity": 1
	},
	{
		"ID": 58,
		"quest_type_CommonQuestType": 3,
		"quest_s_id": 210004003,
		"priority": 2,
		"entity_type_CommonRewardType": 1,
		"entity_id": 700641,
		"quantity": 1
	},
	{
		"ID": 59,
		"quest_type_CommonQuestType": 3,
		"quest_s_id": 210005001,
		"priority": 1,
		"entity_type_CommonRewardType": 1,
		"entity_id": 700711,
		"quantity": 1
	},
	{
		"ID": 60,
		"quest_type_CommonQuestType": 3,
		"quest_s_id": 210005001,
		"priority": 2,
		"entity_type_CommonRewardType": 1,
		"entity_id": 700721,
		"quantity": 1
	},
	{
		"ID": 61,
		"quest_type_CommonQuestType": 3,
		"quest_s_id": 210005001,
		"priority": 3,
		"entity_type_CommonRewardType": 1,
		"entity_id": 700731,
		"quantity": 1
	},
	{
		"ID": 62,
		"quest_type_CommonQuestType": 3,
		"quest_s_id": 210005001,
		"priority": 4,
		"entity_type_CommonRewardType": 1,
		"entity_id": 700741,
		"quantity": 1
	},
	{
		"ID": 63,
		"quest_type_CommonQuestType": 3,
		"quest_s_id": 210005001,
		"priority": 5,
		"entity_type_CommonRewardType": 1,
		"entity_id": 700751,
		"quantity": 1
	},
	{
		"ID": 64,
		"quest_type_CommonQuestType": 3,
		"quest_s_id": 210005001,
		"priority": 6,
		"entity_type_CommonRewardType": 1,
		"entity_id": 700761,
		"quantity": 1
	},
	{
		"ID": 65,
		"quest_type_CommonQuestType": 3,
		"quest_s_id": 210005001,
		"priority": 7,
		"entity_type_CommonRewardType": 1,
		"entity_id": 700771,
		"quantity": 1
	},
	{
		"ID": 66,
		"quest_type_CommonQuestType": 3,
		"quest_s_id": 210005002,
		"priority": 1,
		"entity_type_CommonRewardType": 1,
		"entity_id": 700711,
		"quantity": 1
	},
	{
		"ID": 67,
		"quest_type_CommonQuestType": 3,
		"quest_s_id": 210005002,
		"priority": 2,
		"entity_type_CommonRewardType": 1,
		"entity_id": 700721,
		"quantity": 1
	},
	{
		"ID": 68,
		"quest_type_CommonQuestType": 3,
		"quest_s_id": 210005002,
		"priority": 3,
		"entity_type_CommonRewardType": 1,
		"entity_id": 700731,
		"quantity": 1
	},
	{
		"ID": 69,
		"quest_type_CommonQuestType": 3,
		"quest_s_id": 210005002,
		"priority": 4,
		"entity_type_CommonRewardType": 1,
		"entity_id": 700741,
		"quantity": 1
	},
	{
		"ID": 70,
		"quest_type_CommonQuestType": 3,
		"quest_s_id": 210005002,
		"priority": 5,
		"entity_type_CommonRewardType": 1,
		"entity_id": 700751,
		"quantity": 1
	},
	{
		"ID": 71,
		"quest_type_CommonQuestType": 3,
		"quest_s_id": 210005002,
		"priority": 6,
		"entity_type_CommonRewardType": 1,
		"entity_id": 700761,
		"quantity": 1
	},
	{
		"ID": 72,
		"quest_type_CommonQuestType": 3,
		"quest_s_id": 210005002,
		"priority": 7,
		"entity_type_CommonRewardType": 1,
		"entity_id": 700771,
		"quantity": 1
	},
	{
		"ID": 73,
		"quest_type_CommonQuestType": 3,
		"quest_s_id": 210005003,
		"priority": 1,
		"entity_type_CommonRewardType": 1,
		"entity_id": 700711,
		"quantity": 1
	},
	{
		"ID": 74,
		"quest_type_CommonQuestType": 3,
		"quest_s_id": 210005003,
		"priority": 2,
		"entity_type_CommonRewardType": 1,
		"entity_id": 700721,
		"quantity": 1
	},
	{
		"ID": 75,
		"quest_type_CommonQuestType": 3,
		"quest_s_id": 210005003,
		"priority": 3,
		"entity_type_CommonRewardType": 1,
		"entity_id": 700731,
		"quantity": 1
	},
	{
		"ID": 76,
		"quest_type_CommonQuestType": 3,
		"quest_s_id": 210005003,
		"priority": 4,
		"entity_type_CommonRewardType": 1,
		"entity_id": 700741,
		"quantity": 1
	},
	{
		"ID": 77,
		"quest_type_CommonQuestType": 3,
		"quest_s_id": 210005003,
		"priority": 5,
		"entity_type_CommonRewardType": 1,
		"entity_id": 700751,
		"quantity": 1
	},
	{
		"ID": 78,
		"quest_type_CommonQuestType": 3,
		"quest_s_id": 210005003,
		"priority": 6,
		"entity_type_CommonRewardType": 1,
		"entity_id": 700761,
		"quantity": 1
	},
	{
		"ID": 79,
		"quest_type_CommonQuestType": 3,
		"quest_s_id": 210005003,
		"priority": 7,
		"entity_type_CommonRewardType": 1,
		"entity_id": 700771,
		"quantity": 1
	},
	{
		"ID": 80,
		"quest_type_CommonQuestType": 3,
		"quest_s_id": 210006001,
		"priority": 1,
		"entity_type_CommonRewardType": 3,
		"entity_id": 90001,
		"quantity": 1
	},
	{
		"ID": 81,
		"quest_type_CommonQuestType": 3,
		"quest_s_id": 210006002,
		"priority": 1,
		"entity_type_CommonRewardType": 3,
		"entity_id": 90002,
		"quantity": 1
	},
	{
		"ID": 82,
		"quest_type_CommonQuestType": 3,
		"quest_s_id": 210006003,
		"priority": 1,
		"entity_type_CommonRewardType": 3,
		"entity_id": 90003,
		"quantity": 1
	},
	{
		"ID": 83,
		"quest_type_CommonQuestType": 3,
		"quest_s_id": 231007001,
		"priority": 1,
		"entity_type_CommonRewardType": 3,
		"entity_id": 90001,
		"quantity": 1
	},
	{
		"ID": 84,
		"quest_type_CommonQuestType": 3,
		"quest_s_id": 231007002,
		"priority": 1,
		"entity_type_CommonRewardType": 3,
		"entity_id": 90002,
		"quantity": 1
	},
	{
		"ID": 85,
		"quest_type_CommonQuestType": 3,
		"quest_s_id": 231007003,
		"priority": 1,
		"entity_type_CommonRewardType": 3,
		"entity_id": 90003,
		"quantity": 1
	},
	{
		"ID": 86,
		"quest_type_CommonQuestType": 3,
		"quest_s_id": 210002004,
		"priority": 1,
		"entity_type_CommonRewardType": 1,
		"entity_id": 701211,
		"quantity": 1
	},
	{
		"ID": 87,
		"quest_type_CommonQuestType": 3,
		"quest_s_id": 210002004,
		"priority": 2,
		"entity_type_CommonRewardType": 1,
		"entity_id": 701251,
		"quantity": 1
	},
	{
		"ID": 88,
		"quest_type_CommonQuestType": 3,
		"quest_s_id": 210002004,
		"priority": 3,
		"entity_type_CommonRewardType": 1,
		"entity_id": 701271,
		"quantity": 1
	},
	{
		"ID": 89,
		"quest_type_CommonQuestType": 3,
		"quest_s_id": 210003004,
		"priority": 1,
		"entity_type_CommonRewardType": 1,
		"entity_id": 701311,
		"quantity": 1
	},
	{
		"ID": 90,
		"quest_type_CommonQuestType": 3,
		"quest_s_id": 210003004,
		"priority": 2,
		"entity_type_CommonRewardType": 1,
		"entity_id": 701351,
		"quantity": 1
	},
	{
		"ID": 91,
		"quest_type_CommonQuestType": 3,
		"quest_s_id": 210003004,
		"priority": 3,
		"entity_type_CommonRewardType": 1,
		"entity_id": 701371,
		"quantity": 1
	},
	{
		"ID": 92,
		"quest_type_CommonQuestType": 3,
		"quest_s_id": 210004004,
		"priority": 1,
		"entity_type_CommonRewardType": 1,
		"entity_id": 700641,
		"quantity": 1
	},
	{
		"ID": 93,
		"quest_type_CommonQuestType": 3,
		"quest_s_id": 210004004,
		"priority": 2,
		"entity_type_CommonRewardType": 1,
		"entity_id": 700651,
		"quantity": 1
	},
	{
		"ID": 94,
		"quest_type_CommonQuestType": 3,
		"quest_s_id": 210002004,
		"priority": 4,
		"entity_type_CommonRewardType": 1,
		"entity_id": 701231,
		"quantity": 1
	},
	{
		"ID": 95,
		"quest_type_CommonQuestType": 3,
		"quest_s_id": 210002004,
		"priority": 5,
		"entity_type_CommonRewardType": 1,
		"entity_id": 701241,
		"quantity": 1
	},
	{
		"ID": 96,
		"quest_type_CommonQuestType": 3,
		"quest_s_id": 210002004,
		"priority": 6,
		"entity_type_CommonRewardType": 1,
		"entity_id": 701261,
		"quantity": 1
	},
	{
		"ID": 97,
		"quest_type_CommonQuestType": 3,
		"quest_s_id": 210003004,
		"priority": 4,
		"entity_type_CommonRewardType": 1,
		"entity_id": 701331,
		"quantity": 1
	},
	{
		"ID": 98,
		"quest_type_CommonQuestType": 3,
		"quest_s_id": 210003004,
		"priority": 5,
		"entity_type_CommonRewardType": 1,
		"entity_id": 701341,
		"quantity": 1
	},
	{
		"ID": 99,
		"quest_type_CommonQuestType": 3,
		"quest_s_id": 210003004,
		"priority": 6,
		"entity_type_CommonRewardType": 1,
		"entity_id": 701361,
		"quantity": 1
	},
	{
		"ID": 100,
		"quest_type_CommonQuestType": 3,
		"quest_s_id": 210002004,
		"priority": 7,
		"entity_type_CommonRewardType": 1,
		"entity_id": 701221,
		"quantity": 1
	},
	{
		"ID": 101,
		"quest_type_CommonQuestType": 3,
		"quest_s_id": 210003004,
		"priority": 7,
		"entity_type_CommonRewardType": 1,
		"entity_id": 701321,
		"quantity": 1
	},
	{
		"ID": 102,
		"quest_type_CommonQuestType": 3,
		"quest_s_id": 210002011,
		"priority": 1,
		"entity_type_CommonRewardType": 1,
		"entity_id": 700111,
		"quantity": 1
	},
	{
		"ID": 103,
		"quest_type_CommonQuestType": 3,
		"quest_s_id": 210002011,
		"priority": 2,
		"entity_type_CommonRewardType": 1,
		"entity_id": 700121,
		"quantity": 1
	},
	{
		"ID": 104,
		"quest_type_CommonQuestType": 3,
		"quest_s_id": 210002011,
		"priority": 3,
		"entity_type_CommonRewardType": 1,
		"entity_id": 700131,
		"quantity": 1
	},
	{
		"ID": 105,
		"quest_type_CommonQuestType": 3,
		"quest_s_id": 210002011,
		"priority": 4,
		"entity_type_CommonRewardType": 1,
		"entity_id": 700141,
		"quantity": 1
	},
	{
		"ID": 106,
		"quest_type_CommonQuestType": 3,
		"quest_s_id": 210002011,
		"priority": 5,
		"entity_type_CommonRewardType": 1,
		"entity_id": 700151,
		"quantity": 1
	},
	{
		"ID": 107,
		"quest_type_CommonQuestType": 3,
		"quest_s_id": 210002011,
		"priority": 6,
		"entity_type_CommonRewardType": 1,
		"entity_id": 700161,
		"quantity": 1
	},
	{
		"ID": 108,
		"quest_type_CommonQuestType": 3,
		"quest_s_id": 210002011,
		"priority": 7,
		"entity_type_CommonRewardType": 1,
		"entity_id": 700211,
		"quantity": 1
	},
	{
		"ID": 109,
		"quest_type_CommonQuestType": 3,
		"quest_s_id": 210002011,
		"priority": 8,
		"entity_type_CommonRewardType": 1,
		"entity_id": 700221,
		"quantity": 1
	},
	{
		"ID": 110,
		"quest_type_CommonQuestType": 3,
		"quest_s_id": 210002011,
		"priority": 9,
		"entity_type_CommonRewardType": 1,
		"entity_id": 700231,
		"quantity": 1
	},
	{
		"ID": 111,
		"quest_type_CommonQuestType": 3,
		"quest_s_id": 210002011,
		"priority": 10,
		"entity_type_CommonRewardType": 1,
		"entity_id": 700241,
		"quantity": 1
	},
	{
		"ID": 112,
		"quest_type_CommonQuestType": 3,
		"quest_s_id": 210002011,
		"priority": 11,
		"entity_type_CommonRewardType": 1,
		"entity_id": 700251,
		"quantity": 1
	},
	{
		"ID": 113,
		"quest_type_CommonQuestType": 3,
		"quest_s_id": 210002011,
		"priority": 12,
		"entity_type_CommonRewardType": 1,
		"entity_id": 700261,
		"quantity": 1
	},
	{
		"ID": 114,
		"quest_type_CommonQuestType": 3,
		"quest_s_id": 210002012,
		"priority": 1,
		"entity_type_CommonRewardType": 1,
		"entity_id": 700211,
		"quantity": 1
	},
	{
		"ID": 115,
		"quest_type_CommonQuestType": 3,
		"quest_s_id": 210002012,
		"priority": 2,
		"entity_type_CommonRewardType": 1,
		"entity_id": 700221,
		"quantity": 1
	},
	{
		"ID": 116,
		"quest_type_CommonQuestType": 3,
		"quest_s_id": 210002012,
		"priority": 3,
		"entity_type_CommonRewardType": 1,
		"entity_id": 700231,
		"quantity": 1
	},
	{
		"ID": 117,
		"quest_type_CommonQuestType": 3,
		"quest_s_id": 210002012,
		"priority": 4,
		"entity_type_CommonRewardType": 1,
		"entity_id": 700241,
		"quantity": 1
	},
	{
		"ID": 118,
		"quest_type_CommonQuestType": 3,
		"quest_s_id": 210002012,
		"priority": 5,
		"entity_type_CommonRewardType": 1,
		"entity_id": 700251,
		"quantity": 1
	},
	{
		"ID": 119,
		"quest_type_CommonQuestType": 3,
		"quest_s_id": 210002012,
		"priority": 6,
		"entity_type_CommonRewardType": 1,
		"entity_id": 700261,
		"quantity": 1
	},
	{
		"ID": 120,
		"quest_type_CommonQuestType": 3,
		"quest_s_id": 210002012,
		"priority": 7,
		"entity_type_CommonRewardType": 1,
		"entity_id": 700311,
		"quantity": 1
	},
	{
		"ID": 121,
		"quest_type_CommonQuestType": 3,
		"quest_s_id": 210002012,
		"priority": 8,
		"entity_type_CommonRewardType": 1,
		"entity_id": 700321,
		"quantity": 1
	},
	{
		"ID": 122,
		"quest_type_CommonQuestType": 3,
		"quest_s_id": 210002012,
		"priority": 9,
		"entity_type_CommonRewardType": 1,
		"entity_id": 700331,
		"quantity": 1
	},
	{
		"ID": 123,
		"quest_type_CommonQuestType": 3,
		"quest_s_id": 210002012,
		"priority": 10,
		"entity_type_CommonRewardType": 1,
		"entity_id": 700341,
		"quantity": 1
	},
	{
		"ID": 124,
		"quest_type_CommonQuestType": 3,
		"quest_s_id": 210002012,
		"priority": 11,
		"entity_type_CommonRewardType": 1,
		"entity_id": 700351,
		"quantity": 1
	},
	{
		"ID": 125,
		"quest_type_CommonQuestType": 3,
		"quest_s_id": 210002012,
		"priority": 12,
		"entity_type_CommonRewardType": 1,
		"entity_id": 700361,
		"quantity": 1
	},
	{
		"ID": 126,
		"quest_type_CommonQuestType": 3,
		"quest_s_id": 210002013,
		"priority": 1,
		"entity_type_CommonRewardType": 1,
		"entity_id": 700311,
		"quantity": 1
	},
	{
		"ID": 127,
		"quest_type_CommonQuestType": 3,
		"quest_s_id": 210002013,
		"priority": 2,
		"entity_type_CommonRewardType": 1,
		"entity_id": 700321,
		"quantity": 1
	},
	{
		"ID": 128,
		"quest_type_CommonQuestType": 3,
		"quest_s_id": 210002013,
		"priority": 3,
		"entity_type_CommonRewardType": 1,
		"entity_id": 700331,
		"quantity": 1
	},
	{
		"ID": 129,
		"quest_type_CommonQuestType": 3,
		"quest_s_id": 210002013,
		"priority": 4,
		"entity_type_CommonRewardType": 1,
		"entity_id": 700341,
		"quantity": 1
	},
	{
		"ID": 130,
		"quest_type_CommonQuestType": 3,
		"quest_s_id": 210002013,
		"priority": 5,
		"entity_type_CommonRewardType": 1,
		"entity_id": 700351,
		"quantity": 1
	},
	{
		"ID": 131,
		"quest_type_CommonQuestType": 3,
		"quest_s_id": 210002013,
		"priority": 6,
		"entity_type_CommonRewardType": 1,
		"entity_id": 700361,
		"quantity": 1
	},
	{
		"ID": 132,
		"quest_type_CommonQuestType": 3,
		"quest_s_id": 210002013,
		"priority": 7,
		"entity_type_CommonRewardType": 1,
		"entity_id": 700371,
		"quantity": 1
	},
	{
		"ID": 133,
		"quest_type_CommonQuestType": 3,
		"quest_s_id": 210003011,
		"priority": 1,
		"entity_type_CommonRewardType": 1,
		"entity_id": 700411,
		"quantity": 1
	},
	{
		"ID": 134,
		"quest_type_CommonQuestType": 3,
		"quest_s_id": 210003011,
		"priority": 2,
		"entity_type_CommonRewardType": 1,
		"entity_id": 700421,
		"quantity": 1
	},
	{
		"ID": 135,
		"quest_type_CommonQuestType": 3,
		"quest_s_id": 210003011,
		"priority": 3,
		"entity_type_CommonRewardType": 1,
		"entity_id": 700431,
		"quantity": 1
	},
	{
		"ID": 136,
		"quest_type_CommonQuestType": 3,
		"quest_s_id": 210003011,
		"priority": 4,
		"entity_type_CommonRewardType": 1,
		"entity_id": 700441,
		"quantity": 1
	},
	{
		"ID": 137,
		"quest_type_CommonQuestType": 3,
		"quest_s_id": 210003011,
		"priority": 5,
		"entity_type_CommonRewardType": 1,
		"entity_id": 700451,
		"quantity": 1
	},
	{
		"ID": 138,
		"quest_type_CommonQuestType": 3,
		"quest_s_id": 210003011,
		"priority": 6,
		"entity_type_CommonRewardType": 1,
		"entity_id": 700461,
		"quantity": 1
	},
	{
		"ID": 139,
		"quest_type_CommonQuestType": 3,
		"quest_s_id": 210003011,
		"priority": 7,
		"entity_type_CommonRewardType": 1,
		"entity_id": 700471,
		"quantity": 1
	},
	{
		"ID": 140,
		"quest_type_CommonQuestType": 3,
		"quest_s_id": 210003012,
		"priority": 1,
		"entity_type_CommonRewardType": 1,
		"entity_id": 700471,
		"quantity": 1
	},
	{
		"ID": 141,
		"quest_type_CommonQuestType": 3,
		"quest_s_id": 210003012,
		"priority": 2,
		"entity_type_CommonRewardType": 1,
		"entity_id": 700511,
		"quantity": 1
	},
	{
		"ID": 142,
		"quest_type_CommonQuestType": 3,
		"quest_s_id": 210003012,
		"priority": 3,
		"entity_type_CommonRewardType": 1,
		"entity_id": 700521,
		"quantity": 1
	},
	{
		"ID": 143,
		"quest_type_CommonQuestType": 3,
		"quest_s_id": 210003012,
		"priority": 4,
		"entity_type_CommonRewardType": 1,
		"entity_id": 700531,
		"quantity": 1
	},
	{
		"ID": 144,
		"quest_type_CommonQuestType": 3,
		"quest_s_id": 210003012,
		"priority": 5,
		"entity_type_CommonRewardType": 1,
		"entity_id": 700541,
		"quantity": 1
	},
	{
		"ID": 145,
		"quest_type_CommonQuestType": 3,
		"quest_s_id": 210003012,
		"priority": 6,
		"entity_type_CommonRewardType": 1,
		"entity_id": 700551,
		"quantity": 1
	},
	{
		"ID": 146,
		"quest_type_CommonQuestType": 3,
		"quest_s_id": 210003012,
		"priority": 7,
		"entity_type_CommonRewardType": 1,
		"entity_id": 700561,
		"quantity": 1
	},
	{
		"ID": 147,
		"quest_type_CommonQuestType": 3,
		"quest_s_id": 210003013,
		"priority": 1,
		"entity_type_CommonRewardType": 1,
		"entity_id": 700511,
		"quantity": 1
	},
	{
		"ID": 148,
		"quest_type_CommonQuestType": 3,
		"quest_s_id": 210003013,
		"priority": 2,
		"entity_type_CommonRewardType": 1,
		"entity_id": 700521,
		"quantity": 1
	},
	{
		"ID": 149,
		"quest_type_CommonQuestType": 3,
		"quest_s_id": 210003013,
		"priority": 3,
		"entity_type_CommonRewardType": 1,
		"entity_id": 700531,
		"quantity": 1
	},
	{
		"ID": 150,
		"quest_type_CommonQuestType": 3,
		"quest_s_id": 210003013,
		"priority": 4,
		"entity_type_CommonRewardType": 1,
		"entity_id": 700541,
		"quantity": 1
	},
	{
		"ID": 151,
		"quest_type_CommonQuestType": 3,
		"quest_s_id": 210003013,
		"priority": 5,
		"entity_type_CommonRewardType": 1,
		"entity_id": 700551,
		"quantity": 1
	},
	{
		"ID": 152,
		"quest_type_CommonQuestType": 3,
		"quest_s_id": 210003013,
		"priority": 6,
		"entity_type_CommonRewardType": 1,
		"entity_id": 700561,
		"quantity": 1
	},
	{
		"ID": 153,
		"quest_type_CommonQuestType": 3,
		"quest_s_id": 210003013,
		"priority": 7,
		"entity_type_CommonRewardType": 1,
		"entity_id": 700571,
		"quantity": 1
	},
	{
		"ID": 154,
		"quest_type_CommonQuestType": 3,
		"quest_s_id": 210004011,
		"priority": 1,
		"entity_type_CommonRewardType": 1,
		"entity_id": 700611,
		"quantity": 1
	},
	{
		"ID": 155,
		"quest_type_CommonQuestType": 3,
		"quest_s_id": 210004011,
		"priority": 2,
		"entity_type_CommonRewardType": 1,
		"entity_id": 700621,
		"quantity": 1
	},
	{
		"ID": 156,
		"quest_type_CommonQuestType": 3,
		"quest_s_id": 210004012,
		"priority": 1,
		"entity_type_CommonRewardType": 1,
		"entity_id": 700621,
		"quantity": 1
	},
	{
		"ID": 157,
		"quest_type_CommonQuestType": 3,
		"quest_s_id": 210004012,
		"priority": 2,
		"entity_type_CommonRewardType": 1,
		"entity_id": 700631,
		"quantity": 1
	},
	{
		"ID": 158,
		"quest_type_CommonQuestType": 3,
		"quest_s_id": 210004013,
		"priority": 1,
		"entity_type_CommonRewardType": 1,
		"entity_id": 700631,
		"quantity": 1
	},
	{
		"ID": 159,
		"quest_type_CommonQuestType": 3,
		"quest_s_id": 210004013,
		"priority": 2,
		"entity_type_CommonRewardType": 1,
		"entity_id": 700641,
		"quantity": 1
	},
	{
		"ID": 160,
		"quest_type_CommonQuestType": 3,
		"quest_s_id": 210005011,
		"priority": 1,
		"entity_type_CommonRewardType": 1,
		"entity_id": 700711,
		"quantity": 1
	},
	{
		"ID": 161,
		"quest_type_CommonQuestType": 3,
		"quest_s_id": 210005011,
		"priority": 2,
		"entity_type_CommonRewardType": 1,
		"entity_id": 700721,
		"quantity": 1
	},
	{
		"ID": 162,
		"quest_type_CommonQuestType": 3,
		"quest_s_id": 210005011,
		"priority": 3,
		"entity_type_CommonRewardType": 1,
		"entity_id": 700731,
		"quantity": 1
	},
	{
		"ID": 163,
		"quest_type_CommonQuestType": 3,
		"quest_s_id": 210005011,
		"priority": 4,
		"entity_type_CommonRewardType": 1,
		"entity_id": 700741,
		"quantity": 1
	},
	{
		"ID": 164,
		"quest_type_CommonQuestType": 3,
		"quest_s_id": 210005011,
		"priority": 5,
		"entity_type_CommonRewardType": 1,
		"entity_id": 700751,
		"quantity": 1
	},
	{
		"ID": 165,
		"quest_type_CommonQuestType": 3,
		"quest_s_id": 210005011,
		"priority": 6,
		"entity_type_CommonRewardType": 1,
		"entity_id": 700761,
		"quantity": 1
	},
	{
		"ID": 166,
		"quest_type_CommonQuestType": 3,
		"quest_s_id": 210005011,
		"priority": 7,
		"entity_type_CommonRewardType": 1,
		"entity_id": 700771,
		"quantity": 1
	},
	{
		"ID": 167,
		"quest_type_CommonQuestType": 3,
		"quest_s_id": 210005012,
		"priority": 1,
		"entity_type_CommonRewardType": 1,
		"entity_id": 700711,
		"quantity": 1
	},
	{
		"ID": 168,
		"quest_type_CommonQuestType": 3,
		"quest_s_id": 210005012,
		"priority": 2,
		"entity_type_CommonRewardType": 1,
		"entity_id": 700721,
		"quantity": 1
	},
	{
		"ID": 169,
		"quest_type_CommonQuestType": 3,
		"quest_s_id": 210005012,
		"priority": 3,
		"entity_type_CommonRewardType": 1,
		"entity_id": 700731,
		"quantity": 1
	},
	{
		"ID": 170,
		"quest_type_CommonQuestType": 3,
		"quest_s_id": 210005012,
		"priority": 4,
		"entity_type_CommonRewardType": 1,
		"entity_id": 700741,
		"quantity": 1
	},
	{
		"ID": 171,
		"quest_type_CommonQuestType": 3,
		"quest_s_id": 210005012,
		"priority": 5,
		"entity_type_CommonRewardType": 1,
		"entity_id": 700751,
		"quantity": 1
	},
	{
		"ID": 172,
		"quest_type_CommonQuestType": 3,
		"quest_s_id": 210005012,
		"priority": 6,
		"entity_type_CommonRewardType": 1,
		"entity_id": 700761,
		"quantity": 1
	},
	{
		"ID": 173,
		"quest_type_CommonQuestType": 3,
		"quest_s_id": 210005012,
		"priority": 7,
		"entity_type_CommonRewardType": 1,
		"entity_id": 700771,
		"quantity": 1
	},
	{
		"ID": 174,
		"quest_type_CommonQuestType": 3,
		"quest_s_id": 210005013,
		"priority": 1,
		"entity_type_CommonRewardType": 1,
		"entity_id": 700711,
		"quantity": 1
	},
	{
		"ID": 175,
		"quest_type_CommonQuestType": 3,
		"quest_s_id": 210005013,
		"priority": 2,
		"entity_type_CommonRewardType": 1,
		"entity_id": 700721,
		"quantity": 1
	},
	{
		"ID": 176,
		"quest_type_CommonQuestType": 3,
		"quest_s_id": 210005013,
		"priority": 3,
		"entity_type_CommonRewardType": 1,
		"entity_id": 700731,
		"quantity": 1
	},
	{
		"ID": 177,
		"quest_type_CommonQuestType": 3,
		"quest_s_id": 210005013,
		"priority": 4,
		"entity_type_CommonRewardType": 1,
		"entity_id": 700741,
		"quantity": 1
	},
	{
		"ID": 178,
		"quest_type_CommonQuestType": 3,
		"quest_s_id": 210005013,
		"priority": 5,
		"entity_type_CommonRewardType": 1,
		"entity_id": 700751,
		"quantity": 1
	},
	{
		"ID": 179,
		"quest_type_CommonQuestType": 3,
		"quest_s_id": 210005013,
		"priority": 6,
		"entity_type_CommonRewardType": 1,
		"entity_id": 700761,
		"quantity": 1
	},
	{
		"ID": 180,
		"quest_type_CommonQuestType": 3,
		"quest_s_id": 210005013,
		"priority": 7,
		"entity_type_CommonRewardType": 1,
		"entity_id": 700771,
		"quantity": 1
	},
	{
		"ID": 181,
		"quest_type_CommonQuestType": 3,
		"quest_s_id": 241002001,
		"priority": 1,
		"entity_type_CommonRewardType": 3,
		"entity_id": 90001,
		"quantity": 1
	},
	{
		"ID": 182,
		"quest_type_CommonQuestType": 3,
		"quest_s_id": 241002002,
		"priority": 1,
		"entity_type_CommonRewardType": 3,
		"entity_id": 90002,
		"quantity": 1
	},
	{
		"ID": 183,
		"quest_type_CommonQuestType": 3,
		"quest_s_id": 241002003,
		"priority": 1,
		"entity_type_CommonRewardType": 3,
		"entity_id": 90003,
		"quantity": 1
	},
	{
		"ID": 184,
		"quest_type_CommonQuestType": 3,
		"quest_s_id": 241002011,
		"priority": 1,
		"entity_type_CommonRewardType": 3,
		"entity_id": 90001,
		"quantity": 1
	},
	{
		"ID": 185,
		"quest_type_CommonQuestType": 3,
		"quest_s_id": 241002012,
		"priority": 1,
		"entity_type_CommonRewardType": 3,
		"entity_id": 90002,
		"quantity": 1
	},
	{
		"ID": 186,
		"quest_type_CommonQuestType": 3,
		"quest_s_id": 241002013,
		"priority": 1,
		"entity_type_CommonRewardType": 3,
		"entity_id": 90003,
		"quantity": 1
	},
	{
		"ID": 187,
		"quest_type_CommonQuestType": 3,
		"quest_s_id": 241002004,
		"priority": 1,
		"entity_type_CommonRewardType": 3,
		"entity_id": 90003,
		"quantity": 1
	},
	{
		"ID": 188,
		"quest_type_CommonQuestType": 3,
		"quest_s_id": 241002004,
		"priority": 2,
		"entity_type_CommonRewardType": 3,
		"entity_id": 90005,
		"quantity": 1
	},
	{
		"ID": 189,
		"quest_type_CommonQuestType": 3,
		"quest_s_id": 220001001,
		"priority": 1,
		"entity_type_CommonRewardType": 1,
		"entity_id": 700111,
		"quantity": 1
	},
	{
		"ID": 190,
		"quest_type_CommonQuestType": 3,
		"quest_s_id": 220001001,
		"priority": 2,
		"entity_type_CommonRewardType": 1,
		"entity_id": 700211,
		"quantity": 1
	},
	{
		"ID": 191,
		"quest_type_CommonQuestType": 3,
		"quest_s_id": 220001001,
		"priority": 3,
		"entity_type_CommonRewardType": 1,
		"entity_id": 700411,
		"quantity": 1
	},
	{
		"ID": 192,
		"quest_type_CommonQuestType": 3,
		"quest_s_id": 220001001,
		"priority": 4,
		"entity_type_CommonRewardType": 1,
		"entity_id": 700471,
		"quantity": 1
	},
	{
		"ID": 193,
		"quest_type_CommonQuestType": 3,
		"quest_s_id": 220001001,
		"priority": 5,
		"entity_type_CommonRewardType": 1,
		"entity_id": 700611,
		"quantity": 1
	},
	{
		"ID": 194,
		"quest_type_CommonQuestType": 3,
		"quest_s_id": 220001001,
		"priority": 6,
		"entity_type_CommonRewardType": 1,
		"entity_id": 700621,
		"quantity": 1
	},
	{
		"ID": 195,
		"quest_type_CommonQuestType": 3,
		"quest_s_id": 220001002,
		"priority": 1,
		"entity_type_CommonRewardType": 1,
		"entity_id": 700311,
		"quantity": 1
	},
	{
		"ID": 196,
		"quest_type_CommonQuestType": 3,
		"quest_s_id": 220001002,
		"priority": 2,
		"entity_type_CommonRewardType": 1,
		"entity_id": 700371,
		"quantity": 1
	},
	{
		"ID": 197,
		"quest_type_CommonQuestType": 3,
		"quest_s_id": 220001002,
		"priority": 3,
		"entity_type_CommonRewardType": 1,
		"entity_id": 700511,
		"quantity": 1
	},
	{
		"ID": 198,
		"quest_type_CommonQuestType": 3,
		"quest_s_id": 220001002,
		"priority": 4,
		"entity_type_CommonRewardType": 1,
		"entity_id": 700571,
		"quantity": 1
	},
	{
		"ID": 199,
		"quest_type_CommonQuestType": 3,
		"quest_s_id": 220001002,
		"priority": 5,
		"entity_type_CommonRewardType": 1,
		"entity_id": 700631,
		"quantity": 1
	},
	{
		"ID": 200,
		"quest_type_CommonQuestType": 3,
		"quest_s_id": 220001002,
		"priority": 6,
		"entity_type_CommonRewardType": 1,
		"entity_id": 700641,
		"quantity": 1
	},
	{
		"ID": 201,
		"quest_type_CommonQuestType": 3,
		"quest_s_id": 220001003,
		"priority": 1,
		"entity_type_CommonRewardType": 1,
		"entity_id": 701211,
		"quantity": 1
	},
	{
		"ID": 202,
		"quest_type_CommonQuestType": 3,
		"quest_s_id": 220001003,
		"priority": 2,
		"entity_type_CommonRewardType": 1,
		"entity_id": 701271,
		"quantity": 1
	},
	{
		"ID": 203,
		"quest_type_CommonQuestType": 3,
		"quest_s_id": 220001003,
		"priority": 3,
		"entity_type_CommonRewardType": 1,
		"entity_id": 701311,
		"quantity": 1
	},
	{
		"ID": 204,
		"quest_type_CommonQuestType": 3,
		"quest_s_id": 220001003,
		"priority": 4,
		"entity_type_CommonRewardType": 1,
		"entity_id": 701371,
		"quantity": 1
	},
	{
		"ID": 205,
		"quest_type_CommonQuestType": 3,
		"quest_s_id": 220001003,
		"priority": 5,
		"entity_type_CommonRewardType": 1,
		"entity_id": 700651,
		"quantity": 1
	},
	{
		"ID": 206,
		"quest_type_CommonQuestType": 3,
		"quest_s_id": 220002001,
		"priority": 1,
		"entity_type_CommonRewardType": 1,
		"entity_id": 700151,
		"quantity": 1
	},
	{
		"ID": 207,
		"quest_type_CommonQuestType": 3,
		"quest_s_id": 220002001,
		"priority": 2,
		"entity_type_CommonRewardType": 1,
		"entity_id": 700251,
		"quantity": 1
	},
	{
		"ID": 208,
		"quest_type_CommonQuestType": 3,
		"quest_s_id": 220002001,
		"priority": 3,
		"entity_type_CommonRewardType": 1,
		"entity_id": 700451,
		"quantity": 1
	},
	{
		"ID": 209,
		"quest_type_CommonQuestType": 3,
		"quest_s_id": 220002001,
		"priority": 4,
		"entity_type_CommonRewardType": 1,
		"entity_id": 700471,
		"quantity": 1
	},
	{
		"ID": 210,
		"quest_type_CommonQuestType": 3,
		"quest_s_id": 220002001,
		"priority": 5,
		"entity_type_CommonRewardType": 1,
		"entity_id": 700611,
		"quantity": 1
	},
	{
		"ID": 211,
		"quest_type_CommonQuestType": 3,
		"quest_s_id": 220002001,
		"priority": 6,
		"entity_type_CommonRewardType": 1,
		"entity_id": 700621,
		"quantity": 1
	},
	{
		"ID": 212,
		"quest_type_CommonQuestType": 3,
		"quest_s_id": 220002002,
		"priority": 1,
		"entity_type_CommonRewardType": 1,
		"entity_id": 700351,
		"quantity": 1
	},
	{
		"ID": 213,
		"quest_type_CommonQuestType": 3,
		"quest_s_id": 220002002,
		"priority": 2,
		"entity_type_CommonRewardType": 1,
		"entity_id": 700371,
		"quantity": 1
	},
	{
		"ID": 214,
		"quest_type_CommonQuestType": 3,
		"quest_s_id": 220002002,
		"priority": 3,
		"entity_type_CommonRewardType": 1,
		"entity_id": 700551,
		"quantity": 1
	},
	{
		"ID": 215,
		"quest_type_CommonQuestType": 3,
		"quest_s_id": 220002002,
		"priority": 4,
		"entity_type_CommonRewardType": 1,
		"entity_id": 700571,
		"quantity": 1
	},
	{
		"ID": 216,
		"quest_type_CommonQuestType": 3,
		"quest_s_id": 220002002,
		"priority": 5,
		"entity_type_CommonRewardType": 1,
		"entity_id": 700631,
		"quantity": 1
	},
	{
		"ID": 217,
		"quest_type_CommonQuestType": 3,
		"quest_s_id": 220002002,
		"priority": 6,
		"entity_type_CommonRewardType": 1,
		"entity_id": 700641,
		"quantity": 1
	},
	{
		"ID": 218,
		"quest_type_CommonQuestType": 3,
		"quest_s_id": 220002003,
		"priority": 1,
		"entity_type_CommonRewardType": 1,
		"entity_id": 701251,
		"quantity": 1
	},
	{
		"ID": 219,
		"quest_type_CommonQuestType": 3,
		"quest_s_id": 220002003,
		"priority": 2,
		"entity_type_CommonRewardType": 1,
		"entity_id": 701271,
		"quantity": 1
	},
	{
		"ID": 220,
		"quest_type_CommonQuestType": 3,
		"quest_s_id": 220002003,
		"priority": 3,
		"entity_type_CommonRewardType": 1,
		"entity_id": 701351,
		"quantity": 1
	},
	{
		"ID": 221,
		"quest_type_CommonQuestType": 3,
		"quest_s_id": 220002003,
		"priority": 4,
		"entity_type_CommonRewardType": 1,
		"entity_id": 701371,
		"quantity": 1
	},
	{
		"ID": 222,
		"quest_type_CommonQuestType": 3,
		"quest_s_id": 220002003,
		"priority": 5,
		"entity_type_CommonRewardType": 1,
		"entity_id": 700651,
		"quantity": 1
	},
	{
		"ID": 223,
		"quest_type_CommonQuestType": 3,
		"quest_s_id": 220003001,
		"priority": 1,
		"entity_type_CommonRewardType": 1,
		"entity_id": 700121,
		"quantity": 1
	},
	{
		"ID": 224,
		"quest_type_CommonQuestType": 3,
		"quest_s_id": 220003001,
		"priority": 2,
		"entity_type_CommonRewardType": 1,
		"entity_id": 700221,
		"quantity": 1
	},
	{
		"ID": 225,
		"quest_type_CommonQuestType": 3,
		"quest_s_id": 220003001,
		"priority": 3,
		"entity_type_CommonRewardType": 1,
		"entity_id": 700421,
		"quantity": 1
	},
	{
		"ID": 226,
		"quest_type_CommonQuestType": 3,
		"quest_s_id": 220003001,
		"priority": 4,
		"entity_type_CommonRewardType": 1,
		"entity_id": 700471,
		"quantity": 1
	},
	{
		"ID": 227,
		"quest_type_CommonQuestType": 3,
		"quest_s_id": 220003001,
		"priority": 5,
		"entity_type_CommonRewardType": 1,
		"entity_id": 700611,
		"quantity": 1
	},
	{
		"ID": 228,
		"quest_type_CommonQuestType": 3,
		"quest_s_id": 220003001,
		"priority": 6,
		"entity_type_CommonRewardType": 1,
		"entity_id": 700621,
		"quantity": 1
	},
	{
		"ID": 229,
		"quest_type_CommonQuestType": 3,
		"quest_s_id": 220003002,
		"priority": 1,
		"entity_type_CommonRewardType": 1,
		"entity_id": 700321,
		"quantity": 1
	},
	{
		"ID": 230,
		"quest_type_CommonQuestType": 3,
		"quest_s_id": 220003002,
		"priority": 2,
		"entity_type_CommonRewardType": 1,
		"entity_id": 700371,
		"quantity": 1
	},
	{
		"ID": 231,
		"quest_type_CommonQuestType": 3,
		"quest_s_id": 220003002,
		"priority": 3,
		"entity_type_CommonRewardType": 1,
		"entity_id": 700521,
		"quantity": 1
	},
	{
		"ID": 232,
		"quest_type_CommonQuestType": 3,
		"quest_s_id": 220003002,
		"priority": 4,
		"entity_type_CommonRewardType": 1,
		"entity_id": 700571,
		"quantity": 1
	},
	{
		"ID": 233,
		"quest_type_CommonQuestType": 3,
		"quest_s_id": 220003002,
		"priority": 5,
		"entity_type_CommonRewardType": 1,
		"entity_id": 700631,
		"quantity": 1
	},
	{
		"ID": 234,
		"quest_type_CommonQuestType": 3,
		"quest_s_id": 220003002,
		"priority": 6,
		"entity_type_CommonRewardType": 1,
		"entity_id": 700641,
		"quantity": 1
	},
	{
		"ID": 235,
		"quest_type_CommonQuestType": 3,
		"quest_s_id": 220003003,
		"priority": 1,
		"entity_type_CommonRewardType": 1,
		"entity_id": 701221,
		"quantity": 1
	},
	{
		"ID": 236,
		"quest_type_CommonQuestType": 3,
		"quest_s_id": 220003003,
		"priority": 2,
		"entity_type_CommonRewardType": 1,
		"entity_id": 701271,
		"quantity": 1
	},
	{
		"ID": 237,
		"quest_type_CommonQuestType": 3,
		"quest_s_id": 220003003,
		"priority": 3,
		"entity_type_CommonRewardType": 1,
		"entity_id": 701321,
		"quantity": 1
	},
	{
		"ID": 238,
		"quest_type_CommonQuestType": 3,
		"quest_s_id": 220003003,
		"priority": 4,
		"entity_type_CommonRewardType": 1,
		"entity_id": 701371,
		"quantity": 1
	},
	{
		"ID": 239,
		"quest_type_CommonQuestType": 3,
		"quest_s_id": 220003003,
		"priority": 5,
		"entity_type_CommonRewardType": 1,
		"entity_id": 700651,
		"quantity": 1
	},
	{
		"ID": 240,
		"quest_type_CommonQuestType": 3,
		"quest_s_id": 220004001,
		"priority": 1,
		"entity_type_CommonRewardType": 1,
		"entity_id": 700131,
		"quantity": 1
	},
	{
		"ID": 241,
		"quest_type_CommonQuestType": 3,
		"quest_s_id": 220004001,
		"priority": 2,
		"entity_type_CommonRewardType": 1,
		"entity_id": 700231,
		"quantity": 1
	},
	{
		"ID": 242,
		"quest_type_CommonQuestType": 3,
		"quest_s_id": 220004001,
		"priority": 3,
		"entity_type_CommonRewardType": 1,
		"entity_id": 700431,
		"quantity": 1
	},
	{
		"ID": 243,
		"quest_type_CommonQuestType": 3,
		"quest_s_id": 220004001,
		"priority": 4,
		"entity_type_CommonRewardType": 1,
		"entity_id": 700471,
		"quantity": 1
	},
	{
		"ID": 244,
		"quest_type_CommonQuestType": 3,
		"quest_s_id": 220004001,
		"priority": 5,
		"entity_type_CommonRewardType": 1,
		"entity_id": 700611,
		"quantity": 1
	},
	{
		"ID": 245,
		"quest_type_CommonQuestType": 3,
		"quest_s_id": 220004001,
		"priority": 6,
		"entity_type_CommonRewardType": 1,
		"entity_id": 700621,
		"quantity": 1
	},
	{
		"ID": 246,
		"quest_type_CommonQuestType": 3,
		"quest_s_id": 220004002,
		"priority": 1,
		"entity_type_CommonRewardType": 1,
		"entity_id": 700331,
		"quantity": 1
	},
	{
		"ID": 247,
		"quest_type_CommonQuestType": 3,
		"quest_s_id": 220004002,
		"priority": 2,
		"entity_type_CommonRewardType": 1,
		"entity_id": 700371,
		"quantity": 1
	},
	{
		"ID": 248,
		"quest_type_CommonQuestType": 3,
		"quest_s_id": 220004002,
		"priority": 3,
		"entity_type_CommonRewardType": 1,
		"entity_id": 700531,
		"quantity": 1
	},
	{
		"ID": 249,
		"quest_type_CommonQuestType": 3,
		"quest_s_id": 220004002,
		"priority": 4,
		"entity_type_CommonRewardType": 1,
		"entity_id": 700571,
		"quantity": 1
	},
	{
		"ID": 250,
		"quest_type_CommonQuestType": 3,
		"quest_s_id": 220004002,
		"priority": 5,
		"entity_type_CommonRewardType": 1,
		"entity_id": 700631,
		"quantity": 1
	},
	{
		"ID": 251,
		"quest_type_CommonQuestType": 3,
		"quest_s_id": 220004002,
		"priority": 6,
		"entity_type_CommonRewardType": 1,
		"entity_id": 700641,
		"quantity": 1
	},
	{
		"ID": 252,
		"quest_type_CommonQuestType": 3,
		"quest_s_id": 220004003,
		"priority": 1,
		"entity_type_CommonRewardType": 1,
		"entity_id": 701231,
		"quantity": 1
	},
	{
		"ID": 253,
		"quest_type_CommonQuestType": 3,
		"quest_s_id": 220004003,
		"priority": 2,
		"entity_type_CommonRewardType": 1,
		"entity_id": 701271,
		"quantity": 1
	},
	{
		"ID": 254,
		"quest_type_CommonQuestType": 3,
		"quest_s_id": 220004003,
		"priority": 3,
		"entity_type_CommonRewardType": 1,
		"entity_id": 701331,
		"quantity": 1
	},
	{
		"ID": 255,
		"quest_type_CommonQuestType": 3,
		"quest_s_id": 220004003,
		"priority": 4,
		"entity_type_CommonRewardType": 1,
		"entity_id": 701371,
		"quantity": 1
	},
	{
		"ID": 256,
		"quest_type_CommonQuestType": 3,
		"quest_s_id": 220004003,
		"priority": 5,
		"entity_type_CommonRewardType": 1,
		"entity_id": 700651,
		"quantity": 1
	},
	{
		"ID": 257,
		"quest_type_CommonQuestType": 3,
		"quest_s_id": 220005001,
		"priority": 1,
		"entity_type_CommonRewardType": 1,
		"entity_id": 700141,
		"quantity": 1
	},
	{
		"ID": 258,
		"quest_type_CommonQuestType": 3,
		"quest_s_id": 220005001,
		"priority": 2,
		"entity_type_CommonRewardType": 1,
		"entity_id": 700241,
		"quantity": 1
	},
	{
		"ID": 259,
		"quest_type_CommonQuestType": 3,
		"quest_s_id": 220005001,
		"priority": 3,
		"entity_type_CommonRewardType": 1,
		"entity_id": 700441,
		"quantity": 1
	},
	{
		"ID": 260,
		"quest_type_CommonQuestType": 3,
		"quest_s_id": 220005001,
		"priority": 4,
		"entity_type_CommonRewardType": 1,
		"entity_id": 700471,
		"quantity": 1
	},
	{
		"ID": 261,
		"quest_type_CommonQuestType": 3,
		"quest_s_id": 220005001,
		"priority": 5,
		"entity_type_CommonRewardType": 1,
		"entity_id": 700611,
		"quantity": 1
	},
	{
		"ID": 262,
		"quest_type_CommonQuestType": 3,
		"quest_s_id": 220005001,
		"priority": 6,
		"entity_type_CommonRewardType": 1,
		"entity_id": 700621,
		"quantity": 1
	},
	{
		"ID": 263,
		"quest_type_CommonQuestType": 3,
		"quest_s_id": 220005002,
		"priority": 1,
		"entity_type_CommonRewardType": 1,
		"entity_id": 700341,
		"quantity": 1
	},
	{
		"ID": 264,
		"quest_type_CommonQuestType": 3,
		"quest_s_id": 220005002,
		"priority": 2,
		"entity_type_CommonRewardType": 1,
		"entity_id": 700371,
		"quantity": 1
	},
	{
		"ID": 265,
		"quest_type_CommonQuestType": 3,
		"quest_s_id": 220005002,
		"priority": 3,
		"entity_type_CommonRewardType": 1,
		"entity_id": 700541,
		"quantity": 1
	},
	{
		"ID": 266,
		"quest_type_CommonQuestType": 3,
		"quest_s_id": 220005002,
		"priority": 4,
		"entity_type_CommonRewardType": 1,
		"entity_id": 700571,
		"quantity": 1
	},
	{
		"ID": 267,
		"quest_type_CommonQuestType": 3,
		"quest_s_id": 220005002,
		"priority": 5,
		"entity_type_CommonRewardType": 1,
		"entity_id": 700631,
		"quantity": 1
	},
	{
		"ID": 268,
		"quest_type_CommonQuestType": 3,
		"quest_s_id": 220005002,
		"priority": 6,
		"entity_type_CommonRewardType": 1,
		"entity_id": 700641,
		"quantity": 1
	},
	{
		"ID": 269,
		"quest_type_CommonQuestType": 3,
		"quest_s_id": 220005003,
		"priority": 1,
		"entity_type_CommonRewardType": 1,
		"entity_id": 701241,
		"quantity": 1
	},
	{
		"ID": 270,
		"quest_type_CommonQuestType": 3,
		"quest_s_id": 220005003,
		"priority": 2,
		"entity_type_CommonRewardType": 1,
		"entity_id": 701271,
		"quantity": 1
	},
	{
		"ID": 271,
		"quest_type_CommonQuestType": 3,
		"quest_s_id": 220005003,
		"priority": 3,
		"entity_type_CommonRewardType": 1,
		"entity_id": 701341,
		"quantity": 1
	},
	{
		"ID": 272,
		"quest_type_CommonQuestType": 3,
		"quest_s_id": 220005003,
		"priority": 4,
		"entity_type_CommonRewardType": 1,
		"entity_id": 701371,
		"quantity": 1
	},
	{
		"ID": 273,
		"quest_type_CommonQuestType": 3,
		"quest_s_id": 220005003,
		"priority": 5,
		"entity_type_CommonRewardType": 1,
		"entity_id": 700651,
		"quantity": 1
	},
	{
		"ID": 274,
		"quest_type_CommonQuestType": 3,
		"quest_s_id": 220006001,
		"priority": 1,
		"entity_type_CommonRewardType": 1,
		"entity_id": 700161,
		"quantity": 1
	},
	{
		"ID": 275,
		"quest_type_CommonQuestType": 3,
		"quest_s_id": 220006001,
		"priority": 2,
		"entity_type_CommonRewardType": 1,
		"entity_id": 700261,
		"quantity": 1
	},
	{
		"ID": 276,
		"quest_type_CommonQuestType": 3,
		"quest_s_id": 220006001,
		"priority": 3,
		"entity_type_CommonRewardType": 1,
		"entity_id": 700461,
		"quantity": 1
	},
	{
		"ID": 277,
		"quest_type_CommonQuestType": 3,
		"quest_s_id": 220006001,
		"priority": 4,
		"entity_type_CommonRewardType": 1,
		"entity_id": 700471,
		"quantity": 1
	},
	{
		"ID": 278,
		"quest_type_CommonQuestType": 3,
		"quest_s_id": 220006001,
		"priority": 5,
		"entity_type_CommonRewardType": 1,
		"entity_id": 700611,
		"quantity": 1
	},
	{
		"ID": 279,
		"quest_type_CommonQuestType": 3,
		"quest_s_id": 220006001,
		"priority": 6,
		"entity_type_CommonRewardType": 1,
		"entity_id": 700621,
		"quantity": 1
	},
	{
		"ID": 280,
		"quest_type_CommonQuestType": 3,
		"quest_s_id": 220006002,
		"priority": 1,
		"entity_type_CommonRewardType": 1,
		"entity_id": 700361,
		"quantity": 1
	},
	{
		"ID": 281,
		"quest_type_CommonQuestType": 3,
		"quest_s_id": 220006002,
		"priority": 2,
		"entity_type_CommonRewardType": 1,
		"entity_id": 700371,
		"quantity": 1
	},
	{
		"ID": 282,
		"quest_type_CommonQuestType": 3,
		"quest_s_id": 220006002,
		"priority": 3,
		"entity_type_CommonRewardType": 1,
		"entity_id": 700561,
		"quantity": 1
	},
	{
		"ID": 283,
		"quest_type_CommonQuestType": 3,
		"quest_s_id": 220006002,
		"priority": 4,
		"entity_type_CommonRewardType": 1,
		"entity_id": 700571,
		"quantity": 1
	},
	{
		"ID": 284,
		"quest_type_CommonQuestType": 3,
		"quest_s_id": 220006002,
		"priority": 5,
		"entity_type_CommonRewardType": 1,
		"entity_id": 700631,
		"quantity": 1
	},
	{
		"ID": 285,
		"quest_type_CommonQuestType": 3,
		"quest_s_id": 220006002,
		"priority": 6,
		"entity_type_CommonRewardType": 1,
		"entity_id": 700641,
		"quantity": 1
	},
	{
		"ID": 286,
		"quest_type_CommonQuestType": 3,
		"quest_s_id": 220006003,
		"priority": 1,
		"entity_type_CommonRewardType": 1,
		"entity_id": 701261,
		"quantity": 1
	},
	{
		"ID": 287,
		"quest_type_CommonQuestType": 3,
		"quest_s_id": 220006003,
		"priority": 2,
		"entity_type_CommonRewardType": 1,
		"entity_id": 701271,
		"quantity": 1
	},
	{
		"ID": 288,
		"quest_type_CommonQuestType": 3,
		"quest_s_id": 220006003,
		"priority": 3,
		"entity_type_CommonRewardType": 1,
		"entity_id": 701361,
		"quantity": 1
	},
	{
		"ID": 289,
		"quest_type_CommonQuestType": 3,
		"quest_s_id": 220006003,
		"priority": 4,
		"entity_type_CommonRewardType": 1,
		"entity_id": 701371,
		"quantity": 1
	},
	{
		"ID": 290,
		"quest_type_CommonQuestType": 3,
		"quest_s_id": 220006003,
		"priority": 5,
		"entity_type_CommonRewardType": 1,
		"entity_id": 700651,
		"quantity": 1
	}
]