[
	{
		"ID": 1,
		"quest_s_id_QuestSeaS": 277000001,
		"label": "海上編ユニットのみ"
	},
	{
		"ID": 2,
		"quest_s_id_QuestSeaS": 277000002,
		"label": "海上編ユニットのみ"
	},
	{
		"ID": 3,
		"quest_s_id_QuestSeaS": 277000003,
		"label": "海上編ユニットのみ"
	},
	{
		"ID": 4,
		"quest_s_id_QuestSeaS": 277000004,
		"label": "海上編ユニットのみ"
	},
	{
		"ID": 5,
		"quest_s_id_QuestSeaS": 277000005,
		"label": "海上編ユニットのみ"
	},
	{
		"ID": 6,
		"quest_s_id_QuestSeaS": 277000006,
		"label": "海上編ユニットのみ"
	},
	{
		"ID": 7,
		"quest_s_id_QuestSeaS": 277000007,
		"label": "海上編ユニットのみ"
	},
	{
		"ID": 8,
		"quest_s_id_QuestSeaS": 277000008,
		"label": "海上編ユニットのみ"
	},
	{
		"ID": 9,
		"quest_s_id_QuestSeaS": 277000010,
		"label": "海上編ユニットのみ"
	},
	{
		"ID": 10,
		"quest_s_id_QuestSeaS": 277000011,
		"label": "海上編ユニットのみ"
	},
	{
		"ID": 11,
		"quest_s_id_QuestSeaS": 277000012,
		"label": "海上編ユニットのみ"
	},
	{
		"ID": 12,
		"quest_s_id_QuestSeaS": 277000013,
		"label": "海上編ユニットのみ"
	},
	{
		"ID": 13,
		"quest_s_id_QuestSeaS": 277000014,
		"label": "海上編ユニットのみ"
	},
	{
		"ID": 14,
		"quest_s_id_QuestSeaS": 277000015,
		"label": "海上編ユニットのみ"
	},
	{
		"ID": 15,
		"quest_s_id_QuestSeaS": 277000016,
		"label": "海上編ユニットのみ"
	},
	{
		"ID": 16,
		"quest_s_id_QuestSeaS": 277000017,
		"label": "海上編ユニットのみ"
	},
	{
		"ID": 17,
		"quest_s_id_QuestSeaS": 277000018,
		"label": "海上編ユニットのみ"
	},
	{
		"ID": 18,
		"quest_s_id_QuestSeaS": 277000019,
		"label": "海上編ユニットのみ"
	},
	{
		"ID": 19,
		"quest_s_id_QuestSeaS": 277000020,
		"label": "海上編ユニットのみ"
	},
	{
		"ID": 20,
		"quest_s_id_QuestSeaS": 277000021,
		"label": "海上編ユニットのみ"
	},
	{
		"ID": 21,
		"quest_s_id_QuestSeaS": 277000022,
		"label": "海上編ユニットのみ"
	},
	{
		"ID": 22,
		"quest_s_id_QuestSeaS": 277000023,
		"label": "海上編ユニットのみ"
	},
	{
		"ID": 23,
		"quest_s_id_QuestSeaS": 277000024,
		"label": "海上編ユニットのみ"
	},
	{
		"ID": 24,
		"quest_s_id_QuestSeaS": 277000025,
		"label": "海上編ユニットのみ"
	},
	{
		"ID": 25,
		"quest_s_id_QuestSeaS": 277000026,
		"label": "海上編ユニットのみ"
	},
	{
		"ID": 26,
		"quest_s_id_QuestSeaS": 277000027,
		"label": "海上編ユニットのみ"
	},
	{
		"ID": 27,
		"quest_s_id_QuestSeaS": 277000028,
		"label": "海上編ユニットのみ"
	},
	{
		"ID": 28,
		"quest_s_id_QuestSeaS": 277000029,
		"label": "海上編ユニットのみ"
	},
	{
		"ID": 29,
		"quest_s_id_QuestSeaS": 277000030,
		"label": "海上編ユニットのみ"
	},
	{
		"ID": 30,
		"quest_s_id_QuestSeaS": 277000031,
		"label": "海上編ユニットのみ"
	},
	{
		"ID": 31,
		"quest_s_id_QuestSeaS": 277000032,
		"label": "海上編ユニットのみ"
	},
	{
		"ID": 32,
		"quest_s_id_QuestSeaS": 277000033,
		"label": "海上編ユニットのみ"
	},
	{
		"ID": 33,
		"quest_s_id_QuestSeaS": 277000034,
		"label": "海上編ユニットのみ"
	},
	{
		"ID": 34,
		"quest_s_id_QuestSeaS": 277000035,
		"label": "海上編ユニットのみ"
	},
	{
		"ID": 35,
		"quest_s_id_QuestSeaS": 277000036,
		"label": "海上編ユニットのみ"
	},
	{
		"ID": 36,
		"quest_s_id_QuestSeaS": 277000037,
		"label": "海上編ユニットのみ"
	},
	{
		"ID": 37,
		"quest_s_id_QuestSeaS": 277000038,
		"label": "海上編ユニットのみ"
	},
	{
		"ID": 38,
		"quest_s_id_QuestSeaS": 277000039,
		"label": "海上編ユニットのみ"
	},
	{
		"ID": 39,
		"quest_s_id_QuestSeaS": 277000040,
		"label": "海上編ユニットのみ"
	},
	{
		"ID": 40,
		"quest_s_id_QuestSeaS": 277000041,
		"label": "海上編ユニットのみ"
	},
	{
		"ID": 41,
		"quest_s_id_QuestSeaS": 277000042,
		"label": "海上編ユニットのみ"
	},
	{
		"ID": 42,
		"quest_s_id_QuestSeaS": 277000043,
		"label": "海上編ユニットのみ"
	},
	{
		"ID": 43,
		"quest_s_id_QuestSeaS": 277000044,
		"label": "海上編ユニットのみ"
	},
	{
		"ID": 44,
		"quest_s_id_QuestSeaS": 277000045,
		"label": "海上編ユニットのみ"
	},
	{
		"ID": 45,
		"quest_s_id_QuestSeaS": 277000046,
		"label": "海上編ユニットのみ"
	},
	{
		"ID": 46,
		"quest_s_id_QuestSeaS": 277000047,
		"label": "海上編ユニットのみ"
	},
	{
		"ID": 47,
		"quest_s_id_QuestSeaS": 277000048,
		"label": "海上編ユニットのみ"
	},
	{
		"ID": 48,
		"quest_s_id_QuestSeaS": 277000049,
		"label": "海上編ユニットのみ"
	},
	{
		"ID": 49,
		"quest_s_id_QuestSeaS": 277000050,
		"label": "海上編ユニットのみ"
	},
	{
		"ID": 50,
		"quest_s_id_QuestSeaS": 277000051,
		"label": "海上編ユニットのみ"
	},
	{
		"ID": 51,
		"quest_s_id_QuestSeaS": 277000052,
		"label": "海上編ユニットのみ"
	},
	{
		"ID": 52,
		"quest_s_id_QuestSeaS": 277000053,
		"label": "海上編ユニットのみ"
	},
	{
		"ID": 53,
		"quest_s_id_QuestSeaS": 277000054,
		"label": "海上編ユニットのみ"
	},
	{
		"ID": 54,
		"quest_s_id_QuestSeaS": 277000055,
		"label": "海上編ユニットのみ"
	},
	{
		"ID": 55,
		"quest_s_id_QuestSeaS": 277000056,
		"label": "海上編ユニットのみ"
	},
	{
		"ID": 56,
		"quest_s_id_QuestSeaS": 277000057,
		"label": "海上編ユニットのみ"
	},
	{
		"ID": 57,
		"quest_s_id_QuestSeaS": 277000058,
		"label": "海上編ユニットのみ"
	},
	{
		"ID": 58,
		"quest_s_id_QuestSeaS": 277000059,
		"label": "海上編ユニットのみ"
	},
	{
		"ID": 59,
		"quest_s_id_QuestSeaS": 277000060,
		"label": "海上編ユニットのみ"
	},
	{
		"ID": 60,
		"quest_s_id_QuestSeaS": 277000061,
		"label": "海上編ユニットのみ"
	},
	{
		"ID": 61,
		"quest_s_id_QuestSeaS": 277000062,
		"label": "海上編ユニットのみ"
	},
	{
		"ID": 62,
		"quest_s_id_QuestSeaS": 277000063,
		"label": "海上編ユニットのみ"
	},
	{
		"ID": 63,
		"quest_s_id_QuestSeaS": 277000064,
		"label": "海上編ユニットのみ"
	},
	{
		"ID": 64,
		"quest_s_id_QuestSeaS": 277000100,
		"label": "海上編ユニットのみ"
	},
	{
		"ID": 65,
		"quest_s_id_QuestSeaS": 277000101,
		"label": "海上編ユニットのみ"
	},
	{
		"ID": 66,
		"quest_s_id_QuestSeaS": 277000102,
		"label": "海上編ユニットのみ"
	},
	{
		"ID": 67,
		"quest_s_id_QuestSeaS": 277000103,
		"label": "海上編ユニットのみ"
	},
	{
		"ID": 68,
		"quest_s_id_QuestSeaS": 277000104,
		"label": "海上編ユニットのみ"
	},
	{
		"ID": 69,
		"quest_s_id_QuestSeaS": 277000105,
		"label": "海上編ユニットのみ"
	},
	{
		"ID": 70,
		"quest_s_id_QuestSeaS": 277000106,
		"label": "海上編ユニットのみ"
	},
	{
		"ID": 71,
		"quest_s_id_QuestSeaS": 277000107,
		"label": "海上編ユニットのみ"
	},
	{
		"ID": 72,
		"quest_s_id_QuestSeaS": 277000108,
		"label": "海上編ユニットのみ"
	},
	{
		"ID": 73,
		"quest_s_id_QuestSeaS": 277000109,
		"label": "海上編ユニットのみ"
	},
	{
		"ID": 74,
		"quest_s_id_QuestSeaS": 277000110,
		"label": "海上編ユニットのみ"
	},
	{
		"ID": 75,
		"quest_s_id_QuestSeaS": 277000111,
		"label": "海上編ユニットのみ"
	},
	{
		"ID": 76,
		"quest_s_id_QuestSeaS": 277000112,
		"label": "海上編ユニットのみ"
	},
	{
		"ID": 77,
		"quest_s_id_QuestSeaS": 277000113,
		"label": "海上編ユニットのみ"
	},
	{
		"ID": 78,
		"quest_s_id_QuestSeaS": 277000114,
		"label": "海上編ユニットのみ"
	},
	{
		"ID": 79,
		"quest_s_id_QuestSeaS": 277000115,
		"label": "海上編ユニットのみ"
	},
	{
		"ID": 80,
		"quest_s_id_QuestSeaS": 277000116,
		"label": "海上編ユニットのみ"
	},
	{
		"ID": 81,
		"quest_s_id_QuestSeaS": 277000117,
		"label": "海上編ユニットのみ"
	},
	{
		"ID": 82,
		"quest_s_id_QuestSeaS": 277000118,
		"label": "海上編ユニットのみ"
	},
	{
		"ID": 83,
		"quest_s_id_QuestSeaS": 277000119,
		"label": "海上編ユニットのみ"
	},
	{
		"ID": 84,
		"quest_s_id_QuestSeaS": 277000120,
		"label": "海上編ユニットのみ"
	},
	{
		"ID": 85,
		"quest_s_id_QuestSeaS": 277000121,
		"label": "海上編ユニットのみ"
	},
	{
		"ID": 86,
		"quest_s_id_QuestSeaS": 277000122,
		"label": "海上編ユニットのみ"
	},
	{
		"ID": 87,
		"quest_s_id_QuestSeaS": 277000123,
		"label": "海上編ユニットのみ"
	},
	{
		"ID": 88,
		"quest_s_id_QuestSeaS": 277000124,
		"label": "海上編ユニットのみ"
	},
	{
		"ID": 89,
		"quest_s_id_QuestSeaS": 277000125,
		"label": "海上編ユニットのみ"
	},
	{
		"ID": 90,
		"quest_s_id_QuestSeaS": 277000126,
		"label": "海上編ユニットのみ"
	},
	{
		"ID": 91,
		"quest_s_id_QuestSeaS": 277000127,
		"label": "海上編ユニットのみ"
	},
	{
		"ID": 92,
		"quest_s_id_QuestSeaS": 277000128,
		"label": "海上編ユニットのみ"
	},
	{
		"ID": 93,
		"quest_s_id_QuestSeaS": 277000129,
		"label": "海上編ユニットのみ"
	},
	{
		"ID": 94,
		"quest_s_id_QuestSeaS": 277000130,
		"label": "海上編ユニットのみ"
	},
	{
		"ID": 95,
		"quest_s_id_QuestSeaS": 277000131,
		"label": "海上編ユニットのみ"
	},
	{
		"ID": 96,
		"quest_s_id_QuestSeaS": 277000132,
		"label": "海上編ユニットのみ"
	},
	{
		"ID": 97,
		"quest_s_id_QuestSeaS": 277000133,
		"label": "海上編ユニットのみ"
	},
	{
		"ID": 98,
		"quest_s_id_QuestSeaS": 277000134,
		"label": "海上編ユニットのみ"
	},
	{
		"ID": 99,
		"quest_s_id_QuestSeaS": 277000135,
		"label": "海上編ユニットのみ"
	},
	{
		"ID": 100,
		"quest_s_id_QuestSeaS": 277000201,
		"label": "海上編ユニットのみ"
	},
	{
		"ID": 101,
		"quest_s_id_QuestSeaS": 277000202,
		"label": "海上編ユニットのみ"
	},
	{
		"ID": 102,
		"quest_s_id_QuestSeaS": 277000203,
		"label": "海上編ユニットのみ"
	},
	{
		"ID": 103,
		"quest_s_id_QuestSeaS": 277000204,
		"label": "海上編ユニットのみ"
	},
	{
		"ID": 104,
		"quest_s_id_QuestSeaS": 277000205,
		"label": "海上編ユニットのみ"
	},
	{
		"ID": 105,
		"quest_s_id_QuestSeaS": 277000206,
		"label": "海上編ユニットのみ"
	},
	{
		"ID": 106,
		"quest_s_id_QuestSeaS": 277000207,
		"label": "海上編ユニットのみ"
	},
	{
		"ID": 107,
		"quest_s_id_QuestSeaS": 277000208,
		"label": "海上編ユニットのみ"
	},
	{
		"ID": 108,
		"quest_s_id_QuestSeaS": 277000209,
		"label": "海上編ユニットのみ"
	},
	{
		"ID": 109,
		"quest_s_id_QuestSeaS": 277000210,
		"label": "海上編ユニットのみ"
	},
	{
		"ID": 110,
		"quest_s_id_QuestSeaS": 277000211,
		"label": "海上編ユニットのみ"
	},
	{
		"ID": 111,
		"quest_s_id_QuestSeaS": 277000300,
		"label": "海上編ユニットのみ"
	},
	{
		"ID": 112,
		"quest_s_id_QuestSeaS": 277000301,
		"label": "海上編ユニットのみ"
	},
	{
		"ID": 113,
		"quest_s_id_QuestSeaS": 277000302,
		"label": "海上編ユニットのみ"
	},
	{
		"ID": 114,
		"quest_s_id_QuestSeaS": 277000303,
		"label": "海上編ユニットのみ"
	},
	{
		"ID": 115,
		"quest_s_id_QuestSeaS": 277000304,
		"label": "海上編ユニットのみ"
	},
	{
		"ID": 116,
		"quest_s_id_QuestSeaS": 277000305,
		"label": "海上編ユニットのみ"
	},
	{
		"ID": 117,
		"quest_s_id_QuestSeaS": 277000306,
		"label": "海上編ユニットのみ"
	},
	{
		"ID": 118,
		"quest_s_id_QuestSeaS": 277000307,
		"label": "海上編ユニットのみ"
	},
	{
		"ID": 119,
		"quest_s_id_QuestSeaS": 277000308,
		"label": "海上編ユニットのみ"
	},
	{
		"ID": 120,
		"quest_s_id_QuestSeaS": 277000309,
		"label": "海上編ユニットのみ"
	},
	{
		"ID": 121,
		"quest_s_id_QuestSeaS": 277000400,
		"label": "海上編ユニットのみ"
	},
	{
		"ID": 122,
		"quest_s_id_QuestSeaS": 277000401,
		"label": "海上編ユニットのみ"
	},
	{
		"ID": 123,
		"quest_s_id_QuestSeaS": 277000402,
		"label": "海上編ユニットのみ"
	},
	{
		"ID": 124,
		"quest_s_id_QuestSeaS": 277000403,
		"label": "海上編ユニットのみ"
	},
	{
		"ID": 125,
		"quest_s_id_QuestSeaS": 277000404,
		"label": "海上編ユニットのみ"
	},
	{
		"ID": 126,
		"quest_s_id_QuestSeaS": 277000405,
		"label": "海上編ユニットのみ"
	},
	{
		"ID": 127,
		"quest_s_id_QuestSeaS": 277000406,
		"label": "海上編ユニットのみ"
	},
	{
		"ID": 128,
		"quest_s_id_QuestSeaS": 277000407,
		"label": "海上編ユニットのみ"
	},
	{
		"ID": 129,
		"quest_s_id_QuestSeaS": 277000408,
		"label": "海上編ユニットのみ"
	},
	{
		"ID": 130,
		"quest_s_id_QuestSeaS": 277000409,
		"label": "海上編ユニットのみ"
	}
]