[
	{
		"ID": 1,
		"name": "白鯨攻略戦",
		"period_id": 111,
		"priority": 2,
		"display_expire_at": "2018-12-17 23:59:59"
	},
	{
		"ID": 2,
		"name": "白鯨攻略戦",
		"period_id": 114,
		"priority": 1,
		"display_expire_at": "2019-06-03 23:59:59"
	}
]