[
	{
		"ID": 1001,
		"name": "5周年ルーレット",
		"description": "期間中最大姫石を55個獲得",
		"_logic_id": 1,
		"_deck_id": 101,
		"_roll_count": 1,
		"_period_id": 1,
		"_is_campaign": 1,
		"url": "https://forms.gle/UDqjq52ae7yVH1mH8"
	},
	{
		"ID": 1002,
		"name": "5周年ルーレット",
		"description": "期間中最大姫石を55個獲得",
		"_logic_id": 1,
		"_deck_id": 101,
		"_roll_count": 1,
		"_period_id": 2,
		"_is_campaign": 1,
		"url": "https://forms.gle/37BmhnLR6cnc2ydD6"
	},
	{
		"ID": 1003,
		"name": "5周年ルーレット",
		"description": "期間中最大姫石を55個獲得",
		"_logic_id": 1,
		"_deck_id": 101,
		"_roll_count": 1,
		"_period_id": 3,
		"_is_campaign": 1,
		"url": "https://forms.gle/y54SariYu2LyAP8s7"
	},
	{
		"ID": 1004,
		"name": "5周年ルーレット",
		"description": "期間中最大姫石を55個獲得",
		"_logic_id": 1,
		"_deck_id": 101,
		"_roll_count": 1,
		"_period_id": 4,
		"_is_campaign": 1,
		"url": "https://forms.gle/HSXgiWDpJHAubmQa9"
	},
	{
		"ID": 1005,
		"name": "5周年ルーレット",
		"description": "期間中最大姫石を55個獲得",
		"_logic_id": 1,
		"_deck_id": 101,
		"_roll_count": 1,
		"_period_id": 5,
		"_is_campaign": 1,
		"url": "https://forms.gle/FWS5rQY3XECTTyEU8"
	},
	{
		"ID": 1006,
		"name": "5周年ルーレット",
		"description": "期間中最大姫石を55個獲得",
		"_logic_id": 1,
		"_deck_id": 101,
		"_roll_count": 1,
		"_period_id": 6,
		"_is_campaign": 1,
		"url": "https://forms.gle/xzVmN24PMkZSEkxVA"
	},
	{
		"ID": 1007,
		"name": "5周年ルーレット",
		"description": "期間中最大姫石を55個獲得",
		"_logic_id": 1,
		"_deck_id": 101,
		"_roll_count": 1,
		"_period_id": 7,
		"_is_campaign": 1,
		"url": "https://forms.gle/ZoPnFRoQdJEpCN5n6"
	},
	{
		"ID": 1008,
		"name": "5周年ルーレット",
		"description": "期間中最大姫石を55個獲得",
		"_logic_id": 1,
		"_deck_id": 101,
		"_roll_count": 1,
		"_period_id": 8,
		"_is_campaign": 1,
		"url": "https://forms.gle/4t8Czxzcw481k2Sg7"
	},
	{
		"ID": 1009,
		"name": "5周年ルーレット",
		"description": "期間中最大姫石を55個獲得",
		"_logic_id": 1,
		"_deck_id": 101,
		"_roll_count": 1,
		"_period_id": 9,
		"_is_campaign": 1,
		"url": "https://forms.gle/Vi426R7Rd7BQ2qpr6"
	},
	{
		"ID": 2001,
		"name": "ゆく年くる年ルーレット",
		"description": "期間中毎日フェアリーを獲得",
		"_logic_id": 1,
		"_deck_id": 102,
		"_roll_count": 1,
		"_period_id": 10,
		"_is_campaign": 1,
		"url": "https://forms.gle/jchfsZCC2uKsYuDP9"
	},
	{
		"ID": 2002,
		"name": "ゆく年くる年ルーレット",
		"description": "期間中毎日フェアリーを獲得",
		"_logic_id": 1,
		"_deck_id": 102,
		"_roll_count": 1,
		"_period_id": 11,
		"_is_campaign": 1,
		"url": "https://forms.gle/jchfsZCC2uKsYuDP9"
	},
	{
		"ID": 2003,
		"name": "ゆく年くる年ルーレット",
		"description": "期間中毎日フェアリーを獲得",
		"_logic_id": 1,
		"_deck_id": 102,
		"_roll_count": 1,
		"_period_id": 12,
		"_is_campaign": 1,
		"url": "https://forms.gle/jchfsZCC2uKsYuDP9"
	},
	{
		"ID": 2004,
		"name": "ゆく年くる年ルーレット",
		"description": "期間中毎日フェアリーを獲得",
		"_logic_id": 1,
		"_deck_id": 103,
		"_roll_count": 1,
		"_period_id": 13,
		"_is_campaign": 1,
		"url": "https://forms.gle/jchfsZCC2uKsYuDP9"
	},
	{
		"ID": 2005,
		"name": "ゆく年くる年ルーレット",
		"description": "期間中毎日フェアリーを獲得",
		"_logic_id": 1,
		"_deck_id": 102,
		"_roll_count": 1,
		"_period_id": 14,
		"_is_campaign": 1,
		"url": "https://forms.gle/jchfsZCC2uKsYuDP9"
	},
	{
		"ID": 2006,
		"name": "ゆく年くる年ルーレット",
		"description": "期間中毎日フェアリーを獲得",
		"_logic_id": 1,
		"_deck_id": 102,
		"_roll_count": 1,
		"_period_id": 15,
		"_is_campaign": 1,
		"url": "https://forms.gle/jchfsZCC2uKsYuDP9"
	},
	{
		"ID": 2007,
		"name": "ゆく年くる年ルーレット",
		"description": "期間中毎日フェアリーを獲得",
		"_logic_id": 1,
		"_deck_id": 102,
		"_roll_count": 1,
		"_period_id": 16,
		"_is_campaign": 1,
		"url": "https://forms.gle/jchfsZCC2uKsYuDP9"
	},
	{
		"ID": 2008,
		"name": "ゆく年くる年ルーレット",
		"description": "期間中毎日フェアリーを獲得",
		"_logic_id": 1,
		"_deck_id": 102,
		"_roll_count": 1,
		"_period_id": 17,
		"_is_campaign": 1,
		"url": "https://forms.gle/jchfsZCC2uKsYuDP9"
	},
	{
		"ID": 2009,
		"name": "ゆく年くる年ルーレット",
		"description": "期間中毎日フェアリーを獲得",
		"_logic_id": 1,
		"_deck_id": 102,
		"_roll_count": 1,
		"_period_id": 18,
		"_is_campaign": 1,
		"url": "https://forms.gle/jchfsZCC2uKsYuDP9"
	}
]