[
	{
		"ID": 1,
		"name": "散歩",
		"date_point_cost": 1
	},
	{
		"ID": 2,
		"name": "街",
		"date_point_cost": 1
	},
	{
		"ID": 3,
		"name": "ショッピング",
		"date_point_cost": 1
	},
	{
		"ID": 4,
		"name": "カフェ",
		"date_point_cost": 1
	},
	{
		"ID": 5,
		"name": "広場・自然公園",
		"date_point_cost": 1
	},
	{
		"ID": 6,
		"name": "博物館",
		"date_point_cost": 1
	},
	{
		"ID": 7,
		"name": "ファンキルランド",
		"date_point_cost": 1
	},
	{
		"ID": 8,
		"name": "洞窟探検（冒険系）",
		"date_point_cost": 1
	},
	{
		"ID": 9,
		"name": "水族館",
		"date_point_cost": 1
	},
	{
		"ID": 10,
		"name": "プラネタリウム",
		"date_point_cost": 1
	},
	{
		"ID": 11,
		"name": "教会",
		"date_point_cost": 1
	},
	{
		"ID": 12,
		"name": "ライブハウス",
		"date_point_cost": 1
	},
	{
		"ID": 13,
		"name": "お城(城跡)（和風）",
		"date_point_cost": 1
	},
	{
		"ID": 14,
		"name": "渓流",
		"date_point_cost": 1
	}
]