[
	{
		"ID": 1,
		"kind": 2,
		"body": "\n1/27(月)より「セフィロトの業窟～原典、永久輪廻～」を開催いたします。\n\n[FFFF00]レベル50以上のユニットを最大50人まで選抜し、\n消費AP0で選抜ユニットの体力が続く限り\n挑戦可能なイベントクエストです！[-]\n\n階層をクリアすると次のマップへ挑戦可能になりますが、\n[FFFF00]各ユニットのHPは次のマップへ引き継がれます。[-]\n\n奥へと進むほど、難易度はどんどん上昇していきます。\n[FFFF00]マップ内の敵の強さはエネミー情報から確認ください。[-]\n\n[FFFF00]セフィロト[-]は今後も出現し、\n1回の挑戦でミニチケットが集まらなくても、\nイベントが出現するたび繰り返し\n挑戦することで目的を達成することが可能です。\nセフィロトの葉は次回以降も引き継がれるので、\n[FFFF00]繰り返し挑戦して集めましょう！[-]\n\n[00ff00]◆[-]開催期間中にセフィロトの業窟を攻略して、\n豪華報酬を手に入れよう！\n\n[00ff00]◆[-]手持ちのLv50以上のユニットを\n最大50人まで選抜。\n6名でチームを編成して挑戦しよう！\n※同じユニットは複数体選べません。\n\n[00ff00]◆[-]セフィロトの業窟での消費APは0！\n選抜したユニットの体力が残っている限り、\n挑戦可能！\n\n[00ff00]◆[-]支給品は5個まで選んで挑戦が可能！\nただし1種類につき、1個までしか持っていけないので\n慎重に選びましょう！\n\n[00ff00]◆[-]各マップごとに待ち受ける障害を\n退けながら最終マップへと突き進め！\n\n[00ff00]◆[-]周回数に応じてマップを攻略したときの\n報酬内容が変化！\n1周目は姫石や強化素材など様々な報酬を獲得！\n2周目はセフィロトの葉を大量に獲得！\n3周目以降からはマップ攻略時の報酬は\n貰えませんが、ランキングの上位入賞を目指して\nベストスコアを叩き出しましょう！\n",
		"image_url": "https://punk-officialinfo.s3.amazonaws.com/20200123/tower/e200112_header.png",
		"image_width": 560,
		"image_height": 216,
		"extra_type": 0,
		"extra_id": 0,
		"extra_position": 0
	},
	{
		"ID": 2,
		"kind": 2,
		"body": "\n戦闘不能ユニットは[FFFF00]「全ユニット回復」[-]ボタンを\n押すと復活するぞ！\n「全ユニット回復」ボタンは[FFFF00]1日1回無料[-]で\n押すことが可能！\nさらに「全ユニット回復」ボタンを押すと、\n[FFFF00]再び50人のユニットを再選抜[-]することができるぞ！\n一度無料で押した後は姫石を使って\n復活させることができるぞ！\n",
		"image_url": "https://punk-officialinfo.s3.amazonaws.com/20170724/tower/tutorial/e170705_explain3.png",
		"image_width": 560,
		"image_height": 236,
		"extra_type": 0,
		"extra_id": 0,
		"extra_position": 0
	},
	{
		"ID": 3,
		"kind": 2,
		"body": "\n各マップをクリアすると様々な報酬を獲得！\nその中には姫石や、同じ属性の★5ユニットを\n限界突破させる[FFFF00]属性別★5凸フェアリー[-]を\n獲得することができるミニチケットが手に入るぞ！\nまたセフィロトショップでは、マップを進んで獲得した\nセフィロトの葉と引き換えに武具ランクを上げる\n[FFFF00]紅錬のインゴット[-]などと交換が可能だ！\n\n\n※今回の[FFFF00]ドロップ報酬は4周目まで獲得できます。[-]\n5周目からはドロップ報酬は獲得できませんので、\n予めご了承ください。\n\n",
		"image_url": "https://punk-officialinfo.s3.amazonaws.com/20191022/tower/e191012_explain2.png",
		"image_width": 560,
		"image_height": 275,
		"extra_type": 0,
		"extra_id": 0,
		"extra_position": 0
	},
	{
		"ID": 4,
		"kind": 2,
		"body": "\nさらに、セフィロトの業窟には3つのランキングが存在！\n\nいずれも999位以内にランクインで称号をプレゼント！\nさらに、上位100位以内に入賞すると、\nより[FFFF00]名誉ある称号[-]が贈られるぞ！\n\n[00ffff]【スピードランキング】[-]\nいかに[FFFF00]少ないターン数で攻略[-]できるかを競います。\n各マップ攻略時、かかったターン数が少ないほど、\nスピードランキングのptが多く貰える。\n\n[00ff00]【テクニカルランキング】[-]\n[FFFF00]ユニットの戦闘不能回数[-]で競います。\n各マップ攻略時、戦闘不能になったユニットが\n少ないほど、テクニカルランキングのptが\n多く貰える。\n\n※蘇生スキルなどを用いて、ユニットを復活させても\n戦闘不能回数はカウントされたままとなります。\n\n[ff0000]【ダメージランキング】[-]\nダメージランキング討伐対象ユニットに対して与えた\n[FFFF00]オーバーキルダメージ[-]で競います。\n与えたオーバーキル分のダメージが\nそのままダメージランキングのptになるぞ！\n\n今回のダメージランキング討伐対象ユニットは、\n第30層にいる[FFFF00]Lv100のミカエル[-]\n第40層にいる[FFFF00]Lv100のマサムネ[-]\n第45層にいる[FFFF00]Lv100のルシファー[-]\n第55層にいる[FFFF00]Lv100のレーヴァテイン[-]\n第60層にいる[FFFF00]Lv100のウロボロス[-]\n第65層にいる[FFFF00]Lv100のミカエル[-]\n第70層にいる[FFFF00]Lv100のルシファー[-]\n第75層にいる[FFFF00]Lv100のウロボロス[-]となります！\n\n※マップの難易度や内容によって獲得できる\nランキングptは異なります。\n\n※マップに挑戦中に撤退を行った際には、\nそれまでにかかったターン数や戦闘不能回数は\n記録されており、マップ攻略時の結果画面にて\n集計された結果が表示されます",
		"image_url": "",
		"image_width": 0,
		"image_height": 0,
		"extra_type": 0,
		"extra_id": 0,
		"extra_position": 0
	},
	{
		"ID": 5,
		"kind": 2,
		"body": "[00ff00]◆[-]マップごとの敵の特性を見極めよう！\n属性で固まっていたり、毒や麻痺といった\n厄介なスキルを使用するといったクセのある\nマップが待ち受けているぞ！\n効果的なチームを編成して挑戦しよう！\n\n[00ff00]◆[-]ユニットのHPは次のマップにも引き継がれるぞ！\n残りHPに注意して杖ユニットの回復をうまく活用しよう！\n\n[00ff00]◆[-]一度戦闘不能になったユニットは\n一時的に戦線離脱。\n「全ユニット回復」ボタンを押すと復活！\n「全ユニット回復」ボタンは1日1回無料で\n押すことが可能。\n一度押した後は姫石を使って復活すること\nができるぞ！\nさらに「全ユニット回復」ボタンを押すと、\n再び50人のユニットの再選抜と所持する\n支給品を選び直すことができるぞ！\n\n[00ff00]◆[-]全マップを踏破すると初回は姫石0個で\n2周目に挑戦可能！\n2回目の踏破からは姫石を使って、再度マップ1から\n挑戦が可能だ！\n",
		"image_url": "https://punk-officialinfo.s3.amazonaws.com/20170920/tower/e170908_explain5.png",
		"image_width": 560,
		"image_height": 72,
		"extra_type": 0,
		"extra_id": 0,
		"extra_position": 0
	}
]