[
	{
		"ID": 1,
		"tower_id": 1,
		"start_at": "2017-06-13 20:00:00",
		"end_at": "2017-06-27 23:59:59",
		"end_at_disp": "2017-06-30 23:59:59",
		"tower_name": "セフィロト",
		"floor_id_TowerFloorName": 1,
		"direction": 0,
		"banner_id": 101
	},
	{
		"ID": 2,
		"tower_id": 2,
		"start_at": "2017-07-24 15:00:00",
		"end_at": "2017-08-11 23:59:59",
		"end_at_disp": "2017-08-13 23:59:59",
		"tower_name": "セフィロト",
		"floor_id_TowerFloorName": 1,
		"direction": 1,
		"banner_id": 201
	},
	{
		"ID": 3,
		"tower_id": 2,
		"start_at": "2017-08-18 00:00:00",
		"end_at": "2017-08-31 23:59:59",
		"end_at_disp": "2017-09-03 23:59:59",
		"tower_name": "セフィロト",
		"floor_id_TowerFloorName": 1,
		"direction": 1,
		"banner_id": 202
	},
	{
		"ID": 4,
		"tower_id": 2,
		"start_at": "2017-09-20 00:00:00",
		"end_at": "2017-10-03 23:59:59",
		"end_at_disp": "2017-10-06 23:59:59",
		"tower_name": "セフィロト",
		"floor_id_TowerFloorName": 1,
		"direction": 1,
		"banner_id": 203
	},
	{
		"ID": 5,
		"tower_id": 1,
		"start_at": "2017-10-23 00:00:00",
		"end_at": "2017-11-07 23:59:59",
		"end_at_disp": "2017-11-10 23:59:59",
		"tower_name": "セフィロト",
		"floor_id_TowerFloorName": 1,
		"direction": 0,
		"banner_id": 102
	},
	{
		"ID": 6,
		"tower_id": 1,
		"start_at": "2017-11-20 00:00:00",
		"end_at": "2017-12-03 23:59:59",
		"end_at_disp": "2017-12-06 23:59:59",
		"tower_name": "セフィロト",
		"floor_id_TowerFloorName": 1,
		"direction": 0,
		"banner_id": 103
	},
	{
		"ID": 7,
		"tower_id": 1,
		"start_at": "2017-12-21 15:00:00",
		"end_at": "2018-01-03 23:59:59",
		"end_at_disp": "2018-01-06 23:59:59",
		"tower_name": "セフィロト",
		"floor_id_TowerFloorName": 1,
		"direction": 0,
		"banner_id": 104
	},
	{
		"ID": 8,
		"tower_id": 1,
		"start_at": "2018-01-23 15:00:00",
		"end_at": "2018-02-05 23:59:59",
		"end_at_disp": "2018-02-13 23:59:59",
		"tower_name": "セフィロト",
		"floor_id_TowerFloorName": 1,
		"direction": 0,
		"banner_id": 105
	},
	{
		"ID": 9,
		"tower_id": 1,
		"start_at": "2018-02-21 15:00:00",
		"end_at": "2018-03-06 23:59:59",
		"end_at_disp": "2018-03-18 23:59:59",
		"tower_name": "セフィロト",
		"floor_id_TowerFloorName": 1,
		"direction": 0,
		"banner_id": 106
	},
	{
		"ID": 10,
		"tower_id": 1,
		"start_at": "2018-03-20 15:00:00",
		"end_at": "2018-04-02 23:59:59",
		"end_at_disp": "2018-04-09 23:59:59",
		"tower_name": "セフィロト",
		"floor_id_TowerFloorName": 1,
		"direction": 0,
		"banner_id": 107
	},
	{
		"ID": 11,
		"tower_id": 1,
		"start_at": "2018-04-23 15:00:00",
		"end_at": "2018-05-09 23:59:59",
		"end_at_disp": "2018-05-16 23:59:59",
		"tower_name": "セフィロト",
		"floor_id_TowerFloorName": 1,
		"direction": 0,
		"banner_id": 108
	},
	{
		"ID": 12,
		"tower_id": 1,
		"start_at": "2018-05-18 15:00:00",
		"end_at": "2018-06-11 23:59:59",
		"end_at_disp": "2018-06-18 23:59:59",
		"tower_name": "セフィロト",
		"floor_id_TowerFloorName": 1,
		"direction": 0,
		"banner_id": 109
	},
	{
		"ID": 13,
		"tower_id": 3,
		"start_at": "2018-06-20 15:00:00",
		"end_at": "2018-07-07 23:59:59",
		"end_at_disp": "2018-07-23 23:59:59",
		"tower_name": "セフィロト",
		"floor_id_TowerFloorName": 1,
		"direction": 0,
		"banner_id": 110
	},
	{
		"ID": 14,
		"tower_id": 4,
		"start_at": "2018-07-25 15:00:00",
		"end_at": "2018-08-13 23:59:59",
		"end_at_disp": "2018-08-20 23:59:59",
		"tower_name": "セフィロト",
		"floor_id_TowerFloorName": 1,
		"direction": 1,
		"banner_id": 204
	},
	{
		"ID": 15,
		"tower_id": 4,
		"start_at": "2018-09-20 00:00:00",
		"end_at": "2018-10-15 23:59:59",
		"end_at_disp": "2018-10-22 23:59:59",
		"tower_name": "セフィロト",
		"floor_id_TowerFloorName": 1,
		"direction": 1,
		"banner_id": 205
	},
	{
		"ID": 16,
		"tower_id": 5,
		"start_at": "2018-10-23 00:00:00",
		"end_at": "2018-11-12 23:59:59",
		"end_at_disp": "2018-12-06 23:59:59",
		"tower_name": "セフィロト",
		"floor_id_TowerFloorName": 1,
		"direction": 0,
		"banner_id": 111
	},
	{
		"ID": 17,
		"tower_id": 5,
		"start_at": "2019-01-24 15:00:00",
		"end_at": "2019-02-11 23:59:59",
		"end_at_disp": "2019-02-18 23:59:59",
		"tower_name": "セフィロト",
		"floor_id_TowerFloorName": 1,
		"direction": 0,
		"banner_id": 112
	},
	{
		"ID": 18,
		"tower_id": 5,
		"start_at": "2019-02-21 15:00:00",
		"end_at": "2019-03-11 23:59:59",
		"end_at_disp": "2019-03-18 23:59:59",
		"tower_name": "セフィロト",
		"floor_id_TowerFloorName": 1,
		"direction": 0,
		"banner_id": 113
	},
	{
		"ID": 19,
		"tower_id": 5,
		"start_at": "2019-03-20 15:00:00",
		"end_at": "2019-04-15 23:59:59",
		"end_at_disp": "2019-04-22 23:59:59",
		"tower_name": "セフィロト",
		"floor_id_TowerFloorName": 1,
		"direction": 0,
		"banner_id": 114
	},
	{
		"ID": 20,
		"tower_id": 6,
		"start_at": "2019-04-26 15:00:00",
		"end_at": "2019-05-13 23:59:59",
		"end_at_disp": "2019-05-20 23:59:59",
		"tower_name": "セフィロト",
		"floor_id_TowerFloorName": 3,
		"direction": 1,
		"banner_id": 115
	},
	{
		"ID": 21,
		"tower_id": 6,
		"start_at": "2019-05-31 15:00:00",
		"end_at": "2019-06-17 23:59:59",
		"end_at_disp": "2019-06-24 23:59:59",
		"tower_name": "セフィロト",
		"floor_id_TowerFloorName": 3,
		"direction": 1,
		"banner_id": 116
	},
	{
		"ID": 22,
		"tower_id": 6,
		"start_at": "2019-06-28 15:00:00",
		"end_at": "2019-07-15 23:59:59",
		"end_at_disp": "2019-07-22 23:59:59",
		"tower_name": "セフィロト",
		"floor_id_TowerFloorName": 3,
		"direction": 1,
		"banner_id": 117
	},
	{
		"ID": 23,
		"tower_id": 7,
		"start_at": "2019-07-23 00:00:00",
		"end_at": "2019-08-12 23:59:59",
		"end_at_disp": "2019-08-19 23:59:59",
		"tower_name": "セフィロト",
		"floor_id_TowerFloorName": 1,
		"direction": 1,
		"banner_id": 206
	},
	{
		"ID": 24,
		"tower_id": 7,
		"start_at": "2019-08-22 00:00:00",
		"end_at": "2019-09-09 23:59:59",
		"end_at_disp": "2019-09-16 23:59:59",
		"tower_name": "セフィロト",
		"floor_id_TowerFloorName": 1,
		"direction": 1,
		"banner_id": 207
	},
	{
		"ID": 26,
		"tower_id": 7,
		"start_at": "2019-09-20 00:00:00",
		"end_at": "2019-10-07 23:59:59",
		"end_at_disp": "2019-10-14 23:59:59",
		"tower_name": "セフィロト",
		"floor_id_TowerFloorName": 1,
		"direction": 1,
		"banner_id": 208
	},
	{
		"ID": 27,
		"tower_id": 8,
		"start_at": "2019-10-23 00:00:00",
		"end_at": "2019-11-18 23:59:59",
		"end_at_disp": "2019-11-25 23:59:59",
		"tower_name": "セフィロト",
		"floor_id_TowerFloorName": 3,
		"direction": 1,
		"banner_id": 120
	},
	{
		"ID": 28,
		"tower_id": 8,
		"start_at": "2019-11-26 00:00:00",
		"end_at": "2019-12-09 23:59:59",
		"end_at_disp": "2019-12-16 23:59:59",
		"tower_name": "セフィロト",
		"floor_id_TowerFloorName": 3,
		"direction": 1,
		"banner_id": 121
	},
	{
		"ID": 29,
		"tower_id": 8,
		"start_at": "2019-12-23 00:00:00",
		"end_at": "2020-01-06 23:59:59",
		"end_at_disp": "2020-01-13 23:59:59",
		"tower_name": "セフィロト",
		"floor_id_TowerFloorName": 3,
		"direction": 1,
		"banner_id": 122
	},
	{
		"ID": 30,
		"tower_id": 8,
		"start_at": "2020-01-27 00:00:00",
		"end_at": "2020-02-10 23:59:59",
		"end_at_disp": "2020-02-17 23:59:59",
		"tower_name": "セフィロト",
		"floor_id_TowerFloorName": 3,
		"direction": 1,
		"banner_id": 123
	}
]