[
	{
		"ID": 10001,
		"name": "エンシェント&ブラック姫型変更チケット",
		"short_name": "エンシェント&ブラック",
		"cost": 1,
		"max_ticket": 99,
		"ticketTypeID_UnitTypeTicketType": 3,
		"ticketTypeParam": "502711,502712,502713,302511,302512,302513,103511,103512,103513,103611,103612,103613,401711,401712,401713,202511,202512,202513,302611,302612,302613,602011,602012,602013,100161,100162,100163,100281,100282,100283,101471,101472,101473,400151,400152,400153,500261,500262,500263,300181,300182,300183,200471,200472,200473,101481,101482,101483,103521,103522,103523,602021,602022,602023,202521,202522,202523,302521,302522,302523,103621,103622,103623,302621,302622,302623,502721,502722,502723",
		"icon_id": 10001,
		"priority": 3,
		"end_at": "2018-06-20 23:59:59",
		"description": "エンシェントキラーズ、ブラックキラーズに使用出来るチケット"
	},
	{
		"ID": 10002,
		"name": "ロストラグナロク姫型変更チケット",
		"short_name": "ロストラグナロク",
		"cost": 1,
		"max_ticket": 99,
		"ticketTypeID_UnitTypeTicketType": 3,
		"ticketTypeParam": "3400711,3400712,3400713,3100111,3100112,3100113,3500811,3500812,3500813,3101311,3101312,3101313,3300411,3300412,3300413,3401011,3401012,3401013,3601111,3601112,3601113,3500111,3500112,3500113,3201711,3201712,3201713,3300711,3300712,3300713,3201611,3201612,3201613,3103811,3103812,3103813,3600611,3600612,3600613,3200111,3200112,3200113,3400811,3400812,3400813,3100711,3100712,3100713,3200311,3200312,3200313,3502411,3502412,3502413,3400611,3400612,3400613,3600211,3600212,3600213,3201911,3201912,3201913,3301811,3301812,3301813,3100211,3100212,3100213,3302811,3302812,3302813,3602511,3602512,3602513,3302011,3302012,3302013",
		"icon_id": 10002,
		"priority": 3,
		"end_at": "2018-06-30 23:59:59",
		"description": "2018年5月までに登場したロストラグナロクユニットの姫型を変更できるチケット\n\n※モラルタ、ベガルタは姫型変更できません"
	},
	{
		"ID": 10003,
		"name": "ブラックキラーズ姫型変更チケット",
		"short_name": "ブラックキラーズ",
		"cost": 1,
		"max_ticket": 99,
		"ticketTypeID_UnitTypeTicketType": 5,
		"ticketTypeParam": "8.0",
		"icon_id": 10003,
		"priority": 3,
		"end_at": "2018-07-31 23:59:59",
		"description": "ブラックキラーズユニットに使用できるチケット"
	},
	{
		"ID": 10004,
		"name": "エンシェント姫型変更チケット",
		"short_name": "エンシェントキラーズ",
		"cost": 1,
		"max_ticket": 99,
		"ticketTypeID_UnitTypeTicketType": 6,
		"ticketTypeParam": "4.0",
		"icon_id": 10004,
		"priority": 3,
		"end_at": "2018-07-31 23:59:59",
		"description": "エンシェントキラーズユニットに使用できるチケット"
	},
	{
		"ID": 10005,
		"name": "ラグナロク女学院姫型変更チケット",
		"short_name": "ラグナロク女学院",
		"cost": 1,
		"max_ticket": 99,
		"ticketTypeID_UnitTypeTicketType": 8,
		"ticketTypeParam": "3.0",
		"icon_id": 10005,
		"priority": 3,
		"end_at": "2018-07-31 23:59:59",
		"description": "ラグナロク女学院生徒ユニットに使用できるチケット"
	},
	{
		"ID": 10006,
		"name": "聖ユグドラシル姫学院姫型変更チケット",
		"short_name": "聖ユグドラシル姫学院",
		"cost": 1,
		"max_ticket": 99,
		"ticketTypeID_UnitTypeTicketType": 8,
		"ticketTypeParam": "4.0",
		"icon_id": 10006,
		"priority": 3,
		"end_at": "2018-07-31 23:59:59",
		"description": "聖ユグドラシル姫学院生徒ユニットに使用できるチケット"
	},
	{
		"ID": 10007,
		"name": "牙克城学院姫型変更チケット",
		"short_name": "牙克城学院",
		"cost": 1,
		"max_ticket": 99,
		"ticketTypeID_UnitTypeTicketType": 8,
		"ticketTypeParam": "5.0",
		"icon_id": 10007,
		"priority": 3,
		"end_at": "2018-07-31 23:59:59",
		"description": "牙克城学院生徒ユニットに使用できるチケット"
	},
	{
		"ID": 10008,
		"name": "先生姫型変更チケット",
		"short_name": "先生",
		"cost": 1,
		"max_ticket": 99,
		"ticketTypeID_UnitTypeTicketType": 8,
		"ticketTypeParam": "6.0",
		"icon_id": 10008,
		"priority": 3,
		"end_at": "2018-07-31 23:59:59",
		"description": "ファンキル学園先生ユニットに使用できるチケット"
	},
	{
		"ID": 10009,
		"name": "タガタメ姫型変更チケット",
		"short_name": "タガタメ",
		"cost": 1,
		"max_ticket": 99,
		"ticketTypeID_UnitTypeTicketType": 8,
		"ticketTypeParam": "14.0",
		"icon_id": 10009,
		"priority": 3,
		"end_at": "2018-07-31 23:59:59",
		"description": "タガタメコラボユニットに使用できるチケット"
	},
	{
		"ID": 10010,
		"name": "シノビナ姫型変更チケット",
		"short_name": "シノビナ",
		"cost": 1,
		"max_ticket": 99,
		"ticketTypeID_UnitTypeTicketType": 8,
		"ticketTypeParam": "15.0",
		"icon_id": 10010,
		"priority": 3,
		"end_at": "2018-07-31 23:59:59",
		"description": "シノビナコラボユニットに使用できるチケット"
	},
	{
		"ID": 10011,
		"name": "海上編姫型変更チケット",
		"short_name": "海上編",
		"cost": 1,
		"max_ticket": 99,
		"ticketTypeID_UnitTypeTicketType": 3,
		"ticketTypeParam": "2302411,2302412,2302413,2100811,2100812,2100813,2202011,2202012,2202013,2300411,2300412,2300413,2200811,2200812,2200813,2400511,2400512,2400513,2100911,2100912,2100913,2600811,2600812,2600813,2400211,2400212,2400213,2500311,2500312,2500313,2300811,2300812,2300813,2500811,2500812,2500813,2102311,2102312,2102313,2201611,2201612,2201613,2200511,2200512,2200513,2101111,2101112,2101113,2200111,2200112,2200113,2300111,2300112,2300113,2401011,2401012,2401013,2102711,2102712,2102713,2601311,2601312,2601313,2300311,2300312,2300313,2500111,2500112,2500113,2500611,2500612,2500613,2101211,2101212,2101213,2400111,2400112,2400113,2100411,2100412,2100413,2200311,2200312,2200313,2300611,2300612,2300613,2500711,2500712,2500713,2102811,2102812,2102813,2102611,2102612,2102613,2501611,2501612,2501613,2302111,2302112,2302113,2201711,2201712,2201713,2600111,2600112,2600113,2400711,2400712,2400713,2100511,2100512,2100513,2501711,2501712,2501713,2200411,2200412,2200413,2301811,2301812,2301813,2101411,2101412,2101413,2101311,2101312,2101313,2200611,2200612,2200613,2500511,2500512,2500513,2600211,2600212,2600213,2600411,2600412,2600413,2101011,2101012,2101013,2201011,2201012,2201013,2301411,2301412,2301413,2302011,2302012,2302013,2400611,2400612,2400613,2400811,2400812,2400813,2502111,2502112,2502113,2600511,2600512,2600513,2102511,2102512,2102513,2100211,2100212,2100213,2200711,2200712,2200713,2201911,2201912,2201913,2300211,2300212,2300213,2301011,2301012,2301013,2401311,2401312,2401313,2500411,2500412,2500413,2600611,2600612,2600613,2601111,2601112,2601113,2400411,2400412,2400413,2100311,2100312,2100313,2200211,2200212,2200213,2300511,2300512,2300513,2502411,2502412,2502413,2100111,2100112,2100113,2100711,2100712,2100713,2201311,2201312,2201313,2201211,2201212,2201213,2300911,2300912,2300913,2301711,2301712,2301713,2400311,2400312,2400313,2502011,2502012,2502013,2500211,2500212,2500213,2600311,2600312,2600313,2601411,2601412,2601413,2100611,2100612,2100613,2300711,2300712,2300713,2201111,2201112,2201113",
		"icon_id": 10011,
		"priority": 3,
		"end_at": "2018-08-31 23:59:59",
		"description": "神聖プール王国、海浜ビーチ帝国、ジャングル連合に所属するユニットに使用できるチケット"
	},
	{
		"ID": 10012,
		"name": "海上編神聖プール王国姫型変更チケット",
		"short_name": "神聖プール王国",
		"cost": 1,
		"max_ticket": 99,
		"ticketTypeID_UnitTypeTicketType": 8,
		"ticketTypeParam": "7.0",
		"icon_id": 10012,
		"priority": 3,
		"end_at": "2020-03-31 23:59:59",
		"description": "神聖プール王国ユニットに使用できるチケット"
	},
	{
		"ID": 10013,
		"name": "海上編海浜ビーチ帝国姫型変更チケット",
		"short_name": "海浜ビーチ帝国",
		"cost": 1,
		"max_ticket": 99,
		"ticketTypeID_UnitTypeTicketType": 8,
		"ticketTypeParam": "8.0",
		"icon_id": 10013,
		"priority": 3,
		"end_at": "2020-03-31 23:59:59",
		"description": "海浜ビーチ帝国ユニットに使用できるチケット"
	},
	{
		"ID": 10014,
		"name": "海上編ジャングル連合姫型変更チケット",
		"short_name": "ジャングル連合",
		"cost": 1,
		"max_ticket": 99,
		"ticketTypeID_UnitTypeTicketType": 8,
		"ticketTypeParam": "9.0",
		"icon_id": 10014,
		"priority": 3,
		"end_at": "2020-03-31 23:59:59",
		"description": "ジャングル連合ユニットに使用できるチケット"
	},
	{
		"ID": 10015,
		"name": "このすば姫型変更チケット",
		"short_name": "このすばユニット",
		"cost": 1,
		"max_ticket": 99,
		"ticketTypeID_UnitTypeTicketType": 3,
		"ticketTypeParam": "2103411,2103412,2103413,2502511,2502512,2502513,502511,502512,502513,502521,502522,502523,601711,601712,601713,601721,601722,601723,103411,103412,103413,103421,103422,103423,502611,502612,502613,601811,601812,601813,201731,201732,201733,501741,501742,501743,2601711,2601712,2601713,2101431,2101432,2101433",
		"icon_id": 10015,
		"priority": 2,
		"end_at": "2019-11-30 23:59:59",
		"description": "このすばコラボユニットに使用できるチケット"
	},
	{
		"ID": 10016,
		"name": "エンシェント＜通常＞姫型変更チケット",
		"short_name": "エンシェントキラーズ＜通常＞",
		"cost": 1,
		"max_ticket": 99,
		"ticketTypeID_UnitTypeTicketType": 3,
		"ticketTypeParam": "502711,502712,502713,302511,302512,302513,103511,103512,103513,103611,103612,103613,401711,401712,401713,202511,202512,202513,302611,302612,302613,602011,602012,602013",
		"icon_id": 10016,
		"priority": 3,
		"end_at": "2018-10-31 23:59:59",
		"description": "エンシェントキラーズユニットに使用できるチケット\n※季節限定、海上編、過剰編のエンシェントキラーズには使用できません"
	},
	{
		"ID": 10017,
		"name": "エンシェント＜季節＞姫型変更チケット",
		"short_name": "エンシェントキラーズ＜季節＞",
		"cost": 1,
		"max_ticket": 99,
		"ticketTypeID_UnitTypeTicketType": 3,
		"ticketTypeParam": "103521,103522,103523,602021,602022,602023,202521,202522,202523,302521,302522,302523,103621,103622,103623,302621,302622,302623,502721,502722,502723,401721,401722,401723",
		"icon_id": 10017,
		"priority": 3,
		"end_at": "2018-10-31 23:59:59",
		"description": "季節限定のエンシェントキラーズユニットに使用できるチケット\n※通常、海上編、過剰編のエンシェントキラーズには使用できません"
	},
	{
		"ID": 10018,
		"name": "エンシェント＜海上編＞姫型変更チケット",
		"short_name": "エンシェントキラーズ＜海上編＞",
		"cost": 1,
		"max_ticket": 99,
		"ticketTypeID_UnitTypeTicketType": 3,
		"ticketTypeParam": "2502711,2502712,2502713,2302511,2302512,2302513,2401711,2401712,2401713,2103611,2103612,2103613,2103511,2103512,2103513",
		"icon_id": 10018,
		"priority": 3,
		"end_at": "2018-10-31 23:59:59",
		"description": "2018年8月までに登場した海上編のエンシェントキラーズユニットに使用できるチケット\n※通常、季節限定、過剰編、2018年9月以降に登場した海上編のエンシェントキラーズには使用できません"
	},
	{
		"ID": 10019,
		"name": "ロストラグナロク姫型変更チケット",
		"short_name": "ロストラグナロク",
		"cost": 1,
		"max_ticket": 99,
		"ticketTypeID_UnitTypeTicketType": 3,
		"ticketTypeParam": "3400711,3100111,3500811,3101311,3300411,3401011,3601111,3500111,3201711,3300711,3201611,3103811,3600611,3200111,3400811,3100711,3200311,3502411,3400611,3600211,3302011,3301011,3400712,3100112,3500812,3101312,3300412,3401012,3601112,3500112,3201712,3300712,3201612,3103812,3600612,3200112,3400812,3100712,3200312,3502412,3400612,3600212,3302012,3301012,3400713,3100113,3500813,3101313,3300413,3401013,3601113,3500113,3201713,3300713,3201613,3103813,3600613,3200113,3400813,3100713,3200313,3502413,3400613,3600213,3302013,3301013",
		"icon_id": 10002,
		"priority": 3,
		"end_at": "2018-11-30 23:59:59",
		"description": "2018年9月までに登場したロストラグナロクユニットの姫型を変更できるチケット\n\n※モラルタ、ベガルタ、カルマキラーズ、オーダーキラーズ、セイントキラーズ、ディスラプターズには姫型変更できません\n※ヴァナルガンド・聖鎖・サリエルはセイントキラーズですが姫型を変更することが可能です\n（強化後には使用できなくなります)\n※マサムネ・獣刻・ヨルムンガンドはオーダーキラーズですが姫型を変更することが可能です\n（強化後には使用できなくなります)"
	},
	{
		"ID": 10020,
		"name": "4周年姫型変更チケット",
		"short_name": "4周年",
		"cost": 1,
		"max_ticket": 99,
		"ticketTypeID_UnitTypeTicketType": 3,
		"ticketTypeParam": "3100211,3100212,3100213,3302811,3302812,3302813,3602511,3602512,3602513,3503111,3503112,3503113,3601111,3601112,3601113,3301811,3301812,3301813,3300111,3300112,3300113,3500211,3500212,3500213,3201911,3201912,3201913,3102311,3102312,3102313,3401311,3401312,3401313,3200411,3200412,3200413,3100111,3100112,3100113,3102511,3102512,3102513,3501711,3501712,3501713,3400111,3400112,3400113,3104011,3104012,3104013,3104111,3104112,3104113,3103811,3103812,3103813,3400711,3400712,3400713,3500811,3500812,3500813,3101311,3101312,3101313,3300411,3300412,3300413,3401011,3401012,3401013,3500111,3500112,3500113,3201711,3201712,3201713,3300711,3300712,3300713,3201611,3201612,3201613,3600611,3600612,3600613,3200111,3200112,3200113,3400811,3400812,3400813,3100711,3100712,3100713,3200311,3200312,3200313,3502411,3502412,3502413,3400611,3400612,3400613,3600211,3600212,3600213,3302011,3302012,3302013,3301011,3301012,3301013,3400411,3400412,3400413,3201211,3201212,3201213,2502711,2502712,2502713,2302511,2302512,2302513,2103611,2103612,2103613,2103511,2103512,2103513,2401711,2401712,2401713,2202511,2202512,2202513,2602011,2602012,2602013,2302611,2302612,2302613,2101421,2101422,2101423,2200421,2200422,2200423,2400121,2400122,2400123,2100121,2100122,2100123,2300121,2300122,2300123,2100221,2100222,2100223,2500221,2500222,2500223,302611,302612,302613,602011,602012,602013,202511,202512,202513,103511,103512,103513,401711,401712,401713,103611,103612,103613,502711,502712,502713,302511,302512,302513,101471,101472,101473,100281,100282,100283,500261,500262,500263,200471,200472,200473,300181,300182,300183,100161,100162,100163,400151,400152,400153,101481,101482,101483,102721,102722,102723,102621,102622,102623,302621,302622,302623,502721,502722,502723,600141,600142,600143,600144,101451,101452,101453,3104071,3104072,3104073,3104171,3104172,3104173,103521,103522,103523,602021,602022,602023,201951,201952,201953,301411,301412,301413,500841,500842,500843,500844,200151,200152,200153,200154,202521,202522,202523,302521,302522,302523,300171,300172,300173,401331,401332,401333,500731,500732,500733,100841,100842,100843,200251,200252,200253,400551,400552,400553,100251,100252,100253,100254,103621,103622,103623,100741,100742,100743,400631,400632,400633,601131,601132,601133,401721,401722,401723,400771,400772,400773,400461,400462,400463,600641,600642,600643,500851,500852,500853,102351,102352,102353,200451,200452,200453,200454,100151,100152,100153,100154,101461,101462,101463,400741,400742,400743,400744,100261,100262,100263,100264,300151,300152,300153,300154,400451,400452,400453,500251,500252,500253,302411,302412,302413,500271,500272,500273,202021,202022,202023,200481,200482,200483,100541,100542,100543,500431,500432,500433,400841,400842,400843,100171,100172,100173,102821,102822,102823,102531,102532,102533,302021,302022,302023,201641,201642,201643,200541,200542,200543,501721,501722,501723,300641,300642,300643,100271,100272,100273,400761,400762,400763,100651,100652,100653,200651,200652,200653,500861,500862,500863,400561,400562,400563,500151,500152,500153,301851,301852,301853,200351,200352,200353,600851,600852,600853,102611,102612,102613,102711,102712,102713,100351,100352,100353,300161,300162,300163,200461,200462,200463,502111,502112,502113,200121,200122,200123,300441,300442,300443,100441,100442,100443,400611,400612,400613,3601114,3100114",
		"icon_id": 10020,
		"priority": 3,
		"end_at": "2018-12-31 23:59:59",
		"description": "2018年10月までに登場した\n・ディスラプターズ\n・セイントキラーズ\n・カルマキラーズ\n・オーダーキラーズ\n・エンシェントキラーズ\n・ブラックキラーズ\n・ファンキル学園\n・期間限定ユニット\n・季節限定ユニット\n・キルコレユニット\n\nの姫型を変更できるチケット\n※コラボユニット、リル=ティルフィング、デュリンは姫型変更できません\n※一部のイベント配布ユニットは姫型変更できません"
	},
	{
		"ID": 10021,
		"name": "ハルモニア姫型変更チケット",
		"short_name": "ハルモニア",
		"cost": 1,
		"max_ticket": 99,
		"ticketTypeID_UnitTypeTicketType": 3,
		"ticketTypeParam": "3400711,3400712,3400713,3300411,3300412,3300413,3601111,3601112,3601113,3201611,3201612,3201613,3200311,3200312,3200313,3301811,3301812,3301813,3302011,3302012,3302013,3300111,3300112,3300113,3500211,3500212,3500213,3400411,3400412,3400413,3601114",
		"icon_id": 10021,
		"priority": 3,
		"end_at": "2018-12-12 23:59:59",
		"description": "2018年10月1日までに登場したディスラプターズを除くハルモニア教皇国ユニットの姫型を変更できるチケット"
	},
	{
		"ID": 10022,
		"name": "トレイセーマ姫型変更チケット",
		"short_name": "トレイセーマ",
		"cost": 1,
		"max_ticket": 99,
		"ticketTypeID_UnitTypeTicketType": 3,
		"ticketTypeParam": "3100111,3100112,3100113,3500111,3500112,3500113,3300711,3300712,3300713,3200111,3200112,3200113,3600611,3600612,3600613,3100711,3100712,3100713,3400611,3400612,3400613,3102511,3102512,3102513,3501711,3501712,3501713,3400111,3400112,3400113,3201211,3201212,3201213,3100114",
		"icon_id": 10022,
		"priority": 3,
		"end_at": "2018-12-12 23:59:59",
		"description": "2018年10月1日までに登場したディスラプターズを除くトレイセーマ共和国ユニットの姫型を変更できるチケット"
	},
	{
		"ID": 10023,
		"name": "ケイオスリオン姫型変更チケット",
		"short_name": "ケイオスリオン",
		"cost": 1,
		"max_ticket": 99,
		"ticketTypeID_UnitTypeTicketType": 3,
		"ticketTypeParam": "3500811,3500812,3500813,3101311,3101312,3101313,3401011,3401012,3401013,3201711,3201712,3201713,3400811,3400812,3400813,3502411,3502412,3502413,3201911,3201912,3201913,3600211,3600212,3600213,3301011,3301012,3301013,3102311,3102312,3102313,3401311,3401312,3401313,3200411,3200412,3200413",
		"icon_id": 10023,
		"priority": 3,
		"end_at": "2018-12-12 23:59:59",
		"description": "2018年10月1日までに登場したディスラプターズを除くケイオスリオン帝国ユニットの姫型を変更できるチケット"
	},
	{
		"ID": 10024,
		"name": "学園姫型変更チケット",
		"short_name": "学園",
		"cost": 1,
		"max_ticket": 99,
		"ticketTypeID_UnitTypeTicketType": 3,
		"ticketTypeParam": "100271,100272,100273,100651,100652,100653,100751,100752,100753,200351,200352,200353,200651,200652,200653,201751,201752,201753,300641,300642,300643,301851,301852,301853,400751,400752,400753,400761,400762,400763,500141,500142,500143,500151,500152,500153,501721,501722,501723,600851,600852,600853,500861,500862,500863,400561,400562,400563,201641,201642,201643,200541,200542,200543,600631,600632,600633,102531,102532,102533,302021,302022,302023,500341,500342,500343,100171,100172,100173,102821,102822,102823,300351,300352,300353,500431,500432,500433,400841,400842,400843,100851,100852,100853,200481,200482,200483,100541,100542,100543,502021,502022,502023,300241,300242,300243,202021,202022,202023,500271,500272,500273,300191,300192,300193,100661,100662,100663,602311,602312,602313,602321,602322,602323,400571,400572,400573,602331,602332,602333",
		"icon_id": 10024,
		"priority": 3,
		"end_at": "2018-12-12 23:59:59",
		"description": "ファンキル学園ユニットの姫型を変更できるチケット"
	},
	{
		"ID": 10025,
		"name": "タガタメシノビナ姫型変更チケット",
		"short_name": "タガタメ・シノビナ",
		"cost": 1,
		"max_ticket": 99,
		"ticketTypeID_UnitTypeTicketType": 3,
		"ticketTypeParam": "103111,103112,103113,202311,202312,202313,202411,202412,202413,401611,401612,401613,601211,601212,601213,601221,601222,103211,103212,103213,302311,302312,302313,401511,401512,401513,502311,502312,502313,103311,103312,103313,601611,601612,601613,103711,103712,103713,202611,202612,202613,101914,602111,602112,602113,401521,401522,401523,302711,302712,302713,401811,401812,401813,602211,602212,602213,502911,502912,502913,103911,103912,103913,503011,503012,503013,302911,302912,302913",
		"icon_id": 10025,
		"priority": 3,
		"end_at": "2018-12-12 23:59:59",
		"description": "タガタメ、シノビナコラボユニットの姫型を変更できるチケット"
	},
	{
		"ID": 10026,
		"name": "ロストラグナロク姫型変更チケット",
		"short_name": "ロストラグナロク",
		"cost": 1,
		"max_ticket": 99,
		"ticketTypeID_UnitTypeTicketType": 3,
		"ticketTypeParam": "3400711,3400712,3400713,3100111,3100112,3100113,3500811,3500812,3500813,3103811,3103812,3103813,3300411,3300412,3300413,3101311,3101312,3101313,3601111,3601112,3601113,3401011,3401012,3401013,3201711,3201712,3201713,3500111,3500112,3500113,3201611,3201612,3201613,3300711,3300712,3300713,3200111,3200112,3200113,3600611,3600612,3600613,3100711,3100712,3100713,3400811,3400812,3400813,3104011,3104012,3104013,3104111,3104112,3104113,3502411,3502412,3502413,3200311,3200312,3200313,3201911,3201912,3201913,3301811,3301812,3301813,41038001,41040001,41041001,3400611,3400612,3400613,3600211,3600212,3600213,3302011,3302012,3302013,3102511,3102512,3102513,3300111,3300112,3300113,3301011,3301012,3301013,3102311,3102312,3102313,3501711,3501712,3501713,3500211,3500212,3500213,3401311,3401312,3401313,3400111,3400112,3400113,3200411,3200412,3200413,3104071,3104072,3104073,3104171,3104172,3104173,3400411,3400412,3400413,3201211,3201212,3201213,3601114,3100114",
		"icon_id": 10026,
		"priority": 3,
		"end_at": "2018-12-12 23:59:59",
		"description": "2018年10月1日までに登場したディスラプターズを除くロストラグナロクユニットの姫型を変更できるチケット\n\n※リル=ティルフィングは姫型変更できません"
	},
	{
		"ID": 10027,
		"name": "ブラックキラーズ姫型変更チケット",
		"short_name": "ブラックキラーズ",
		"cost": 1,
		"max_ticket": 99,
		"ticketTypeID_UnitTypeTicketType": 5,
		"ticketTypeParam": "8.0",
		"icon_id": 10003,
		"priority": 3,
		"end_at": "2018-12-12 23:59:59",
		"description": "ブラックキラーズユニットに使用できるチケット"
	},
	{
		"ID": 10028,
		"name": "エンシェント姫型変更チケット",
		"short_name": "エンシェントキラーズ",
		"cost": 1,
		"max_ticket": 99,
		"ticketTypeID_UnitTypeTicketType": 6,
		"ticketTypeParam": "4.0",
		"icon_id": 10004,
		"priority": 3,
		"end_at": "2018-12-12 23:59:59",
		"description": "エンシェントキラーズユニットに使用できるチケット"
	},
	{
		"ID": 10029,
		"name": "4周年姫型変更チケット",
		"short_name": "4周年姫型変更",
		"cost": 1,
		"max_ticket": 99,
		"ticketTypeID_UnitTypeTicketType": 3,
		"ticketTypeParam": "3400711,3400712,3400713,3100111,3100112,3100113,3500811,3500812,3500813,3101311,3101312,3101313,3300411,3300412,3300413,3401011,3401012,3401013,3601111,3601112,3601113,3500111,3500112,3500113,3201711,3201712,3201713,3300711,3300712,3300713,3201611,3201612,3201613,3103811,3103812,3103813,3600611,3600612,3600613,3200111,3200112,3200113,3400811,3400812,3400813,3100711,3100712,3100713,3200311,3200312,3200313,3502411,3502412,3502413,3400611,3400612,3400613,3600211,3600212,3600213,3201911,3201912,3201913,3301811,3301812,3301813,3100211,3100212,3100213,3302811,3302812,3302813,3602511,3602512,3602513,3302011,3302012,3302013,3301011,3301012,3301013",
		"icon_id": 10029,
		"priority": 3,
		"end_at": "2018-10-31 23:59:59",
		"description": "2018年9月までに登場したロストラグナロクユニットの姫型を変更できるチケット\n\n※モラルタ、ベガルタ、カルマキラーズ、オーダーキラーズ、セイントキラーズ、ディスラプターズには姫型変更できません"
	},
	{
		"ID": 10030,
		"name": "Re:ゼロ姫型変更チケット",
		"short_name": "Re:ゼロ",
		"cost": 1,
		"max_ticket": 99,
		"ticketTypeID_UnitTypeTicketType": 3,
		"ticketTypeParam": "3503311,3503312,3503313,3503321,3503322,3503323,3602711,3602712,3602713,3202911,3202912,3202913",
		"icon_id": 10030,
		"priority": 3,
		"end_at": "2019-01-31 23:59:59",
		"description": "2018年11月までに登場したRe:ゼロコラボユニットの姫型を変更できるチケット"
	},
	{
		"ID": 10031,
		"name": "1500日記念姫型変更チケット",
		"short_name": "1500日",
		"cost": 1,
		"max_ticket": 99,
		"ticketTypeID_UnitTypeTicketType": 3,
		"ticketTypeParam": "3100211,3100212,3100213,3302811,3302812,3302813,3602511,3602512,3602513,3503111,3503112,3503113,3601111,3601112,3601113,3301811,3301812,3301813,3300111,3300112,3300113,3500211,3500212,3500213,3201911,3201912,3201913,3102311,3102312,3102313,3401311,3401312,3401313,3200411,3200412,3200413,3100111,3100112,3100113,3102511,3102512,3102513,3501711,3501712,3501713,3400111,3400112,3400113,3104011,3104012,3104013,3104111,3104112,3104113,3103811,3103812,3103813,3400711,3400712,3400713,3500811,3500812,3500813,3101311,3101312,3101313,3300411,3300412,3300413,3401011,3401012,3401013,3500111,3500112,3500113,3201711,3201712,3201713,3300711,3300712,3300713,3201611,3201612,3201613,3600611,3600612,3600613,3200111,3200112,3200113,3400811,3400812,3400813,3100711,3100712,3100713,3200311,3200312,3200313,3502411,3502412,3502413,3400611,3400612,3400613,3600211,3600212,3600213,3302011,3302012,3302013,3301011,3301012,3301013,3400411,3400412,3400413,3201211,3201212,3201213,2502711,2502712,2502713,2302511,2302512,2302513,2103611,2103612,2103613,2103511,2103512,2103513,2401711,2401712,2401713,2202511,2202512,2202513,2602011,2602012,2602013,2302611,2302612,2302613,2101421,2101422,2101423,2200421,2200422,2200423,2400121,2400122,2400123,2100121,2100122,2100123,2300121,2300122,2300123,2100221,2100222,2100223,2500221,2500222,2500223,302611,302612,302613,602011,602012,602013,202511,202512,202513,103511,103512,103513,401711,401712,401713,103611,103612,103613,502711,502712,502713,302511,302512,302513,101471,101472,101473,100281,100282,100283,500261,500262,500263,200471,200472,200473,300181,300182,300183,100161,100162,100163,400151,400152,400153,101481,101482,101483,102721,102722,102723,102621,102622,102623,302621,302622,302623,502721,502722,502723,600141,600142,600143,600144,101451,101452,101453,3104071,3104072,3104073,3104171,3104172,3104173,103521,103522,103523,602021,602022,602023,201951,201952,201953,301411,301412,301413,500841,500842,500843,500844,200151,200152,200153,200154,202521,202522,202523,302521,302522,302523,300171,300172,300173,401331,401332,401333,500731,500732,500733,100841,100842,100843,200251,200252,200253,400551,400552,400553,100251,100252,100253,100254,103621,103622,103623,100741,100742,100743,400631,400632,400633,601131,601132,601133,401721,401722,401723,400771,400772,400773,400461,400462,400463,600641,600642,600643,500851,500852,500853,102351,102352,102353,200451,200452,200453,200454,100151,100152,100153,100154,101461,101462,101463,400741,400742,400743,400744,100261,100262,100263,100264,300151,300152,300153,300154,400451,400452,400453,500251,500252,500253,302411,302412,302413,500271,500272,500273,202021,202022,202023,200481,200482,200483,100541,100542,100543,500431,500432,500433,400841,400842,400843,100171,100172,100173,102821,102822,102823,102531,102532,102533,302021,302022,302023,201641,201642,201643,200541,200542,200543,501721,501722,501723,300641,300642,300643,100271,100272,100273,400761,400762,400763,100651,100652,100653,200651,200652,200653,500861,500862,500863,400561,400562,400563,500151,500152,500153,301851,301852,301853,200351,200352,200353,600851,600852,600853,102611,102612,102613,102711,102712,102713,100351,100352,100353,300161,300162,300163,200461,200462,200463,502111,502112,502113,200121,200122,200123,300441,300442,300443,100441,100442,100443,400611,400612,400613,3601114,3100114,3302111,3302112,3302113",
		"icon_id": 10031,
		"priority": 3,
		"end_at": "2019-02-28 23:59:59",
		"description": "2018年11月までに登場した\n・ディスラプターズ\n・セイントキラーズ\n・カルマキラーズ\n・オーダーキラーズ\n・ロストラグナロクユニット\n・ブラックキラーズ\n・エンシェントキラーズ\n・ブラックキラーズ海上編ver.\n・エンシェントキラーズ海上編ver.\n・ファンキル学園ユニット\n・期間限定ユニット\n・季節限定ユニット\n・キルコレユニット\n\nの姫型を変更できるチケットです。\n※コラボユニット、\n　リル=ティルフィング、\n　デュリン、\n　ティファレト・聖鎖・ミカエル、\n　フェイルノート・D. plug・ルシファー、\n　グラム・聖鎖・フレイ、\n　2017年に登場した海上編ver.ユニット84体、\n　一部のイベント配布ユニットは、姫型変更対象外です"
	},
	{
		"ID": 10032,
		"name": "賀正ユニット姫型変更チケット（2018年まで）\n",
		"short_name": "賀正姫型変更（2018年まで）",
		"cost": 1,
		"max_ticket": 99,
		"ticketTypeID_UnitTypeTicketType": 3,
		"ticketTypeParam": "601131,601132,601133,100741,100742,100743,400631,400632,400633,103621,103622,103623",
		"icon_id": 10032,
		"priority": 3,
		"end_at": "2019-02-28 23:59:59",
		"description": "2018年1月までに登場した賀正ユニットの姫型を変更できるチケット"
	},
	{
		"ID": 10033,
		"name": "迎春姫型変更チケット",
		"short_name": "迎春",
		"cost": 1,
		"max_ticket": 99,
		"ticketTypeID_UnitTypeTicketType": 3,
		"ticketTypeParam": "3100211,3100212,3100213,3302811,3302812,3302813,3602511,3602512,3602513,3503111,3503112,3503113,3601111,3601112,3601113,3301811,3301812,3301813,3300111,3300112,3300113,3500211,3500212,3500213,3201911,3201912,3201913,3102311,3102312,3102313,3401311,3401312,3401313,3200411,3200412,3200413,3100111,3100112,3100113,3102511,3102512,3102513,3501711,3501712,3501713,3400111,3400112,3400113,3104011,3104012,3104013,3104111,3104112,3104113,3103811,3103812,3103813,3400711,3400712,3400713,3500811,3500812,3500813,3101311,3101312,3101313,3300411,3300412,3300413,3401011,3401012,3401013,3500111,3500112,3500113,3201711,3201712,3201713,3300711,3300712,3300713,3201611,3201612,3201613,3600611,3600612,3600613,3200111,3200112,3200113,3400811,3400812,3400813,3100711,3100712,3100713,3200311,3200312,3200313,3502411,3502412,3502413,3400611,3400612,3400613,3600211,3600212,3600213,3302011,3302012,3302013,3301011,3301012,3301013,3400411,3400412,3400413,3201211,3201212,3201213,2502711,2502712,2502713,2302511,2302512,2302513,2103611,2103612,2103613,2103511,2103512,2103513,2401711,2401712,2401713,2202511,2202512,2202513,2602011,2602012,2602013,2302611,2302612,2302613,2101421,2101422,2101423,2200421,2200422,2200423,2400121,2400122,2400123,2100121,2100122,2100123,2300121,2300122,2300123,2100221,2100222,2100223,2500221,2500222,2500223,302611,302612,302613,602011,602012,602013,202511,202512,202513,103511,103512,103513,401711,401712,401713,103611,103612,103613,502711,502712,502713,302511,302512,302513,101471,101472,101473,100281,100282,100283,500261,500262,500263,200471,200472,200473,300181,300182,300183,100161,100162,100163,400151,400152,400153,101481,101482,101483,102721,102722,102723,102621,102622,102623,302621,302622,302623,502721,502722,502723,600141,600142,600143,600144,101451,101452,101453,3104071,3104072,3104073,3104171,3104172,3104173,103521,103522,103523,602021,602022,602023,201951,201952,201953,301411,301412,301413,500841,500842,500843,500844,200151,200152,200153,200154,202521,202522,202523,302521,302522,302523,300171,300172,300173,401331,401332,401333,500731,500732,500733,100841,100842,100843,200251,200252,200253,400551,400552,400553,100251,100252,100253,100254,103621,103622,103623,100741,100742,100743,400631,400632,400633,601131,601132,601133,401721,401722,401723,400771,400772,400773,400461,400462,400463,600641,600642,600643,500851,500852,500853,102351,102352,102353,200451,200452,200453,200454,100151,100152,100153,100154,101461,101462,101463,400741,400742,400743,400744,100261,100262,100263,100264,300151,300152,300153,300154,400451,400452,400453,500251,500252,500253,302411,302412,302413,500271,500272,500273,202021,202022,202023,200481,200482,200483,100541,100542,100543,500431,500432,500433,400841,400842,400843,100171,100172,100173,102821,102822,102823,102531,102532,102533,302021,302022,302023,201641,201642,201643,200541,200542,200543,501721,501722,501723,300641,300642,300643,100271,100272,100273,400761,400762,400763,100651,100652,100653,200651,200652,200653,500861,500862,500863,400561,400562,400563,500151,500152,500153,301851,301852,301853,200351,200352,200353,600851,600852,600853,102611,102612,102613,102711,102712,102713,100351,100352,100353,300161,300162,300163,200461,200462,200463,502111,502112,502113,200121,200122,200123,300441,300442,300443,100441,100442,100443,400611,400612,400613,3601114,3100114,3302111,3302112,3302113,3101411,3101412,3101413,3100811,3100812,3100813,3100911,3100912,3100913,3200711,3200712,3200713,3602521,3602522,3602523,3301821,3301822,3301823",
		"icon_id": 10033,
		"priority": 3,
		"end_at": "2019-02-28 23:59:59",
		"description": "2018年12月までに登場した\n・ディスラプターズ\n・セイントキラーズ\n・カルマキラーズ\n・オーダーキラーズ\n・ロストラグナロクユニット\n・ブラックキラーズ\n・エンシェントキラーズ\n・ブラックキラーズ海上編ver.\n・エンシェントキラーズ海上編ver.\n・ファンキル学園ユニット\n・期間限定ユニット\n・季節限定ユニット\n・キルコレユニット\n\nの姫型を変更できるチケットです。\n※コラボユニット、\n　デュリン、\n　ティファレト・聖鎖・ミカエル、\n　フェイルノート・D. plug・ルシファー、\n　カシウス・獣刻・ウロボロス\n　2017年に登場した海上編ver.ユニット84体、\n　一部のイベント配布ユニットは、姫型変更対象外です"
	},
	{
		"ID": 10034,
		"name": "ハルモニア姫型変更チケット",
		"short_name": "ハルモニア",
		"cost": 1,
		"max_ticket": 99,
		"ticketTypeID_UnitTypeTicketType": 3,
		"ticketTypeParam": "3400711,3400712,3400713,3300411,3300412,3300413,3601111,3601112,3601113,3201611,3201612,3201613,3200311,3200312,3200313,3301811,3301812,3301813,3302011,3302012,3302013,3300111,3300112,3300113,3500211,3500212,3500213,3400411,3400412,3400413,3601114",
		"icon_id": 10021,
		"priority": 3,
		"end_at": "2019-12-31 23:59:59",
		"description": "18年10月1日までに登場したディスラプターズ、ゴッドキラーズを除くハルモニア教皇国ユニットの姫型を変更できるチケット"
	},
	{
		"ID": 10035,
		"name": "トレイセーマ姫型変更チケット",
		"short_name": "トレイセーマ",
		"cost": 1,
		"max_ticket": 99,
		"ticketTypeID_UnitTypeTicketType": 3,
		"ticketTypeParam": "3100111,3100112,3100113,3500111,3500112,3500113,3300711,3300712,3300713,3200111,3200112,3200113,3600611,3600612,3600613,3100711,3100712,3100713,3400611,3400612,3400613,3102511,3102512,3102513,3501711,3501712,3501713,3400111,3400112,3400113,3201211,3201212,3201213,3100114",
		"icon_id": 10022,
		"priority": 3,
		"end_at": "2019-12-31 23:59:59",
		"description": "18年10月1日までに登場したディスラプターズ、ゴッドキラーズを除くトレイセーマ共和国ユニットの姫型を変更できるチケット"
	},
	{
		"ID": 10036,
		"name": "ケイオスリオン姫型変更チケット",
		"short_name": "ケイオスリオン",
		"cost": 1,
		"max_ticket": 99,
		"ticketTypeID_UnitTypeTicketType": 3,
		"ticketTypeParam": "3500811,3500812,3500813,3101311,3101312,3101313,3401011,3401012,3401013,3201711,3201712,3201713,3400811,3400812,3400813,3502411,3502412,3502413,3201911,3201912,3201913,3600211,3600212,3600213,3301011,3301012,3301013,3102311,3102312,3102313,3401311,3401312,3401313,3200411,3200412,3200413",
		"icon_id": 10023,
		"priority": 3,
		"end_at": "2019-12-31 23:59:59",
		"description": "18年10月1日までに登場したディスラプターズ、ゴッドキラーズを除くケイオスリオン帝国ユニットの姫型を変更できるチケット"
	},
	{
		"ID": 10037,
		"name": "学園姫型変更チケット",
		"short_name": "学園",
		"cost": 1,
		"max_ticket": 99,
		"ticketTypeID_UnitTypeTicketType": 3,
		"ticketTypeParam": "100271,100272,100273,100651,100652,100653,100751,100752,100753,200351,200352,200353,200651,200652,200653,201751,201752,201753,300641,300642,300643,301851,301852,301853,400751,400752,400753,400761,400762,400763,500141,500142,500143,500151,500152,500153,501721,501722,501723,600851,600852,600853,500861,500862,500863,400561,400562,400563,201641,201642,201643,200541,200542,200543,600631,600632,600633,102531,102532,102533,302021,302022,302023,500341,500342,500343,100171,100172,100173,102821,102822,102823,300351,300352,300353,500431,500432,500433,400841,400842,400843,100851,100852,100853,200481,200482,200483,100541,100542,100543,502021,502022,502023,300241,300242,300243,202021,202022,202023,500271,500272,500273,300191,300192,300193,100661,100662,100663,602311,602312,602313,602321,602322,602323,400571,400572,400573,602331,602332,602333",
		"icon_id": 10024,
		"priority": 3,
		"end_at": "2019-12-31 23:59:59",
		"description": "18年10月1日までに登場したファンキル学園ユニットの姫型を変更できるチケット"
	},
	{
		"ID": 10038,
		"name": "タガタメシノビナ姫型変更チケット",
		"short_name": "タガタメ・シノビナ",
		"cost": 1,
		"max_ticket": 99,
		"ticketTypeID_UnitTypeTicketType": 3,
		"ticketTypeParam": "103111,103112,103113,202311,202312,202313,202411,202412,202413,401611,401612,401613,601211,601212,601213,601221,601222,103211,103212,103213,302311,302312,302313,401511,401512,401513,502311,502312,502313,103311,103312,103313,601611,601612,601613,103711,103712,103713,202611,202612,202613,101914,602111,602112,602113,401521,401522,401523,302711,302712,302713,401811,401812,401813,602211,602212,602213,502911,502912,502913,103911,103912,103913,503011,503012,503013,302911,302912,302913",
		"icon_id": 10025,
		"priority": 3,
		"end_at": "2019-12-31 23:59:59",
		"description": "18年10月1日までに登場したタガタメ、シノビナコラボユニットの姫型を変更できるチケット"
	},
	{
		"ID": 10039,
		"name": "ロストラグナロク姫型変更チケット",
		"short_name": "ロストラグナロク",
		"cost": 1,
		"max_ticket": 99,
		"ticketTypeID_UnitTypeTicketType": 3,
		"ticketTypeParam": "3400711,3400712,3400713,3100111,3100112,3100113,3500811,3500812,3500813,3103811,3103812,3103813,3300411,3300412,3300413,3101311,3101312,3101313,3601111,3601112,3601113,3401011,3401012,3401013,3201711,3201712,3201713,3500111,3500112,3500113,3201611,3201612,3201613,3300711,3300712,3300713,3200111,3200112,3200113,3600611,3600612,3600613,3100711,3100712,3100713,3400811,3400812,3400813,3104011,3104012,3104013,3104111,3104112,3104113,3502411,3502412,3502413,3200311,3200312,3200313,3201911,3201912,3201913,3301811,3301812,3301813,41038001,41040001,41041001,3400611,3400612,3400613,3600211,3600212,3600213,3302011,3302012,3302013,3102511,3102512,3102513,3300111,3300112,3300113,3301011,3301012,3301013,3102311,3102312,3102313,3501711,3501712,3501713,3500211,3500212,3500213,3401311,3401312,3401313,3400111,3400112,3400113,3200411,3200412,3200413,3104071,3104072,3104073,3104171,3104172,3104173,3400411,3400412,3400413,3201211,3201212,3201213,3601114,3100114",
		"icon_id": 10026,
		"priority": 3,
		"end_at": "2019-12-31 23:59:59",
		"description": "18年10月1日までに登場したディスラプターズを除くロストラグナロクユニットの姫型を変更できるチケット\n※リル=ティルフィングは姫型変更できません"
	},
	{
		"ID": 10040,
		"name": "ブラックキラーズ姫型変更チケット",
		"short_name": "ブラックキラーズ",
		"cost": 1,
		"max_ticket": 99,
		"ticketTypeID_UnitTypeTicketType": 3,
		"ticketTypeParam": "100161,100162,100163,100281,100282,100283,101471,101472,101473,400151,400152,400153,500261,500262,500263,300181,300182,300183,200471,200472,200473,101481,101482,101483,2101421,2101422,2101423,2200421,2200422,2200423,2400121,2400122,2400123,2300121,2300122,2300123,2100121,2100122,2100123,2100221,2100222,2100223,2500221,2500222,2500223",
		"icon_id": 10003,
		"priority": 3,
		"end_at": "2020-06-30 23:59:59",
		"description": "18年10月1日までに登場したブラックキラーズユニットに使用できるチケット"
	},
	{
		"ID": 10041,
		"name": "エンシェント姫型変更チケット",
		"short_name": "エンシェントキラーズ",
		"cost": 1,
		"max_ticket": 99,
		"ticketTypeID_UnitTypeTicketType": 3,
		"ticketTypeParam": "502711,502712,502713,302511,302512,302513,103511,103512,103513,103611,103612,103613,401711,401712,401713,202511,202512,202513,302611,302612,302613,602011,602012,602013,103521,103522,103523,602021,602022,602023,202521,202522,202523,302521,302522,302523,103621,103622,103623,302621,302622,302623,502721,502722,502723,41035001,41036001,42025001,43025001,43026001,44017001,45027001,46020001,401721,401722,401723,2502711,2502712,2502713,2302511,2302512,2302513,2401711,2401712,2401713,2103611,2103612,2103613,2103511,2103512,2103513,2202511,2202512,2202513,2602011,2602012,2602013,2302611,2302612,2302613",
		"icon_id": 10004,
		"priority": 3,
		"end_at": "2020-06-30 23:59:59",
		"description": "18年10月1日までに登場したエンシェントキラーズユニットに使用できるチケット"
	},
	{
		"ID": 10042,
		"name": "ロストラグナロク姫型変更チケット",
		"short_name": "ロストラグナロク",
		"cost": 1,
		"max_ticket": 99,
		"ticketTypeID_UnitTypeTicketType": 3,
		"ticketTypeParam": "3100111,3100112,3100113,3100114,3100211,3100212,3100213,3100711,3100712,3100713,3100811,3100812,3100813,3100911,3100912,3100913,3101311,3101312,3101313,3102311,3102312,3102313,3102511,3102512,3102513,3103811,3103812,3103813,3200111,3200112,3200113,3200311,3200312,3200313,3200411,3200412,3200413,3200711,3200712,3200713,3201211,3201212,3201213,3201611,3201612,3201613,3201711,3201712,3201713,3201911,3201912,3201913,3300111,3300112,3300113,3300411,3300412,3300413,3300711,3300712,3300713,3301011,3301012,3301013,3301811,3301812,3301813,3302011,3302012,3302013,3302111,3302112,3302113,3302811,3302812,3302813,3303211,3303212,3303213,3400111,3400112,3400113,3400411,3400412,3400413,3400611,3400612,3400613,3400711,3400712,3400713,3400811,3400812,3400813,3401011,3401012,3401013,3401311,3401312,3401313,3500111,3500112,3500113,3500211,3500212,3500213,3500811,3500812,3500813,3501711,3501712,3501713,3502411,3502412,3502413,3503111,3503112,3503113,3600211,3600212,3600213,3600611,3600612,3600613,3601111,3601112,3601113,3601114,3602511,3602512,3602513,41038001,3104111,3104112,3104113,3104011,3104012,3104013,41040001,41041001,3101411,3101412,3101413",
		"icon_id": 10026,
		"priority": 3,
		"end_at": "2019-12-31 23:59:59",
		"description": "19年1月1日までに登場したゴッドキラーズ、コラボユニット、季節限定ユニット、人気投票ユニットを除くロストラグナロクユニットの姫型を変更できるチケット"
	},
	{
		"ID": 10043,
		"name": "タガタメ姫型変更チケット",
		"short_name": "タガタメ",
		"cost": 1,
		"max_ticket": 99,
		"ticketTypeID_UnitTypeTicketType": 3,
		"ticketTypeParam": "202711,602611,503011,103911,502911,602111,103711,202611,103311,202411,202311,401611,103111,601211,202712,602612,503012,103912,502912,602112,103712,202612,103312,202412,202312,401612,103112,601212,202713,602613,503013,103913,502913,602113,103713,202613,103313,202413,202313,401613,103113,601213,101914,601221,601222,601611,601612,601613",
		"icon_id": 10009,
		"priority": 3,
		"end_at": "2019-03-31 23:59:59",
		"description": "2019年2月1日までに登場したタガタメコラボユニットに使用できるチケット"
	},
	{
		"ID": 10044,
		"name": "ロストラグナロク姫型変更ミニチケット",
		"short_name": "ロストラグナロクミニ",
		"cost": 5,
		"max_ticket": 99,
		"ticketTypeID_UnitTypeTicketType": 3,
		"ticketTypeParam": "3400711,3100111,3500811,3101311,3300411,3401011,3601111,3500111,3201711,3300711,3201611,3103811,3600611,3200111,3400811,3100711,3104011,3104111,3200311,3502411,3201911,3301811,3400611,3600211,3100211,3302811,3302011,3602511,3102511,3300111,3503111,3301011,3102311,3501711,3401311,3500211,3200411,3400111,3400411,3201211,3101411,3302111,3100811,3100911,3200711,3303211,3200511,3600811,3202011,3400712,3100112,3500812,3101312,3300412,3401012,3601112,3500112,3201712,3300712,3201612,3103812,3600612,3200112,3400812,3100712,3104012,3104112,3200312,3502412,3201912,3301812,3400612,3600212,3100212,3302812,3302012,3602512,3102512,3300112,3503112,3301012,3102312,3501712,3401312,3500212,3200412,3400112,3400412,3201212,3101412,3302112,3100812,3100912,3200712,3303212,3200512,3600812,3202012,3400713,3100113,3500813,3101313,3300413,3401013,3601113,3500113,3201713,3300713,3201613,3103813,3600613,3200113,3400813,3100713,3104013,3104113,3200313,3502413,3201913,3301813,3400613,3600213,3100213,3302813,3302013,3602513,3102513,3300113,3503113,3301013,3102313,3501713,3401313,3500213,3200413,3400113,3400413,3201213,3101413,3302113,3100813,3100913,3200713,3303213,3200513,3600813,3202013,3601114,3100114",
		"icon_id": 10044,
		"priority": 3,
		"end_at": "2020-06-30 23:59:59",
		"description": "・ゴッドキラーズ\n・コマンドキラーズ\n・季節限定ユニット\n・コラボユニット\n・ソロモン・聖鎖・アテナ 人気投票1位ver.\n\n以外の2019年2月1日までに登場したロストラグナロクユニットの姫型を変更できるチケット"
	},
	{
		"ID": 10045,
		"name": "さくらコラボユニット姫型変更チケット",
		"short_name": "さくら",
		"cost": 1,
		"max_ticket": 99,
		"ticketTypeID_UnitTypeTicketType": 3,
		"ticketTypeParam": "602331,602332,602333,400571,400572,400573,602321,602322,602323,602311,602312,602313,300191,300192,300193,100661,100662,100663",
		"icon_id": 10045,
		"priority": 3,
		"end_at": "2019-05-31 23:59:59",
		"description": "2019年3月1日までに登場したさくらコラボユニットの姫型を変更できるチケット"
	},
	{
		"ID": 10046,
		"name": "ロストラグナロク姫型変更チケット",
		"short_name": "ロストラグナロク",
		"cost": 1,
		"max_ticket": 99,
		"ticketTypeID_UnitTypeTicketType": 3,
		"ticketTypeParam": "3100111,3100112,3100113,3100114,3100211,3100212,3100213,3100711,3100712,3100713,3100811,3100812,3100813,3100911,3100912,3100913,3101311,3101312,3101313,3102311,3102312,3102313,3102511,3102512,3102513,3103811,3103812,3103813,3200111,3200112,3200113,3200311,3200312,3200313,3200411,3200412,3200413,3200711,3200712,3200713,3201211,3201212,3201213,3201611,3201612,3201613,3201711,3201712,3201713,3201911,3201912,3201913,3300111,3300112,3300113,3300411,3300412,3300413,3300711,3300712,3300713,3301011,3301012,3301013,3301811,3301812,3301813,3302011,3302012,3302013,3302111,3302112,3302113,3302811,3302812,3302813,3303211,3303212,3303213,3400111,3400112,3400113,3400411,3400412,3400413,3400611,3400612,3400613,3400711,3400712,3400713,3400811,3400812,3400813,3401011,3401012,3401013,3401311,3401312,3401313,3500111,3500112,3500113,3500211,3500212,3500213,3500811,3500812,3500813,3501711,3501712,3501713,3502411,3502412,3502413,3503111,3503112,3503113,3600211,3600212,3600213,3600611,3600612,3600613,3601111,3601112,3601113,3601114,3602511,3602512,3602513,41038001,3104111,3104112,3104113,3104011,3104012,3104013,41040001,41041001,3101411,3101412,3101413,3200511,3200512,3200513,3600811,3600812,3600813,3202011,3202012,3202013,3502111,3502112,3502113,3100311,3100312,3100313,3400511,3400512,3400513,3101111,3101112,3101113",
		"icon_id": 10026,
		"priority": 3,
		"end_at": "2019-12-31 23:59:59",
		"description": "19年3月1日までに登場したコマンドキラーズ、ゴッドキラーズ、コラボユニット、季節限定ユニット、人気投票ユニットを除くロストラグナロクユニットの姫型を変更できるチケット"
	},
	{
		"ID": 10047,
		"name": "学園姫型変更チケット",
		"short_name": "学園",
		"cost": 1,
		"max_ticket": 99,
		"ticketTypeID_UnitTypeTicketType": 3,
		"ticketTypeParam": "100271,100272,100273,100651,100652,100653,100751,100752,100753,200351,200352,200353,200651,200652,200653,201751,201752,201753,300641,300642,300643,301851,301852,301853,400751,400752,400753,400761,400762,400763,500141,500142,500143,500151,500152,500153,501721,501722,501723,600851,600852,600853,500861,500862,500863,400561,400562,400563,201641,201642,201643,200541,200542,200543,600631,600632,600633,102531,102532,102533,302021,302022,302023,500341,500342,500343,100171,100172,100173,102821,102822,102823,300351,300352,300353,500431,500432,500433,400841,400842,400843,100851,100852,100853,200481,200482,200483,100541,100542,100543,502021,502022,502023,300241,300242,300243,202021,202022,202023,500271,500272,500273,300191,300192,300193,100661,100662,100663,602311,602312,602313,602321,602322,602323,400571,400572,400573,602331,602332,602333",
		"icon_id": 10024,
		"priority": 3,
		"end_at": "2019-06-30 23:59:59",
		"description": "18年10月1日までに登場したファンキル学園ユニットの姫型を変更できるチケット"
	},
	{
		"ID": 10049,
		"name": "2019イースター姫型変更チケット",
		"short_name": "イースター",
		"cost": 1,
		"max_ticket": 99,
		"ticketTypeID_UnitTypeTicketType": 3,
		"ticketTypeParam": "3201921,3201922,3201923,3601121,3601122,3601123",
		"icon_id": 10049,
		"priority": 3,
		"end_at": "2020-03-31 23:59:59",
		"description": "2019年に登場したイースターver.ユニットの姫型を変更できるチケット"
	},
	{
		"ID": 10050,
		"name": "ロストラグナロク姫型変更チケット",
		"short_name": "ロストラグナロク",
		"cost": 1,
		"max_ticket": 99,
		"ticketTypeID_UnitTypeTicketType": 3,
		"ticketTypeParam": "3100111,3100112,3100113,3100114,3100211,3100212,3100213,3100711,3100712,3100713,3100811,3100812,3100813,3100911,3100912,3100913,3101311,3101312,3101313,3102311,3102312,3102313,3102511,3102512,3102513,3103811,3103812,3103813,3200111,3200112,3200113,3200311,3200312,3200313,3200411,3200412,3200413,3200711,3200712,3200713,3201211,3201212,3201213,3201611,3201612,3201613,3201711,3201712,3201713,3201911,3201912,3201913,3300111,3300112,3300113,3300411,3300412,3300413,3300711,3300712,3300713,3301011,3301012,3301013,3301811,3301812,3301813,3302011,3302012,3302013,3302111,3302112,3302113,3302811,3302812,3302813,3303211,3303212,3303213,3400111,3400112,3400113,3400411,3400412,3400413,3400611,3400612,3400613,3400711,3400712,3400713,3400811,3400812,3400813,3401011,3401012,3401013,3401311,3401312,3401313,3500111,3500112,3500113,3500211,3500212,3500213,3500811,3500812,3500813,3501711,3501712,3501713,3502411,3502412,3502413,3503111,3503112,3503113,3600211,3600212,3600213,3600611,3600612,3600613,3601111,3601112,3601113,3601114,3602511,3602512,3602513,41038001,3104111,3104112,3104113,3104011,3104012,3104013,41040001,41041001,3101411,3101412,3101413,3200511,3200512,3200513,3600811,3600812,3600813,3202011,3202012,3202013,3502111,3502112,3502113,3100311,3100312,3100313,3400511,3400512,3400513,3101111,3101112,3101113,3301411,3301412,3301413,3600411,3600412,3600413",
		"icon_id": 10026,
		"priority": 3,
		"end_at": "2020-06-30 23:59:59",
		"description": "19年3月末日までに登場したコマンドキラーズ、ゴッドキラーズ、コラボユニット、季節限定ユニット、人気投票ユニットを除くロストラグナロクユニットの姫型を変更できるチケット"
	},
	{
		"ID": 10051,
		"name": "Re:ゼロ姫型変更チケット",
		"short_name": "Re:ゼロ",
		"cost": 1,
		"max_ticket": 99,
		"ticketTypeID_UnitTypeTicketType": 3,
		"ticketTypeParam": "3602711,3602712,3602713,3503311,3503312,3503313,3503321,3503322,3503323,3202911,3202912,3202913,3202921,3202922,3202923",
		"icon_id": 10030,
		"priority": 1,
		"end_at": "2020-01-31 23:59:59",
		"description": "2018年12月末日までに登場したRe:ゼロコラボユニットの姫型を変更できるチケット"
	},
	{
		"ID": 10052,
		"name": "Re:ゼロウェディング姫型変更チケット",
		"short_name": "Re:ゼロ",
		"cost": 1,
		"max_ticket": 99,
		"ticketTypeID_UnitTypeTicketType": 3,
		"ticketTypeParam": "3602721,3602722,3602723,3503331,3503332,3503333,3202931,3202932,3202933",
		"icon_id": 10030,
		"priority": 1,
		"end_at": "2020-01-31 23:59:59",
		"description": "2019年に登場したRe:ゼロコラボユニットのウェディングver.ユニットの姫型を変更できるチケット"
	},
	{
		"ID": 10053,
		"name": "タガタメ・シノビナ姫型変更チケット",
		"short_name": "タガタメ・シノビナ",
		"cost": 1,
		"max_ticket": 99,
		"ticketTypeID_UnitTypeTicketType": 3,
		"ticketTypeParam": "103111,103112,103113,202311,202312,202313,202411,202412,202413,401611,401612,401613,601211,601212,601213,601221,601222,103211,103212,103213,302311,302312,302313,401511,401512,401513,502311,502312,502313,103311,103312,103313,601611,601612,601613,103711,103712,103713,202611,202612,202613,101914,602111,602112,602113,401521,401522,401523,302711,302712,302713,401811,401812,401813,602211,602212,602213,502911,502912,502913,103911,103912,103913,503011,503012,503013,302911,302912,302913,202711,202712,202713,101911,101912,101913,602611,602612,602613,602811,602812,602813",
		"icon_id": 10025,
		"priority": 3,
		"end_at": "2019-08-31 23:59:59",
		"description": "2019年2月末日までに登場したタガタメ、シノビナコラボユニットの姫型を変更できるチケット"
	},
	{
		"ID": 10054,
		"name": "ロストラグナロク姫型変更チケット",
		"short_name": "ロストラグナロク",
		"cost": 1,
		"max_ticket": 99,
		"ticketTypeID_UnitTypeTicketType": 3,
		"ticketTypeParam": "3400711,3400712,3400713,3500811,3500812,3500813,3101311,3101312,3101313,3300411,3300412,3300413,3401011,3401012,3401013,3500111,3500112,3500113,3201711,3201712,3201713,3300711,3300712,3300713,3201611,3201612,3201613,3103811,3103812,3103813,3600611,3600612,3600613,3200111,3200112,3200113,3400811,3400812,3400813,3100711,3100712,3100713,3200311,3200312,3200313,3502411,3502412,3502413,3400611,3400612,3400613,3600211,3600212,3600213,3302011,3302012,3302013,3301011,3301012,3301013,3400411,3400412,3400413,3201211,3201212,3201213,3302111,3302112,3302113,3100811,3100812,3100813,3100911,3100912,3100913,3200711,3200712,3200713,3303211,3303212,3303213,3600811,3600812,3600813,3200511,3200512,3200513,3202011,3202012,3202013,3100311,3100312,3100313,3502111,3502112,3502113,3101111,3101112,3101113,3400511,3400512,3400513,3301411,3301412,3301413,3600411,3600412,3600413,3100611,3100612,3100613,3300311,3300312,3300313,3500311,3500312,3500313,3200611,3200612,3200613,3502011,3502012,3502013,3301811,3301812,3301813,3201911,3201912,3201913,3102511,3102512,3102513,3300111,3300112,3300113,3102311,3102312,3102313,3501711,3501712,3501713,3401311,3401312,3401313,3500211,3500212,3500213,3200411,3200412,3200413,3100111,3100112,3100113,3100114,3601111,3601112,3601113,3601114,3400111,3400112,3400113,3104011,3104012,3104013,3104111,3104112,3104113",
		"icon_id": 10026,
		"priority": 3,
		"end_at": "2019-08-31 23:59:59",
		"description": "2019年6月30日までに登場したコマンドキラーズ、\nゴッドキラーズ、ディスラプターズ、コラボユニット、\n季節限定ユニット、人気投票ユニットと\nリル=ティルフィングを除く\nロストラグナロクユニットの姫型を変更できるチケット"
	},
	{
		"ID": 10055,
		"name": "海上編神聖プール王国姫型変更チケット",
		"short_name": "神聖プール王国",
		"cost": 1,
		"max_ticket": 99,
		"ticketTypeID_UnitTypeTicketType": 8,
		"ticketTypeParam": "7.0",
		"icon_id": 10012,
		"priority": 1,
		"end_at": "2019-10-31 23:59:59",
		"description": "神聖プール王国ユニットに使用できるチケット"
	},
	{
		"ID": 10056,
		"name": "海上編海浜ビーチ帝国姫型変更チケット",
		"short_name": "海浜ビーチ帝国",
		"cost": 1,
		"max_ticket": 99,
		"ticketTypeID_UnitTypeTicketType": 8,
		"ticketTypeParam": "8.0",
		"icon_id": 10013,
		"priority": 1,
		"end_at": "2019-10-31 23:59:59",
		"description": "海浜ビーチ帝国ユニットに使用できるチケット"
	},
	{
		"ID": 10057,
		"name": "海上編ジャングル連合姫型変更チケット",
		"short_name": "ジャングル連合",
		"cost": 1,
		"max_ticket": 99,
		"ticketTypeID_UnitTypeTicketType": 8,
		"ticketTypeParam": "9.0",
		"icon_id": 10014,
		"priority": 1,
		"end_at": "2019-10-31 23:59:59",
		"description": "ジャングル連合ユニットに使用できるチケット"
	},
	{
		"ID": 10058,
		"name": "海上編2017・2018姫型変更チケット",
		"short_name": "海上編2017・2018",
		"cost": 1,
		"max_ticket": 99,
		"ticketTypeID_UnitTypeTicketType": 3,
		"ticketTypeParam": "2201611,2102311,2500811,2300811,2500311,2600811,2400211,2100911,2400511,2200811,2300411,2202011,2100811,2302411,2100411,2400111,2101211,2500611,2500111,2300311,2102711,2401011,2300111,2200111,2601311,2101111,2200511,2301811,2200411,2501711,2100511,2400711,2600111,2201711,2302111,2501611,2102611,2102811,2500711,2300611,2200311,2101411,2200611,2101311,2600411,2600211,2500511,2301411,2600511,2302011,2101011,2502111,2400811,2201011,2400611,2102511,2100211,2301011,2601111,2201911,2200711,2401311,2500411,2600611,2300211,2100311,2300511,2200211,2400411,2502411,2100111,2100711,2601411,2301711,2201311,2201211,2400311,2502011,2600311,2300911,2100611,2300711,2201111,2500211,2502711,2302511,2103611,2401711,2103511,2202511,2602011,2302611,2101421,2200421,2400121,2300121,2100121,2100221,2500221,2201612,2102312,2500812,2300812,2500312,2600812,2400212,2100912,2400512,2200812,2300412,2202012,2100812,2302412,2100412,2400112,2101212,2500612,2500112,2300312,2102712,2401012,2300112,2200112,2601312,2101112,2200512,2301812,2200412,2501712,2100512,2400712,2600112,2201712,2302112,2501612,2102612,2102812,2500712,2300612,2200312,2101412,2200612,2101312,2600412,2600212,2500512,2301412,2600512,2302012,2101012,2502112,2400812,2201012,2400612,2102512,2100212,2301012,2601112,2201912,2200712,2401312,2500412,2600612,2300212,2100312,2300512,2200212,2400412,2502412,2100112,2100712,2601412,2301712,2201312,2201212,2400312,2502012,2600312,2300912,2100612,2300712,2201112,2500212,2502712,2302512,2103612,2401712,2103512,2202512,2602012,2302612,2101422,2200422,2400122,2300122,2100122,2100222,2500222,2201613,2102313,2500813,2300813,2500313,2600813,2400213,2100913,2400513,2200813,2300413,2202013,2100813,2302413,2100413,2400113,2101213,2500613,2500113,2300313,2102713,2401013,2300113,2200113,2601313,2101113,2200513,2301813,2200413,2501713,2100513,2400713,2600113,2201713,2302113,2501613,2102613,2102813,2500713,2300613,2200313,2101413,2200613,2101313,2600413,2600213,2500513,2301413,2600513,2302013,2101013,2502113,2400813,2201013,2400613,2102513,2100213,2301013,2601113,2201913,2200713,2401313,2500413,2600613,2300213,2100313,2300513,2200213,2400413,2502413,2100113,2100713,2601413,2301713,2201313,2201213,2400313,2502013,2600313,2300913,2100613,2300713,2201113,2500213,2502713,2302513,2103613,2401713,2103513,2202513,2602013,2302613,2101423,2200423,2400123,2300123,2100123,2100223,2500223",
		"icon_id": 10046,
		"priority": 1,
		"end_at": "2020-03-31 23:59:59",
		"description": "2017年2018年に登場したコラボユニットを除く海上編ユニットの姫型を変更できるチケット"
	},
	{
		"ID": 10059,
		"name": "海上編＆ロストラグナロク姫型変更チケット",
		"short_name": "海上＆ロスト",
		"cost": 1,
		"max_ticket": 99,
		"ticketTypeID_UnitTypeTicketType": 3,
		"ticketTypeParam": "2100111,2100112,2100113,2100121,2100122,2100123,2100211,2100212,2100213,2100221,2100222,2100223,2100311,2100312,2100313,2100411,2100412,2100413,2100511,2100512,2100513,2100611,2100612,2100613,2100711,2100712,2100713,2100811,2100812,2100813,2100911,2100912,2100913,2101011,2101012,2101013,2101111,2101112,2101113,2101211,2101212,2101213,2101311,2101312,2101313,2101411,2101412,2101413,2101421,2101422,2101423,2102311,2102312,2102313,2102511,2102512,2102513,2102611,2102612,2102613,2102711,2102712,2102713,2102811,2102812,2102813,2103511,2103512,2103513,2103611,2103612,2103613,2103811,2103812,2103813,2104211,2104212,2104213,2200111,2200112,2200113,2200211,2200212,2200213,2200311,2200312,2200313,2200411,2200412,2200413,2200421,2200422,2200423,2200511,2200512,2200513,2200611,2200612,2200613,2200711,2200712,2200713,2200811,2200812,2200813,2201011,2201012,2201013,2201111,2201112,2201113,2201211,2201212,2201213,2201311,2201312,2201313,2201611,2201612,2201613,2201711,2201712,2201713,2201911,2201912,2201913,2202011,2202012,2202013,2202511,2202512,2202513,2300111,2300112,2300113,2300121,2300122,2300123,2300211,2300212,2300213,2300311,2300312,2300313,2300411,2300412,2300413,2300511,2300512,2300513,2300611,2300612,2300613,2300711,2300712,2300713,2300811,2300812,2300813,2300911,2300912,2300913,2301011,2301012,2301013,2301411,2301412,2301413,2301711,2301712,2301713,2301811,2301812,2301813,2302011,2302012,2302013,2302111,2302112,2302113,2302411,2302412,2302413,2302511,2302512,2302513,2302611,2302612,2302613,2303211,2303212,2303213,2400111,2400112,2400113,2400121,2400122,2400123,2400211,2400212,2400213,2400311,2400312,2400313,2400411,2400412,2400413,2400511,2400512,2400513,2400611,2400612,2400613,2400711,2400712,2400713,2400811,2400812,2400813,2401011,2401012,2401013,2401311,2401312,2401313,2401711,2401712,2401713,2500111,2500112,2500113,2500211,2500212,2500213,2500221,2500222,2500223,2500311,2500312,2500313,2500411,2500412,2500413,2500511,2500512,2500513,2500611,2500612,2500613,2500711,2500712,2500713,2500811,2500812,2500813,2501611,2501612,2501613,2501711,2501712,2501713,2502011,2502012,2502013,2502111,2502112,2502113,2502411,2502412,2502413,2502711,2502712,2502713,2600111,2600112,2600113,2600211,2600212,2600213,2600311,2600312,2600313,2600411,2600412,2600413,2600511,2600512,2600513,2600611,2600612,2600613,2600811,2600812,2600813,2601111,2601112,2601113,2601311,2601312,2601313,2601411,2601412,2601413,2602011,2602012,2602013,3100111,3100112,3100113,3100114,3100311,3100312,3100313,3100511,3100512,3100513,3100611,3100612,3100613,3100711,3100712,3100713,3100811,3100812,3100813,3100911,3100912,3100913,3101111,3101112,3101113,3101311,3101312,3101313,3101411,3101412,3101413,3102311,3102312,3102313,3102511,3102512,3102513,3103811,3103812,3103813,3104011,3104012,3104013,3104111,3104112,3104113,3104211,3104212,3104213,3200111,3200112,3200113,3200211,3200212,3200213,3200311,3200312,3200313,3200411,3200412,3200413,3200511,3200512,3200513,3200611,3200612,3200613,3200711,3200712,3200713,3201211,3201212,3201213,3201611,3201612,3201613,3201711,3201712,3201713,3201911,3201912,3201913,3202011,3202012,3202013,3203011,3203012,3203013,3300111,3300112,3300113,3300311,3300312,3300313,3300411,3300412,3300413,3300711,3300712,3300713,3301011,3301012,3301013,3301411,3301412,3301413,3301811,3301812,3301813,3302011,3302012,3302013,3302111,3302112,3302113,3302411,3302412,3302413,3303211,3303212,3303213,3400111,3400112,3400113,3400411,3400412,3400413,3400511,3400512,3400513,3400611,3400612,3400613,3400711,3400712,3400713,3400811,3400812,3400813,3401011,3401012,3401013,3401311,3401312,3401313,3500111,3500112,3500113,3500211,3500212,3500213,3500311,3500312,3500313,3500711,3500712,3500713,3500811,3500812,3500813,3501711,3501712,3501713,3502011,3502012,3502013,3502111,3502112,3502113,3502411,3502412,3502413,3600211,3600212,3600213,3600411,3600412,3600413,3600511,3600512,3600513,3600611,3600612,3600613,3600811,3600812,3600813,3601111,3601112,3601113,3601114,3601311,3601312,3601313",
		"icon_id": 10050,
		"priority": 3,
		"end_at": "2019-10-31 23:59:59",
		"description": "2019年9月1日までに登場したロストラグナロク、海上編ユニットの姫型を変更できるチケット。\n※ゴッドキラーズ、コマンドキラーズ、ディスラプターズと海上編以外の季節限定ユニットを除く"
	},
	{
		"ID": 10060,
		"name": "ハロウィン姫型変更チケット",
		"short_name": "ハロウィン",
		"cost": 1,
		"max_ticket": 99,
		"ticketTypeID_UnitTypeTicketType": 5,
		"ticketTypeParam": "6.0",
		"icon_id": 10060,
		"priority": 3,
		"end_at": "2019-12-31 23:59:59",
		"description": "ハロウィンユニットに使用できるチケット"
	},
	{
		"ID": 10061,
		"name": "5周年姫型変更チケット",
		"short_name": "5周年姫型変更",
		"cost": 1,
		"max_ticket": 99,
		"ticketTypeID_UnitTypeTicketType": 3,
		"ticketTypeParam": "2103811,2103812,2103813,2303211,2303212,2303213,2104211,2104212,2104213,2100231,2100232,2100233,2302811,2302812,2302813,2602511,2602512,2602513,2503111,2503112,2503113,3100211,3100212,3100213,3302811,3302812,3302813,3602511,3602512,3602513,3503111,3503112,3503113,3503121,3503122,3503123,3601111,3601112,3601113,3601114,3301811,3301812,3301813,3300111,3300112,3300113,3500211,3500212,3500213,3201911,3201912,3201913,3102311,3102312,3102313,3401311,3401312,3401313,3200411,3200412,3200413,3100111,3100112,3100113,3100114,3102511,3102512,3102513,3501711,3501712,3501713,3400111,3400112,3400113,3101411,3101412,3101413,3104111,3104112,3104113,3104011,3104012,3104013,3104211,3104212,3104213,3401711,3401712,3401713,3502711,3502712,3502713,3103511,3103512,3103513,3202511,3202512,3202513,3302611,3302612,3302613,3302511,3302512,3302513,3602011,3602012,3602013,3400711,3400712,3400713,3500811,3500812,3500813,3101311,3101312,3101313,3300411,3300412,3300413,3401011,3401012,3401013,3500111,3500112,3500113,3201711,3201712,3201713,3300711,3300712,3300713,3201611,3201612,3201613,3103811,3103812,3103813,3600611,3600612,3600613,3200111,3200112,3200113,3400811,3400812,3400813,3100711,3100712,3100713,3200311,3200312,3200313,3502411,3502412,3502413,3400611,3400612,3400613,3600211,3600212,3600213,3302011,3302012,3302013,3301011,3301012,3301013,3400411,3400412,3400413,3201211,3201212,3201213,3302111,3302112,3302113,3100811,3100812,3100813,3100911,3100912,3100913,3200711,3200712,3200713,3303211,3303212,3303213,3600811,3600812,3600813,3200511,3200512,3200513,3202011,3202012,3202013,3100311,3100312,3100313,3502111,3502112,3502113,3101111,3101112,3101113,3400511,3400512,3400513,3301411,3301412,3301413,3600411,3600412,3600413,3100611,3100612,3100613,3300311,3300312,3300313,3500311,3500312,3500313,3200611,3200612,3200613,3502011,3502012,3502013,3600511,3600512,3600513,3100511,3100512,3100513,3601311,3601312,3601313,3200211,3200212,3200213,3500711,3500712,3500713,3302411,3302412,3302413,3400211,3400212,3400213,3201311,3201312,3201313,400631,400632,400633,100741,100742,100743,601131,601132,601133,103621,103622,103623,3401021,3401022,3401023,101451,101452,101453,600141,600142,600143,600144,302621,302622,302623,502721,502722,502723,3302821,3302822,3302823,3400821,3400822,3400823,102621,102622,102623,102721,102722,102723,3601121,3601122,3601123,3201921,3201922,3201923,100151,100152,100153,100154,200451,200452,200453,200454,102351,102352,102353,500851,500852,500853,400461,400462,400463,600641,600642,600643,400771,400772,400773,401721,401722,401723,3503131,3503132,3503133,3300121,3300122,3300123,200151,200152,200153,200154,500841,500842,500843,500844,201951,201952,201953,301411,301412,301413,103521,103522,103523,602021,602022,602023,3104071,3104072,3104073,3104171,3104172,3104173,3100121,3100122,3100123,3100721,3100722,3100723,100251,100252,100253,100254,500731,500732,500733,401331,401332,401333,300171,300172,300173,400551,400552,400553,200251,200252,200253,100841,100842,100843,302521,302522,302523,202521,202522,202523,3301821,3301822,3301823,3602521,3602522,3602523,100161,100162,100163,400151,400152,400153,101471,101472,101473,100281,100282,100283,500261,500262,500263,200471,200472,200473,300181,300182,300183,101481,101482,101483,2101421,2101422,2101423,2200421,2200422,2200423,2400121,2400122,2400123,2100121,2100122,2100123,2300121,2300122,2300123,2100221,2100222,2100223,2500221,2500222,2500223,302511,302512,302513,502711,502712,502713,103511,103512,103513,401711,401712,401713,103611,103612,103613,302611,302612,302613,602011,602012,602013,202511,202512,202513,2502711,2502712,2502713,2302511,2302512,2302513,2103611,2103612,2103613,2103511,2103512,2103513,2401711,2401712,2401713,2202511,2202512,2202513,2602011,2602012,2602013,2302611,2302612,2302613,100261,100262,100263,100264,500251,500252,500253,101461,101462,101463,300152,300153,300154,400451,400452,400453,400741,400742,400743,400744,2102511,2102512,2102513,2100211,2100212,2100213,2301011,2301012,2301013,2601111,2601112,2601113,2201911,2201912,2201913,2200711,2200712,2200713,2401311,2401312,2401313,2500411,2500412,2500413,2600611,2600612,2600613,2300211,2300212,2300213,2100311,2100312,2100313,2300511,2300512,2300513,2200211,2200212,2200213,2400411,2400412,2400413,2502411,2502412,2502413,2100111,2100112,2100113,2100711,2100712,2100713,2601411,2601412,2601413,2301711,2301712,2301713,2201311,2201312,2201313,2201211,2201212,2201213,2400311,2400312,2400313,2502011,2502012,2502013,2600311,2600312,2600313,2300911,2300912,2300913,2100611,2100612,2100613,2300711,2300712,2300713,2201111,2201112,2201113,2500211,2500212,2500213,2301811,2301812,2301813,2200411,2200412,2200413,2501711,2501712,2501713,2100511,2100512,2100513,2400711,2400712,2400713,2600111,2600112,2600113,2201711,2201712,2201713,2302111,2302112,2302113,2501611,2501612,2501613,2102611,2102612,2102613,2102811,2102812,2102813,2500711,2500712,2500713,2300611,2300612,2300613,2200311,2200312,2200313,2101411,2101412,2101413,2200611,2200612,2200613,2101311,2101312,2101313,2600411,2600412,2600413,2600211,2600212,2600213,2500511,2500512,2500513,2301411,2301412,2301413,2600511,2600512,2600513,2302011,2302012,2302013,2101011,2101012,2101013,2502111,2502112,2502113,2400811,2400812,2400813,2201011,2201012,2201013,2400611,2400612,2400613,2201611,2201612,2201613,2102311,2102312,2102313,2500811,2500812,2500813,2300811,2300812,2300813,2500311,2500312,2500313,2600811,2600812,2600813,2400211,2400212,2400213,2100911,2100912,2100913,2400511,2400512,2400513,2200811,2200812,2200813,2300411,2300412,2300413,2202011,2202012,2202013,2100811,2100812,2100813,2302411,2302412,2302413,2100411,2100412,2100413,2400111,2400112,2400113,2101211,2101212,2101213,2500611,2500612,2500613,2500111,2500112,2500113,2300311,2300312,2300313,2102711,2102712,2102713,2401011,2401012,2401013,2300111,2300112,2300113,2200111,2200112,2200113,2601311,2601312,2601313,2101111,2101112,2101113,2200511,2200512,2200513,2101421,2101422,2101423,2200421,2200422,2200423,2400121,2400122,2400123,2100121,2100122,2100123,2300121,2300122,2300123,2100221,2100222,2100223,2500221,2500222,2500223,2502711,2502712,2502713,2302511,2302512,2302513,2103611,2103612,2103613,2103511,2103512,2103513,2401711,2401712,2401713,2202511,2202512,2202513,2602011,2602012,2602013,2302611,2302612,2302613,600851,600852,600853,600854,501721,501722,501723,501724,300641,300642,300643,300644,301851,301852,301853,301854,100271,100272,100273,100274,200351,200352,200353,200354,500151,500152,500153,500154,400761,400762,400763,400764,100651,100652,100653,100654,200651,200652,200653,200654,500861,500862,500863,500864,400561,400562,400563,400564,201641,201642,201643,201644,200541,200542,200543,200544,102531,102532,102533,102534,302021,302022,302023,302024,100171,100172,100173,100174,102821,102822,102823,102824,400841,400842,400843,400844,500431,500432,500433,500434,200481,200482,200483,200484,100541,100542,100543,100544,202021,202022,202023,202024,500271,500272,500273,500274,102611,102612,102613,102614,102711,102712,102713,102714,400611,400612,400613,400614,100441,100442,100443,100444,200121,200122,200123,200124,300441,300442,300443,300444,200461,200462,200463,200464,502111,502112,502113,502114,300161,300162,300163,300164,100351,100352,100353,100354,100121,100122,100123,100124,100231,100232,100233,100234,200421,200422,200423,200424,200521,200522,200523,200524,400321,400322,400323,400324,400431,400432,400433,400434,500121,500122,500123,500124,100831,100832,100833,100834,600411,600412,600413,600414,200631,200632,200633,200634,100331,100332,100333,100334,200831,200832,200833,200834,600421,600422,600423,600424,200211,200212,200213,200214,300611,300612,300613,300614,600611,600612,600613,600614,400811,400812,400813,400814,500821,500822,500823,500824,300721,300722,300723,300724,200721,200722,200723,200724,300341,300342,300343,300344,101231,101232,101233,101234,600511,600512,600513,600514,300821,300822,300823,300824,200821,200822,200823,200824,500711,500712,500713,500714,300811,300812,300813,300814,100931,100932,100933,100934,100531,100532,100533,100534,100621,100622,100623,100624,200221,200222,200223,200224,300231,300232,300233,300234,400231,400232,400233,400234,400621,400622,400623,400624,100711,100712,100713,100714,100911,100912,100913,200431,200432,200433,100921,100922,100923,300911,300912,300913,301021,301022,301023,201311,201312,201313,300131,300132,300133,400421,400422,400423,100131,100132,100133,500811,500812,500813,300711,300712,300713,100821,100822,100823,500721,500722,500723,600431,600432,600433,300831,300832,300833,201711,201712,201713,500611,500612,500613,502011,502012,502013,201111,201112,201113,301421,301422,301423,600531,600532,600533,201221,201222,201223,201011,201012,201013,600131,600132,600133,400121,400122,400123,201621,201622,201623,501711,501712,501713,102311,102312,102313,301811,301812,301813,401311,401312,401313,102511,102512,102513,201911,201912,201913,601111,601112,601113,302011,302012,302013,100721,100722,100723,302111,302112,302113,601411,601412,601413,500241,500242,500243,202011,202012,202013,101011,101012,101013,100941,100942,100943,600521,600522,600523,600151,600152,600153,301831,301832,301833,401021,401022,401023,502411,502412,502413,400721,400722,400723,300931,300932,300933,600221,600222,600223,600224,300431,300432,300433,300434,100421,100422,100423,100424,500531,500532,500533,500534,101021,101022,101023,101024,600321,600322,600323,600324,200331,200332,200333,200334,500321,500322,500323,500324,400531,400532,400533,400534,300331,300332,300333,300334,101221,101222,101223,101224,300921,300922,300923,300924,600621,600622,600623,600624,500421,500422,500423,200111,200112,200113,400831,400832,400833,400711,400712,400713,300841,300842,300843,500131,500132,500133,200851,200852,200853,100341,100342,100343,501611,501612,501613,200531,200532,200533,300741,300742,300743,200731,200732,200733,101111,101112,101113,400331,400332,400333,600811,600812,600813,400441,400442,400443,601311,601312,601313,101311,101312,101313,301711,301712,301713,100241,100242,100243,300531,300532,300533,200641,200642,200643",
		"icon_id": 10061,
		"priority": 1,
		"end_at": "2019-12-31 23:59:59",
		"description": "2019年10月23日までに登場した\n・ロストラグナロクユニット\n・期間限定ユニット\n・季節限定ユニットの姫型を変更できるチケット。\n※ティルフィング・擬彩、アルマス・擬彩、ゴッドキラーズ、ラグナロク・神令・ユグドラシル、リサナウト・針枷・クロノス、コラボユニット、覚醒済みユニットおよび一部のイベント配布ユニットは姫型変更できません。"
	},
	{
		"ID": 10062,
		"name": "ラグナロク女学院姫型変更チケット",
		"short_name": "ラグナロク女学院",
		"cost": 1,
		"max_ticket": 99,
		"ticketTypeID_UnitTypeTicketType": 8,
		"ticketTypeParam": "3.0",
		"icon_id": 10005,
		"priority": 3,
		"end_at": "2020-06-30 23:59:59",
		"description": "ラグナロク女学院生徒ユニットに使用できるチケット"
	},
	{
		"ID": 10063,
		"name": "聖ユグドラシル姫学院姫型変更チケット",
		"short_name": "聖ユグドラシル姫学院",
		"cost": 1,
		"max_ticket": 99,
		"ticketTypeID_UnitTypeTicketType": 8,
		"ticketTypeParam": "4.0",
		"icon_id": 10006,
		"priority": 3,
		"end_at": "2020-06-30 23:59:59",
		"description": "聖ユグドラシル姫学院生徒ユニットに使用できるチケット"
	},
	{
		"ID": 10064,
		"name": "牙克城学院姫型変更チケット",
		"short_name": "牙克城学院",
		"cost": 1,
		"max_ticket": 99,
		"ticketTypeID_UnitTypeTicketType": 8,
		"ticketTypeParam": "5.0",
		"icon_id": 10007,
		"priority": 3,
		"end_at": "2020-06-30 23:59:59",
		"description": "牙克城学院生徒ユニットに使用できるチケット"
	},
	{
		"ID": 10065,
		"name": "先生姫型変更チケット",
		"short_name": "先生",
		"cost": 1,
		"max_ticket": 99,
		"ticketTypeID_UnitTypeTicketType": 8,
		"ticketTypeParam": "6.0",
		"icon_id": 10008,
		"priority": 3,
		"end_at": "2020-06-30 23:59:59",
		"description": "ファンキル学園先生ユニットに使用できるチケット"
	},
	{
		"ID": 10066,
		"name": "まどか☆マギカ姫型変更チケット",
		"short_name": "まどか☆マギカ",
		"cost": 1,
		"max_ticket": 99,
		"ticketTypeID_UnitTypeTicketType": 3,
		"ticketTypeParam": "401111,401112,401113,401114,501311,501312,501313,501314,102011,102012,102013,102014,301511,301512,301513,301514,501411,501412,501413,501414,401121,401122,401123,401124,501811,501812,501813",
		"icon_id": 10066,
		"priority": 1,
		"end_at": "2020-04-30 23:59:59",
		"description": "2016年8月までに登場したまどか☆マギカコラボユニットの姫型を変更できるチケット。"
	},
	{
		"ID": 10067,
		"name": "PSYCHO-PASS ２ユニット姫型変更チケット",
		"short_name": "PSYCHO-PASS ２",
		"cost": 1,
		"max_ticket": 99,
		"ticketTypeID_UnitTypeTicketType": 3,
		"ticketTypeParam": "501011,501012,501013,501014,501111,501112,501113,501114",
		"icon_id": 10067,
		"priority": 1,
		"end_at": "2020-02-29 23:59:59",
		"description": "PSYCHO-PASS ２コラボユニットの姫型を変更できるチケット。\n※霜月 美佳 は、姫型変更できません。"
	},
	{
		"ID": 10068,
		"name": "ロストラグナロク姫型変更チケット",
		"short_name": "ロストラグナロク",
		"cost": 1,
		"max_ticket": 99,
		"ticketTypeID_UnitTypeTicketType": 3,
		"ticketTypeParam": "3100111,3100112,3100113,3100114,3100311,3100312,3100313,3100511,3100512,3100513,3100611,3100612,3100613,3100711,3100712,3100713,3100811,3100812,3100813,3100911,3100912,3100913,3101111,3101112,3101113,3101311,3101312,3101313,3101411,3101412,3101413,3102311,3102312,3102313,3102511,3102512,3102513,3103811,3103812,3103813,3104011,3104012,3104013,3100211,3100212,3100213,3302811,3302812,3302813,3602511,3602512,3602513,3104111,3104112,3104113,3104211,3104212,3104213,3200111,3200112,3200113,3200211,3200212,3200213,3200311,3200312,3200313,3200411,3200412,3200413,3200511,3200512,3200513,3200611,3200612,3200613,3200711,3200712,3200713,3201211,3201212,3201213,3201611,3201612,3201613,3201711,3201712,3201713,3201911,3201912,3201913,3202011,3202012,3202013,3300111,3300112,3300113,3300311,3300312,3300313,3300411,3300412,3300413,3300711,3300712,3300713,3301011,3301012,3301013,3301411,3301412,3301413,3301811,3301812,3301813,3302011,3302012,3302013,3302111,3302112,3302113,3302411,3302412,3302413,3503111,3503112,3503113,3303211,3303212,3303213,3400111,3400112,3400113,3400411,3400412,3400413,3400511,3400512,3400513,3400611,3400612,3400613,3400711,3400712,3400713,3400811,3400812,3400813,3401011,3401012,3401013,3401311,3401312,3401313,3500111,3500112,3500113,3500211,3500212,3500213,3500311,3500312,3500313,3500711,3500712,3500713,3500811,3500812,3500813,3501711,3501712,3501713,3502011,3502012,3502013,3502111,3502112,3502113,3502411,3502412,3502413,3600211,3600212,3600213,3600411,3600412,3600413,3600511,3600512,3600513,3600611,3600612,3600613,3600811,3600812,3600813,3601111,3601112,3601113,3601114,3601311,3601312,3601313,3400211,3400212,3400213,3201311,3201312,3201313,2302811,2302812,2302813,2503111,2503112,2503113,2100231,2100232,2100233,2602511,2602512,2602513",
		"icon_id": 10026,
		"priority": 3,
		"end_at": "2020-12-31 23:59:59",
		"description": "2019年11月30日までに登場したコマンドキラーズ、ゴッドキラーズ、コラボユニット、海上編ディスラプターズ以外の季節限定ユニット、人気投票ユニットとリサナウトを除くロストラグナロクユニットの姫型を変更できるチケット"
	},
	{
		"ID": 10069,
		"name": "2020迎春姫型変更チケット",
		"short_name": "ロストラグナロク",
		"cost": 1,
		"max_ticket": 99,
		"ticketTypeID_UnitTypeTicketType": 3,
		"ticketTypeParam": "2103811,2103812,2103813,2303211,2303212,2303213,2104211,2104212,2104213,2100231,2100232,2100233,2302811,2302812,2302813,2602511,2602512,2602513,2503111,2503112,2503113,3100211,3100212,3100213,3302811,3302812,3302813,3602511,3602512,3602513,3503111,3503112,3503113,3503121,3503122,3503123,3601111,3601112,3601113,3301811,3301812,3301813,3300111,3300112,3300113,3500211,3500212,3500213,3201911,3201912,3201913,3102311,3102312,3102313,3401311,3401312,3401313,3200411,3200412,3200413,3100111,3100112,3100113,3102511,3102512,3102513,3501711,3501712,3501713,3400111,3400112,3400113,3101411,3101412,3101413,3104111,3104112,3104113,3104011,3104012,3104013,3104211,3104212,3104213,3401711,3401712,3401713,3502711,3502712,3502713,3103511,3103512,3103513,3202511,3202512,3202513,3302611,3302612,3302613,3302511,3302512,3302513,3602011,3602012,3602013,3400711,3400712,3400713,3500811,3500812,3500813,3101311,3101312,3101313,3300411,3300412,3300413,3401011,3401012,3401013,3500111,3500112,3500113,3201711,3201712,3201713,3300711,3300712,3300713,3201611,3201612,3201613,3103811,3103812,3103813,3600611,3600612,3600613,3200111,3200112,3200113,3400811,3400812,3400813,3100711,3100712,3100713,3200311,3200312,3200313,3502411,3502412,3502413,3400611,3400612,3400613,3600211,3600212,3600213,3302011,3302012,3302013,3301011,3301012,3301013,3400411,3400412,3400413,3201211,3201212,3201213,3302111,3302112,3302113,3100811,3100812,3100813,3100911,3100912,3100913,3200711,3200712,3200713,3303211,3303212,3303213,3600811,3600812,3600813,3200511,3200512,3200513,3202011,3202012,3202013,3100311,3100312,3100313,3502111,3502112,3502113,3101111,3101112,3101113,3400511,3400512,3400513,3301411,3301412,3301413,3600411,3600412,3600413,3100611,3100612,3100613,3300311,3300312,3300313,3500311,3500312,3500313,3200611,3200612,3200613,3502011,3502012,3502013,3600511,3600512,3600513,3100511,3100512,3100513,3601311,3601312,3601313,3200211,3200212,3200213,3500711,3500712,3500713,3302411,3302412,3302413,3400211,3400212,3400213,3201311,3201312,3201313,3200811,3200812,3200813,4006314006324006331007411007421007436011316011326011331036211036221036233401021,3401022,3401023,1014511014521014533026213026223026235027215027225027233302821,3302822,3302823,3400821,3400822,3400823,1026211026221026231027211027221027233601121,3601122,3601123,3201921,3201922,3201923,1001521001531001542004522004532004541023511023521023535008515008525008534004614004624004636006416006426006434007714007724007734017214017224017233503131,3503132,3503133,3300121,3300122,3300123,2019512019522019533014113014123014131035211035221035236020216020226020233104071,3104072,3104073,3104171,3104172,3104173,3100121,3100122,3100123,3100721,3100722,3100723,5007315007325007334013314013324013333001713001723001734005514005524005532002512002522002531008411008421008433025213025223025232025212025222025233301821,3301822,3301823,3602521,3602522,3602523,3501721,3501722,3501723,1001611001621001634001514001524001531014711014721014731002811002821002835002615002625002632004712004722004733001813001823001831014811014821014832101421,2101422,2101423,2200421,2200422,2200423,2400121,2400122,2400123,2100121,2100122,2100123,2300121,2300122,2300123,2100221,2100222,2100223,2500221,2500222,2500223,3025113025123025135027115027125027131035111035121035134017114017124017131036111036121036133026113026123026136020116020126020132025112025122025132502711,2502712,2502713,2302511,2302512,2302513,2103611,2103612,2103613,2103511,2103512,2103513,2401711,2401712,2401713,2202511,2202512,2202513,2602011,2602012,2602013,2302611,2302612,2302613,1002621002631002641014611014621014633001523001533001544001424001434001444004514004524004534007424007434007442102511,2102512,2102513,2100211,2100212,2100213,2301011,2301012,2301013,2601111,2601112,2601113,2201911,2201912,2201913,2200711,2200712,2200713,2401311,2401312,2401313,2500411,2500412,2500413,2600611,2600612,2600613,2300211,2300212,2300213,2100311,2100312,2100313,2300511,2300512,2300513,2200211,2200212,2200213,2400411,2400412,2400413,2502411,2502412,2502413,2100111,2100112,2100113,2100711,2100712,2100713,2601411,2601412,2601413,2301711,2301712,2301713,2201311,2201312,2201313,2201211,2201212,2201213,2400311,2400312,2400313,2502011,2502012,2502013,2600311,2600312,2600313,2300911,2300912,2300913,2100611,2100612,2100613,2300711,2300712,2300713,2201111,2201112,2201113,2500211,2500212,2500213,2301811,2301812,2301813,2200411,2200412,2200413,2501711,2501712,2501713,2100511,2100512,2100513,2400711,2400712,2400713,2600111,2600112,2600113,2201711,2201712,2201713,2302111,2302112,2302113,2501611,2501612,2501613,2102611,2102612,2102613,2102811,2102812,2102813,2500711,2500712,2500713,2300611,2300612,2300613,2200311,2200312,2200313,2101411,2101412,2101413,2200611,2200612,2200613,2101311,2101312,2101313,2600411,2600412,2600413,2600211,2600212,2600213,2500511,2500512,2500513,2301411,2301412,2301413,2600511,2600512,2600513,2302011,2302012,2302013,2101011,2101012,2101013,2502111,2502112,2502113,2400811,2400812,2400813,2201011,2201012,2201013,2400611,2400612,2400613,2201611,2201612,2201613,2102311,2102312,2102313,2500811,2500812,2500813,2300811,2300812,2300813,2500311,2500312,2500313,2600811,2600812,2600813,2400211,2400212,2400213,2100911,2100912,2100913,2400511,2400512,2400513,2200811,2200812,2200813,2300411,2300412,2300413,2202011,2202012,2202013,2100811,2100812,2100813,2302411,2302412,2302413,2100411,2100412,2100413,2400111,2400112,2400113,2101211,2101212,2101213,2500611,2500612,2500613,2500111,2500112,2500113,2300311,2300312,2300313,2102711,2102712,2102713,2401011,2401012,2401013,2300111,2300112,2300113,2200111,2200112,2200113,2601311,2601312,2601313,2101111,2101112,2101113,2200511,2200512,2200513,2101421,2101422,2101423,2200421,2200422,2200423,2400121,2400122,2400123,2100121,2100122,2100123,2300121,2300122,2300123,2100221,2100222,2100223,2500221,2500222,2500223,2502711,2502712,2502713,2302511,2302512,2302513,2103611,2103612,2103613,2103511,2103512,2103513,2401711,2401712,2401713,2202511,2202512,2202513,2602011,2602012,2602013,2302611,2302612,2302613",
		"icon_id": 10033,
		"priority": 100,
		"end_at": "2020-03-31 23:59:59",
		"description": "2019年12月31日までに登場した\n・ロストラグナロクユニット\n・期間限定ユニット\n・季節限定ユニットの姫型を変更できるチケット。\n※インテグラルキラーズ、イミテイトキラーズ、ゴッドキラーズ海上編ver.、ラグナロク・神令・ユグドラシル、リサナウト・針枷・クロノス、リサナウト・針枷・クロノス クリスマスver.、コラボユニットおよび一部のイベント配布ユニットは姫型変更できません。"
	},
	{
		"ID": 10070,
		"name": "2019年以前賀正ユニット姫型変更チケット",
		"short_name": "2019年以前賀正ユニット",
		"cost": 1,
		"max_ticket": 99,
		"ticketTypeID_UnitTypeTicketType": 3,
		"ticketTypeParam": "601131,601132,601133,100741,100742,100743,400631,400632,400633,103621,103622,103623,3401021,3401022,3401023",
		"icon_id": 10070,
		"priority": 100,
		"end_at": "2020-03-31 23:59:59",
		"description": "2019年12月31日までに登場した賀正ユニットの姫型を変更できるチケット"
	},
	{
		"ID": 10071,
		"name": "あの花ユニット姫型変更チケット",
		"short_name": "あの花",
		"cost": 1,
		"max_ticket": 99,
		"ticketTypeID_UnitTypeTicketType": 3,
		"ticketTypeParam": "102111,102112,102113,102114,201411,201412,201413,201414,301611,301612,301613,301614",
		"icon_id": 10071,
		"priority": 1,
		"end_at": "2020-03-31 23:59:59",
		"description": "あの花コラボユニットの姫型を変更できるチケット。\n※イベント配布ユニット は、姫型変更できません。"
	}
]