[
	{
		"ID": 0,
		"name": "歩兵",
		"is_disp": 1,
		"flavor": "自らの足で地を移動するユニット。均衡の取れた能力を持つ。"
	},
	{
		"ID": 1,
		"name": "獣",
		"is_disp": 1,
		"flavor": "馬に騎乗したユニット。移動力は高いが、整備されていない地形では、移動コストがかかる。"
	},
	{
		"ID": 2,
		"name": "飛行",
		"is_disp": 1,
		"flavor": "空を舞うユニット。移動力が高く、移動コストも低い反面、弓からは特効でダメージを受ける。"
	},
	{
		"ID": 3,
		"name": "鎧",
		"is_disp": 1,
		"flavor": "鎧をまとったユニット。防御力は高いが、移動力は低い。"
	},
	{
		"ID": 4,
		"name": "竜",
		"is_disp": 1,
		"flavor": "竜に騎乗したユニット。移動力が高く、移動コストも低い反面、弓からは特効でダメージを受ける。"
	},
	{
		"ID": 5,
		"name": "屍",
		"is_disp": 1,
		"flavor": "アンデッドのユニット。"
	},
	{
		"ID": 6,
		"name": "イミテーション1",
		"is_disp": 0,
		"flavor": ""
	},
	{
		"ID": 7,
		"name": "イミテーション2",
		"is_disp": 0,
		"flavor": ""
	},
	{
		"ID": 8,
		"name": "イミテーション3",
		"is_disp": 0,
		"flavor": ""
	},
	{
		"ID": 9,
		"name": "イミテーション4",
		"is_disp": 0,
		"flavor": ""
	},
	{
		"ID": 10,
		"name": "イミテーション5",
		"is_disp": 0,
		"flavor": ""
	},
	{
		"ID": 11,
		"name": "イミテーション6",
		"is_disp": 0,
		"flavor": ""
	},
	{
		"ID": 12,
		"name": "イミテーション7",
		"is_disp": 0,
		"flavor": ""
	},
	{
		"ID": 13,
		"name": "イミテーション8",
		"is_disp": 0,
		"flavor": ""
	},
	{
		"ID": 14,
		"name": "イミテーション9",
		"is_disp": 0,
		"flavor": ""
	},
	{
		"ID": 15,
		"name": "イミテーション10",
		"is_disp": 0,
		"flavor": ""
	},
	{
		"ID": 16,
		"name": "天使",
		"is_disp": 0,
		"flavor": ""
	},
	{
		"ID": 17,
		"name": "悪魔",
		"is_disp": 0,
		"flavor": ""
	},
	{
		"ID": 18,
		"name": "幻獣",
		"is_disp": 0,
		"flavor": ""
	},
	{
		"ID": 19,
		"name": "妖精",
		"is_disp": 0,
		"flavor": ""
	},
	{
		"ID": 20,
		"name": "キル姫",
		"is_disp": 0,
		"flavor": ""
	},
	{
		"ID": 21,
		"name": "機械獣",
		"is_disp": 1,
		"flavor": "機械の獣に騎乗したユニット。移動力が高いが、整備されていない地形では、移動コストがかかる。"
	},
	{
		"ID": 22,
		"name": "機械飛行",
		"is_disp": 1,
		"flavor": "飛行する機械に騎乗したユニット。移動力が高く、移動コストも低い。弓ユニットなどが持つ飛行特効には含まれない。"
	},
	{
		"ID": 23,
		"name": "機械竜",
		"is_disp": 1,
		"flavor": "飛行する機械の竜に騎乗したユニット。移動力が高く、移動コストも低い。竜特効の対象には含まれない。"
	},
	{
		"ID": 24,
		"name": "機械歩兵",
		"is_disp": 1,
		"flavor": "自らの足で移動する機械のユニット。"
	},
	{
		"ID": 32,
		"name": "浮遊",
		"is_disp": 1,
		"flavor": "浮遊して移動するユニット。弓ユニットなどが持つ飛行特効の対象には含まれない。"
	},
	{
		"ID": 33,
		"name": "神",
		"is_disp": 0,
		"flavor": ""
	},
	{
		"ID": 34,
		"name": "リゼロエネミー",
		"is_disp": 0,
		"flavor": ""
	},
	{
		"ID": 35,
		"name": "神令",
		"is_disp": 0,
		"flavor": ""
	},
	{
		"ID": 36,
		"name": "過剰編",
		"is_disp": 0,
		"flavor": ""
	},
	{
		"ID": 37,
		"name": "このすばエネミー",
		"is_disp": 0,
		"flavor": ""
	},
	{
		"ID": 38,
		"name": "まどか☆マギカエネミー",
		"is_disp": 0,
		"flavor": ""
	},
	{
		"ID": 39,
		"name": "魔獣",
		"is_disp": 0,
		"flavor": ""
	},
	{
		"ID": 40,
		"name": "死霊",
		"is_disp": 0,
		"flavor": ""
	},
	{
		"ID": 41,
		"name": "あの花エネミー",
		"is_disp": 0,
		"flavor": ""
	}
]