[
	{
		"ID": 1,
		"unit": 3103811,
		"job_metamor_id": 410,
		"face_x": 438,
		"face_y": 632,
		"story_texture_scale": 0.9300000071525574,
		"story_texture_x": 12,
		"story_texture_y": 55
	},
	{
		"ID": 2,
		"unit": 3103811,
		"job_metamor_id": 523,
		"face_x": 398,
		"face_y": 624,
		"story_texture_scale": 0.9300000071525574,
		"story_texture_x": 7,
		"story_texture_y": 56
	},
	{
		"ID": 3,
		"unit": 101914,
		"job_metamor_id": 549,
		"face_x": 400,
		"face_y": 610,
		"story_texture_scale": 0.8399999737739563,
		"story_texture_x": 10,
		"story_texture_y": 22
	},
	{
		"ID": 4,
		"unit": 5101431,
		"job_metamor_id": 40002,
		"face_x": 438,
		"face_y": 632,
		"story_texture_scale": 0.9300000071525574,
		"story_texture_x": 12,
		"story_texture_y": 55
	},
	{
		"ID": 5,
		"unit": 5103831,
		"job_metamor_id": 40001,
		"face_x": 438,
		"face_y": 632,
		"story_texture_scale": 0.9300000071525574,
		"story_texture_x": 12,
		"story_texture_y": 55
	},
	{
		"ID": 6,
		"unit": 101493,
		"job_metamor_id": 807,
		"face_x": 382,
		"face_y": 618,
		"story_texture_scale": 0.9300000071525574,
		"story_texture_x": 1,
		"story_texture_y": 54
	},
	{
		"ID": 7,
		"unit": 5500231,
		"job_metamor_id": 40003,
		"face_x": 384,
		"face_y": 608,
		"story_texture_scale": 0.9100000262260437,
		"story_texture_x": 0,
		"story_texture_y": 47
	},
	{
		"ID": 8,
		"unit": 5400131,
		"job_metamor_id": 40004,
		"face_x": 412,
		"face_y": 626,
		"story_texture_scale": 0.9399999976158142,
		"story_texture_x": -4,
		"story_texture_y": 31
	},
	{
		"ID": 9,
		"unit": 5300131,
		"job_metamor_id": 40005,
		"face_x": 396,
		"face_y": 562,
		"story_texture_scale": 0.8299999833106995,
		"story_texture_x": 2,
		"story_texture_y": 62
	},
	{
		"ID": 10,
		"unit": 5100131,
		"job_metamor_id": 40006,
		"face_x": 428,
		"face_y": 614,
		"story_texture_scale": 0.8799999952316284,
		"story_texture_x": 27,
		"story_texture_y": 46
	},
	{
		"ID": 11,
		"unit": 5200431,
		"job_metamor_id": 40007,
		"face_x": 402,
		"face_y": 600,
		"story_texture_scale": 0.8999999761581421,
		"story_texture_x": -7,
		"story_texture_y": 68
	},
	{
		"ID": 12,
		"unit": 5100231,
		"job_metamor_id": 40008,
		"face_x": 354,
		"face_y": 606,
		"story_texture_scale": 0.9800000190734863,
		"story_texture_x": -33,
		"story_texture_y": 48
	},
	{
		"ID": 13,
		"unit": 603011,
		"job_metamor_id": 40009,
		"face_x": 400,
		"face_y": 634,
		"story_texture_scale": 0.8799999952316284,
		"story_texture_x": -6,
		"story_texture_y": 117
	}
]